docsrc project.0 10109
docsrc hand.0 9233
docsrc big.0 2197
docsrc shot.0 8181
docsrc small.0 8086
docsrc white.0 16511
docsrc live.0 315
docsrc color.0 4415
docsrc life.0 315
docsrc dark.0 2384
docsrc air.0 621
docsrc process.0 9241
docsrc day.0 5691
docsrc support.0 1679
docsrc like.0 10610
docsrc check.0 3811
docsrc rich.0 70
docsrc take.0 123
docsrc think.0 201
docsrc minor.0 11190
docsrc move.0 11388
docsrc right.0 918
docsrc know.0 10289
docsrc right.1 918
docsrc start.0 2056
docsrc down.0 2118
docsrc floor.0 8317
docsrc set.0 1885
docsrc light.0 1805
docsrc level.0 10525
docsrc carry.0 3448
docsrc make.0 1084
docsrc real.0 13332
docsrc turn.0 4005
docsrc major.0 4848
docsrc school.0 14152
docsrc easy.0 3509
docsrc long.0 2198
docsrc say.0 5039
docsrc smoke.0 14786
docsrc use.0 1085
docsrc good.0 8168
docsrc top.0 12312
docsrc go.0 3222
docsrc report.0 9876
docsrc get.0 8875
docsrc die.0 5697
docsrc part.0 12184
docsrc time.0 12373
docsrc little.0 8086
docsrc go.1 3222
docsrc close.0 1832
docsrc continue.0 4937
docsrc little.1 8086
docsrc go.2 3222
docsrc move.1 11388
docsrc center.0 3588
docsrc second.0 14227
docsrc issue.0 10102
docsrc under.0 2118
docsrc like.1 10610
docsrc help.0 -1
docsrc get.1 8875
docsrc head.0 1381
docsrc see.0 11740
docsrc action.0 298
docsrc fresh.0 8613
docsrc come.0 1307
docsrc mind.0 11173
docsrc home.0 7826
docsrc name.0 9355
docsrc bounce.0 2620
docsrc way.0 9975
docsrc right.2 918
docsrc even.0 7333
docsrc full.0 75
docsrc trip.0 8446
docsrc book.0 2530
docsrc little.2 8086
docsrc cross.0 5400
docsrc transfer.0 15974
docsrc away.0 1615
docsrc like.2 10610
docsrc late.0 -1
docsrc king.0 10259
docsrc around.0 1240
docsrc way.1 9975
docsrc drop.0 5777
docsrc play.0 822
docsrc blue.0 2443
docsrc first.0 8211
docsrc answer.0 907
docsrc real.1 13332
docsrc show.0 5938
docsrc first.1 8211
docsrc name.1 9355
docsrc house.0 9600
docsrc control.0 4473
docsrc still.0 15204
docsrc play.1 822
docsrc away.1 1615
docsrc use.1 1085
docsrc get.2 8875
docsrc like.3 10610
docsrc even.1 7333
docsrc return.0 13713
docsrc way.2 9975
docsrc home.1 7826
docsrc flag.0 1777
docsrc question.0 12988
docsrc contract.0 585
docsrc time.1 12373
docsrc go.3 3222
docsrc ball.0 1734
docsrc high.0 7579
docsrc square.0 15051
docsrc life.1 315
docsrc finish.0 4614
docsrc border.0 2552
docsrc real.2 13332
docsrc know.1 10289
docsrc spring.0 15037
docsrc capital.0 3316
docsrc set.1 1885
docsrc patch.0 12243
docsrc shake.0 4003
docsrc king.1 10259
docsrc light.1 1805
docsrc inside.0 9913
docsrc carry.1 3448
docsrc king.2 10259
docsrc real.3 13332
docsrc trip.1 8446
docsrc stage.0 10529
docsrc like.4 10610
docsrc condition.0 4720
docsrc around.1 1240
docsrc state.0 13089
docsrc deal.0 585
docsrc house.1 9600
docsrc give.0 401
docsrc character.0 3703
docsrc good.1 8168
docsrc around.2 1240
docsrc change.0 762
docsrc use.2 1085
docsrc tone.0 11637
docsrc set.2 1885
docsrc real.4 13332
docsrc hole.0 9502
docsrc way.3 9975
docsrc chain.0 3628
docsrc view.0 16262
docsrc way.4 9975
docsrc center.1 3588
docsrc border.1 2552
docsrc number.0 3196
docsrc question.1 12988
docsrc offer.0 8732
docsrc get.3 8875
docsrc live.1 315
docsrc cup.0 5479
docsrc position.0 10701
docsrc back.0 -1
docsrc character.1 3703
docsrc home.2 7826
docsrc long.1 2198
docsrc feel.0 8034
docsrc king.3 10259
docsrc large.0 2197
docsrc take.1 123
docsrc begin.0 2056
docsrc well.0 8168
docsrc think.1 201
docsrc low.0 2143
docsrc away.2 1615
docsrc book.1 2530
docsrc top.1 12312
docsrc head.1 1381
docsrc set.3 1885
docsrc name.2 9355
docsrc even.2 7333
docsrc flag.1 1777
docsrc view.1 16262
docsrc second.1 14227
docsrc attack.0 1497
docsrc number.1 3196
docsrc take.2 123
docsrc end.0 4708
docsrc job.0 10145
docsrc top.2 12312
docsrc round.0 13928
docsrc say.1 5039
docsrc large.1 2197
docsrc white.1 16511
docsrc better.0 2174
docsrc point.0 1377
docsrc program.0 11981
docsrc bright.0 2806
docsrc turn.1 4005
docsrc company.0 4556
docsrc go.4 3222
docsrc book.2 2530
docsrc think.2 201
docsrc still.1 15204
docsrc look.0 3211
docsrc light.2 1805
docsrc small.1 8086
docsrc firm.0 4556
docsrc just.0 3102
docsrc make.1 1084
docsrc round.1 13928
docsrc know.2 10289
docsrc spring.1 15037
docsrc correct.0 5137
docsrc build.0 2959
docsrc first.2 8211
docsrc counter.0 5211
docsrc real.5 13332
docsrc heavy.0 531
docsrc character.2 3703
docsrc front.0 2039
docsrc far.0 1615
docsrc match.0 190
docsrc love.0 503
docsrc new.0 8614
docsrc common.0 4511
docsrc just.1 3102
docsrc move.2 11388
docsrc mature.0 10992
docsrc end.1 4708
docsrc corner.0 318
docsrc day.1 5691
docsrc real.6 13332
docsrc game.0 8763
docsrc part.1 12184
docsrc play.2 822
docsrc find.0 1128
docsrc deal.1 585
docsrc time.2 12373
docsrc dead.0 5697
docsrc relief.0 -1
docsrc short.0 2795
docsrc still.2 15204
docsrc play.3 822
docsrc better.1 2174
docsrc job.1 10145
docsrc front.1 2039
docsrc see.1 11740
docsrc pick.0 3949
docsrc line.0 2640
docsrc deal.2 585
docsrc sound.0 14902
docsrc brand.0 2695
docsrc play.4 822
docsrc use.3 1085
docsrc book.3 2530
docsrc test.0 7399
docsrc game.1 8763
docsrc drop.1 5777
docsrc still.3 15204
docsrc well.1 8168
docsrc think.3 201
docsrc book.4 2530
docsrc leave.0 5963
docsrc stop.0 3558
docsrc spring.2 15037
docsrc just.2 3102
docsrc strong.0 10349
docsrc case.0 3471
docsrc home.3 7826
docsrc bad.0 1693
docsrc start.1 2056
docsrc save.0 4824
docsrc view.2 16262
docsrc space.0 13894
docsrc right.3 918
docsrc case.1 3471
docsrc real.7 13332
docsrc model.0 8523
docsrc like.5 10610
docsrc know.3 10289
docsrc record.0 3203
docsrc bring.0 2878
docsrc keep.0 9493
docsrc second.2 14227
docsrc but.0 3093
docsrc put.0 6336
docsrc capital.1 3316
docsrc king.4 10259
docsrc see.2 11740
docsrc see.3 11740
docsrc under.1 2118
docsrc thing.0 486
docsrc still.4 15204
docsrc deal.3 585
docsrc see.4 11740
docsrc sit.0 13162
docsrc house.2 9600
docsrc way.5 9975
docsrc bid.0 2195
docsrc case.2 3471
docsrc turn.2 4005
docsrc change.1 762
docsrc good.2 8168
docsrc know.4 10289
docsrc sign.0 9832
docsrc long.2 2198
docsrc edge.0 6944
docsrc like.6 10610
docsrc double.0 2596
docsrc key.0 2522
docsrc life.2 315
docsrc down.1 2118
docsrc single.0 726
docsrc still.5 15204
docsrc back.1 -1
docsrc time.3 12373
docsrc cup.1 5479
docsrc still.6 15204
docsrc way.6 9975
docsrc get.4 8875
docsrc attack.1 1497
docsrc stand.0 9219
docsrc use.4 1085
docsrc shot.1 8181
docsrc space.1 13894
docsrc even.3 7333
docsrc try.0 1514
docsrc fresh.1 8613
docsrc major.1 4848
docsrc stop.1 3558
docsrc well.2 8168
docsrc like.7 10610
docsrc part.2 12184
docsrc day.2 5691
docsrc book.5 2530
docsrc free.0 8592
docsrc way.7 9975
docsrc line.1 2640
docsrc cat.0 3512
docsrc point.1 1377
docsrc dress.0 6688
docsrc blue.1 2443
docsrc first.3 8211
docsrc go.5 3222
docsrc good.3 8168
docsrc short.1 2795
docsrc record.1 3203
docsrc first.4 8211
docsrc kill.0 8114
docsrc call.0 3204
docsrc down.2 2118
docsrc around.3 1240
docsrc voice.0 16309
docsrc print.0 12962
docsrc like.8 10610
docsrc big.1 2197
docsrc stay.0 130
docsrc account.0 193
docsrc back.2 -1
docsrc trip.2 8446
docsrc edge.1 6944
docsrc stream.0 2354
docsrc release.0 6472
docsrc form.0 8506
docsrc place.0 10700
docsrc like.9 10610
docsrc picture.0 9736
docsrc place.1 10700
docsrc dig.0 6226
docsrc thin.0 10444
docsrc but.1 3093
docsrc small.2 8086
docsrc take.3 123
docsrc walk.0 8433
docsrc think.4 201
docsrc book.6 2530
docsrc picture.1 9736
docsrc black.0 2287
docsrc time.4 12373
docsrc sit.1 13162
docsrc thing.1 486
docsrc make.2 1084
docsrc date.0 5666
docsrc narrow.0 10634
docsrc stop.2 3558
docsrc try.1 1514
docsrc even.4 7333
docsrc tough.0 15332
docsrc continue.1 4937
docsrc support.1 1679
docsrc inside.1 9913
docsrc new.1 8614
docsrc record.2 3203
docsrc thing.2 486
docsrc high.1 7579
docsrc better.2 2174
docsrc put.1 6336
docsrc time.5 12373
docsrc use.5 1085
docsrc head.2 1381
docsrc sure.0 11517
docsrc big.2 2197
docsrc show.1 5938
docsrc down.3 2118
docsrc light.3 1805
docsrc house.3 9600
docsrc try.2 1514
docsrc control.1 4473
docsrc home.4 7826
docsrc bank.0 1764
docsrc line.2 2640
docsrc game.2 8763
docsrc top.3 12312
docsrc down.4 2118
docsrc try.3 1514
docsrc new.2 8614
docsrc finish.1 4614
docsrc life.3 315
docsrc sit.2 13162
docsrc life.4 315
docsrc right.4 918
docsrc head.3 1381
docsrc drink.0 6721
docsrc like.10 10610
docsrc hand.1 9233
docsrc go.6 3222
docsrc thing.3 486
docsrc book.7 2530
docsrc make.3 1084
docsrc stop.3 3558
docsrc stay.1 130
docsrc like.11 10610
docsrc book.8 2530
docsrc left.0 13529
docsrc life.5 315
docsrc home.5 7826
docsrc spot.0 1377
docsrc take.4 123
docsrc work.0 10145
docsrc special.0 7294
docsrc state.1 13089
docsrc view.3 16262
docsrc first.5 8211
docsrc stand.1 9219
docsrc tap.0 15588
docsrc like.12 10610
docsrc little.3 8086
docsrc stroke.0 13935
docsrc small.3 8086
docsrc good.4 8168
docsrc glass.0 8910
docsrc back.3 -1
docsrc game.3 8763
docsrc average.0 1598
docsrc even.5 7333
docsrc living.0 10677
docsrc continue.2 4937
docsrc see.5 11740
docsrc real.8 13332
docsrc hand.2 9233
docsrc left.1 13529
docsrc head.4 1381
docsrc like.13 10610
docsrc even.6 7333
docsrc sure.1 11517
docsrc black.1 2287
docsrc time.6 12373
docsrc hand.3 9233
docsrc little.4 8086
docsrc power.0 12817
docsrc see.6 11740
docsrc part.3 12184
docsrc pitch.0 12531
docsrc small.4 8086
docsrc help.1 -1
docsrc sure.2 11517
docsrc think.5 201
docsrc run.0 8279
docsrc play.5 822
docsrc suffer.0 11225
docsrc put.2 6336
docsrc thing.4 486
docsrc first.6 8211
docsrc thing.5 486
docsrc feed.0 8023
docsrc drink.1 6721
docsrc glow.0 8924
docsrc come.1 1307
docsrc stay.2 130
docsrc little.5 8086
docsrc center.2 3588
docsrc go.7 3222
docsrc single.1 726
docsrc top.4 12312
docsrc keep.1 9493
docsrc left.2 13529
docsrc line.3 2640
docsrc natural.0 11515
docsrc direct.0 6272
docsrc bring.1 2878
docsrc top.5 12312
docsrc well.3 8168
docsrc place.2 10700
docsrc break.0 2721
docsrc control.2 4473
docsrc key.1 2522
docsrc man.0 414
docsrc stop.4 3558
docsrc still.7 15204
docsrc just.3 3102
docsrc play.6 822
docsrc offer.1 8732
docsrc like.14 10610
docsrc like.15 10610
docsrc work.1 10145
docsrc start.2 2056
docsrc use.6 1085
docsrc life.6 315
docsrc rise.0 13818
docsrc second.3 14227
docsrc cool.0 4340
docsrc game.4 8763
docsrc sit.3 13162
docsrc position.1 10701
docsrc check.1 3811
docsrc way.8 9975
docsrc long.3 2198
docsrc time.7 12373
docsrc bed.0 2024
docsrc lead.0 10407
docsrc think.6 201
docsrc first.7 8211
docsrc know.5 10289
docsrc help.2 -1
docsrc move.3 11388
docsrc real.9 13332
docsrc living.1 10677
docsrc day.3 5691
docsrc go.8 3222
docsrc train.0 5475
docsrc look.1 3211
docsrc bring.2 2878
docsrc visit.0 139
docsrc space.2 13894
docsrc program.1 11981
docsrc like.16 10610
docsrc minor.1 11190
docsrc go.9 3222
docsrc hard.0 8204
docsrc stop.5 3558
docsrc left.3 13529
docsrc love.1 503
docsrc common.1 4511
docsrc set.4 1885
docsrc strong.1 10349
docsrc love.2 503
docsrc late.1 -1
docsrc good.5 8168
docsrc even.7 7333
docsrc free.1 8592
docsrc long.4 2198
docsrc straight.0 15258
docsrc state.2 13089
docsrc book.9 2530
docsrc white.2 16511
docsrc body.0 2479
docsrc first.8 8211
docsrc first.9 8211
docsrc know.6 10289
docsrc first.10 8211
docsrc little.6 8086
docsrc large.2 2197
docsrc like.17 10610
docsrc put.3 6336
docsrc see.7 11740
docsrc piece.0 6401
docsrc little.7 8086
docsrc feel.1 8034
docsrc write.0 4645
docsrc come.2 1307
docsrc even.8 7333
docsrc lose.0 10770
docsrc quiet.0 3233
docsrc level.1 10525
docsrc view.4 16262
docsrc state.3 13089
docsrc way.9 9975
docsrc bond.0 2522
docsrc even.9 7333
docsrc know.7 10289
docsrc top.6 12312
docsrc come.3 1307
docsrc take.5 123
docsrc part.4 12184
docsrc border.2 2552
docsrc under.2 2118
docsrc figure.0 6238
docsrc go.10 3222
docsrc west.0 16458
docsrc slip.0 14743
docsrc put.4 6336
docsrc life.7 315
docsrc head.5 1381
docsrc long.5 2198
docsrc book.10 2530
docsrc drop.2 5777
docsrc end.2 4708
docsrc go.11 3222
docsrc pay.0 12269
docsrc around.4 1240
docsrc short.2 2795
docsrc power.1 12817
docsrc hit.0 9486
docsrc go.12 3222
docsrc second.4 14227
docsrc case.3 3471
docsrc white.3 16511
docsrc use.7 1085
docsrc visit.1 139
docsrc new.3 8614
docsrc forward.0 8549
docsrc trip.3 8446
docsrc look.2 3211
docsrc down.5 2118
docsrc set.5 1885
docsrc day.4 5691
docsrc inside.2 9913
docsrc back.4 -1
docsrc walk.1 8433
docsrc large.3 2197
docsrc slide.0 14742
docsrc study.0 4832
docsrc bit.0 8121
docsrc play.7 822
docsrc feel.2 8034
docsrc point.2 1377
docsrc leave.1 5963
docsrc late.2 -1
docsrc around.5 1240
docsrc match.1 190
docsrc fly.0 8344
docsrc back.5 -1
docsrc go.13 3222
docsrc introduce.0 10044
docsrc back.6 -1
docsrc stand.2 9219
docsrc leave.2 5963
docsrc surface.0 1028
docsrc king.5 10259
docsrc even.10 7333
docsrc piece.1 6401
docsrc back.7 -1
docsrc practice.0 8687
docsrc back.8 -1
docsrc defense.0 5827
docsrc port.0 12743
docsrc way.10 9975
docsrc last.0 4939
docsrc even.11 7333
docsrc know.8 10289
docsrc start.3 2056
docsrc continue.3 4937
docsrc under.3 2118
docsrc pocket.0 12644
docsrc front.2 2039
docsrc book.11 2530
docsrc new.4 8614
docsrc last.1 4939
