0. even,,,,,,Itwas#even::,
"It was the most downloaded movie from Apple last year, and kids everywhere are still singing the movie's anthem, 
""Let It Go.""  Heck, it's now probably stuck in your own head right now, even if you have never seen the film. 
So why has the 2013 movie stuck around for so long for the under-5 set?",匀,双日,偶数,双数,匀实,瀡,齐刷刷
,,,,,,,
,相等,犹,连 ... 也,甚至,甚而,匀净,均
,,,,,,,
,双,齐截,甚或,连,即使,偶,变平
,,,,,,,
,甚至于,就是,,,,,
,,,,,,,
,即使,,,,,,
,,,,,,,
,,,,,,,
,,,,,,,
,,,,,,,
,,,,,,,
,,,,,,,
,,,,,,,
,,,,,,,
1. bond,,,,,,Highlightingthat#bond::,
"Highlighting that and making it feel important -- your sister, your brother, your mom and dad -- is something little kids can really identify with. 
 Maryam Kia-Keating: Kids can really understand the idea of their sister wanting to play with them, and sometimes not, 
but still having a strong family bond.  Ultimately, it's about the love between the sisters. 
That's a message that many little children understand. There are also good lessons about overcoming struggles and facing life challenges. 
But, what's interesting about preschoolers, in particular, is there's this loyalty and unrelenting interest to watch this movie over and over again.",缧,义,粘着,钮带,键,纽带,牢笼
,,,,,,1,
,券,,,,,,
,,,,,,,
,,,,,,,
,,,,,,,
,,,,,,,
,,,,,,,
,,,,,,,
,,,,,,,
,,,,,,,
,,,,,,,
,,,,,,,
,,,,,,,
,,,,,,,
,,,,,,,
,,,,,,,
2. little,,,,,,Uhls:I#little::,
"Uhls: I used to work in the film industry, and as adults, we're told that we need conflict to drive drama. 
Take Grimm's Fairy Tales; there are always dire stakes. Or movies like ""Bambi"" and ""The Lion King,"" where the mother or father die. 
 These are serious issues and themes, and sometimes little kids aren't ready to process and understand these ideas. 
 CNN: What about the characters seem so easy for kids to empathize with?",短的,些少,蝇头,短时间,微小,小量的,小
,,,,,,,1
,少,不足的,鲜,少量,细小,,
,,,,,,,
,,,,,,,
,,,,,,,
,,,,,,,
,,,,,,,
,,,,,,,
,,,,,,,
,,,,,,,
,,,,,,,
,,,,,,,
,,,,,,,
,,,,,,,
,,,,,,,
,,,,,,,
3. easy,,,,,,Theseare#easy::,
"These are serious issues and themes, and sometimes little kids aren't ready to process and understand these ideas. 
 CNN: What about the characters seem so easy for kids to empathize with?  Uhls: Preschooler imaginations are really strong, 
and so they respond really well to stories with magical realism.",剡,安逸,浅,轻而易举,平易,便当,裕如
,,,,,,,
,近,简易,易,轻巧,浅易,便利,缓缓的
,,,,,,,
,容易,松散,浅近,便,慢慢地,,
,1,,,,,,
,,,,,,,
,,,,,,,
,,,,,,,
,,,,,,,
,,,,,,,
,,,,,,,
,,,,,,,
,,,,,,,
,,,,,,,
,,,,,,,
,,,,,,,
4. small,,,,,,"In""Frozen,""#small::",
"In ""Frozen,"" Princess Elsa has these powers to control ice and snow -- and that really captures kids' imaginations. 
When you're small, you don't feel powerful. Everyone is always dictating what you can and cannot do. 
Having a character they can empathize with that has these powers can make them feel more empowered, as well. 
 Kia-Keating: That magical piece is exciting and is one of the things that really sets this movie apart from others.",辁,蝇头,幺,薄,微小,裨,戋
,,,,,1,,
,蕞尔,细小,小,芮,少,藐,嘒
,,,,,,,
,怍,謏,小号,区,蕞,芾,
,,,,,,,
,,,,,,,
,,,,,,,
,,,,,,,
,,,,,,,
,,,,,,,
,,,,,,,
,,,,,,,
,,,,,,,
,,,,,,,
,,,,,,,
,,,,,,,
5. character,,,,,,"In""Frozen,""#character::",
"In ""Frozen,"" Princess Elsa has these powers to control ice and snow -- and that really captures kids' imaginations. 
When you're small, you don't feel powerful. Everyone is always dictating what you can and cannot do. 
Having a character they can empathize with that has these powers can make them feel more empowered, as well. 
 Kia-Keating: That magical piece is exciting and is one of the things that really sets this movie apart from others.",文字,字符,人,人物,文,言,品质
,,,,,,,
,性格,心地,性,臧否,八字,字,个性
,,,,,,,1
,性格的,意向,性质,,,,
,,,,,,,
,,,,,,,
,,,,,,,
,,,,,,,
,,,,,,,
,,,,,,,
,,,,,,,
,,,,,,,
,,,,,,,
,,,,,,,
,,,,,,,
,,,,,,,
6. make,,,,,,"In""Frozen,""#make::",
"In ""Frozen,"" Princess Elsa has these powers to control ice and snow -- and that really captures kids' imaginations. 
When you're small, you don't feel powerful. Everyone is always dictating what you can and cannot do. 
Having a character they can empathize with that has these powers can make them feel more empowered, as well. 
 Kia-Keating: That magical piece is exciting and is one of the things that really sets this movie apart from others.",制造,造,为,令,让,叫,营建
,,,,,1,,
,营造,构造,牌,臆造,使得,打,造作
,,,,,,,
,楷,制,做,制作,作,使,搞
,,,,,,,
,,,,,,,
,,,,,,,
,,,,,,,
,,,,,,,
,,,,,,,
,,,,,,,
,,,,,,,
,,,,,,,
,,,,,,,
,,,,,,,
,,,,,,,
7. feel,,,,,,"In""Frozen,""#feel::",
"In ""Frozen,"" Princess Elsa has these powers to control ice and snow -- and that really captures kids' imaginations. 
When you're small, you don't feel powerful. Everyone is always dictating what you can and cannot do. 
Having a character they can empathize with that has these powers can make them feel more empowered, as well. 
 Kia-Keating: That magical piece is exciting and is one of the things that really sets this movie apart from others.",知觉,觉察,触摸,摸索,觉得,感到,觉
,,,,,,,
,挲,认为,意会,感觉,摸,触觉,感觉到
,,,,1,,,
,作,感,,,,,
,,,,,,,
,,,,,,,
,,,,,,,
,,,,,,,
,,,,,,,
,,,,,,,
,,,,,,,
,,,,,,,
,,,,,,,
,,,,,,,
,,,,,,,
,,,,,,,
8. well,,,,,,"In""Frozen,""#well::",
"In ""Frozen,"" Princess Elsa has these powers to control ice and snow -- and that really captures kids' imaginations. 
When you're small, you don't feel powerful. Everyone is always dictating what you can and cannot do. 
Having a character they can empathize with that has these powers can make them feel more empowered, as well. 
 Kia-Keating: That magical piece is exciting and is one of the things that really sets this movie apart from others.",适,安好,顺利,臧,很好,水井,顺手
,,,,,,,
,顺遂,涌,良好,井,满意地,舒服,颛
,,,,1,,,
,顺,好,顺当,,,,
,,,,,,,
,,,,,,,
,,,,,,,
,,,,,,,
,,,,,,,
,,,,,,,
,,,,,,,
,,,,,,,
,,,,,,,
,,,,,,,
,,,,,,,
,,,,,,,
9. down,,,,,,Anotheraspect#down::,
"Another aspect that kids see themselves in Elsa and Anna is the impulsiveness.  Parents are constantly trying to teach their little ones how to self-regulate their emotions, 
how to behave, how to sit down. Elsa is constantly trying to tame or control her emotions -- and while this is something that is salient to everyone throughout their lifetimes, 
this is something preschoolers deal with all the time.",忧闷,击落的,氄,毧,往下,下,击落
,,,,,,1,
,绒毛,下来,忧伤,忧愁,向下,向下的,沿着
,,,,,,,
,,,,,,,
,,,,,,,
,,,,,,,
,,,,,,,
,,,,,,,
,,,,,,,
,,,,,,,
,,,,,,,
,,,,,,,
,,,,,,,
,,,,,,,
,,,,,,,
,,,,,,,
10. even,,,,,,CNN:The#even::,
"CNN: The song ""Let It Go"": It's everywhere, and kids can't stop singing it. What is it about this anthem?  Kia-Keating:  My 4-year-old came home and learned the song before we had even seen the movie. 
 One of the lines she and all her friends connected to was ""Be the good girl that you always have to be.""",匀,双日,偶数,双数,匀实,瀡,齐刷刷
,,,,,,,
,相等,犹,连 ... 也,甚至,甚而,匀净,均
,,,,1,,,
,双,齐截,甚或,连,即使,偶,变平
,,,,,,,
,甚至于,就是,,,,,
,,,,,,,
,,,,,,,
,,,,,,,
,,,,,,,
,,,,,,,
,,,,,,,
,,,,,,,
,,,,,,,
,,,,,,,
,,,,,,,
11. question,,,,,,SanDiego-based#question::,
"San Diego-based rapper Tiny Doo has already spent eight months in prison, and faces 25 years to life in prison if convicted under a little-known California statute that makes it illegal to benefit from gang activities. 
 The statute in question is California Penal Code 182.5. The code makes it a felony for anyone to participate in a criminal street gang, 
have knowledge that a street gang has engaged in criminal activity, or benefit from that activity. 
 It's that last part -- benefiting from criminal activity -- that prosecutors are going after the rapper for.",课题,议题,查问,讯问,刨,质疑,靠问
,,1,,,,,
,讯,审问,问题,怀疑,质问,疑问,
,,,,,,,
,,,,,,,
,,,,,,,
,,,,,,,
,,,,,,,
,,,,,,,
,,,,,,,
,,,,,,,
,,,,,,,
,,,,,,,
,,,,,,,
,,,,,,,
,,,,,,,
,,,,,,,
12. first,,,,,,CNNLegal#first::,
"CNN Legal Analyst Mark Geragos says the district attorney may be trying to send a message ""that you shouldn't glorify or glamorize gang activity.""  ""The problem is you're going to run straight head-on into the First  Amendment,"" he said. 
""If they don't have anything other than the album, this case I don't think would ever stand up.""",第一,首先,上,第一位,首要的,首,初
,,,,,,,
,起点,最初,一次,第一个,第一次,甲,头
,,,,1,,,
,上个,开始,憖,元,先,最先,乍
,,,,,,,
,原始,首次,一日,开端,,,
,,,,,,,
,,,,,,,
,,,,,,,
,,,,,,,
,,,,,,,
,,,,,,,
,,,,,,,
,,,,,,,
,,,,,,,
,,,,,,,
13. school,,,,,,(CNN)Todayis#school::,
"(CNN)Today is its day! ""Oh, The Places You'll Go!"" written and illustrated by Theodor Geisel, better known as Dr. Seuss, 
debuted 25 years ago on January 22, 1990. Since then, millions of high school and college grads have heard the same zealous affirmation, 
a not-so-gentle reminder to live up to their potential -- ""KID, YOU'LL MOVE MOUNTAINS!"" -- mixed with warnings about loneliness and uncertainty. 
 It's a children's book, as most Dr. Seuss books are, but its messages have resonated through a quarter-century because adults love it too, 
said Philip Nel, director of the program in children's literature at Kansas State University.",校,庠,学,学派,锻炼,锻练,学校
,,,,,,,1
,学院,派别,宗,家,系,派,流派
,,,,,,,
,,,,,,,
,,,,,,,
,,,,,,,
,,,,,,,
,,,,,,,
,,,,,,,
,,,,,,,
,,,,,,,
,,,,,,,
,,,,,,,
,,,,,,,
,,,,,,,
,,,,,,,
14. live,,,,,,(CNN)Todayis#live::,
"(CNN)Today is its day! ""Oh, The Places You'll Go!"" written and illustrated by Theodor Geisel, better known as Dr. Seuss, 
debuted 25 years ago on January 22, 1990. Since then, millions of high school and college grads have heard the same zealous affirmation, 
a not-so-gentle reminder to live up to their potential -- ""KID, YOU'LL MOVE MOUNTAINS!"" -- mixed with warnings about loneliness and uncertainty. 
 It's a children's book, as most Dr. Seuss books are, but its messages have resonated through a quarter-century because adults love it too, 
said Philip Nel, director of the program in children's literature at Kansas State University.",居住,生活,处,过,有生气的,立,重要
,,,,,,,
,过活,住,生息,活者,活的,居,活
,,,,,,,1
,带电,,,,,,
,,,,,,,
,,,,,,,
,,,,,,,
,,,,,,,
,,,,,,,
,,,,,,,
,,,,,,,
,,,,,,,
,,,,,,,
,,,,,,,
,,,,,,,
,,,,,,,
15. move,,,,,,(CNN)Todayis#move::,
"(CNN)Today is its day! ""Oh, The Places You'll Go!"" written and illustrated by Theodor Geisel, better known as Dr. Seuss, 
debuted 25 years ago on January 22, 1990. Since then, millions of high school and college grads have heard the same zealous affirmation, 
a not-so-gentle reminder to live up to their potential -- ""KID, YOU'LL MOVE MOUNTAINS!"" -- mixed with warnings about loneliness and uncertainty. 
 It's a children's book, as most Dr. Seuss books are, but its messages have resonated through a quarter-century because adults love it too, 
said Philip Nel, director of the program in children's literature at Kansas State University.",调,挪,举动,触动,打动,迁徙,移动
,,,,,,,
,感,动,搬迁,搬,感到,搬家,感动
,,,,,,,
,游,运行,举,迁,动弹,摆,步骤
,,,,,,,
,行动,挪动,运动,提议,迁移,跞,行径
,,1,,,,,
,扤,触,拨,走,移,搬移,
,,,,,,,
,,,,,,,
,,,,,,,
,,,,,,,
,,,,,,,
,,,,,,,
,,,,,,,
,,,,,,,
16. state,,,,,,"Sincethen,#state::",
"Since then, millions of high school and college grads have heard the same zealous affirmation, 
a not-so-gentle reminder to live up to their potential -- ""KID, YOU'LL MOVE MOUNTAINS!"" -- mixed with warnings about loneliness and uncertainty. 
 It's a children's book, as most Dr. Seuss books are, but its messages have resonated through a quarter-century because adults love it too, 
said Philip Nel, director of the program in children's literature at Kansas State University. 
Children's books ""possess an enormous amount of wisdom for the adults mature enough to recognize it,"" he said.",态,表示,述,境界,国度,状况,候
,,,,,,,
,国家的,称述,邦,陈述,申述,硬说,陈说
,,,,,,,
,发言,申,状,国有的,国营的,摅,诉
,,,,,,,
,陈,声称,申明,发表,声明,州,拥
,,,,,,1,
,胪,诉说,公家,称,国立的,述説,国
,,,,,,,
,局势,态势,,,,,
,,,,,,,
,,,,,,,
,,,,,,,
,,,,,,,
,,,,,,,
,,,,,,,
17. hand,,,,,,Dr.Seuss#hand::,
"Dr. Seuss knew it would be the last book he published Geisel was writing and illustrating ""Oh, 
The Places You'll Go!"" in the final years of his life, as he battled cancer. Other Seuss books have emerged since his death in 1991, 
but this was the last he had a hand in. ""It was his swan song, and he knew it was his swan song,"" Nel said. 
""It's a career summation in a lot of ways, both visually and morally, in the messages and the images.""",手的,手,笔迹,雇员,递交,巴掌,人
,,,,,1,,
,,,,,,,
,,,,,,,
,,,,,,,
,,,,,,,
,,,,,,,
,,,,,,,
,,,,,,,
,,,,,,,
,,,,,,,
,,,,,,,
,,,,,,,
,,,,,,,
,,,,,,,
,,,,,,,
,,,,,,,
18. think,,,,,,Thoughit#think::,
"Though it presents plenty of Seussian optimism -- ""And will you succeed? Yes! You will, 
indeed! (98 and 3/4 percent guaranteed.)"" -- it references dark times and stumbles: ""I'm afraid that some times you'll play lonely games too. 
Games you can't win 'cause you'll play against you."" Geisel wrote from experience. After a successful career in advertising, 
his first book, ""And to Think That I Saw It on Mulberry Street,"" was famously rejected multiple times. 
Some projects in print and on screen simply never took off. In his personal life, 
he faced illness and the suicide of his first wife. ""The darkness of the book is what makes the optimism credible,"" Nel said.",怀,思考,看,意,设法,预期,算
,,,,,,,
,预料,揣想,想得到,考虑,思,意想,想到
,,,,1,,,
,溯,思索,打量,忆,当,认为,以为
,,,,,,,
,关心,料想,想起,道,想,念,怀念
,,,,,,,
,想象,臆断,,,,,
,,,,,,,
,,,,,,,
,,,,,,,
,,,,,,,
,,,,,,,
,,,,,,,
,,,,,,,
,,,,,,,
19. first,,,,,,Thoughit#first::,
"Though it presents plenty of Seussian optimism -- ""And will you succeed? Yes! You will, 
indeed! (98 and 3/4 percent guaranteed.)"" -- it references dark times and stumbles: ""I'm afraid that some times you'll play lonely games too. 
Games you can't win 'cause you'll play against you."" Geisel wrote from experience. After a successful career in advertising, 
his first book, ""And to Think That I Saw It on Mulberry Street,"" was famously rejected multiple times. 
Some projects in print and on screen simply never took off. In his personal life, 
he faced illness and the suicide of his first wife. ""The darkness of the book is what makes the optimism credible,"" Nel said.",第一,首先,上,第一位,首要的,首,初
,,,,,,,
,起点,最初,一次,第一个,第一次,甲,头
,,,,,,,
,上个,开始,憖,元,先,最先,乍
,,,,,,,
,原始,首次,一日,开端,,,
,,,,,,,
,第一本,,,,,,
,,,,,,,
,,,,,,,
,,,,,,,
,,,,,,,
,,,,,,,
,,,,,,,
,,,,,,,
,,,,,,,
20. know,,,,,,"""Thedarkness#know::",
"""The darkness of the book is what makes the optimism credible,"" Nel said. Geisel was known to be shy but would be ""tickled"" to know that his words still have meaning now, 
said Susan Brandt, president of licensing and marketing at Dr. Seuss Enterprises. 
He was deliberate about what his last words to the world would be. ""You can feel him saying, 'Wait, 
I have one more thing to say,' "" she said. "" 'Listen to me; this is important.' """,审,懂,知,认,了,认识,识
,,,,,,,
,晓得,明,悉,晓,懂得,谂,知悉
,,,,,,,
,通,知道,,,,,
,,1,,,,,
,,,,,,,
,,,,,,,
,,,,,,,
,,,,,,,
,,,,,,,
,,,,,,,
,,,,,,,
,,,,,,,
,,,,,,,
,,,,,,,
,,,,,,,
21. book,,,,,,Itssuccess#book::,
"Its success isn't exactly a surprise, said Mallory Loehr, vice president and publisher of Random House Children's Books. 
It was published the year she began her career at Random House, and she remember the buzz around the book even then. 
 ""People knew it was special (in 1990),"" Loehr said. ""But 10 million is crazy.""  The main character is You -- and you, and you, 
and you",定,册子,书,卷,籍,册,簿子
,,,1,,,,
,著,本子,编,著作,书本,簿,
,,,,,,,
,,,,,,,
,,,,,,,
,,,,,,,
,,,,,,,
,,,,,,,
,,,,,,,
,,,,,,,
,,,,,,,
,,,,,,,
,,,,,,,
,,,,,,,
,,,,,,,
,,,,,,,
22. special,,,,,,Itssuccess#special::,
"Its success isn't exactly a surprise, said Mallory Loehr, vice president and publisher of Random House Children's Books. 
It was published the year she began her career at Random House, and she remember the buzz around the book even then. 
 ""People knew it was special (in 1990),"" Loehr said. ""But 10 million is crazy.""  The main character is You -- and you, and you, 
and you",特别,特殊,精干,殊,特刊,专,专用
,1,,,,,,
,特,专门,特定,附加的,特制,,
,,,,,,,
,,,,,,,
,,,,,,,
,,,,,,,
,,,,,,,
,,,,,,,
,,,,,,,
,,,,,,,
,,,,,,,
,,,,,,,
,,,,,,,
,,,,,,,
,,,,,,,
,,,,,,,
23. cat,,,,,,Themain#cat::,
"The main character is You -- and you, and you, and you Passages in ""The Cat in the Hat"" and ""The Lorax"" both slip into the second-person to make a point to readers, 
but Geisel made the main character of ""Oh, The Places You'll Go!"" a person called You, who conveniently happens to be, well, you. 
""That makes the book about the reader and puts the reader in the position of the character,"" Nel said. ""It's a motivator. 
See yourself as the character; take action.""",猫,恶妇,,,,,
,1,,,,,,
,,,,,,,
,,,,,,,
,,,,,,,
,,,,,,,
,,,,,,,
,,,,,,,
,,,,,,,
,,,,,,,
,,,,,,,
,,,,,,,
,,,,,,,
,,,,,,,
,,,,,,,
,,,,,,,
,,,,,,,
24. action,,,,,,Passagesin#action::,
"Passages in ""The Cat in the Hat"" and ""The Lorax"" both slip into the second-person to make a point to readers, 
but Geisel made the main character of ""Oh, The Places You'll Go!"" a person called You, who conveniently happens to be, well, you. 
""That makes the book about the reader and puts the reader in the position of the character,"" Nel said. ""It's a motivator. 
See yourself as the character; take action."" Dr. Seuss had already been a major player in children's literature for decades, 
but this was an early entry into a burgeoning category: children's stories that appeal to adults, 
Loehr said.",议案,行径,动作,作为,行动,行为,作用
,,,,,1,,
,,,,,,,
,,,,,,,
,,,,,,,
,,,,,,,
,,,,,,,
,,,,,,,
,,,,,,,
,,,,,,,
,,,,,,,
,,,,,,,
,,,,,,,
,,,,,,,
,,,,,,,
,,,,,,,
,,,,,,,
25. book,,,,,,Dr.Seuss#book::,
"Dr. Seuss had already been a major player in children's literature for decades, but this was an early entry into a burgeoning category: children's stories that appeal to adults, 
Loehr said. ""This is almost a self-help book. People forget that it has pages that really acknowledge that things will be tough some times,"" she said. 
""Sit down; read this book. It will be OK."" As Geisel himself put it, ""I never write for children. 
I write for people.""",定,册子,书,卷,籍,册,簿子
,,,1,,,,
,著,本子,编,著作,书本,簿,
,,,,,,,
,,,,,,,
,,,,,,,
,,,,,,,
,,,,,,,
,,,,,,,
,,,,,,,
,,,,,,,
,,,,,,,
,,,,,,,
,,,,,,,
,,,,,,,
,,,,,,,
,,,,,,,
26. book,,,,,,Dr.Seuss2#book::,
"Dr. Seuss had already been a major player in children's literature for decades, but this was an early entry into a burgeoning category: children's stories that appeal to adults, 
Loehr said. ""This is almost a self-help book. People forget that it has pages that really acknowledge that things will be tough some times,"" she said. 
""Sit down; read this book. It will be OK."" As Geisel himself put it, ""I never write for children. 
I write for people.""",定,册子,书,卷,籍,册,簿子
,,,1,,,,
,著,本子,编,著作,书本,簿,
,,,,,,,
,,,,,,,
,,,,,,,
,,,,,,,
,,,,,,,
,,,,,,,
,,,,,,,
,,,,,,,
,,,,,,,
,,,,,,,
,,,,,,,
,,,,,,,
,,,,,,,
,,,,,,,
27. part,,,,,,There'snever#part::,
"There's never been a film version, but Kansas State University's Nel said Geisel hoped there would be an adaptation -- maybe something ""famous as famous can be, 
with the whole wide world watching you win on TV."" For his part, Nel said, it's a remarkable book, 
but he hasn't given it as a graduation gift.  ""It's not that it's not good,"" Nel said. ""It's that everybody I would give it to, 
someone has has already given it to them.""",诀,异,处,角色,分,部分地,向
,,,,1,,,
,多多少少,股,片段,局部,断裂,段,离
,,,,,,,
,分别,部分,局,集,握别,局部地,部件
,,,,,,,
,角,机件,组成,段落,分开,部,仳
,,,,,,,
,间,构件,份,,,,
,,,,,,,
,,,,,,,
,,,,,,,
,,,,,,,
,,,,,,,
,,,,,,,
,,,,,,,
,,,,,,,
28. book,,,,,,There'snever#book::,
"There's never been a film version, but Kansas State University's Nel said Geisel hoped there would be an adaptation -- maybe something ""famous as famous can be, 
with the whole wide world watching you win on TV."" For his part, Nel said, it's a remarkable book, 
but he hasn't given it as a graduation gift.  ""It's not that it's not good,"" Nel said. ""It's that everybody I would give it to, 
someone has has already given it to them.""",定,册子,书,卷,籍,册,簿子
,,,,,,,
,著,本子,编,著作,书本,簿,
,,,,1,,,
,,,,,,,
,,,,,,,
,,,,,,,
,,,,,,,
,,,,,,,
,,,,,,,
,,,,,,,
,,,,,,,
,,,,,,,
,,,,,,,
,,,,,,,
,,,,,,,
,,,,,,,
29. spot,,,,,,Theclub's#spot::,
"The club's continued success on the field is complemented by its financial strength and their accomplishment emphasizes their position as the most successful European club side of all time. 
However, their commercial supremacy is being challenged by Manchester United among others. 
Barcelona's revenue plateaued last year, seeing them drop from second spot behind arch-rival Real to fourth below Manchester United and Bayern. 
Paris Saint-Germain completes the top five while Juventus, in 10th, is the only side from Italy's Serie A to make the top 10, 
with Premier League sides Chelsea, Arsenal and Liverpool rounding off the top clubs in seventh, 
eighth and ninth respectively in revenue terms.",所,处,皰,现场,污点,弄脏,斑
,,,,,,,
,斑点,瑕,沾污,点,点子,识别,
,,,,1,,,
,,,,,,,
,,,,,,,
,,,,,,,
,,,,,,,
,,,,,,,
,,,,,,,
,,,,,,,
,,,,,,,
,,,,,,,
,,,,,,,
,,,,,,,
,,,,,,,
,,,,,,,
30. double,,,,,,Insteadit#double::,
"Instead it was Federer who blinked in the fourth-set tiebreak.  He led 3-1 only to double fault at 3-2. Then leading 5-4, 
Federer made a costly backhand unforced error. Federer rued missed opportunities in the second set tiebreak, too, 
when Seppi was there for the taking.  ""It just broke me to lose that second set,"" Federer told reporters. 
""And actually the fourth, I should win it, too. Just a brutal couple of sets to lose there.""",重,双摺地,两倍,双重地,倍,双重,复
,,,,,,,
,双,加倍,褔,双精度型,翻一番,双料,兼
,,1,,,,,
,双方,,,,,,
,,,,,,,
,,,,,,,
,,,,,,,
,,,,,,,
,,,,,,,
,,,,,,,
,,,,,,,
,,,,,,,
,,,,,,,
,,,,,,,
,,,,,,,
,,,,,,,
31. just,,,,,,Heled#just::,
"He led 3-1 only to double fault at 3-2. Then leading 5-4, Federer made a costly backhand unforced error. 
Federer rued missed opportunities in the second set tiebreak, too, when Seppi was there for the taking. 
 ""It just broke me to lose that second set,"" Federer told reporters. ""And actually the fourth, I should win it, too. 
Just a brutal couple of sets to lose there."" Seppi completed the upset in stunning fashion, 
scrambling before hitting an instinctive forehand passing shot winner down the line.",合乎正道的,只是,刚,只不过,恰恰,公正,甫
,,,,1,,,
,刚好,公平,光是,方,允,顷,义
,,,,,,,
,聊,才,干脆,刚刚,合理的,正,止
,,,,,,,
,只,公,恰,直,简直,啻,
,,,,,,,
,,,,,,,
,,,,,,,
,,,,,,,
,,,,,,,
,,,,,,,
,,,,,,,
,,,,,,,
,,,,,,,
,,,,,,,
32. set,,,,,,Heled#set::,
"He led 3-1 only to double fault at 3-2. Then leading 5-4, Federer made a costly backhand unforced error. 
Federer rued missed opportunities in the second set tiebreak, too, when Seppi was there for the taking. 
 ""It just broke me to lose that second set,"" Federer told reporters. ""And actually the fourth, I should win it, too. 
Just a brutal couple of sets to lose there."" Seppi completed the upset in stunning fashion, 
scrambling before hitting an instinctive forehand passing shot winner down the line.",套,摆列,定,结伙,系列,不动的,摆
,,,,,,,
,既定的,落,放,局,组,集,竖立
,,,,1,,,
,嵌,规定,一套,放置,竖,集合,盘
,,,,,,,
,机组,静止的,摆放,固定,镶,套房,放置者
,,,,,,,
,落下,,,,,,
,,,,,,,
,,,,,,,
,,,,,,,
,,,,,,,
,,,,,,,
,,,,,,,
,,,,,,,
,,,,,,,
33. lose,,,,,,Heled#lose::,
"He led 3-1 only to double fault at 3-2. Then leading 5-4, Federer made a costly backhand unforced error. 
Federer rued missed opportunities in the second set tiebreak, too, when Seppi was there for the taking. 
 ""It just broke me to lose that second set,"" Federer told reporters. ""And actually the fourth, I should win it, too. 
Just a brutal couple of sets to lose there."" Seppi completed the upset in stunning fashion, 
scrambling before hitting an instinctive forehand passing shot winner down the line.",少,丢,败,丧,丧失,蚀,掉
,,,,,,,
,失去,失落,损失,失,失掉,输,丢失
,,,,,,1,
,遗,耗损,折,损,负,,
,,,,,,,
,,,,,,,
,,,,,,,
,,,,,,,
,,,,,,,
,,,,,,,
,,,,,,,
,,,,,,,
,,,,,,,
,,,,,,,
,,,,,,,
,,,,,,,
34. still,,,,,,Federerthus#still::,
"Federer thus exited, despite winning more points in the match overall, 145 to 144. 
 ""I felt for some reason yesterday and this morning it was not going to be very simple today,"" Federer said. 
""Even in practice I still felt the same way.  ""I was just hoping it was one of those feelings you sometimes have and it's totally not true and you just come out and you play a routine match. 
I was aware of the test and was well prepared.",安,侐,宓,仍然,尚,寂静,依然
,,,,1,,,
,还是,安慰,静止,澶,犹,寂,安生
,,,,,,,
,但,仍,静,还,使 ... 安静,使 ... 放心,依旧
,,,,,,,
,阒,更,恹,但是,,,
,,,,,,,
,,,,,,,
,,,,,,,
,,,,,,,
,,,,,,,
,,,,,,,
,,,,,,,
,,,,,,,
,,,,,,,
,,,,,,,
35. play,,,,,,"""Iwas#play::",
"""I was just hoping it was one of those feelings you sometimes have and it's totally not true and you just come out and you play a routine match. 
I was aware of the test and was well prepared.  ""Just somehow couldn't play my best tennis today. 
It was definitely partially because of Andreas playing very well."" Perhaps the warning signs were there from his previous round.",游玩,弄,玩儿,嬉,耍,盘弄,演
,,,,,,,
,逗,游戏,吹奏,演戏,玩,表演,戏剧
,,,,,,,
,玩耍,赌博,玩弄,演出,饰演,奏,戏
,,,,,,,
,嬉戏,赌钱,剧本,比赛,剧,顽,嫽
,,,,1,,,
,,,,,,,
,,,,,,,
,,,,,,,
,,,,,,,
,,,,,,,
,,,,,,,
,,,,,,,
,,,,,,,
,,,,,,,
36. round,,,,,,"""Justsomehow#round::",
"""Just somehow couldn't play my best tennis today. It was definitely partially because of Andreas playing very well."" Perhaps the warning signs were there from his previous round.",巡,籀,环行,拐弯,圆,球形,围绕
,,,,,,,
,周围,轮,回合,丰满,团,轮唱,附近
,,1,,,,,
,圜,范围,,,,,
,,,,,,,
,,,,,,,
,,,,,,,
,,,,,,,
,,,,,,,
,,,,,,,
,,,,,,,
,,,,,,,
,,,,,,,
,,,,,,,
,,,,,,,
,,,,,,,
37. second,,,,,,Federerlost#second::,
"Federer lost a set in the second round to Seppi's fellow Italian, Simone Bolelli. 
He -- and this is rare for Federer -- called for the trainer to address an issue with his hand. 
Federer thought he might have been stung by a bee.  He didn't mention the hand or any other physical issue in his briefing with reporters.",其次,倅,拥护,第二,再,支持,秒
,,,,1,,,
,乙,第二次,亚,伯仲叔季,,,
,,,,,,,
,,,,,,,
,,,,,,,
,,,,,,,
,,,,,,,
,,,,,,,
,,,,,,,
,,,,,,,
,,,,,,,
,,,,,,,
,,,,,,,
,,,,,,,
,,,,,,,
,,,,,,,
38. hand,,,,,,Federerlost#hand::,
"Federer lost a set in the second round to Seppi's fellow Italian, Simone Bolelli. 
He -- and this is rare for Federer -- called for the trainer to address an issue with his hand. 
Federer thought he might have been stung by a bee.  He didn't mention the hand or any other physical issue in his briefing with reporters.",手的,手,笔迹,雇员,递交,巴掌,人
,,,,,,,1
,,,,,,,
,,,,,,,
,,,,,,,
,,,,,,,
,,,,,,,
,,,,,,,
,,,,,,,
,,,,,,,
,,,,,,,
,,,,,,,
,,,,,,,
,,,,,,,
,,,,,,,
,,,,,,,
,,,,,,,
39. go,,,,,,Federeralso#go::,
"Federer also defended his decision to play exhibition matches in India in December during tennis' notoriously short off-season. 
 ""I wanted to go to India,"" said Federer. ""I wanted to go back to Switzerland for Christmas. 
I practiced as hard as I possibly could.  ""Can't do more than that. Sure, the year ended late, but one week later than normal. 
At the end of the day, honestly I'm confident that what I did was the right thing.""",进去,诣,从事,前往,离去,行,走
,,,,1,,,
,徂,赴,适,游,去,进行,
,,,,,1,,
,,,,,,,
,,,,,,,
,,,,,,,
,,,,,,,
,,,,,,,
,,,,,,,
,,,,,,,
,,,,,,,
,,,,,,,
,,,,,,,
,,,,,,,
,,,,,,,
,,,,,,,
40. thing,,,,,,"""Iwanted#thing::",
"""I wanted to go to India,"" said Federer. ""I wanted to go back to Switzerland for Christmas. 
I practiced as hard as I possibly could.  ""Can't do more than that. Sure, the year ended late, but one week later than normal. 
At the end of the day, honestly I'm confident that what I did was the right thing."" Federer's exit means Murray's path to the semifinals has become significantly easier. 
The two-time grand slam champion and Federer were, on paper, due to meet in the quarterfinals.",玩意儿,事情,项目,物,东西,事,物件
,,,,,,1,
,项,一项,事儿,事物,,,
,,,,,,,
,,,,,,,
,,,,,,,
,,,,,,,
,,,,,,,
,,,,,,,
,,,,,,,
,,,,,,,
,,,,,,,
,,,,,,,
,,,,,,,
,,,,,,,
,,,,,,,
,,,,,,,
41. know,,,,,,@edsmithwriterSouth#know::,
"@edsmithwriter South Korea's cricket switch: http://t.co/qTlIhSRnJt ""Having moved back and forth between the two sports myself, 
I know the potential these guys have for success in T20 cricket,"" says Fountain. ""I was the first to introduce baseball fieldin",审,懂,知,认,了,认识,识
,,,,,,,
,晓得,明,悉,晓,懂得,谂,知悉
,,,,,,,
,通,知道,,,,,
,,1,,,,,
,,,,,,,
,,,,,,,
,,,,,,,
,,,,,,,
,,,,,,,
,,,,,,,
,,,,,,,
,,,,,,,
,,,,,,,
,,,,,,,
,,,,,,,
42. minor,,,,,,"""Iwas#minor::",
"""I was the first to introduce baseball fielding techniques to international cricket, 
because a major league outfielder will out-throw a professional cricketer every time. 
This is a sport that Americans can do well at."" Minor leaguer Boomer Collins has been chasing the dream of the big leagues since he was a boy. 
His looks, his build, the way he talks and even his name are as near to the definition of an American ballplayer as you're going to get. 
But beyond the square jaw and the all-state honors as both outfielder and quarterback, 
there's one thing that makes him different to every other guy out there on the diamond.",次要,副修科目,辅修,未成年人,二流的,裨,较小的
,1,,,,,,
,未成年者,,,,,,
,,,,,,,
,,,,,,,
,,,,,,,
,,,,,,,
,,,,,,,
,,,,,,,
,,,,,,,
,,,,,,,
,,,,,,,
,,,,,,,
,,,,,,,
,,,,,,,
,,,,,,,
,,,,,,,
43. square,,,,,,Minorleaguer#square::,
"Minor leaguer Boomer Collins has been chasing the dream of the big leagues since he was a boy. His looks, his build, 
the way he talks and even his name are as near to the definition of an American ballplayer as you're going to get. 
But beyond the square jaw and the all-state honors as both outfielder and quarterback, 
there's one thing that makes him different to every other guy out there on the diamond. 
He wants to be the greatest cricket player the world has ever seen.",平方,广场,矩,笔直,正方形,一直,方
,,,,,,,1
,使 ... 自乘,方正,,,,,
,,,,,,,
,,,,,,,
,,,,,,,
,,,,,,,
,,,,,,,
,,,,,,,
,,,,,,,
,,,,,,,
,,,,,,,
,,,,,,,
,,,,,,,
,,,,,,,
,,,,,,,
,,,,,,,
44. even,,,,,,"""JackieRobinson#even::",
"""Jackie Robinson did it for African-Americans in baseball. We can do it for Americans in cricket. 
""The athleticism that Americans can bring to the table could revolutionize the game of cricket even more to become a bigger, 
faster, stronger sport. ""Look at soccer now. That all came from American players making a stand in what was a minority sport over here.",匀,双日,偶数,双数,匀实,瀡,齐刷刷
,,,,,,,
,相等,犹,连 ... 也,甚至,甚而,匀净,均
,,,,1,,,
,双,齐截,甚或,连,即使,偶,变平
,,,,,,,
,甚至于,就是,,,,,
,,,,,,,
,,,,,,,
,,,,,,,
,,,,,,,
,,,,,,,
,,,,,,,
,,,,,,,
,,,,,,,
,,,,,,,
,,,,,,,
45. stand,,,,,,"""Theathleticism#stand::",
"""The athleticism that Americans can bring to the table could revolutionize the game of cricket even more to become a bigger, 
faster, stronger sport. ""Look at soccer now. That all came from American players making a stand in what was a minority sport over here. 
""If you would've said 'soccer' about five years ago people would've said, ""Get outta here, man"". 
Now everyone's watching the World Cup.""",经受,挺,站住,座,座子,慉,立
,,,,,,,
,算数,经,台,忍受,主张,受,架
,,,,,1,,
,站,支架,旗帜,货摊,支子,,
,,,,,,,
,,,,,,,
,,,,,,,
,,,,,,,
,,,,,,,
,,,,,,,
,,,,,,,
,,,,,,,
,,,,,,,
,,,,,,,
,,,,,,,
,,,,,,,
46. case,,,,,,"""Alot#case::",
"""A lot of us guys in the minor leagues have to take the decision -- are my legs going to hold up, or my bank account, 
and which is going to go first?"" Dean says. ""In my case it'll be the bank account, 
because I know that otherwise I'll never be ready to finish playing ball. ""I've talked to my girlfriend about the cricket thing. 
We'd go through about five or 10 minutes thinking how amazing it would be, traveling the world playing sport. Then it would be, 
'What the hell am I saying?' It's ping-pong in my brain.""",箱子,机身,例,事件,套子,椟,案情
,,,,,,,
,例证,盒子,诉讼,案件,外壳,景况,案子
,,,,,,,
,框,壳体,案,匣,盒,套,机壳
,,,,,,,
,套管,事例,格,壳,例子,匣子,函
,,,,,1,,
,,,,,,,
,,,,,,,
,,,,,,,
,,,,,,,
,,,,,,,
,,,,,,,
,,,,,,,
,,,,,,,
,,,,,,,
47. account,,,,,,"""Alot#account::",
"""A lot of us guys in the minor leagues have to take the decision -- are my legs going to hold up, or my bank account, 
and which is going to go first?"" Dean says. ""In my case it'll be the bank account, 
because I know that otherwise I'll never be ready to finish playing ball. ""I've talked to my girlfriend about the cricket thing. 
We'd go through about five or 10 minutes thinking how amazing it would be, traveling the world playing sport. Then it would be, 
'What the hell am I saying?' It's ping-pong in my brain.""",占,帐户,账户,诉,诉说,帐,认定
,,,1,,,,
,状,记事,认为,,,,
,,,,,,,
,,,,,,,
,,,,,,,
,,,,,,,
,,,,,,,
,,,,,,,
,,,,,,,
,,,,,,,
,,,,,,,
,,,,,,,
,,,,,,,
,,,,,,,
,,,,,,,
,,,,,,,
48. finish,,,,,,"""Alot#finish::",
"""A lot of us guys in the minor leagues have to take the decision -- are my legs going to hold up, or my bank account, 
and which is going to go first?"" Dean says. ""In my case it'll be the bank account, 
because I know that otherwise I'll never be ready to finish playing ball. ""I've talked to my girlfriend about the cricket thing. 
We'd go through about five or 10 minutes thinking how amazing it would be, traveling the world playing sport. Then it would be, 
'What the hell am I saying?' It's ping-pong in my brain.""",结论,蒇,了,完,成,完毕,终止
,,,,,,,
,尽,终,精整,卒,毕,终了,竟
,,,,,,,
,竣,罢,结束,办到,湮,磨光,完结
,,,1,,,,
,终点,顺,,,,,
,,,,,,,
,,,,,,,
,,,,,,,
,,,,,,,
,,,,,,,
,,,,,,,
,,,,,,,
,,,,,,,
,,,,,,,
,,,,,,,
49. bounce,,,,,,"ForFountain,#bounce::",
"For Fountain, the endgame goes beyond getting his players a T20 contract. ""I want to inject enough talent into USA cricket, 
to see it bounce back up the rankings. I want to coach a USA team at a World Cup."" A team already exists, 
but he believes replacing its largely ex-pat spine with American baseball talent is the only way it can join the elite.",跃,骤,蹦,蓦,乱跳,跳,绷
,,,,,,1,
,跳跃,弹跳,蹿条,,,,
,,,,,,,
,,,,,,,
,,,,,,,
,,,,,,,
,,,,,,,
,,,,,,,
,,,,,,,
,,,,,,,
,,,,,,,
,,,,,,,
,,,,,,,
,,,,,,,
,,,,,,,
,,,,,,,
50. cup,,,,,,"ForFountain,#cup::",
"For Fountain, the endgame goes beyond getting his players a T20 contract. ""I want to inject enough talent into USA cricket, 
to see it bounce back up the rankings. I want to coach a USA team at a World Cup."" A team already exists, 
but he believes replacing its largely ex-pat spine with American baseball talent is the only way it can join the elite.",盃,盂,盅,盏,杯,桮,瓯
,,,,,1,,
,碗,奖杯,茶杯,樽,壿,杯子,
,,,,,,,
,,,,,,,
,,,,,,,
,,,,,,,
,,,,,,,
,,,,,,,
,,,,,,,
,,,,,,,
,,,,,,,
,,,,,,,
,,,,,,,
,,,,,,,
,,,,,,,
,,,,,,,
51. way,,,,,,"""Iwant#way::",
"""I want to inject enough talent into USA cricket, to see it bounce back up the rankings. 
I want to coach a USA team at a World Cup."" A team already exists, but he believes replacing its largely ex-pat spine with American baseball talent is the only way it can join the elite. 
""Wearing a jersey with the flag on the front and your name on the back is huge for any American,"" says Dean. 
But Fountain has also let his early sign ups know that there are a few things to iron out before he can start printing jerseys.",径,路径,办法,途,路上,非常,状态
,,,,,,,
,般,路线,样,方,途径,方法,作法
,,,,,1,1,
,繇,中途,道,道路,作风,路,迳
,,,,,,,
,法,,,,,,
,,,,,,,
,,,,,,,
,,,,,,,
,,,,,,,
,,,,,,,
,,,,,,,
,,,,,,,
,,,,,,,
,,,,,,,
,,,,,,,
52. flag,,,,,,Ateam#flag::,
"A team already exists, but he believes replacing its largely ex-pat spine with American baseball talent is the only way it can join the elite. 
""Wearing a jersey with the flag on the front and your name on the back is huge for any American,"" says Dean. 
But Fountain has also let his early sign ups know that there are a few things to iron out before he can start printing jerseys. 
""I'm aiming for tryouts in the spring, so the guys who are already with teams, or trying out for teams can also come and try out for me,"" says Fountain.",旂,旆,信号旗,帜,旗号,旗,旗子
,,,,,,,
,鸢尾,旗帜,鸢尾花,,,,
,,1,,,,,
,,,,,,,
,,,,,,,
,,,,,,,
,,,,,,,
,,,,,,,
,,,,,,,
,,,,,,,
,,,,,,,
,,,,,,,
,,,,,,,
,,,,,,,
,,,,,,,
,,,,,,,
53. name,,,,,,Ateam#name::,
"A team already exists, but he believes replacing its largely ex-pat spine with American baseball talent is the only way it can join the elite. 
""Wearing a jersey with the flag on the front and your name on the back is huge for any American,"" says Dean. 
But Fountain has also let his early sign ups know that there are a few things to iron out before he can start printing jerseys. 
""I'm aiming for tryouts in the spring, so the guys who are already with teams, or trying out for teams can also come and try out for me,"" says Fountain.",定名,起名儿,称号,称说,曰,名,名义
,,,,,,,
,姓,称,名字,名称,号,指派,命名
,,,1,,,,
,谥,指名,谓,,,,
,,,,,,,
,,,,,,,
,,,,,,,
,,,,,,,
,,,,,,,
,,,,,,,
,,,,,,,
,,,,,,,
,,,,,,,
,,,,,,,
,,,,,,,
,,,,,,,
54. spring,,,,,,"""Wearinga#spring::",
"""Wearing a jersey with the flag on the front and your name on the back is huge for any American,"" says Dean. 
But Fountain has also let his early sign ups know that there are a few things to iron out before he can start printing jerseys. 
""I'm aiming for tryouts in the spring, so the guys who are already with teams, or trying out for teams can also come and try out for me,"" says Fountain. 
""Sponsorship is crucial. We're in talks with some interested parties but even if companies like Greyhound can lay on some tickets to get these players to the tryout, 
that would help.",绷簧,春天,踉,弹黄,春天的,弹跳,春
,,1,,,,,
,泉眼,泉水,弹,跃,春季,泉,春令
,,,,,,,
,弹簧,弹性,跳跃,蹦,跳,弹力,绷
,,,,,,,
,阳春,,,,,,
,,,,,,,
,,,,,,,
,,,,,,,
,,,,,,,
,,,,,,,
,,,,,,,
,,,,,,,
,,,,,,,
,,,,,,,
,,,,,,,
55. try,,,,,,"""Wearinga#try::",
"""Wearing a jersey with the flag on the front and your name on the back is huge for any American,"" says Dean. 
But Fountain has also let his early sign ups know that there are a few things to iron out before he can start printing jerseys. 
""I'm aiming for tryouts in the spring, so the guys who are already with teams, or trying out for teams can also come and try out for me,"" says Fountain. 
""Sponsorship is crucial. We're in talks with some interested parties but even if companies like Greyhound can lay on some tickets to get these players to the tryout, 
that would help.",尝试,谋求,试图,讅,试做,设法,睯
,1,,,,,,
,想法,试验,试,试用,审,企图,
,,,,,,,
,,,,,,,
,,,,,,,
,,,,,,,
,,,,,,,
,,,,,,,
,,,,,,,
,,,,,,,
,,,,,,,
,,,,,,,
,,,,,,,
,,,,,,,
,,,,,,,
,,,,,,,
56. train,,,,,,"""Thewhole#train::",
"""The whole thing with me is that whatever happens, I still want to go overseas and try because I have got that excitement so high,"" he says. 
""I still want to go and train with Julien to try it out myself. If we can work out a living situation with food, 
I would do it in a heartbeat. I don't have to have some sort of income, just as long as me and my wife have food and a place to stay. 
""I know that I'm not going to be the best in the world in the first five years of playing the sport. 
But I'm also never going to go in and say, 'I'll just be OK.'",造,练,培训,火车,训练,列车,栽培
,,,,,1,,
,训,教养,驯,培养,造就,操练,培
,,,,,,,
,培植,培育,,,,,
,,,,,,,
,,,,,,,
,,,,,,,
,,,,,,,
,,,,,,,
,,,,,,,
,,,,,,,
,,,,,,,
,,,,,,,
,,,,,,,
,,,,,,,
,,,,,,,
57. know,,,,,,"""Istill#know::",
"""I still want to go and train with Julien to try it out myself. If we can work out a living situation with food, 
I would do it in a heartbeat. I don't have to have some sort of income, just as long as me and my wife have food and a place to stay. 
""I know that I'm not going to be the best in the world in the first five years of playing the sport. 
But I'm also never going to go in and say, 'I'll just be OK.' ""I'm going to go and try and be the best cricket player in the world.""",审,懂,知,认,了,认识,识
,,,,,,,
,晓得,明,悉,晓,懂得,谂,知悉
,,,,,,,
,通,知道,,,,,
,,1,,,,,
,,,,,,,
,,,,,,,
,,,,,,,
,,,,,,,
,,,,,,,
,,,,,,,
,,,,,,,
,,,,,,,
,,,,,,,
,,,,,,,
,,,,,,,
58. say,,,,,,"""Istill#say::",
"""I still want to go and train with Julien to try it out myself. If we can work out a living situation with food, 
I would do it in a heartbeat. I don't have to have some sort of income, just as long as me and my wife have food and a place to stay. 
""I know that I'm not going to be the best in the world in the first five years of playing the sport. 
But I'm also never going to go in and say, 'I'll just be OK.' ""I'm going to go and try and be the best cricket player in the world.""",表示,言,说话,云,大约,谓,发言权
,,,,,,,
,曰,意见,发言,讲,大概,看法,摅
,,,,,,,
,讲话,告,道,拥,见解,发痒的,称
,,,,,,,
,念,说,,,,,
,,1,,,,,
,,,,,,,
,,,,,,,
,,,,,,,
,,,,,,,
,,,,,,,
,,,,,,,
,,,,,,,
,,,,,,,
,,,,,,,
59. use,,,,,,"""Theseguys#use::",
"""These guys have the potential to take the world of T20 cricket by storm,"" he said. 
""For the last few years you have heard cricket announcers use the phrase, 'That was a real baseball shot.' ""Well now you will be able to see those so-called baseball shots executed by guys who really can hit a ball 400 feet -- with a bat whose hitting area is a fraction of the width of a cricket bat.""",将,利用,应用,使用,使唤,用,功用
,,,,,,1,
,庸,施,采用,用场,采取,使出,展
,,,,,,,
,补,运用,施用,以,用途,用于,使
,,,,,,,
,动,赢余,意向,,,,
,,,,,,,
,,,,,,,
,,,,,,,
,,,,,,,
,,,,,,,
,,,,,,,
,,,,,,,
,,,,,,,
,,,,,,,
,,,,,,,
60. new,,,,,,Obamais#new::,
"Obama is due to arrive in New Delhi on Sunday, on a trip intended to foster progress in sometimes thorny U.S.-India ties. 
On Monday, he will become the first American president to headline India's Republic Day parade, 
standing beside Indian Prime Minister Narendra Modi.",异,新颖,新兴,新任,全新,新,新奇
,,,,,,1,
,耗,,,,,,
,,,,,,,
,,,,,,,
,,,,,,,
,,,,,,,
,,,,,,,
,,,,,,,
,,,,,,,
,,,,,,,
,,,,,,,
,,,,,,,
,,,,,,,
,,,,,,,
,,,,,,,
,,,,,,,
61. go,,,,,,"""ThePresident#go::",
"""The President regrets that he will be unable to visit Agra during this trip,"" Earnest said. 
Agra is where the spectacular Taj Mahal mausoleum is located. Biden will now remain in Washington rather than go to Saudi Arabia. 
Although no reason for the change of plan was given, it follows criticism this month of the Obama administration for its failure to send a senior representative to France for a huge unity march held in the wake of the Paris terror attacks.",进去,诣,从事,前往,离去,行,走
,,,,1,,,
,徂,赴,适,游,去,进行,
,,,,,1,,
,,,,,,,
,,,,,,,
,,,,,,,
,,,,,,,
,,,,,,,
,,,,,,,
,,,,,,,
,,,,,,,
,,,,,,,
,,,,,,,
,,,,,,,
,,,,,,,
,,,,,,,
62. state,,,,,,Althoughno#state::,
"Although no reason for the change of plan was given, it follows criticism this month of the Obama administration for its failure to send a senior representative to France for a huge unity march held in the wake of the Paris terror attacks. 
The administration admitted it erred and dispatched U.S. Secretary of State John Kerry to Paris the following week to offer the United States' support and condolences.",态,表示,述,境界,国度,状况,候
,,,,,,,
,国家的,称述,邦,陈述,申述,硬说,陈说
,,,,,,,
,发言,申,状,国有的,国营的,摅,诉
,,,,,,,
,陈,声称,申明,发表,声明,州,拥
,,,,,,1,
,胪,诉说,公家,称,国立的,述説,国
,,,,,,,
,局势,态势,,,,,
,,,,,,,
,,,,,,,
,,,,,,,
,,,,,,,
,,,,,,,
,,,,,,,
63. live,,,,,,Ina#live::,
"In a sign of the kingdom's importance to the United States, President Barack Obama made hurried plans to call in Saudi Arabia on Tuesday after his trip to India to pay his respects to Abdullah and his family and to meet with King Salman. 
Originally, Vice President Joe Biden was to have made the trip. The message from Washington is clearly : Long live the new king. 
The regal choreography in Riyadh is especially welcome to the White House as it contrasts with events just across the border in Yemen, 
another key ally where a US-backed government crucial to its anti-terror campaign has just been toppled to rebels supported by Iran.",居住,生活,处,过,有生气的,立,重要
,,,,,,,
,过活,住,生息,活者,活的,居,活
,,,,,,,
,带电,,,,,,
,,,,,,,
,活着,,,,,,
,,,,,,,
,,,,,,,
,,,,,,,
,,,,,,,
,,,,,,,
,,,,,,,
,,,,,,,
,,,,,,,
,,,,,,,
,,,,,,,
64. king,,,,,,Ina#king::,
"In a sign of the kingdom's importance to the United States, President Barack Obama made hurried plans to call in Saudi Arabia on Tuesday after his trip to India to pay his respects to Abdullah and his family and to meet with King Salman. 
Originally, Vice President Joe Biden was to have made the trip. The message from Washington is clearly : Long live the new king. 
The regal choreography in Riyadh is especially welcome to the White House as it contrasts with events just across the border in Yemen, 
another key ally where a US-backed government crucial to its anti-terror campaign has just been toppled to rebels supported by Iran.",君王,王,辟,国王,,,
,1,,,,,,
,,,,,,,
,,,,,,,
,,,,,,,
,,,,,,,
,,,,,,,
,,,,,,,
,,,,,,,
,,,,,,,
,,,,,,,
,,,,,,,
,,,,,,,
,,,,,,,
,,,,,,,
,,,,,,,
,,,,,,,
65. key,,,,,,Themessage#key::,
"The message from Washington is clearly : Long live the new king. The regal choreography in Riyadh is especially welcome to the White House as it contrasts with events just across the border in Yemen, 
another key ally where a US-backed government crucial to its anti-terror campaign has just been toppled to rebels supported by Iran. 
James B. Smith, who served as U.S. ambassador to Saudi Arabia between 2009 and 2013, 
said there should be no concern in the administration that Salman's ascension will jeopardize U.S. 
relations with the deeply conservative kingdom.",钤键,基本的,钥,根本,图例,调调,锁上
,,,,,,,
,窍,窍门,键,电键,钥匙,关键,答案
,,,,,,1,
,主要的,,,,,,
,,,,,,,
,,,,,,,
,,,,,,,
,,,,,,,
,,,,,,,
,,,,,,,
,,,,,,,
,,,,,,,
,,,,,,,
,,,,,,,
,,,,,,,
,,,,,,,
66. correct,,,,,,"""Weknow#correct::",
"""We know Salman well, he was governor of Riyadh for the better part of 50 years, he is well known to the US government. 
I see no break in the U.S.-Saudi relationship,"" Smith said. Salman vowed just hours after the death of Abdullah, 
that the kingdom ""would continue adhering to the correct policies which Saudi Arabia has followed since its establishment."" State Department spokeswoman Jen Psaki said that the allies had a ""long history of cooperation. 
We don't have any indication that that cooperation will change.""",纠正,正误,正确,订正,改正,批改,改过
,,,1,,,,
,匡,纠,应得,修正,纠偏,是,然
,,,,,,,
,改,改口,斧正,拨正,正,韪,端正
,,,,,,,
,更正,顺,不错,精密,,,
,,,,,,,
,,,,,,,
,,,,,,,
,,,,,,,
,,,,,,,
,,,,,,,
,,,,,,,
,,,,,,,
,,,,,,,
,,,,,,,
67. king,,,,,,Saudiwatchers#king::,
"Saudi watchers in Washington were impressed and reassured by the line of succession outlined by Salman in an apparent effort to solve a dynastic riddle and send a signal of continuity to the outside world. 
He named Prince Mohammed bin Nayef, one of scores of posssible candidates, as deputy crown prince, 
a move which puts him second in line to the throne and establishes a future transfer of power from the sons of the founder of Saudi Arabia, 
King Abdulaziz Ibn Saud, who have ruled the country since the 1950s, to a new generation. ""I think for the near term, 
continuity is going to be the centerpiece here,"" said Daniel Benjamin, a former coordinator for counter-terrorism at the State Department, 
now at Dartmouth College, told CNN.",君王,王,辟,国王,,,
,1,,,,,,
,,,,,,,
,,,,,,,
,,,,,,,
,,,,,,,
,,,,,,,
,,,,,,,
,,,,,,,
,,,,,,,
,,,,,,,
,,,,,,,
,,,,,,,
,,,,,,,
,,,,,,,
,,,,,,,
,,,,,,,
68. deal,,,,,,"'""Ithink#deal::",
"'""I think that the concern remains among the Saudi leadership about an agreement that is going to be at their expense,"" said David Ottaway, 
an author on Saudi Arabia and senior scholar at the Wilson Center. Some analysts believe that the Saudi government could react to what it would see as a bad nuclear deal between world powers and Iran -- which left the Islamic Republic with some capacity to enrich uranium or produce plutonium -- by looking to find its own nuclear capability -- perhaps with assistance from Pakistan. 
Saudi princes took to the op-ed pages of US newspapers in 2013 in a highly unusual move to complain that a nuclear deal was a ""dangerous gamble.""",交,发给,发放,交易,合同,份量,经销
,,,,1,,,
,合约,发牌,,,,,
,,,,,,,
,,,,,,,
,,,,,,,
,,,,,,,
,,,,,,,
,,,,,,,
,,,,,,,
,,,,,,,
,,,,,,,
,,,,,,,
,,,,,,,
,,,,,,,
,,,,,,,
,,,,,,,
69. first,,,,,,Inrecent#first::,
"In recent years, the Obama administration has attempted to assuage Saudi fears. The US president made a visit to Riyadh last year, 
on a trip that was widely seen as an attempt to mend fences. Saudi Arabian pilots, reportedly including one of Salman's sons, 
Prince Khaled, helped carry out the first air attacks on ISIS in Syria last year. 
Saudi Arabia also approved of Secretary of State John Kerry's exhaustive but ultimately futile efforts to keep Israel and the Palestinians talking. 
And White House spokesman Josh Earnest said that an underpinning of those efforts, 
an Arab Peace Plan framed by Abdullah would stand as his lasting memorial.",第一,首先,上,第一位,首要的,首,初
,,,,,,,
,起点,最初,一次,第一个,第一次,甲,头
,,,,1,1,,
,上个,开始,憖,元,先,最先,乍
,,,,,,,
,原始,首次,一日,开端,,,
,,,,,,,
,,,,,,,
,,,,,,,
,,,,,,,
,,,,,,,
,,,,,,,
,,,,,,,
,,,,,,,
,,,,,,,
,,,,,,,
70. house,,,,,,SaudiArabian#house::,
"Saudi Arabian pilots, reportedly including one of Salman's sons, Prince Khaled, helped carry out the first air attacks on ISIS in Syria last year. 
Saudi Arabia also approved of Secretary of State John Kerry's exhaustive but ultimately futile efforts to keep Israel and the Palestinians talking. 
And White House spokesman Josh Earnest said that an underpinning of those efforts, 
an Arab Peace Plan framed by Abdullah would stand as his lasting memorial. Smith said that the relationship between Riyadh and Washington was now better than it had been earlier in the administration.",驻防,家务,驻守,居,馆,住宅,驻扎
,,,,,,,
,舍,房子,屋子,收容,斋,宅院,驻屯
,,,,,,,
,屋,房,,,,,
,,,,,,,
,,,,,,,
,,,,,,,
,,,,,,,
,,,,,,,
,,,,,,,
,,,,,,,
,,,,,,,
,,,,,,,
,,,,,,,
,,,,,,,
,,,,,,,
71. attack,,,,,,(CNN)Atleast#attack::,
"(CNN)At least 30 people, including two children, have been killed in shelling in the southeastern Ukrainian city of Mariupol, 
city officials said Saturday, in the latest violence to rock the disputed Donetsk region. Another 102 people were injured, 
at least 75 of whom needed hospital treatment, and many suffered shrapnel injuries, Mariupol City Council said. 
Pro-Russian separatists are blamed for the attack on residential areas in the port city, 
Donetsk regional police chief Vyacheslav Abroskin said on his Facebook page.",打击,攻打,矛头,侵袭,抨击,攻击,抨
,,,,1,,1,
,掊,发作,犯,掊击,扑,进攻,征
,,,,,,,
,砰击,攻,击,,,,
,,,,,,,
,袭击,,,,,,
,,,,,,,
,,,,,,,
,,,,,,,
,,,,,,,
,,,,,,,
,,,,,,,
,,,,,,,
,,,,,,,
,,,,,,,
,,,,,,,
72. port,,,,,,Another102#port::,
"Another 102 people were injured, at least 75 of whom needed hospital treatment, and many suffered shrapnel injuries, 
Mariupol City Council said. Pro-Russian separatists are blamed for the attack on residential areas in the port city, 
Donetsk regional police chief Vyacheslav Abroskin said on his Facebook page. The Interior Ministry said one person was arrested in connection with the attack.",埠,端口,港口,端,接口,港,岸
,,,1,,,,
,埔,,,,,,
,,,,,,,
,,,,,,,
,,,,,,,
,,,,,,,
,,,,,,,
,,,,,,,
,,,,,,,
,,,,,,,
,,,,,,,
,,,,,,,
,,,,,,,
,,,,,,,
,,,,,,,
,,,,,,,
73. attack,,,,,,Pro-Russianseparatists#attack::,
"Pro-Russian separatists are blamed for the attack on residential areas in the port city, 
Donetsk regional police chief Vyacheslav Abroskin said on his Facebook page. The Interior Ministry said one person was arrested in connection with the attack. 
Based on preliminary assessments, the shells were fired from Grad rocket systems, 
a statement from Mariupol City Council said.",打击,攻打,矛头,侵袭,抨击,攻击,抨
,,,,1,,1,
,掊,发作,犯,掊击,扑,进攻,征
,,,,,,,
,砰击,攻,击,,,,
,,,,,,,
,装击,,,,,,
,,,,,,,
,,,,,,,
,,,,,,,
,,,,,,,
,,,,,,,
,,,,,,,
,,,,,,,
,,,,,,,
,,,,,,,
,,,,,,,
74. long,,,,,,Thetwo#long::,
"The two leaders vowed to ""ensure that the costs continue to rise on Russia for its aggressive actions against Ukraine."" Thousands have been killed since the conflict broke out in the spring of last year and a ceasefire agreed to in September in Minsk, 
Belarus, crumbled long ago.",长期,冀,悠悠,长远,久,渴望,悠久
,,,,,,,
,悠长,愒,悠然,梴,多头,莘,长久
,,,,,,,
,很久,曼,长,长期地,,,
,1,,,,,,
,,,,,,,
,,,,,,,
,,,,,,,
,,,,,,,
,,,,,,,
,,,,,,,
,,,,,,,
,,,,,,,
,,,,,,,
,,,,,,,
,,,,,,,
75. dead,,,,,,MarkGriffiths#dead::,
"Mark Griffiths is a Chartered Psychologist and Director of the International Gaming Research Unit at Nottingham Trent University (UK). 
His latest book published in January 2015 (written with Dr. Daria Kuss) is ""Internet Addiction in Psychotherapy"" (Palgrave Press). 
 The views expressed in this commentary are solely the author's.  (CNN)Earlier this month, 
a 32-year old male gamer was found dead at a Taiwanese Internet cafe following a non-stop three-day gaming session. 
This followed the death of another male gamer who died in Taipei at the start of the year following a five-day gaming binge. 
While these cases are extremely rare, it does beg the question of why gaming can lead to such excessive behavior. 
I have spent nearly three decades studying videogame addiction and there are many studies published in both the medical and psychological literature showing that very excessive gaming can lead to a variety of health problems that range from repetitive strain injuries and obesity, 
through to auditory and visual hallucinations and addiction.",过世,僵死,死人,死的,过世的,死者,完全地
,1,,,,,,
,绝对地,死,,,,,
,,1,,,,,
,,,,,,,
,,,,,,,
,,,,,,,
,,,,,,,
,,,,,,,
,,,,,,,
,,,,,,,
,,,,,,,
,,,,,,,
,,,,,,,
,,,,,,,
,,,,,,,
,,,,,,,
76. start,,,,,,MarkGriffiths#start::,
"Mark Griffiths is a Chartered Psychologist and Director of the International Gaming Research Unit at Nottingham Trent University (UK). 
His latest book published in January 2015 (written with Dr. Daria Kuss) is ""Internet Addiction in Psychotherapy"" (Palgrave Press). 
 The views expressed in this commentary are solely the author's.  (CNN)Earlier this month, 
a 32-year old male gamer was found dead at a Taiwanese Internet cafe following a non-stop three-day gaming session. 
This followed the death of another male gamer who died in Taipei at the start of the year following a five-day gaming binge. 
While these cases are extremely rare, it does beg the question of why gaming can lead to such excessive behavior. 
I have spent nearly three decades studying videogame addiction and there are many studies published in both the medical and psychological literature showing that very excessive gaming can lead to a variety of health problems that range from repetitive strain injuries and obesity, 
through to auditory and visual hallucinations and addiction.",开,草创,初期,开幕,起动,起头,发动
,,,,,,,
,开创,创,开办,开辟,搞,谡,摅愤
,,,,,,,
,开动,启,头,开头,兴,开始,始
,,,,1,,,
,惊,开展,发端,启动,初,开工,开端
,,,,,1,,
,掀起,起,,,,,
,,,,,,,
,,,,,,,
,,,,,,,
,,,,,,,
,,,,,,,
,,,,,,,
,,,,,,,
,,,,,,,
77. question,,,,,,(CNN)Earlierthis#question::,
"(CNN)Earlier this month, a 32-year old male gamer was found dead at a Taiwanese Internet cafe following a non-stop three-day gaming session. 
This followed the death of another male gamer who died in Taipei at the start of the year following a five-day gaming binge. 
While these cases are extremely rare, it does beg the question of why gaming can lead to such excessive behavior. 
I have spent nearly three decades studying videogame addiction and there are many studies published in both the medical and psychological literature showing that very excessive gaming can lead to a variety of health problems that range from repetitive strain injuries and obesity, 
through to auditory and visual hallucinations and addiction.  I have to stress that there is lots of scientific research showing the many educational and therapeutic benefits of playing but there is definitely a small minority of gamers that develop problems as a result of gaming overuse.",课题,议题,查问,讯问,刨,质疑,靠问
,,,,,,1,
,讯,审问,问题,怀疑,质问,疑问,
,,,,,,,
,,,,,,,
,,,,,,,
,,,,,,,
,,,,,,,
,,,,,,,
,,,,,,,
,,,,,,,
,,,,,,,
,,,,,,,
,,,,,,,
,,,,,,,
,,,,,,,
,,,,,,,
78. lead,,,,,,(CNN)Earlierthis#lead::,
"(CNN)Earlier this month, a 32-year old male gamer was found dead at a Taiwanese Internet cafe following a non-stop three-day gaming session. 
This followed the death of another male gamer who died in Taipei at the start of the year following a five-day gaming binge. 
While these cases are extremely rare, it does beg the question of why gaming can lead to such excessive behavior. 
I have spent nearly three decades studying videogame addiction and there are many studies published in both the medical and psychological literature showing that very excessive gaming can lead to a variety of health problems that range from repetitive strain injuries and obesity, 
through to auditory and visual hallucinations and addiction.  I have to stress that there is lots of scientific research showing the many educational and therapeutic benefits of playing but there is definitely a small minority of gamers that develop problems as a result of gaming overuse.",超前,引导,率,领,督率,首位,主导
,,,,,,,
,羑,搐,引,率先,倡,主角,带
,,,,,,,
,优越,铅条,引线,铅,导线,向导,率领
,,,,,,,
,领先,指引,导引,领导,指挥,带领,提挈
,,,,,,,
,导,,,,,,
,,,,,,,
,导致,,,,,,
,,,,,,,
,,,,,,,
,,,,,,,
,,,,,,,
,,,,,,,
,,,,,,,
79. come,,,,,,"Forme,#come::",
"For me, addiction boils down to constant reinforcement, or put more simply, being constantly rewarded while playing the game. 
Gaming rewards can be physiological (such as feeling ""high"" or getting a ""buzz"" while playing or beating your personal high score), 
psychological (such as feeling you have complete control in a specific situation or knowing that your strategic play helped you win), 
social (such as being congratulated by fellow gamers when doing something well in the game) and, in some cases, 
financial (such as winning a gaming tournament).  Most of these rewards are -- at least to some extent -- unpredictable. 
Not knowing when the next reward will come keeps some players in the game. In short, 
they carry on gaming even though they may not have received an immediate reward. They simply hope that another reward is ""just around the corner"" and keep on playing. 
 Added to this is the shift over the last decade from standalone console gaming to massively multiplayer online games where games never end and gamers have to compete and/or collaborate with other gamers in real time (instead of being able to pause the game and come back and play from the point at which the player left it). 
Many excessive gamers report that they hate logging off and leaving such games. They don't like it as they don't know what is going on in the game when they are not online.",过来,来,来到,发生,,,
,,1,,,,,
,,,,,,,
,,,,,,,
,,,,,,,
,,,,,,,
,,,,,,,
,,,,,,,
,,,,,,,
,,,,,,,
,,,,,,,
,,,,,,,
,,,,,,,
,,,,,,,
,,,,,,,
,,,,,,,
,,,,,,,
80. life,,,,,,Throughoutmy#life::,
"Throughout my research career I have argued that although all addictions have particular and idiosyncratic characteristics, 
they share more commonalities than differences such as total preoccupation, mood modification, cravings, tolerance, 
withdrawal symptoms, conflict with work, education and other people, and loss of control. 
These similarities likely reflect a common etiology of addictive behavior.   At the simplest level, 
healthy enthusiasms add to life and addictions take away from it.  Mark Griffiths",生命,春,生机,身,寿命,活命,世面
,,,,,,,
,性命,人生,寿,生物,世,生活,命
,,,,,,1,
,日子,生,,,,,
,,,,,,,
,,,,,,,
,,,,,,,
,,,,,,,
,,,,,,,
,,,,,,,
,,,,,,,
,,,,,,,
,,,,,,,
,,,,,,,
,,,,,,,
,,,,,,,
81. small,,,,,,TheDSM-5#small::,
"The DSM-5 lists nine criteria for IGD. If any gamer endorses five or more of the following criteria they would likely be diagnosed as having IGD: (1) preoccupation with internet games; (2) withdrawal symptoms when internet gaming is taken away; (3) the need to spend increasing amounts of time engaged in internet gaming, 
(4) unsuccessful attempts to control participation in internet gaming; (5) loss of interest in hobbies and entertainment as a result of, 
and with the exception of, internet gaming; (6) continued excessive use of internet games despite knowledge of psychosocial problems; (7) deception of family members, 
therapists, or others regarding the amount of internet gaming; (8) use of the internet gaming to escape or relieve a negative mood;  and (9) loss of a significant relationship, 
job, or educational or career opportunity because of participation in internet games. 
The good news is that only a small minority of gamers suffer form IGD. Most online games are fun and exciting to play. 
But like any activity that is taken to excess, in a minority of cases the activity can become addictive. 
Any activity if done for days on end could lead to severe health problems and even death -- and gaming is no exception. 
Instead of demonizing games, we need to educate gamers about the potential dangers of very excessive use.",辁,蝇头,幺,薄,微小,裨,戋
,,,,,1,,
,蕞尔,细小,小,芮,少,藐,嘒
,,,,,,,
,怍,謏,小号,区,蕞,芾,
,,,,,,,
,,,,,,,
,,,,,,,
,,,,,,,
,,,,,,,
,,,,,,,
,,,,,,,
,,,,,,,
,,,,,,,
,,,,,,,
,,,,,,,
,,,,,,,
82. suffer,,,,,,TheDSM-5#suffer::,
"The DSM-5 lists nine criteria for IGD. If any gamer endorses five or more of the following criteria they would likely be diagnosed as having IGD: (1) preoccupation with internet games; (2) withdrawal symptoms when internet gaming is taken away; (3) the need to spend increasing amounts of time engaged in internet gaming, 
(4) unsuccessful attempts to control participation in internet gaming; (5) loss of interest in hobbies and entertainment as a result of, 
and with the exception of, internet gaming; (6) continued excessive use of internet games despite knowledge of psychosocial problems; (7) deception of family members, 
therapists, or others regarding the amount of internet gaming; (8) use of the internet gaming to escape or relieve a negative mood;  and (9) loss of a significant relationship, 
job, or educational or career opportunity because of participation in internet games. 
The good news is that only a small minority of gamers suffer form IGD. Most online games are fun and exciting to play. 
But like any activity that is taken to excess, in a minority of cases the activity can become addictive. 
Any activity if done for days on end could lead to severe health problems and even death -- and gaming is no exception. 
Instead of demonizing games, we need to educate gamers about the potential dangers of very excessive use.",受苦,患,著,负,苦,挨,遇到
,,,,,,,
,遭,吃,捱,罹,遭受,蒙受,受
,,,,,,,
,受到,给,闹,遭到,苦于,意会,
,,,,,1,,
,,,,,,,
,,,,,,,
,,,,,,,
,,,,,,,
,,,,,,,
,,,,,,,
,,,,,,,
,,,,,,,
,,,,,,,
,,,,,,,
,,,,,,,
83. check,,,,,,Incomingmessage?#check::,
Incoming message? Need to check the time? Got an unstoppable itch to check Instagram?,考,牵制,将,按,将军,验,稽查
,,,,,,,
,阻止,阻止物,查对,驾驭,寄存,审核,遏制
,,,,,,,
,校,支票,清查,截,校验,考查,阻击
,,,,,,,
,盘点,核,详述,检,制止,稽核,遏
,,,,,,,
,托运,卡,查验,考核,查,格子,帐单
,,,,,,,
,监察,把关,检查的,抑止,清点,,
,,,,,,,
,检查,查看,,,,,
,,,,,,,
,,,,,,,
,,,,,,,
,,,,,,,
84. time,,,,,,Incomingmessage?#time::,
Incoming message? Need to check the time? Got an unstoppable itch to check Instagram?,倍,年华,时间,候,趟,年份,度
,,,1,,,,
,光阴,辰,期,安排正在,工夫,遍,秋
,,,,,,,
,拍,时刻,季节,年头,期间,拍子,时
,,,,,,,
,时候,,,,,,
,,,,,,,
,,,,,,,
,,,,,,,
,,,,,,,
,,,,,,,
,,,,,,,
,,,,,,,
,,,,,,,
,,,,,,,
,,,,,,,
85. light,,,,,,It'sall#light::,
"It's all based on the notion that your phone can annoy the person next to you -- especially if you're in a dark, quiet place. 
  Incoming message? Need to check the time? Got an unstoppable itch to check Instagram? You're about to bathe your neighbors in a monstrously bright light and set off a chain of irksome bleeps. 
  In ""inconspicuous mode,"" sounds are gone, and the screen is a faint glow. Notifications don't show up on the home screen. 
The time is displayed in large numbers that are easier to glace at.",薄,明亮,明亮的,轻便,阳光,朗,暘
,,,,,,,
,粗心,轻微,生,脚灯,忧,点燃,纾缓
,,,,,,,
,亮,昱,燃点,暲,燃放,点,光纤
,,,,,,,
,发光体,燃,浅,灯光,光,晔,轻浮
,,,,,1,,
,淡,圣光,晢,淡薄,荧,嫩,轻飘
,,,,,,,
,灯,娇嫩,发光,轻,烺,,
,,,,,,,
,,,,,,,
,,,,,,,
,,,,,,,
,,,,,,,
,,,,,,,
86. show,,,,,,Incomingmessage?#show::,
"Incoming message? Need to check the time? Got an unstoppable itch to check Instagram? You're about to bathe your neighbors in a monstrously bright light and set off a chain of irksome bleeps. 
  In ""inconspicuous mode,"" sounds are gone, and the screen is a faint glow. Notifications don't show up on the home screen. 
The time is displayed in large numbers that are easier to glace at.   In Microsoft's description, 
you could tailor the ""inconspicuous"" display any way you like. Maybe it only shows text messages. 
Or it dims more than normal.",表示,显示,演示,出示,龇,表露,表现
,,1,,,,,
,向导,透,放映,意味着,带,表演,献
,,,,,,,
,现,露,表明,暴,示,展览会,揭示
,,,,,,,
,指引,演出,寄予,摆,呈,戏,著
,,,,,,,
,使被看见,表,节目,披露,展览,显,外观
,,,,,,,
,,,,,,,
,,,,,,,
,,,,,,,
,,,,,,,
,,,,,,,
,,,,,,,
,,,,,,,
87. key,,,,,,InMicrosoft's#key::,
"In Microsoft's description, you could tailor the ""inconspicuous"" display any way you like. Maybe it only shows text messages. 
Or it dims more than normal.   But the key feature is that it would be automatic. 
It would go into this mode if your phone's GPS detects you're at the location of a movie theater. 
Or if a restaurant's or stage theater's Wi-Fi or Bluetooth beacons tell it to. Or if your phone's light sensor detects darkness while the microphone also detects silence (like just before a movie starts playing). 
  To figure this out, the phone could even tap your calendar or your recent mobile payments. 
If you bought event tickets at the counter using tap-to-pay technology, your phone would know when to go quiet.",钤键,基本的,钥,根本,图例,调调,锁上
,,,,,,,
,窍,窍门,键,电键,钥匙,关键,答案
,,,,,,,
,主要的,,,,,,
,1,,,,,,
,,,,,,,
,,,,,,,
,,,,,,,
,,,,,,,
,,,,,,,
,,,,,,,
,,,,,,,
,,,,,,,
,,,,,,,
,,,,,,,
,,,,,,,
88. counter,,,,,,Butthe#counter::,
"But the key feature is that it would be automatic. It would go into this mode if your phone's GPS detects you're at the location of a movie theater. 
Or if a restaurant's or stage theater's Wi-Fi or Bluetooth beacons tell it to. Or if your phone's light sensor detects darkness while the microphone also detects silence (like just before a movie starts playing). 
  To figure this out, the phone could even tap your calendar or your recent mobile payments. 
If you bought event tickets at the counter using tap-to-pay technology, your phone would know when to go quiet. 
  If this gets popular, venues will probably be quick to embrace it. Mobile phone use in theaters is so pervasive nowadays that brief ""please silence your phones"" requests are now full-blown, 
pre-movie short films. And every performance by the New York Philharmonic is preceded by a 30-second, 
pre-recorded plea by Alec Baldwin. It's downright embarrassing.",应答,柜台,应对,筹码,案子,违反,计数器
,,1,,,,,
,相反的,筹,相反地,响应,计数者,,
,,,,,,,
,,,,,,,
,,,,,,,
,,,,,,,
,,,,,,,
,,,,,,,
,,,,,,,
,,,,,,,
,,,,,,,
,,,,,,,
,,,,,,,
,,,,,,,
,,,,,,,
,,,,,,,
89. game,,,,,,It'snot#game::,
"It's not a peyote-induced hallucination, but a genuinely impressive illusion created by Microsoft's (MSFT, 
Tech30) new augmented-reality goggles, HoloLens.   In this case, it was a 3-D game of Minecraft taking place, on, over, under, 
behind and inside real furniture and walls. As you move your head and body around, the illusion moves completely with you in 3-D, 
remarkably affixed to the real world objects.   Microsoft previewed the brand new piece of hardware on Wednesday. 
HoloLens is Microsoft's foray into the virtual reality market. In its unique spin on VR, 
Microsoft has developed goggles that offer an augmented -- or ""mixed"" -- reality experience. Unlike Facebook's (FB, 
Tech30) Oculus Rift, which completely blocks out the outside world to fully immerse the wearer in another reality, 
HoloLens keeps one foot (and both eyes) firmly planted in the real world.",勇敢的,游戏,有胆量的,玩耍,赌钱,盘,赛
,,1,,,,,
,比赛,,,,,,
,,,,,,,
,,,,,,,
,,,,,,,
,,,,,,,
,,,,,,,
,,,,,,,
,,,,,,,
,,,,,,,
,,,,,,,
,,,,,,,
,,,,,,,
,,,,,,,
,,,,,,,
,,,,,,,
90. place,,,,,,It'snot#place::,
"It's not a peyote-induced hallucination, but a genuinely impressive illusion created by Microsoft's (MSFT, 
Tech30) new augmented-reality goggles, HoloLens.   In this case, it was a 3-D game of Minecraft taking place, on, over, under, 
behind and inside real furniture and walls. As you move your head and body around, the illusion moves completely with you in 3-D, 
remarkably affixed to the real world objects.   Microsoft previewed the brand new piece of hardware on Wednesday. 
HoloLens is Microsoft's foray into the virtual reality market. In its unique spin on VR, 
Microsoft has developed goggles that offer an augmented -- or ""mixed"" -- reality experience. Unlike Facebook's (FB, 
Tech30) Oculus Rift, which completely blocks out the outside world to fully immerse the wearer in another reality, 
HoloLens keeps one foot (and both eyes) firmly planted in the real world.",搁,境,地方,处,摆列,寄托,场地
,,,,,,,
,部位,寄予,座,停放,厝,地点,席
,,,,,,,
,地,点,禺,放,所,竖立,寄
,,,,,,,
,置于,摆,位置,位,到位,放置,竖
,,,,,,,
,地位,扣,场,安放,场所,摆放,置
,,,,,,,
,位子,去处,座位,,,,
,,,,,,,
,,,,,,,
,,,,,,,
,,,,,,,
,,,,,,,
,,,,,,,
91. real,,,,,,It'snot#real::,
"It's not a peyote-induced hallucination, but a genuinely impressive illusion created by Microsoft's (MSFT, 
Tech30) new augmented-reality goggles, HoloLens.   In this case, it was a 3-D game of Minecraft taking place, on, over, under, 
behind and inside real furniture and walls. As you move your head and body around, the illusion moves completely with you in 3-D, 
remarkably affixed to the real world objects.   Microsoft previewed the brand new piece of hardware on Wednesday. 
HoloLens is Microsoft's foray into the virtual reality market. In its unique spin on VR, 
Microsoft has developed goggles that offer an augmented -- or ""mixed"" -- reality experience. Unlike Facebook's (FB, 
Tech30) Oculus Rift, which completely blocks out the outside world to fully immerse the wearer in another reality, 
HoloLens keeps one foot (and both eyes) firmly planted in the real world.",非常,真实,确实,实打实,真相,现实,确
,,1,,,,1,
,实在,真币,活生生,真正,实际,真,实
,,,,1,1,,
,,,,,,,
,,,,,,,
,,,,,,,
,,,,,,,
,,,,,,,
,,,,,,,
,,,,,,,
,,,,,,,
,,,,,,,
,,,,,,,
,,,,,,,
,,,,,,,
,,,,,,,
92. real,,,,,,It'snot2#real::,
"It's not a peyote-induced hallucination, but a genuinely impressive illusion created by Microsoft's (MSFT, 
Tech30) new augmented-reality goggles, HoloLens.   In this case, it was a 3-D game of Minecraft taking place, on, over, under, 
behind and inside real furniture and walls. As you move your head and body around, the illusion moves completely with you in 3-D, 
remarkably affixed to the real world objects.   Microsoft previewed the brand new piece of hardware on Wednesday. 
HoloLens is Microsoft's foray into the virtual reality market. In its unique spin on VR, 
Microsoft has developed goggles that offer an augmented -- or ""mixed"" -- reality experience. Unlike Facebook's (FB, 
Tech30) Oculus Rift, which completely blocks out the outside world to fully immerse the wearer in another reality, 
HoloLens keeps one foot (and both eyes) firmly planted in the real world.",非常,真实,确实,实打实,真相,现实,确
,,1,,,,1,
,实在,真币,活生生,真正,实际,真,实
,,,,1,1,,
,,,,,,,
,,,,,,,
,,,,,,,
,,,,,,,
,,,,,,,
,,,,,,,
,,,,,,,
,,,,,,,
,,,,,,,
,,,,,,,
,,,,,,,
,,,,,,,
,,,,,,,
93. new,,,,,,Inthis#new::,
"In this case, it was a 3-D game of Minecraft taking place, on, over, under, behind and inside real furniture and walls. 
As you move your head and body around, the illusion moves completely with you in 3-D, 
remarkably affixed to the real world objects.   Microsoft previewed the brand new piece of hardware on Wednesday. 
HoloLens is Microsoft's foray into the virtual reality market. In its unique spin on VR, 
Microsoft has developed goggles that offer an augmented -- or ""mixed"" -- reality experience. Unlike Facebook's (FB, 
Tech30) Oculus Rift, which completely blocks out the outside world to fully immerse the wearer in another reality, 
HoloLens keeps one foot (and both eyes) firmly planted in the real world.   The lenses of the goggles are transparent, 
your view of the space around you only selectively blocked by digital images that can mingle with real objects. For example, 
an interior designer can move around a real room and rearrange 3-D pieces of furniture too see how they will look, 
even placing a virtual vase on a real shelf.",异,新颖,新兴,新任,全新,新,新奇
,,1,,,1,1,
,耗,,,,,,
,,,,,,,
,,,,,,,
,,,,,,,
,,,,,,,
,,,,,,,
,,,,,,,
,,,,,,,
,,,,,,,
,,,,,,,
,,,,,,,
,,,,,,,
,,,,,,,
,,,,,,,
,,,,,,,
94. piece,,,,,,Inthis#piece::,
"In this case, it was a 3-D game of Minecraft taking place, on, over, under, behind and inside real furniture and walls. 
As you move your head and body around, the illusion moves completely with you in 3-D, 
remarkably affixed to the real world objects.   Microsoft previewed the brand new piece of hardware on Wednesday. 
HoloLens is Microsoft's foray into the virtual reality market. In its unique spin on VR, 
Microsoft has developed goggles that offer an augmented -- or ""mixed"" -- reality experience. Unlike Facebook's (FB, 
Tech30) Oculus Rift, which completely blocks out the outside world to fully immerse the wearer in another reality, 
HoloLens keeps one foot (and both eyes) firmly planted in the real world.   The lenses of the goggles are transparent, 
your view of the space around you only selectively blocked by digital images that can mingle with real objects. For example, 
an interior designer can move around a real room and rearrange 3-D pieces of furniture too see how they will look, 
even placing a virtual vase on a real shelf.",瓣,篇,一片,片,篇子,紩,个
,,,,,,,1
,棋子,一块,块,连贯,拼凑,拚,部分
,,,,,,,
,拼,拼合,,,,,
,,,,,,,
,,,,,,,
,,,,,,,
,,,,,,,
,,,,,,,
,,,,,,,
,,,,,,,
,,,,,,,
,,,,,,,
,,,,,,,
,,,,,,,
,,,,,,,
95. use,,,,,,Thelenses#use::,
"The lenses of the goggles are transparent, your view of the space around you only selectively blocked by digital images that can mingle with real objects. 
For example, an interior designer can move around a real room and rearrange 3-D pieces of furniture too see how they will look, 
even placing a virtual vase on a real shelf.   To manipulate something in the HoloLens world, you use hand gestures, 
which are picked up by cameras on the front of the device. The single wiggle of an index finger can drop a flag on the surface of Mars or select a color for your 3-D sculpture. 
The cursor is always at the center of your view, moving when you move your head. Microphones pick up voice commands that bring up menus. 
  The goggles are wireless and don't need to be tethered to any device, so while they're meant for home or office use, 
they wearer is able to roam freely. The speakers play ""spacial"" sound, so a noise might seem like it's coming from behind or beside you, 
adding to the virtual reality experience.",将,利用,应用,使用,使唤,用,功用
,,,,1,,1,
,庸,施,采用,用场,采取,使出,展
,,,,,,,
,补,运用,施用,以,用途,用于,使
,,,,,,,
,动,赢余,意向,,,,
,,,,,,,
,,,,,,,
,,,,,,,
,,,,,,,
,,,,,,,
,,,,,,,
,,,,,,,
,,,,,,,
,,,,,,,
,,,,,,,
96. single,,,,,,Thelenses#single::,
"The lenses of the goggles are transparent, your view of the space around you only selectively blocked by digital images that can mingle with real objects. 
For example, an interior designer can move around a real room and rearrange 3-D pieces of furniture too see how they will look, 
even placing a virtual vase on a real shelf.   To manipulate something in the HoloLens world, you use hand gestures, 
which are picked up by cameras on the front of the device. The single wiggle of an index finger can drop a flag on the surface of Mars or select a color for your 3-D sculpture. 
The cursor is always at the center of your view, moving when you move your head. Microphones pick up voice commands that bring up menus. 
  The goggles are wireless and don't need to be tethered to any device, so while they're meant for home or office use, 
they wearer is able to roam freely. The speakers play ""spacial"" sound, so a noise might seem like it's coming from behind or beside you, 
adding to the virtual reality experience.",独身主义的,一,只,独身主义者,个别,独,独身
,,,,,,,
,独身者,单,单身,单个,单一,,
,,,,1,,,
,,,,,,,
,,,,,,,
,,,,,,,
,,,,,,,
,,,,,,,
,,,,,,,
,,,,,,,
,,,,,,,
,,,,,,,
,,,,,,,
,,,,,,,
,,,,,,,
,,,,,,,
97. drop,,,,,,Thelenses#drop::,
"The lenses of the goggles are transparent, your view of the space around you only selectively blocked by digital images that can mingle with real objects. 
For example, an interior designer can move around a real room and rearrange 3-D pieces of furniture too see how they will look, 
even placing a virtual vase on a real shelf.   To manipulate something in the HoloLens world, you use hand gestures, 
which are picked up by cameras on the front of the device. The single wiggle of an index finger can drop a flag on the surface of Mars or select a color for your 3-D sculpture. 
The cursor is always at the center of your view, moving when you move your head. Microphones pick up voice commands that bring up menus. 
  The goggles are wireless and don't need to be tethered to any device, so while they're meant for home or office use, 
they wearer is able to roam freely. The speakers play ""spacial"" sound, so a noise might seem like it's coming from behind or beside you, 
adding to the virtual reality experience.",掉,撒,投,降落,沥,下降,减退
,,,,,,,
,放下,点,点子,落,降,跌,衰退
,,,,,,,
,摔,摔交,改掉,水滴,降低,摔倒,作罢
,,,,,,,
,滴,落下,,,,,
,,1,,,,,
,,,,,,,
,,,,,,,
,,,,,,,
,,,,,,,
,,,,,,,
,,,,,,,
,,,,,,,
,,,,,,,
,,,,,,,
98. pick,,,,,,Thelenses#pick::,
"The lenses of the goggles are transparent, your view of the space around you only selectively blocked by digital images that can mingle with real objects. 
For example, an interior designer can move around a real room and rearrange 3-D pieces of furniture too see how they will look, 
even placing a virtual vase on a real shelf.   To manipulate something in the HoloLens world, you use hand gestures, 
which are picked up by cameras on the front of the device. The single wiggle of an index finger can drop a flag on the surface of Mars or select a color for your 3-D sculpture. 
The cursor is always at the center of your view, moving when you move your head. Microphones pick up voice commands that bring up menus. 
  The goggles are wireless and don't need to be tethered to any device, so while they're meant for home or office use, 
they wearer is able to roam freely. The speakers play ""spacial"" sound, so a noise might seem like it's coming from behind or beside you, 
adding to the virtual reality experience.",选,选拔,挑,掐,挑拣,掘,选择
,,,,,,,
,撷,采,叉,鹤嘴锄,镐,遴选,摘
,,,,,,,
,甄拔,采摘,采集,择,拨子,遴,诹
,,,,,,,
,提选,,,,,,
,1,,,,,,
,取,,,,,,
,,,,,,,
,,,,,,,
,,,,,,,
,,,,,,,
,,,,,,,
,,,,,,,
,,,,,,,
,,,,,,,
99. show,,,,,,Related:Microsoft's#show::,
"Related: Microsoft's insane holographic vision of the future. After an on-stage demonstration of the sleek, 
wraparound black glasses, Microsoft gave reporters four hands-on demos of the device at its Redmond, Washington headquarters. 
(Notably, the goggles I tested were not the finished product Microsoft demonstrated on stage -- they had jumbles of exposed electronic elements connected to a box that hung around my neck). 
  The demonstration scenarios attempted to show real examples of practical uses for the technology.",表示,显示,演示,出示,龇,表露,表现
,,,1,,,,
,向导,透,放映,意味着,带,表演,献
,,,,,,,
,现,露,表明,暴,示,展览会,揭示
,,,,,,,
,指引,演出,寄予,摆,呈,戏,著
,,,,,,,
,使被看见,表,节目,披露,展览,显,外观
,,,,,,,
,显示,,,,,,
,,,,,,,
,,,,,,,
,,,,,,,
,,,,,,,
,,,,,,,
,,,,,,,
100. play,,,,,,Thedemonstration#play::,
"The demonstration scenarios attempted to show real examples of practical uses for the technology.   Video games. 
Gamers tend to be enthusiastic early adopters of experimental immersive technology, 
and the stunning Minecraft demo seemed like the most natural and realistic use case. 
I do not usually play Minecraft but would absolutely start, and maybe forget to stop, if I had a HoloLens.   Customer service. 
A Skype call demo was to walk me through fixing a broken light. The person on the other end of the call could see what I saw (real wires, 
tools, a hole in the wall) and could annotate my view with colorful lines and arrows. 
She even doodled a little diagram on a patch of blank wall. Remote customer support is a commonly imagined use for smart glasses, 
including Google Glass. While a neat thing to have, it's nothing a phone or PC running video chat wouldn't be able to accomplish.",游玩,弄,玩儿,嬉,耍,盘弄,演
,,,1,,,,
,逗,游戏,吹奏,演戏,玩,表演,戏剧
,,,,,1,,
,玩耍,赌博,玩弄,演出,饰演,奏,戏
,,,,,,,
,嬉戏,赌钱,剧本,比赛,剧,顽,嫽
,,,,,,,
,,,,,,,
,,,,,,,
,,,,,,,
,,,,,,,
,,,,,,,
,,,,,,,
,,,,,,,
,,,,,,,
,,,,,,,
101. end,,,,,,Videogames.#end::,
"Video games. Gamers tend to be enthusiastic early adopters of experimental immersive technology, 
and the stunning Minecraft demo seemed like the most natural and realistic use case. 
I do not usually play Minecraft but would absolutely start, and maybe forget to stop, if I had a HoloLens.   Customer service. 
A Skype call demo was to walk me through fixing a broken light. The person on the other end of the call could see what I saw (real wires, 
tools, a hole in the wall) and could annotate my view with colorful lines and arrows. 
She even doodled a little diagram on a patch of blank wall. Remote customer support is a commonly imagined use for smart glasses, 
including Google Glass. While a neat thing to have, it's nothing a phone or PC running video chat wouldn't be able to accomplish. 
  Design. HoloStudio is a creative app that is designed for anyone to easily tinker with, like a beefed up MS Paint. 
A palette of colors and shapes floats in front of the artist who can create simple or complex 3-D models. 
Final designs can be ordered online, and a printed version of your 3-D purple skyscraper will be delivered to your door.",殁,结论,告终,穷尽,收场,截止,末日
,,,,,,,
,止境,终了,末,终端,界限,终止,尽
,,,,,,,
,尾,尾声,终,穷期,卒,委,寝
,,,,,,,
,末梢,罢,结束,办到,端,完毕,完结
,,,,,1,,
,穷,终点,底,末尾,歾,,
,,,,,,,
,,,,,,,
,,,,,,,
,,,,,,,
,,,,,,,
,,,,,,,
,,,,,,,
,,,,,,,
102. glass,,,,,,Videogames.#glass::,
"Video games. Gamers tend to be enthusiastic early adopters of experimental immersive technology, 
and the stunning Minecraft demo seemed like the most natural and realistic use case. 
I do not usually play Minecraft but would absolutely start, and maybe forget to stop, if I had a HoloLens.   Customer service. 
A Skype call demo was to walk me through fixing a broken light. The person on the other end of the call could see what I saw (real wires, 
tools, a hole in the wall) and could annotate my view with colorful lines and arrows. 
She even doodled a little diagram on a patch of blank wall. Remote customer support is a commonly imagined use for smart glasses, 
including Google Glass. While a neat thing to have, it's nothing a phone or PC running video chat wouldn't be able to accomplish. 
  Design. HoloStudio is a creative app that is designed for anyone to easily tinker with, like a beefed up MS Paint. 
A palette of colors and shapes floats in front of the artist who can create simple or complex 3-D models. 
Final designs can be ordered online, and a printed version of your 3-D purple skyscraper will be delivered to your door.",玻璃杯,眼镜,杯,玻璃,玻璃的,玻,镜
,,1,,,,,
,杯子,,,,,,
,,,,,,,
,,,,,,,
,,,,,,,
,,,,,,,
,,,,,,,
,,,,,,,
,,,,,,,
,,,,,,,
,,,,,,,
,,,,,,,
,,,,,,,
,,,,,,,
,,,,,,,
,,,,,,,
103. look,,,,,,Design.HoloStudio#look::,
"Design. HoloStudio is a creative app that is designed for anyone to easily tinker with, like a beefed up MS Paint. 
A palette of colors and shapes floats in front of the artist who can create simple or complex 3-D models. 
Final designs can be ordered online, and a printed version of your 3-D purple skyscraper will be delivered to your door. 
  Virtual reality. At NASA's Jet Propulsion Laboratory, scientists regularly dig through images of Mars collected by the Curiosity Rover. 
They've collaborated with Microsoft to create a program that places them inside a 3-D rendering of Mars using HoloLens. 
Whether you look up or down, turn left or right, or walk forward or back, the landscape shifts accordingly so you feel like you're taking a stroll on the red planet. 
  The Mars demo was one of the few times I wished I was using full virtual reality goggles. 
They had reasons for wanted to keep reality involved -- JPL scientists are working not playing, 
and they need to use other tools like computers at the same time. But as impressive as it was, 
the mixed-reality version of Mars looked thin and desaturated.",目光,瞅,看,模样,朝向,面容,张
,,,1,,,,
,看起来,面貌,面向,容,神采,留心,注意
,,,,,,,
,观,面目,睊,像,觑,举目,脸色
,,,,,,,
,神情,神,形,神色,眼,色,注视
,,,,,,,
,盼,,,,,,
,,,,,,,
,,,,,,,
,,,,,,,
,,,,,,,
,,,,,,,
,,,,,,,
,,,,,,,
,,,,,,,
104. turn,,,,,,Design.HoloStudio#turn::,
"Design. HoloStudio is a creative app that is designed for anyone to easily tinker with, like a beefed up MS Paint. 
A palette of colors and shapes floats in front of the artist who can create simple or complex 3-D models. 
Final designs can be ordered online, and a printed version of your 3-D purple skyscraper will be delivered to your door. 
  Virtual reality. At NASA's Jet Propulsion Laboratory, scientists regularly dig through images of Mars collected by the Curiosity Rover. 
They've collaborated with Microsoft to create a program that places them inside a 3-D rendering of Mars using HoloLens. 
Whether you look up or down, turn left or right, or walk forward or back, the landscape shifts accordingly so you feel like you're taking a stroll on the red planet. 
  The Mars demo was one of the few times I wished I was using full virtual reality goggles. 
They had reasons for wanted to keep reality involved -- JPL scientists are working not playing, 
and they need to use other tools like computers at the same time. But as impressive as it was, 
the mixed-reality version of Mars looked thin and desaturated.",斡,翻倒,顺序,摇,车,掉,轮流
,,,,,,,
,转,转动,拐,弯,化,捩,翻
,1,,,,,,
,弯子,纽,翻转,,,,
,,,1,,,,
,,,,,,,
,,,,,,,
,,,,,,,
,,,,,,,
,,,,,,,
,,,,,,,
,,,,,,,
,,,,,,,
,,,,,,,
,,,,,,,
,,,,,,,
105. right,,,,,,Design.HoloStudio#right::,
"Design. HoloStudio is a creative app that is designed for anyone to easily tinker with, like a beefed up MS Paint. 
A palette of colors and shapes floats in front of the artist who can create simple or complex 3-D models. 
Final designs can be ordered online, and a printed version of your 3-D purple skyscraper will be delivered to your door. 
  Virtual reality. At NASA's Jet Propulsion Laboratory, scientists regularly dig through images of Mars collected by the Curiosity Rover. 
They've collaborated with Microsoft to create a program that places them inside a 3-D rendering of Mars using HoloLens. 
Whether you look up or down, turn left or right, or walk forward or back, the landscape shifts accordingly so you feel like you're taking a stroll on the red planet. 
  The Mars demo was one of the few times I wished I was using full virtual reality goggles. 
They had reasons for wanted to keep reality involved -- JPL scientists are working not playing, 
and they need to use other tools like computers at the same time. But as impressive as it was, 
the mixed-reality version of Mars looked thin and desaturated.",纠正,向右,直接地,权利,是,然,权
,,1,,,,,
,合适的,正义,当,顒,拨正,直的,合理的
,,,,,,,
,有方,右方的,不错,韪,右,右边,对
,,,,,,,
,直接,在理,,,,,
,,,,,,,
,,,,,,,
,,,,,,,
,,,,,,,
,,,,,,,
,,,,,,,
,,,,,,,
,,,,,,,
,,,,,,,
,,,,,,,
106. back,,,,,,Design.HoloStudio#back::,
"Design. HoloStudio is a creative app that is designed for anyone to easily tinker with, like a beefed up MS Paint. 
A palette of colors and shapes floats in front of the artist who can create simple or complex 3-D models. 
Final designs can be ordered online, and a printed version of your 3-D purple skyscraper will be delivered to your door. 
  Virtual reality. At NASA's Jet Propulsion Laboratory, scientists regularly dig through images of Mars collected by the Curiosity Rover. 
They've collaborated with Microsoft to create a program that places them inside a 3-D rendering of Mars using HoloLens. 
Whether you look up or down, turn left or right, or walk forward or back, the landscape shifts accordingly so you feel like you're taking a stroll on the red planet. 
  The Mars demo was one of the few times I wished I was using full virtual reality goggles. 
They had reasons for wanted to keep reality involved -- JPL scientists are working not playing, 
and they need to use other tools like computers at the same time. But as impressive as it was, 
the mixed-reality version of Mars looked thin and desaturated.",后部,以前,后身,背面,襄,腰杆子,腰
,,,,,,,
,后面,脊,后的,支持,后,脊背,后边
,,,,,,,
,后部的,冀,翊,赌钱,后面的,后边的,向后
,,,,,,,1
,,,,,,,
,,,,,,,
,,,,,,,
,,,,,,,
,,,,,,,
,,,,,,,
,,,,,,,
,,,,,,,
,,,,,,,
,,,,,,,
,,,,,,,
107. full,,,,,,Virtualreality.#full::,
"Virtual reality. At NASA's Jet Propulsion Laboratory, scientists regularly dig through images of Mars collected by the Curiosity Rover. 
They've collaborated with Microsoft to create a program that places them inside a 3-D rendering of Mars using HoloLens. 
Whether you look up or down, turn left or right, or walk forward or back, the landscape shifts accordingly so you feel like you're taking a stroll on the red planet. 
  The Mars demo was one of the few times I wished I was using full virtual reality goggles. 
They had reasons for wanted to keep reality involved -- JPL scientists are working not playing, 
and they need to use other tools like computers at the same time. But as impressive as it was, 
the mixed-reality version of Mars looked thin and desaturated.   Full and partial virtual reality look different because of the underlying technology. 
HoloLens doesn't display images on any screen, but projects light directly onto the retina, 
imitating the way light travels from real objects. The augmented view is contained in a rectangle directly in front of your face. 
Oculus Rift shows its images on a screen in front of the eyes and extends farther out and around for a more encompassing view.",充分,详尽,充沛,赅,稛,匝,饱
,,,,,,,
,弥,整整,充份,足,弸,盈满,满
,,,,,,,
,充,盈,尽是,盎然,浡,详,饫
,,,,,,,
,充满,富有,饱满,丰满,详细,,
,,,,,,,
,全部,完整,,,,,
,,,,,,,
,,,,,,,
,,,,,,,
,,,,,,,
,,,,,,,
,,,,,,,
,,,,,,,
,,,,,,,
108. help,,,,,,Overlayingdigital#help::,
"Overlaying digital 3-D creations onto the real world is cool, but are there practical uses are there for this type of technology?   Microsoft hopes so. 
HoloLens was by far the most interesting announcement at a daylong event for Windows 10, 
and one Microsoft believes can help get customers excited about its products again. 
  Related: Microsoft unveils Windows 10",协助,搭手,赈济,促成,佑,襄,帮助
,,,,,,,1
,宥,补益,助,帮,嬴,扶助,支援
,,,,,,,
,弼,救援,赈,翊,救,协,济
,,,,,,,
,促进,帮忙,补,成全,援助,扶持,赢
,,,,,,,
,辅助,臂助,援,扶,输将,帮扶,
,,,,,,,
,,,,,,,
,,,,,,,
,,,,,,,
,,,,,,,
,,,,,,,
,,,,,,,
,,,,,,,
109. place,,,,,,"Hey,this#place::",
"Hey, this is important. It's about who's No. 1. It's about bragging rights.  ""Chicago reclaims its place"" as the ""world's busiest airport,"" Chicago Mayor Rahm Emanuel said in a statement Thursday, 
crediting new airline routes, newly relocated businesses and the city's strong economy. 
 But Atlanta's Hartsfield-Jackson remains No. 1 in annual passenger traffic. Spokesman Reese McCranie said the airport is projected to top 96 million passengers for 2014, 
compared with O'Hare, which handled 66.7 million in 2013. That put O'Hare in fifth place globally for passengers.",搁,境,地方,处,摆列,寄托,场地
,,,1,,,,
,部位,寄予,座,停放,厝,地点,席
,,,,,,1,
,地,点,禺,放,所,竖立,寄
,,,,,,,
,置于,摆,位置,位,到位,放置,竖
,,,,,,,
,地位,扣,场,安放,场所,摆放,置
,,,,,,,
,位子,去处,座位,,,,
,,,,,,,
,,,,,,,
,,,,,,,
,,,,,,,
,,,,,,,
,,,,,,,
110. little,,,,,,ButAtlanta's#little::,
"But Atlanta's Hartsfield-Jackson remains No. 1 in annual passenger traffic. Spokesman Reese McCranie said the airport is projected to top 96 million passengers for 2014, 
compared with O'Hare, which handled 66.7 million in 2013. That put O'Hare in fifth place globally for passengers. 
 ""With our friends in Chicago, it's always a little bit of friendly rivalry,"" McCranie said. 
""Our operations folks are probably getting ribbed by their operations folks for edging us out. But you know, 
we're all one aviation system, so when O'Hare does well, other airports -- including ours -- do well."" ATL24: A day in the life of the world's busiest airport",短的,些少,蝇头,短时间,微小,小量的,小
,,,,,,,1
,少,不足的,鲜,少量,细小,,
,1,,,,,,
,,,,,,,
,,,,,,,
,,,,,,,
,,,,,,,
,,,,,,,
,,,,,,,
,,,,,,,
,,,,,,,
,,,,,,,
,,,,,,,
,,,,,,,
,,,,,,,
,,,,,,,
111. capital,,,,,,"(CNN)""Yavash,yavash,""#capital::",
"(CNN)""Yavash, yavash,"" the small, gray-haired doctor says, leaning across from the passenger seat to put a hand on his friend's shoulder, 
imploring him to slow down the black Toyota as we approach another hairpin bend in the dusty road. 
 The driver cheerfully ignores the doctor's pleas and continues to take the corners at a clip, 
smoking all the while and occasionally breaking into wailed bursts of Kurdish folk song.  We're traveling from Sanandaj, 
the capital of Iran's Kurdistan province, to Marivan, a small city just a few kilometers from the border with Iraq.",资本,会,资,省会,资本的,国都,栌
,,,,,,,
,本金,京,大写,老本,本钱,首都的,都城
,,,,,,,
,都,首都,,,,,
,,1,,,,,
,,,,,,,
,,,,,,,
,,,,,,,
,,,,,,,
,,,,,,,
,,,,,,,
,,,,,,,
,,,,,,,
,,,,,,,
,,,,,,,
,,,,,,,
112. narrow,,,,,,Ina#narrow::,
"In a typical display of Iranian hospitality, they've offered to accompany me on the journey. 
To the left of the narrow road is a vertical, sand-colored mountain wall.  To the right, 
a 50-foot drop and a view across the spectacular Howraman Valley, a sparsely populated and beautiful part of the region.",狭窄,窄,戋,局促,狭小,褊,狭
,1,1,,,,,
,惛钝,逼,褊狭,逼仄,褊小,缩小,褊窄
,,,,,,,
,隘,局,小气,狭隘,笮,仄,
,,,,,,,
,,,,,,,
,,,,,,,
,,,,,,,
,,,,,,,
,,,,,,,
,,,,,,,
,,,,,,,
,,,,,,,
,,,,,,,
,,,,,,,
,,,,,,,
113. right,,,,,,Ina#right::,
"In a typical display of Iranian hospitality, they've offered to accompany me on the journey. 
To the left of the narrow road is a vertical, sand-colored mountain wall.  To the right, 
a 50-foot drop and a view across the spectacular Howraman Valley, a sparsely populated and beautiful part of the region.",纠正,向右,直接地,权利,是,然,权
,,,,,,,
,合适的,正义,当,顒,拨正,直的,合理的
,,,,,,,
,有方,右方的,不错,韪,右,右边,对
,,,,,1,1,
,直接,在理,,,,,
,,,,,,,
,,,,,,,
,,,,,,,
,,,,,,,
,,,,,,,
,,,,,,,
,,,,,,,
,,,,,,,
,,,,,,,
,,,,,,,
114. view,,,,,,Tothe#view::,
"To the left of the narrow road is a vertical, sand-colored mountain wall.  To the right, 
a 50-foot drop and a view across the spectacular Howraman Valley, a sparsely populated and beautiful part of the region. 
On the eastern edge of Iran, Kurdistan province makes up part of a broader Kurdish region, 
which also spans adjacent sections of Iraq, Syria and Turkey.",见,风光,见解,风貌,目光,览,看
,,1,,1,,,
,睊,意见,想法,景,意思,主张,视图
,,,,,,,
,看法,图景,望,瞻,论,景色,鉴
,,1,,,,1,
,,,,,,,
,,,,,,,
,,,,,,,
,,,,,,,
,,,,,,,
,,,,,,,
,,,,,,,
,,,,,,,
,,,,,,,
,,,,,,,
,,,,,,,
115. common,,,,,,"Colorfuldress,#common::",
"Colorful dress, religions at odds Culturally and linguistically, the residents here have more in common with their fellow Kurds across the border than with Iranians from Tehran, 
Esfahan or Shiraz. Dress is traditional: men sport baggy shalwar trousers, plain shirts and heavy felt waistcoats, 
while the women wear colorful dresses and headscarves rather than the black chador or hijab seen throughout much of the rest of Iran.",简,平常,普遍,简单,寻常,常见,公
,,,,,,,
,一般,共,普通,恒,常规,公共,平
,,,,,,,
,常,通,共同,通俗,,,
,,,1,,,,
,,,,,,,
,,,,,,,
,,,,,,,
,,,,,,,
,,,,,,,
,,,,,,,
,,,,,,,
,,,,,,,
,,,,,,,
,,,,,,,
,,,,,,,
116. stop,,,,,,Dressis#stop::,
"Dress is traditional: men sport baggy shalwar trousers, plain shirts and heavy felt waistcoats, 
while the women wear colorful dresses and headscarves rather than the black chador or hijab seen throughout much of the rest of Iran. 
On the way, we stop in a tiny village called Negel.  The mosque in the village is home to large, 
handwritten Quran said to be about 1,300 years old.",站住,辍止,阻击,断,碍,偃,阏
,,,,,,,
,阻止,戒,阻拦,逗,断绝,羇泊,跱
,,,,,,,
,锢,中止,堨,截,弭,踯,沮
,,,,,,,
,已,收,终止,制止,柅,歇,辍
,,,,,,,
,止息,遏,扎,停摆,停歇,阻挡,罢
,,,,,,,
,住,杜,收起,站,寝,停,逗留
,,,,,,1,
,煞,卡,止,住手,停顿,止住,湮
,,,,,,,
,停车,休止,停止,车站,停息,停下来,拦住
,,,,,,1,
,来，如,在,,,,,
