0. top,,,,,,(CNN)Youcan't#top::,
"(CNN)You can't escape Disney's phenomenon ""Frozen."" It is the highest-grossing animated film of all time and one of Disney's top franchises. 
It was the most downloaded movie from Apple last year, and kids everywhere are still singing the movie's anthem, 
""Let It Go.""",极,颠,面,尖峰,顶部,盖,顶端
,,,,,,,1
,尖,上身,最大的,上面的,头,顶,顶级
,,,,,,1,1
,最高的,,,,,,
,,,,,,,
,,,,,,,
,,,,,,,
,,,,,,,
,,,,,,,
,,,,,,,
,,,,,,,
,,,,,,,
,,,,,,,
,,,,,,,
,,,,,,,
,,,,,,,
1. even,,,,,,Itwas#even::,
"It was the most downloaded movie from Apple last year, and kids everywhere are still singing the movie's anthem, 
""Let It Go.""  Heck, it's now probably stuck in your own head right now, even if you have never seen the film. 
So why has the 2013 movie stuck around for so long for the under-5 set?",匀,双日,偶数,双数,匀实,瀡,齐刷刷
,,,,,,,
,相等,犹,连 ... 也,甚至,甚而,匀净,均
,,,1,1,1,,
,双,齐截,甚或,连,即使,偶,变平
,,,,1,1,,
,甚至于,就是,,,,,
,1,,,,,,
,,,,,,,
,,,,,,,
,,,,,,,
,,,,,,,
,,,,,,,
,,,,,,,
,,,,,,,
,,,,,,,
,,,,,,,
2. just,,,,,,Sowhy2#just::,
"So why has the 2013 movie stuck around for so long for the under-5 set?  Experts say it is not just because you can find images of movie's sisters on everything. 
Elsa and Anna are on dresses, on scooters and, just in time for the Easter season, even on jelly beans. 
 To understand the psychology behind ""Frozen"" Mania, CNN reached out to psychologists who are sisters themselves: Yalda Uhls is regional director for Common Sense Media. 
Maryam Kia-Keating is an associate professor of clinical psychology at University of California, Santa Barbara. 
Here is our edited conversation.",合乎正道的,只是,刚,只不过,恰恰,公正,甫
,,,,,,,
,刚好,公平,光是,方,允,顷,义
,,,1,,,,
,聊,才,干脆,刚刚,合理的,正,止
,,,,,,,
,只,公,恰,直,简直,啻,
,1,,,,,,
,,,,,,,
,,,,,,,
,,,,,,,
,,,,,,,
,,,,,,,
,,,,,,,
,,,,,,,
,,,,,,,
,,,,,,,
3. around,,,,,,Tounderstand#around::,
"To understand the psychology behind ""Frozen"" Mania, CNN reached out to psychologists who are sisters themselves: Yalda Uhls is regional director for Common Sense Media. 
Maryam Kia-Keating is an associate professor of clinical psychology at University of California, Santa Barbara. 
Here is our edited conversation. CNN: Princess movies have been around since the beginning of time, but this has really resonated. 
What has made this one so unique?  Yalda Uhls: One of the things that really struck me, and I think struck little children, 
is that there is a really strong intergenerational, family-themed message here. Despite the sisters Anna and Elsa being separated for so long, 
the story is ultimately about the bond between the two of them.",靠,左右,围绕,周围,靠近,光景,四处
,,,,,,,
,在 ... 周围,,,,,,
,,,,,,,
,存在,,,,,,
,,,,,,,
,,,,,,,
,,,,,,,
,,,,,,,
,,,,,,,
,,,,,,,
,,,,,,,
,,,,,,,
,,,,,,,
,,,,,,,
,,,,,,,
,,,,,,,
4. still,,,,,,Highlightingthat#still::,
"Highlighting that and making it feel important -- your sister, your brother, your mom and dad -- is something little kids can really identify with. 
 Maryam Kia-Keating: Kids can really understand the idea of their sister wanting to play with them, and sometimes not, 
but still having a strong family bond.  Ultimately, it's about the love between the sisters. 
That's a message that many little children understand. There are also good lessons about overcoming struggles and facing life challenges. 
But, what's interesting about preschoolers, in particular, is there's this loyalty and unrelenting interest to watch this movie over and over again.",安,侐,宓,仍然,尚,寂静,依然
,,,,1,,,1
,还是,安慰,静止,澶,犹,寂,安生
,1,,,,,,
,但,仍,静,还,使 ... 安静,使 ... 放心,依旧
,,1,,1,,,1
,阒,更,恹,但是,,,
,,,,,,,
,,,,,,,
,,,,,,,
,,,,,,,
,,,,,,,
,,,,,,,
,,,,,,,
,,,,,,,
,,,,,,,
,,,,,,,
5. easy,,,,,,Theseare#easy::,
"These are serious issues and themes, and sometimes little kids aren't ready to process and understand these ideas. 
 CNN: What about the characters seem so easy for kids to empathize with?  Uhls: Preschooler imaginations are really strong, 
and so they respond really well to stories with magical realism.",剡,安逸,浅,轻而易举,平易,便当,裕如
,,,1,,,,
,近,简易,易,轻巧,浅易,便利,缓缓的
,,1,,1,,,
,容易,松散,浅近,便,慢慢地,,
,1,,,,,,
,,,,,,,
,,,,,,,
,,,,,,,
,,,,,,,
,,,,,,,
,,,,,,,
,,,,,,,
,,,,,,,
,,,,,,,
,,,,,,,
,,,,,,,
6. well,,,,,,CNN:What#well::,
"CNN: What about the characters seem so easy for kids to empathize with?  Uhls: Preschooler imaginations are really strong, 
and so they respond really well to stories with magical realism. In ""Frozen,"" Princess Elsa has these powers to control ice and snow -- and that really captures kids' imaginations.",适,安好,顺利,臧,很好,水井,顺手
,,,,,1,,
,顺遂,涌,良好,井,满意地,舒服,颛
,,,1,,,,
,顺,好,顺当,,,,
,,1,,,,,
,,,,,,,
,,,,,,,
,,,,,,,
,,,,,,,
,,,,,,,
,,,,,,,
,,,,,,,
,,,,,,,
,,,,,,,
,,,,,,,
,,,,,,,
7. character,,,,,,"In""Frozen,""#character::",
"In ""Frozen,"" Princess Elsa has these powers to control ice and snow -- and that really captures kids' imaginations. 
When you're small, you don't feel powerful. Everyone is always dictating what you can and cannot do. 
Having a character they can empathize with that has these powers can make them feel more empowered, as well. 
 Kia-Keating: That magical piece is exciting and is one of the things that really sets this movie apart from others.",文字,字符,人,人物,文,言,品质
,,,1,1,,,
,性格,心地,性,臧否,八字,字,个性
,,,,,,,
,性格的,意向,性质,,,,
,,,,,,,
,,,,,,,
,,,,,,,
,,,,,,,
,,,,,,,
,,,,,,,
,,,,,,,
,,,,,,,
,,,,,,,
,,,,,,,
,,,,,,,
,,,,,,,
8. control,,,,,,Parentsare#control::,
"Parents are constantly trying to teach their little ones how to self-regulate their emotions, how to behave, how to sit down. 
Elsa is constantly trying to tame or control her emotions -- and while this is something that is salient to everyone throughout their lifetimes, 
this is something preschoolers deal with all the time.   CNN: The song ""Let It Go"": It's everywhere, 
and kids can't stop singing it. What is it about this anthem?",羁,控制,经纪,掌管,按,律,辖
,,1,,1,,,
,操纵,驾驭,管制,把持,管,按捺,控
,,,1,,,,
,管理的,节制,治,独揽,压,优越,抑制
,1,,,,,,1
,秉,控制的,监督,筦,统制,调度,监察
,,,,,,,
,治理,司,扼,懿,,,
,,,,,,,
,,,,,,,
,,,,,,,
,,,,,,,
,,,,,,,
,,,,,,,
,,,,,,,
,,,,,,,
9. even,,,,,,CNN:The#even::,
"CNN: The song ""Let It Go"": It's everywhere, and kids can't stop singing it. What is it about this anthem?  Kia-Keating:  My 4-year-old came home and learned the song before we had even seen the movie. 
 One of the lines she and all her friends connected to was ""Be the good girl that you always have to be.""",匀,双日,偶数,双数,匀实,瀡,齐刷刷
,,,,,,,
,相等,犹,连 ... 也,甚至,甚而,匀净,均
,,,,,,,
,双,齐截,甚或,连,即使,偶,变平
,,,,,,,
,甚至于,就是,,,,,
,1,,,,,,
,,,,,,,
,,,,,,,
,,,,,,,
,,,,,,,
,,,,,,,
,,,,,,,
,,,,,,,
,,,,,,,
,,,,,,,
10. continue,,,,,,Hedenied#continue::,
"He denied any involvement with any gang but said the prosecution has him concerned about future creative expression. 
 ""I would love to continue to rap,"" he said. ""But these people have you scared to do anything around here."" Prosecutors say lyrics aren't the only evidence they have. 
At Duncan's preliminary hearing, they presented social media posts that they say prove Duncan is still a gang member.",接续,连任,继,延续,续,持续,蝉联
,,,,,,1,
,接着,下去,赓,缵,绍,继续,
,,,,,,1,
,,,,,,,
,,,,,,,
,,,,,,,
,,,,,,,
,,,,,,,
,,,,,,,
,,,,,,,
,,,,,,,
,,,,,,,
,,,,,,,
,,,,,,,
,,,,,,,
,,,,,,,
11. think,,,,,,CNNLegal#think::,
"CNN Legal Analyst Mark Geragos says the district attorney may be trying to send a message ""that you shouldn't glorify or glamorize gang activity.""  ""The problem is you're going to run straight head-on into the First  Amendment,"" he said. 
""If they don't have anything other than the album, this case I don't think would ever stand up.""",怀,思考,看,意,设法,预期,算
,,,,,1,,
,预料,揣想,想得到,考虑,思,意想,想到
,,1,,,,,
,溯,思索,打量,忆,当,认为,以为
,,,,,,1,
,关心,料想,想起,道,想,念,怀念
,,,,,,,
,想象,臆断,,,,,
,1,,,,,,
,觉得,,,,,,
,,,,,,,
,,,,,,,
,,,,,,,
,,,,,,,
,,,,,,,
,,,,,,,
12. move,,,,,,(CNN)Todayis#move::,
"(CNN)Today is its day! ""Oh, The Places You'll Go!"" written and illustrated by Theodor Geisel, better known as Dr. Seuss, 
debuted 25 years ago on January 22, 1990. Since then, millions of high school and college grads have heard the same zealous affirmation, 
a not-so-gentle reminder to live up to their potential -- ""KID, YOU'LL MOVE MOUNTAINS!"" -- mixed with warnings about loneliness and uncertainty. 
 It's a children's book, as most Dr. Seuss books are, but its messages have resonated through a quarter-century because adults love it too, 
said Philip Nel, director of the program in children's literature at Kansas State University.",调,挪,举动,触动,打动,迁徙,移动
,,,,,,,1
,感,动,搬迁,搬,感到,搬家,感动
,,,,,,,
,游,运行,举,迁,动弹,摆,步骤
,,,,,,,
,行动,挪动,运动,提议,迁移,跞,行径
,,,,,1,,
,扤,触,拨,走,移,搬移,
,,,,,1,1,
,,,,,,,
,,,,,,,
,,,,,,,
,,,,,,,
,,,,,,,
,,,,,,,
,,,,,,,
13. book,,,,,,Hereare#book::,
"Here are a few facts about ""Oh, The Places You'll Go!"" and its legacy. Dr. Seuss knew it would be the last book he published Geisel was writing and illustrating ""Oh, 
The Places You'll Go!"" in the final years of his life, as he battled cancer. Other Seuss books have emerged since his death in 1991, 
but this was the last he had a hand in.",定,册子,书,卷,籍,册,簿子
,,,1,,,,
,著,本子,编,著作,书本,簿,
,,1,,,1,,
,,,,,,,
,,,,,,,
,,,,,,,
,,,,,,,
,,,,,,,
,,,,,,,
,,,,,,,
,,,,,,,
,,,,,,,
,,,,,,,
,,,,,,,
,,,,,,,
,,,,,,,
14. first,,,,,,Thoughit#first::,
"Though it presents plenty of Seussian optimism -- ""And will you succeed? Yes! You will, 
indeed! (98 and 3/4 percent guaranteed.)"" -- it references dark times and stumbles: ""I'm afraid that some times you'll play lonely games too. 
Games you can't win 'cause you'll play against you."" Geisel wrote from experience. After a successful career in advertising, 
his first book, ""And to Think That I Saw It on Mulberry Street,"" was famously rejected multiple times. 
Some projects in print and on screen simply never took off. In his personal life, 
he faced illness and the suicide of his first wife. ""The darkness of the book is what makes the optimism credible,"" Nel said.",第一,首先,上,第一位,首要的,首,初
,1,,,,,1,1
,起点,最初,一次,第一个,第一次,甲,头
,,,,1,,,
,上个,开始,憖,元,先,最先,乍
,,,,,,1,
,原始,首次,一日,开端,,,
,,,,,,,
,,,,,,,
,,,,,,,
,,,,,,,
,,,,,,,
,,,,,,,
,,,,,,,
,,,,,,,
,,,,,,,
,,,,,,,
15. book,,,,,,Thoughit#book::,
"Though it presents plenty of Seussian optimism -- ""And will you succeed? Yes! You will, 
indeed! (98 and 3/4 percent guaranteed.)"" -- it references dark times and stumbles: ""I'm afraid that some times you'll play lonely games too. 
Games you can't win 'cause you'll play against you."" Geisel wrote from experience. After a successful career in advertising, 
his first book, ""And to Think That I Saw It on Mulberry Street,"" was famously rejected multiple times. 
Some projects in print and on screen simply never took off. In his personal life, 
he faced illness and the suicide of his first wife. ""The darkness of the book is what makes the optimism credible,"" Nel said.",定,册子,书,卷,籍,册,簿子
,,,1,,,,
,著,本子,编,著作,书本,簿,
,,1,,,1,,
,,,,,,,
,,,,,,,
,,,,,,,
,,,,,,,
,,,,,,,
,,,,,,,
,,,,,,,
,,,,,,,
,,,,,,,
,,,,,,,
,,,,,,,
,,,,,,,
,,,,,,,
16. print,,,,,,Thoughit#print::,
"Though it presents plenty of Seussian optimism -- ""And will you succeed? Yes! You will, 
indeed! (98 and 3/4 percent guaranteed.)"" -- it references dark times and stumbles: ""I'm afraid that some times you'll play lonely games too. 
Games you can't win 'cause you'll play against you."" Geisel wrote from experience. After a successful career in advertising, 
his first book, ""And to Think That I Saw It on Mulberry Street,"" was famously rejected multiple times. 
Some projects in print and on screen simply never took off. In his personal life, 
he faced illness and the suicide of his first wife. ""The darkness of the book is what makes the optimism credible,"" Nel said.",版画,印子,打印,印刷,版,刊,印
,1,,,1,,,
,发布,踪,踪迹,,,,
,,,,,,,
,,,,,,,
,,,,,,,
,,,,,,,
,,,,,,,
,,,,,,,
,,,,,,,
,,,,,,,
,,,,,,,
,,,,,,,
,,,,,,,
,,,,,,,
,,,,,,,
,,,,,,,
17. life,,,,,,Thoughit#life::,
"Though it presents plenty of Seussian optimism -- ""And will you succeed? Yes! You will, 
indeed! (98 and 3/4 percent guaranteed.)"" -- it references dark times and stumbles: ""I'm afraid that some times you'll play lonely games too. 
Games you can't win 'cause you'll play against you."" Geisel wrote from experience. After a successful career in advertising, 
his first book, ""And to Think That I Saw It on Mulberry Street,"" was famously rejected multiple times. 
Some projects in print and on screen simply never took off. In his personal life, 
he faced illness and the suicide of his first wife. ""The darkness of the book is what makes the optimism credible,"" Nel said.",生命,春,生机,身,寿命,活命,世面
,1,,,,,,
,性命,人生,寿,生物,世,生活,命
,,1,,,,,
,日子,生,,,,,
,1,,,,,,
,,,,,,,
,,,,,,,
,,,,,,,
,,,,,,,
,,,,,,,
,,,,,,,
,,,,,,,
,,,,,,,
,,,,,,,
,,,,,,,
,,,,,,,
18. first,,,,,,Thoughit2#first::,
"Though it presents plenty of Seussian optimism -- ""And will you succeed? Yes! You will, 
indeed! (98 and 3/4 percent guaranteed.)"" -- it references dark times and stumbles: ""I'm afraid that some times you'll play lonely games too. 
Games you can't win 'cause you'll play against you."" Geisel wrote from experience. After a successful career in advertising, 
his first book, ""And to Think That I Saw It on Mulberry Street,"" was famously rejected multiple times. 
Some projects in print and on screen simply never took off. In his personal life, 
he faced illness and the suicide of his first wife. ""The darkness of the book is what makes the optimism credible,"" Nel said.",第一,首先,上,第一位,首要的,首,初
,1,,,,,1,1
,起点,最初,一次,第一个,第一次,甲,头
,,,,1,,,
,上个,开始,憖,元,先,最先,乍
,,,,,,1,
,原始,首次,一日,开端,,,
,,,,,,,
,,,,,,,
,,,,,,,
,,,,,,,
,,,,,,,
,,,,,,,
,,,,,,,
,,,,,,,
,,,,,,,
,,,,,,,
19. know,,,,,,"""Thedarkness#know::",
"""The darkness of the book is what makes the optimism credible,"" Nel said. Geisel was known to be shy but would be ""tickled"" to know that his words still have meaning now, 
said Susan Brandt, president of licensing and marketing at Dr. Seuss Enterprises. 
He was deliberate about what his last words to the world would be. ""You can feel him saying, 'Wait, 
I have one more thing to say,' "" she said. "" 'Listen to me; this is important.' """,审,懂,知,认,了,认识,识
,,,,,,,
,晓得,明,悉,晓,懂得,谂,知悉
,1,,,,1,,
,通,知道,,,,,
,,1,,,,,
,,,,,,,
,,,,,,,
,,,,,,,
,,,,,,,
,,,,,,,
,,,,,,,
,,,,,,,
,,,,,,,
,,,,,,,
,,,,,,,
,,,,,,,
20. book,,,,,,"""Youcan#book::",
"""You can feel him saying, 'Wait, I have one more thing to say,' "" she said. "" 'Listen to me; this is important.' "" It's the top-selling Dr. 
Seuss book ""Oh, The Places You'll Go!"" rose to the bestseller list shortly after it was released in 1990 and continues to pop up there most every spring, 
as high school and college grads transition to a new phase of life. Twenty-five years and more than 10 million copies later, 
it's the top-selling Dr. Seuss book.",定,册子,书,卷,籍,册,簿子
,,,1,,,,
,著,本子,编,著作,书本,簿,
,,1,,,1,,
,,,,,,,
,,,,,,,
,,,,,,,
,,,,,,,
,,,,,,,
,,,,,,,
,,,,,,,
,,,,,,,
,,,,,,,
,,,,,,,
,,,,,,,
,,,,,,,
,,,,,,,
21. but,,,,,,Itssuccess#but::,
"Its success isn't exactly a surprise, said Mallory Loehr, vice president and publisher of Random House Children's Books. 
It was published the year she began her career at Random House, and she remember the buzz around the book even then. 
 ""People knew it was special (in 1990),"" Loehr said. ""But 10 million is crazy.""  The main character is You -- and you, and you, 
and you",可是,不过,但,任何人,只,然而,而
,1,1,1,,,,
,可,答辩,只是,却,然,除 ... 以外,惟
,,,,,,,
,但是,,,,,,
,,,,,,,
,,,,,,,
,,,,,,,
,,,,,,,
,,,,,,,
,,,,,,,
,,,,,,,
,,,,,,,
,,,,,,,
,,,,,,,
,,,,,,,
,,,,,,,
22. book,,,,,,Itssuccess#book::,
"Its success isn't exactly a surprise, said Mallory Loehr, vice president and publisher of Random House Children's Books. 
It was published the year she began her career at Random House, and she remember the buzz around the book even then. 
 ""People knew it was special (in 1990),"" Loehr said. ""But 10 million is crazy.""  The main character is You -- and you, and you, 
and you",定,册子,书,卷,籍,册,簿子
,,,1,,,,
,著,本子,编,著作,书本,簿,
,,1,,,1,,
,,,,,,,
,,,,,,,
,,,,,,,
,,,,,,,
,,,,,,,
,,,,,,,
,,,,,,,
,,,,,,,
,,,,,,,
,,,,,,,
,,,,,,,
,,,,,,,
,,,,,,,
23. character,,,,,,Passagesin#character::,
"Passages in ""The Cat in the Hat"" and ""The Lorax"" both slip into the second-person to make a point to readers, 
but Geisel made the main character of ""Oh, The Places You'll Go!"" a person called You, who conveniently happens to be, well, you. 
""That makes the book about the reader and puts the reader in the position of the character,"" Nel said. ""It's a motivator. 
See yourself as the character; take action."" Dr. Seuss had already been a major player in children's literature for decades, 
but this was an early entry into a burgeoning category: children's stories that appeal to adults, 
Loehr said.",文字,字符,人,人物,文,言,品质
,,,,1,,,
,性格,心地,性,臧否,八字,字,个性
,,,,,,,
,性格的,意向,性质,,,,
,,,,,,,
,,,,,,,
,,,,,,,
,,,,,,,
,,,,,,,
,,,,,,,
,,,,,,,
,,,,,,,
,,,,,,,
,,,,,,,
,,,,,,,
,,,,,,,
24. write,,,,,,"""Thisis2#write::",
"""This is almost a self-help book. People forget that it has pages that really acknowledge that things will be tough some times,"" she said. 
""Sit down; read this book. It will be OK."" As Geisel himself put it, ""I never write for children. 
I write for people.""  The number of ""Places You'll Go"" is growing",执笔,书,书写,填,撰写,创作,编撰
,,,,,,1,1
,泐,编著,笔,著,编,写,编写
,,1,,,1,,1
,填写,作文,,,,,
,,,,,,,
,,,,,,,
,,,,,,,
,,,,,,,
,,,,,,,
,,,,,,,
,,,,,,,
,,,,,,,
,,,,,,,
,,,,,,,
,,,,,,,
,,,,,,,
25. go,,,,,,AsGeisel#go::,
"As Geisel himself put it, ""I never write for children. I write for people.""  The number of ""Places You'll Go"" is growing What started as a beloved graduation gift has spread into sort of an all-purpose greeting card, 
shared with a personal inscriptions during any period of transition, from baby showers to big moves. This month, 
Random House will publish a 25th anniversary edition of ""Oh! The Places You'll Go!"" This year, 
it will release a baby-fied version, ""Oh, Baby, the Places You'll Go!"" and a full-color journal filled with quotes from the book.",进去,诣,从事,前往,离去,行,走
,,,,1,,,
,徂,赴,适,游,去,进行,
,,,,,1,,
,,,,,,,
,,,,,,,
,,,,,,,
,,,,,,,
,,,,,,,
,,,,,,,
,,,,,,,
,,,,,,,
,,,,,,,
,,,,,,,
,,,,,,,
,,,,,,,
,,,,,,,
26. book,,,,,,Thenumber#book::,
"The number of ""Places You'll Go"" is growing What started as a beloved graduation gift has spread into sort of an all-purpose greeting card, 
shared with a personal inscriptions during any period of transition, from baby showers to big moves. This month, 
Random House will publish a 25th anniversary edition of ""Oh! The Places You'll Go!"" This year, 
it will release a baby-fied version, ""Oh, Baby, the Places You'll Go!"" and a full-color journal filled with quotes from the book. 
 On March 2, Geisel's birthday, Dr. Seuss Enterprises will launch KidsMovingMountains.com, 
which calls for children age 5 to 18 to share stories of how they're ""moving mountains"" in science, technology, engineering, 
arts and math. They'll award scholarships and trips to some top students.",定,册子,书,卷,籍,册,簿子
,,,1,,,,
,著,本子,编,著作,书本,簿,
,,1,,,1,,
,,,,,,,
,,,,,,,
,,,,,,,
,,,,,,,
,,,,,,,
,,,,,,,
,,,,,,,
,,,,,,,
,,,,,,,
,,,,,,,
,,,,,,,
,,,,,,,
,,,,,,,
27. part,,,,,,There'snever#part::,
"There's never been a film version, but Kansas State University's Nel said Geisel hoped there would be an adaptation -- maybe something ""famous as famous can be, 
with the whole wide world watching you win on TV."" For his part, Nel said, it's a remarkable book, 
but he hasn't given it as a graduation gift.  ""It's not that it's not good,"" Nel said. ""It's that everybody I would give it to, 
someone has has already given it to them.""",诀,异,处,角色,分,部分地,向
,,,,,,,
,多多少少,股,片段,局部,断裂,段,离
,,,1,,,,
,分别,部分,局,集,握别,局部地,部件
,,1,,,,,
,角,机件,组成,段落,分开,部,仳
,,,,,,1,
,间,构件,份,,,,
,,,,,,,
,,,,,,,
,,,,,,,
,,,,,,,
,,,,,,,
,,,,,,,
,,,,,,,
,,,,,,,
28. top,,,,,,Forthe#top::,
"For the 10th year running, European champion Real Madrid is the world's richest club in the annual Football Money League published by accountants Deloitte, 
with a revenue of $639 million. Money clearly talks in European football with the combined revenues of the top 20 clubs in the rich list rising by a staggering 14% over the last year to $7 billion. 
All of the top five clubs for the 2013-14 financial year saw their revenue surpass the $500-million mark for the first time on a list dominated by the English Premier League, 
home to five of this year's top 10 and eight of the 20-strong list.",极,颠,面,尖峰,顶部,盖,顶端
,,,,,,,1
,尖,上身,最大的,上面的,头,顶,顶级
,,,,,,1,1
,最高的,,,,,,
,,,,,,,
,,,,,,,
,,,,,,,
,,,,,,,
,,,,,,,
,,,,,,,
,,,,,,,
,,,,,,,
,,,,,,,
,,,,,,,
,,,,,,,
,,,,,,,
29. real,,,,,,"""Theclub's#real::",
"""The club's continued success on the field is complemented by its financial strength and their accomplishment emphasizes their position as the most successful European club side of all time. 
However, their commercial supremacy is being challenged by Manchester United among others."" Barcelona's revenue plateaued last year, 
seeing them drop from second spot behind arch-rival Real to fourth below Manchester United and Bayern. 
Paris Saint-Germain completes the top five while Juventus, in 10th, is the only side from Italy's Serie A to make the top 10, 
with Premier League sides Chelsea, Arsenal and Liverpool rounding off the top clubs in seventh, 
eighth and ninth respectively in revenue terms.",非常,真实,确实,实打实,真相,现实,确
,,,,,,,
,实在,真币,活生生,真正,实际,真,实
,,,,,,,
,皇马,,,,,,
,,,,,,,
,,,,,,,
,,,,,,,
,,,,,,,
,,,,,,,
,,,,,,,
,,,,,,,
,,,,,,,
,,,,,,,
,,,,,,,
,,,,,,,
,,,,,,,
30. second,,,,,,Insteadit#second::,
"Instead it was Federer who blinked in the fourth-set tiebreak.  He led 3-1 only to double fault at 3-2. Then leading 5-4, 
Federer made a costly backhand unforced error. Federer rued missed opportunities in the second set tiebreak, too, 
when Seppi was there for the taking.  ""It just broke me to lose that second set,"" Federer told reporters. 
""And actually the fourth, I should win it, too. Just a brutal couple of sets to lose there.""",其次,倅,拥护,第二,再,支持,秒
,1,,,1,,,
,乙,第二次,亚,伯仲叔季,,,
,,,,,,,
,再次,,,,,,
,,,,,,,
,,,,,,,
,,,,,,,
,,,,,,,
,,,,,,,
,,,,,,,
,,,,,,,
,,,,,,,
,,,,,,,
,,,,,,,
,,,,,,,
,,,,,,,
31. life,,,,,,Seppicompleted#life::,
"Seppi completed the upset in stunning fashion, scrambling before hitting an instinctive forehand passing shot winner down the line. 
 ""For sure it was one of the important shots of my life,"" said Seppi.  Federer thus exited, 
despite winning more points in the match overall, 145 to 144.",生命,春,生机,身,寿命,活命,世面
,1,,,,,,
,性命,人生,寿,生物,世,生活,命
,,1,,,,,
,日子,生,,,,,
,,,,,,,
,,,,,,,
,,,,,,,
,,,,,,,
,,,,,,,
,,,,,,,
,,,,,,,
,,,,,,,
,,,,,,,
,,,,,,,
,,,,,,,
,,,,,,,
32. well,,,,,,"""Ifelt#well::",
"""I felt for some reason yesterday and this morning it was not going to be very simple today,"" Federer said. 
""Even in practice I still felt the same way.  ""I was just hoping it was one of those feelings you sometimes have and it's totally not true and you just come out and you play a routine match. 
I was aware of the test and was well prepared.  ""Just somehow couldn't play my best tennis today. 
It was definitely partially because of Andreas playing very well.""",适,安好,顺利,臧,很好,水井,顺手
,,,,,,,
,顺遂,涌,良好,井,满意地,舒服,颛
,,,1,,,,
,顺,好,顺当,,,,
,,,1,,,,
,,,,,,,
,,,,,,,
,,,,,,,
,,,,,,,
,,,,,,,
,,,,,,,
,,,,,,,
,,,,,,,
,,,,,,,
,,,,,,,
,,,,,,,
33. round,,,,,,"""Justsomehow#round::",
"""Just somehow couldn't play my best tennis today. It was definitely partially because of Andreas playing very well."" Perhaps the warning signs were there from his previous round.",巡,籀,环行,拐弯,圆,球形,围绕
,,,,,,,
,周围,轮,回合,丰满,团,轮唱,附近
,,,1,,,,
,圜,范围,,,,,
,1,,,,,,
,,,,,,,
,,,,,,,
,,,,,,,
,,,,,,,
,,,,,,,
,,,,,,,
,,,,,,,
,,,,,,,
,,,,,,,
,,,,,,,
,,,,,,,
34. second,,,,,,Federerlost#second::,
"Federer lost a set in the second round to Seppi's fellow Italian, Simone Bolelli. 
He -- and this is rare for Federer -- called for the trainer to address an issue with his hand. 
Federer thought he might have been stung by a bee.  He didn't mention the hand or any other physical issue in his briefing with reporters.",其次,倅,拥护,第二,再,支持,秒
,1,,,1,,,
,乙,第二次,亚,伯仲叔季,,,
,,,,,,,
,,,,,,,
,,,,,,,
,,,,,,,
,,,,,,,
,,,,,,,
,,,,,,,
,,,,,,,
,,,,,,,
,,,,,,,
,,,,,,,
,,,,,,,
,,,,,,,
,,,,,,,
35. back,,,,,,Federeralso#back::,
"Federer also defended his decision to play exhibition matches in India in December during tennis' notoriously short off-season. 
 ""I wanted to go to India,"" said Federer. ""I wanted to go back to Switzerland for Christmas. 
I practiced as hard as I possibly could.  ""Can't do more than that. Sure, the year ended late, but one week later than normal. 
At the end of the day, honestly I'm confident that what I did was the right thing.""",后部,以前,后身,背面,襄,腰杆子,腰
,,,,,,,
,后面,脊,后的,支持,后,脊背,后边
,,,,,,,
,后部的,冀,翊,赌钱,后面的,后边的,向后
,,,,,,,
,回去,返回,,,,,
,,,,,,,
,,,,,,,
,,,,,,,
,,,,,,,
,,,,,,,
,,,,,,,
,,,,,,,
,,,,,,,
,,,,,,,
,,,,,,,
36. sure,,,,,,"""Iwanted#sure::",
"""I wanted to go to India,"" said Federer. ""I wanted to go back to Switzerland for Christmas. 
I practiced as hard as I possibly could.  ""Can't do more than that. Sure, the year ended late, but one week later than normal. 
At the end of the day, honestly I'm confident that what I did was the right thing."" Federer's exit means Murray's path to the semifinals has become significantly easier. 
The two-time grand slam champion and Federer were, on paper, due to meet in the quarterfinals.",准儿,稳,确切,当然,肯定,,
,,,,1,,,
,,,,,,,
,,,,,,,
,,,,,,,
,,,,,,,
,,,,,,,
,,,,,,,
,,,,,,,
,,,,,,,
,,,,,,,
,,,,,,,
,,,,,,,
,,,,,,,
,,,,,,,
,,,,,,,
,,,,,,,
37. know,,,,,,@edsmithwriterSouth#know::,
"@edsmithwriter South Korea's cricket switch: http://t.co/qTlIhSRnJt ""Having moved back and forth between the two sports myself, 
I know the potential these guys have for success in T20 cricket,"" says Fountain. ""I was the first to introduce baseball fieldin",审,懂,知,认,了,认识,识
,,,,,,,
,晓得,明,悉,晓,懂得,谂,知悉
,1,,,,1,,1
,通,知道,,,,,
,,1,,,,,
,,,,,,,
,,,,,,,
,,,,,,,
,,,,,,,
,,,,,,,
,,,,,,,
,,,,,,,
,,,,,,,
,,,,,,,
,,,,,,,
,,,,,,,
38. minor,,,,,,"""Iwas#minor::",
"""I was the first to introduce baseball fielding techniques to international cricket, 
because a major league outfielder will out-throw a professional cricketer every time. 
This is a sport that Americans can do well at."" Minor leaguer Boomer Collins has been chasing the dream of the big leagues since he was a boy. 
His looks, his build, the way he talks and even his name are as near to the definition of an American ballplayer as you're going to get. 
But beyond the square jaw and the all-state honors as both outfielder and quarterback, 
there's one thing that makes him different to every other guy out there on the diamond.",次要,副修科目,辅修,未成年人,二流的,裨,较小的
,,,,,,,
,未成年者,,,,,,
,,,,,,,
,小联盟,,,,,,
,,,,,,,
,,,,,,,
,,,,,,,
,,,,,,,
,,,,,,,
,,,,,,,
,,,,,,,
,,,,,,,
,,,,,,,
,,,,,,,
,,,,,,,
,,,,,,,
39. build,,,,,,"""Iwas#build::",
"""I was the first to introduce baseball fielding techniques to international cricket, 
because a major league outfielder will out-throw a professional cricketer every time. 
This is a sport that Americans can do well at."" Minor leaguer Boomer Collins has been chasing the dream of the big leagues since he was a boy. 
His looks, his build, the way he talks and even his name are as near to the definition of an American ballplayer as you're going to get. 
But beyond the square jaw and the all-state honors as both outfielder and quarterback, 
there's one thing that makes him different to every other guy out there on the diamond.",建设,体格,搭,盖,营造,垒,体形
,,1,,,,,1
,修筑,造,兴建,建立,个子,修建,建造
,,,,,1,,
,筑,铺设,营建,盘,打,修,起
,,,,,,,
,建,,,,,,
,,,,,,,
,,,,,,,
,,,,,,,
,,,,,,,
,,,,,,,
,,,,,,,
,,,,,,,
,,,,,,,
,,,,,,,
,,,,,,,
40. thing,,,,,,Minorleaguer#thing::,
"Minor leaguer Boomer Collins has been chasing the dream of the big leagues since he was a boy. His looks, his build, 
the way he talks and even his name are as near to the definition of an American ballplayer as you're going to get. 
But beyond the square jaw and the all-state honors as both outfielder and quarterback, 
there's one thing that makes him different to every other guy out there on the diamond. 
He wants to be the greatest cricket player the world has ever seen.",玩意儿,事情,项目,物,东西,事,物件
,,,,,,,
,项,一项,事儿,事物,,,
,1,1,,1,,,
,,,,,,,
,,,,,,,
,,,,,,,
,,,,,,,
,,,,,,,
,,,,,,,
,,,,,,,
,,,,,,,
,,,,,,,
,,,,,,,
,,,,,,,
,,,,,,,
,,,,,,,
41. like,,,,,,Acouple#like::,
"A couple of decades later and his .374 batting average, with 13 home runs in 60 junior-year games at Dallas Baptist, 
saw him eventually signed by the Blue Jays. His story since then is depressingly similar to thousands like him, 
becalmed in the minor leagues on a poverty-line salary of $1,200 a month. ""I'm always an optimist. I'm 25 years old. 
This year will probably prove a lot. I want to make the big leagues and I'm going to work my butt off until it happens or doesn't happen,"" Collins said in his break between working an eight-hour milk delivery shift and a full afternoon of offseason training.",好比,好像,若,喜爱,如同,待见,喜好
,,,,,1,,
,爱好,同,似,爱,好以,比如,喜欢
,,,1,,,,
,一样,相似,看上,类,好,喜,不啻
,1,1,,,,,
,,,,,,,
,,,,,,,
,,,,,,,
,,,,,,,
,,,,,,,
,,,,,,,
,,,,,,,
,,,,,,,
,,,,,,,
,,,,,,,
,,,,,,,
42. save,,,,,,Theannual#save::,
"The annual Indian Premier League, for instance, awards the best players seven-figure contracts for a season lasting just eight weeks. 
Collins hopes it can save him from 3.45am wakeup calls and the end of his athletic career, 
but believes he has something to contribute as well.  ""I've always wanted to do something to change the world -- something that I can put my stamp on,"" he says.",省,节,节省,保留,保存,储积,捄
,1,,1,,,,
,节约,挽救,除了,储,而且,抢救,活
,,,,,,,
,储集,储蓄,救援,要不是,积蓄,救,保持
,,,,,,,
,留,解救,拯救,拯,除了 ... 以外,加之,营救
,,,,,,,
,,,,,,,
,,,,,,,
,,,,,,,
,,,,,,,
,,,,,,,
,,,,,,,
,,,,,,,
,,,,,,,
,,,,,,,
43. get,,,,,,"""Lookat#get::",
"""Look at soccer now. That all came from American players making a stand in what was a minority sport over here. 
""If you would've said 'soccer' about five years ago people would've said, ""Get outta here, man"". 
Now everyone's watching the World Cup."" Another player hoping to break the mold is middle infielder Jordan Dean, 
a 24-year-old drafted by the Tigers in 2012 but now with Illinois independents the Schaumburg Boomers -- and studying for an M.B.A. 
as a Plan B.",收到,弄,将,领,取,获得,搜罗
,,,,,,,
,受到,得,得到,博,搞,,
,,,,,,,
,把,,,,,,
,,,,,,,
,,,,,,,
,,,,,,,
,,,,,,,
,,,,,,,
,,,,,,,
,,,,,,,
,,,,,,,
,,,,,,,
,,,,,,,
,,,,,,,
,,,,,,,
44. know,,,,,,"""Alot#know::",
"""A lot of us guys in the minor leagues have to take the decision -- are my legs going to hold up, or my bank account, 
and which is going to go first?"" Dean says. ""In my case it'll be the bank account, 
because I know that otherwise I'll never be ready to finish playing ball. ""I've talked to my girlfriend about the cricket thing. 
We'd go through about five or 10 minutes thinking how amazing it would be, traveling the world playing sport. Then it would be, 
'What the hell am I saying?' It's ping-pong in my brain.""",审,懂,知,认,了,认识,识
,,1,,,,,
,晓得,明,悉,晓,懂得,谂,知悉
,1,,,,1,,
,通,知道,,,,,
,,1,,,,,
,,,,,,,
,,,,,,,
,,,,,,,
,,,,,,,
,,,,,,,
,,,,,,,
,,,,,,,
,,,,,,,
,,,,,,,
,,,,,,,
,,,,,,,
45. thing,,,,,,"""Inmy#thing::",
"""In my case it'll be the bank account, because I know that otherwise I'll never be ready to finish playing ball. 
""I've talked to my girlfriend about the cricket thing. We'd go through about five or 10 minutes thinking how amazing it would be, 
traveling the world playing sport. Then it would be, 'What the hell am I saying?' It's ping-pong in my brain."" For Fountain, 
the endgame goes beyond getting his players a T20 contract.",玩意儿,事情,项目,物,东西,事,物件
,,1,,,,1,
,项,一项,事儿,事物,,,
,,,1,1,,,
,,,,,,,
,,,,,,,
,,,,,,,
,,,,,,,
,,,,,,,
,,,,,,,
,,,,,,,
,,,,,,,
,,,,,,,
,,,,,,,
,,,,,,,
,,,,,,,
,,,,,,,
46. contract,,,,,,"""I'vetalked#contract::",
"""I've talked to my girlfriend about the cricket thing. We'd go through about five or 10 minutes thinking how amazing it would be, 
traveling the world playing sport. Then it would be, 'What the hell am I saying?' It's ping-pong in my brain."" For Fountain, 
the endgame goes beyond getting his players a T20 contract. ""I want to inject enough talent into USA cricket, 
to see it bounce back up the rankings. I want to coach a USA team at a World Cup.""",立约,字据,感染,收缩,聘书,括,契
,,,,,,,1
,缩,简约的,合同,契约,承包,合约,契据
,,,,1,,1,
,,,,,,,
,,,,,,,
,,,,,,,
,,,,,,,
,,,,,,,
,,,,,,,
,,,,,,,
,,,,,,,
,,,,,,,
,,,,,,,
,,,,,,,
,,,,,,,
,,,,,,,
47. front,,,,,,Ateam#front::,
"A team already exists, but he believes replacing its largely ex-pat spine with American baseball talent is the only way it can join the elite. 
""Wearing a jersey with the flag on the front and your name on the back is huge for any American,"" says Dean. 
But Fountain has also let his early sign ups know that there are a few things to iron out before he can start printing jerseys. 
""I'm aiming for tryouts in the spring, so the guys who are already with teams, or trying out for teams can also come and try out for me,"" says Fountain.",阵线,面,正面的,前面,前面的,正面,前部的
,,,,1,1,1,
,前,阵地,场面,对付,阵,对,前线
,,,,,,,
,前边的,,,,,,
,,,,,,,
,,,,,,,
,,,,,,,
,,,,,,,
,,,,,,,
,,,,,,,
,,,,,,,
,,,,,,,
,,,,,,,
,,,,,,,
,,,,,,,
,,,,,,,
48. come,,,,,,"""Wearinga#come::",
"""Wearing a jersey with the flag on the front and your name on the back is huge for any American,"" says Dean. 
But Fountain has also let his early sign ups know that there are a few things to iron out before he can start printing jerseys. 
""I'm aiming for tryouts in the spring, so the guys who are already with teams, or trying out for teams can also come and try out for me,"" says Fountain. 
""Sponsorship is crucial. We're in talks with some interested parties but even if companies like Greyhound can lay on some tickets to get these players to the tryout, 
that would help.",过来,来,来到,发生,,,
,1,1,,,,,
,前来,,,,,,
,,,,,,,
,,,,,,,
,,,,,,,
,,,,,,,
,,,,,,,
,,,,,,,
,,,,,,,
,,,,,,,
,,,,,,,
,,,,,,,
,,,,,,,
,,,,,,,
,,,,,,,
,,,,,,,
49. help,,,,,,"""I'maiming#help::",
"""I'm aiming for tryouts in the spring, so the guys who are already with teams, or trying out for teams can also come and try out for me,"" says Fountain. 
""Sponsorship is crucial. We're in talks with some interested parties but even if companies like Greyhound can lay on some tickets to get these players to the tryout, 
that would help. ""I've wanted to do this for years -- I talked to some TV companies about a reality TV show back in 2010 and I hope it could still be a part of it.""",协助,搭手,赈济,促成,佑,襄,帮助
,1,,,,,,1
,宥,补益,助,帮,嬴,扶助,支援
,,1,,,,,
,弼,救援,赈,翊,救,协,济
,,,,,,,
,促进,帮忙,补,成全,援助,扶持,赢
,,,,,,,
,辅助,臂助,援,扶,输将,帮扶,
,,,,,,,
,,,,,,,
,,,,,,,
,,,,,,,
,,,,,,,
,,,,,,,
,,,,,,,
,,,,,,,
50. think,,,,,,"BrendenKalfus,2#think::",
"Brenden Kalfus, 23, was another earning in the region of $14,000 a year with a Blue Jays affiliate before they let him go this past season. 
""I think if we all started playing cricket, I don't think the expectation would be that we're going to be stars and make millions,"" he says. 
""It would just be great to be the first to bring it out to America. Then see where it goes after that."" If the project stalls, 
Boomer Collins is prepared to go it alone.",怀,思考,看,意,设法,预期,算
,,,,,,,
,预料,揣想,想得到,考虑,思,意想,想到
,1,1,,,,,
,溯,思索,打量,忆,当,认为,以为
,,,,,,1,
,关心,料想,想起,道,想,念,怀念
,,,,,,,
,想象,臆断,,,,,
,1,,,,,,
,,,,,,,
,,,,,,,
,,,,,,,
,,,,,,,
,,,,,,,
,,,,,,,
,,,,,,,
51. bring,,,,,,"BrendenKalfus,#bring::",
"Brenden Kalfus, 23, was another earning in the region of $14,000 a year with a Blue Jays affiliate before they let him go this past season. 
""I think if we all started playing cricket, I don't think the expectation would be that we're going to be stars and make millions,"" he says. 
""It would just be great to be the first to bring it out to America. Then see where it goes after that."" If the project stalls, 
Boomer Collins is prepared to go it alone.",产生,停下,输,促使,带来,输送,拿来
,,,,,,1,
,,,,,,,
,,,,,,,
,,,,,,,
,,,,,,,
,,,,,,,
,,,,,,,
,,,,,,,
,,,,,,,
,,,,,,,
,,,,,,,
,,,,,,,
,,,,,,,
,,,,,,,
,,,,,,,
,,,,,,,
52. high,,,,,,Ifthe#high::,
"If the project stalls, Boomer Collins is prepared to go it alone. ""The whole thing with me is that whatever happens, 
I still want to go overseas and try because I have got that excitement so high,"" he says. 
""I still want to go and train with Julien to try it out myself. If we can work out a living situation with food, 
I would do it in a heartbeat. I don't have to have some sort of income, just as long as me and my wife have food and a place to stay.",嵩峻,昂,高等的,崇,高昂,馗,崟
,,,,,,,
,嶡,嶢,杲,昂贵的,耸,高地,箾摻
,,,,,,,
,亢,高,使劲地,极大,有力地,屹,峻
,,1,,1,,,
,潼,,,,,,
,,,,,,,
,,,,,,,
,,,,,,,
,,,,,,,
,,,,,,,
,,,,,,,
,,,,,,,
,,,,,,,
,,,,,,,
,,,,,,,
53. stay,,,,,,"""Thewhole#stay::",
"""The whole thing with me is that whatever happens, I still want to go overseas and try because I have got that excitement so high,"" he says. 
""I still want to go and train with Julien to try it out myself. If we can work out a living situation with food, 
I would do it in a heartbeat. I don't have to have some sort of income, just as long as me and my wife have food and a place to stay. 
""I know that I'm not going to be the best in the world in the first five years of playing the sport. 
But I'm also never going to go in and say, 'I'll just be OK.'",羁,待,处,迟留,撑,逗,栖
,,,,,,,
,羇泊,栖止,撑条,盘旋,留下,一直保持,呆
,,,,,1,,1
,留,盘桓,停,逗留,住宿,栖身,延缓
,,,,1,1,,
,耽搁,,,,,,
,,,,,,,
,,,,,,,
,,,,,,,
,,,,,,,
,,,,,,,
,,,,,,,
,,,,,,,
,,,,,,,
,,,,,,,
,,,,,,,
54. real,,,,,,"""Theseguys#real::",
"""These guys have the potential to take the world of T20 cricket by storm,"" he said. 
""For the last few years you have heard cricket announcers use the phrase, 'That was a real baseball shot.' ""Well now you will be able to see those so-called baseball shots executed by guys who really can hit a ball 400 feet -- with a bat whose hitting area is a fraction of the width of a cricket bat.""",非常,真实,确实,实打实,真相,现实,确
,,,,1,,,
,实在,真币,活生生,真正,实际,真,实
,,,,,,,
,,,,,,,
,,,,,,,
,,,,,,,
,,,,,,,
,,,,,,,
,,,,,,,
,,,,,,,
,,,,,,,
,,,,,,,
,,,,,,,
,,,,,,,
,,,,,,,
,,,,,,,
55. shot,,,,,,"""Theseguys#shot::",
"""These guys have the potential to take the world of T20 cricket by storm,"" he said. 
""For the last few years you have heard cricket announcers use the phrase, 'That was a real baseball shot.' ""Well now you will be able to see those so-called baseball shots executed by guys who really can hit a ball 400 feet -- with a bat whose hitting area is a fraction of the width of a cricket bat.""",一口,镜头,开枪,剂量,弹丸,射击,枪子儿
,,,,,,,
,弹,注射,,,,,
,,,,,,,
,打击,,,,,,
,,,,,,,
,,,,,,,
,,,,,,,
,,,,,,,
,,,,,,,
,,,,,,,
,,,,,,,
,,,,,,,
,,,,,,,
,,,,,,,
,,,,,,,
,,,,,,,
56. pay,,,,,,Funeralservices#pay::,
"Funeral services were held Friday for King Abdullah bin Abdulaziz al Saud, who died earlier that day. He was 90. 
World leaders are now traveling to the Saudi capital, Riyadh, to offer condolences for Abdullah's death and pay their respects to the new ruler. 
Abdullah was seen by many as a cautious reformer who succeeded in securing broader freedoms in the conservative kingdom, 
but fell short in gaining greater independence for women.",报酬,薪俸,交,偿付,薪水,工资,待遇
,,,,,,,
,应付的,开支,有利益的,买,纳,付款,缴
,,,,,,,
,交付,买进,付,支出,交纳,赔,
,,,,,,,
,请尊重,,,,,,
,,,,,,,
,,,,,,,
,,,,,,,
,,,,,,,
,,,,,,,
,,,,,,,
,,,,,,,
,,,,,,,
,,,,,,,
,,,,,,,
57. like,,,,,,"Hissuccessor,#like::",
"His successor, who is 79, faces a number of challenges as he takes up the reins, including Iran, the rise of ISIS, 
the crisis in neighboring Yemen and the drop in oil prices. But Salman has plenty of experience to draw on, 
having served as defense minister and deputy prime minister of Saudi Arabia, a vital U.S. ally in the Middle East. Like Abdullah, 
he is one of the dozens of sons of Saudi Arabia's founder, King Abdulaziz.",好比,好像,若,喜爱,如同,待见,喜好
,,,,,1,,
,爱好,同,似,爱,好以,比如,喜欢
,,,1,,,1,
,一样,相似,看上,类,好,喜,不啻
,,1,,,,,
,,,,,,,
,,,,,,,
,,,,,,,
,,,,,,,
,,,,,,,
,,,,,,,
,,,,,,,
,,,,,,,
,,,,,,,
,,,,,,,
,,,,,,,
58. go,,,,,,"""ThePresident#go::",
"""The President regrets that he will be unable to visit Agra during this trip,"" Earnest said. 
Agra is where the spectacular Taj Mahal mausoleum is located. Biden will now remain in Washington rather than go to Saudi Arabia. 
Although no reason for the change of plan was given, it follows criticism this month of the Obama administration for its failure to send a senior representative to France for a huge unity march held in the wake of the Paris terror attacks.",进去,诣,从事,前往,离去,行,走
,,,,1,,,
,徂,赴,适,游,去,进行,
,,,,,1,,
,,,,,,,
,,,,,,,
,,,,,,,
,,,,,,,
,,,,,,,
,,,,,,,
,,,,,,,
,,,,,,,
,,,,,,,
,,,,,,,
,,,,,,,
,,,,,,,
,,,,,,,
59. mind,,,,,,"Thekingdom,#mind::",
"The kingdom, despite signaling rare public dissent with the Obama administration over Iran and the Arab Spring, 
is a fulcrum of U.S. diplomacy in a region where Washington is. Saudi Arabia is crucial to U.S. goals on counter-terrorism, 
the campaign against ISIS and Al-Qaeda, the free flow of energy that sustains the global economy, 
as a counter-balance to Iran and as a sponsor of the long frustrated quest for peace between Israel and the Palestinians. 
struggling .Never mind that the U.S. is the world's foremost democracy and the transfer of power in Saudi Arabia was from one autocrat to the next. 
to adapt to dissolving national borders, chaotic change and sectarian carnage.",怀,心地,精神,胸襟,胸怀,看,神志
,,,,,,,
,顾,在乎,注意,德,在心,胸,在意
,1,1,1,,,,1
,头脑,介,心神,,,,
,,,,,,,
,,,,,,,
,,,,,,,
,,,,,,,
,,,,,,,
,,,,,,,
,,,,,,,
,,,,,,,
,,,,,,,
,,,,,,,
,,,,,,,
,,,,,,,
60. transfer,,,,,,"Thekingdom,#transfer::",
"The kingdom, despite signaling rare public dissent with the Obama administration over Iran and the Arab Spring, 
is a fulcrum of U.S. diplomacy in a region where Washington is. Saudi Arabia is crucial to U.S. goals on counter-terrorism, 
the campaign against ISIS and Al-Qaeda, the free flow of energy that sustains the global economy, 
as a counter-balance to Iran and as a sponsor of the long frustrated quest for peace between Israel and the Palestinians. 
struggling .Never mind that the U.S. is the world's foremost democracy and the transfer of power in Saudi Arabia was from one autocrat to the next. 
to adapt to dissolving national borders, chaotic change and sectarian carnage.",过户,转车,调,调动,搬迁,交待,转
,,,,1,,,
,搬动,转让,传递,挪,转送,移交,换车
,,1,,,,1,
,移动,划拨,,,,,
,,,,,,,
,转交,,,,,,
,,,,,,,
,,,,,,,
,,,,,,,
,,,,,,,
,,,,,,,
,,,,,,,
,,,,,,,
,,,,,,,
,,,,,,,
,,,,,,,
61. new,,,,,,Ina#new::,
"In a sign of the kingdom's importance to the United States, President Barack Obama made hurried plans to call in Saudi Arabia on Tuesday after his trip to India to pay his respects to Abdullah and his family and to meet with King Salman. 
Originally, Vice President Joe Biden was to have made the trip. The message from Washington is clearly : Long live the new king. 
The regal choreography in Riyadh is especially welcome to the White House as it contrasts with events just across the border in Yemen, 
another key ally where a US-backed government crucial to its anti-terror campaign has just been toppled to rebels supported by Iran.",异,新颖,新兴,新任,全新,新,新奇
,,,,1,,1,
,耗,,,,,,
,,,,,,,
,,,,,,,
,,,,,,,
,,,,,,,
,,,,,,,
,,,,,,,
,,,,,,,
,,,,,,,
,,,,,,,
,,,,,,,
,,,,,,,
,,,,,,,
,,,,,,,
,,,,,,,
62. continue,,,,,,"""Weknow#continue::",
"""We know Salman well, he was governor of Riyadh for the better part of 50 years, he is well known to the US government. 
I see no break in the U.S.-Saudi relationship,"" Smith said. Salman vowed just hours after the death of Abdullah, 
that the kingdom ""would continue adhering to the correct policies which Saudi Arabia has followed since its establishment."" State Department spokeswoman Jen Psaki said that the allies had a ""long history of cooperation. 
We don't have any indication that that cooperation will change.""",接续,连任,继,延续,续,持续,蝉联
,1,,,,,1,
,接着,下去,赓,缵,绍,继续,
,,,,,,1,
,,,,,,,
,,,,,,,
,,,,,,,
,,,,,,,
,,,,,,,
,,,,,,,
,,,,,,,
,,,,,,,
,,,,,,,
,,,,,,,
,,,,,,,
,,,,,,,
,,,,,,,
63. correct,,,,,,"""Weknow#correct::",
"""We know Salman well, he was governor of Riyadh for the better part of 50 years, he is well known to the US government. 
I see no break in the U.S.-Saudi relationship,"" Smith said. Salman vowed just hours after the death of Abdullah, 
that the kingdom ""would continue adhering to the correct policies which Saudi Arabia has followed since its establishment."" State Department spokeswoman Jen Psaki said that the allies had a ""long history of cooperation. 
We don't have any indication that that cooperation will change.""",纠正,正误,正确,订正,改正,批改,改过
,,,1,,,,
,匡,纠,应得,修正,纠偏,是,然
,,,,,,,
,改,改口,斧正,拨正,正,韪,端正
,,,,,,,
,更正,顺,不错,精密,,,
,,,,,,,
,,,,,,,
,,,,,,,
,,,,,,,
,,,,,,,
,,,,,,,
,,,,,,,
,,,,,,,
,,,,,,,
,,,,,,,
64. second,,,,,,"""Ithink#second::",
"""I think for the near term, continuity is going to be the centerpiece here,"" said Daniel Benjamin, 
a former coordinator for counter-terrorism at the State Department, now at Dartmouth College, told CNN. 
""There is now a member of the generation of the grandchildren who is second in line, 
he is a very close friend of the United States ... so I think there is a lot of hope the relationship will stay on an even keel."" Prince Mohammed, 
now behind the King's brother Prince Muqrin, 69, in the line of succession, is a frequent visitor to the United States and has presided over Saudi Arabia's anti-terrorism program. 
He narrowly escaped an assassination bid by Al-Qaeda in 2009.",其次,倅,拥护,第二,再,支持,秒
,,,,1,,,
,乙,第二次,亚,伯仲叔季,,,
,,,,,,,
,,,,,,,
,,,,,,,
,,,,,,,
,,,,,,,
,,,,,,,
,,,,,,,
,,,,,,,
,,,,,,,
,,,,,,,
,,,,,,,
,,,,,,,
,,,,,,,
,,,,,,,
65. bid,,,,,,"PrinceMohammed,#bid::",
"Prince Mohammed, now behind the King's brother Prince Muqrin, 69, in the line of succession, 
is a frequent visitor to the United States and has presided over Saudi Arabia's anti-terrorism program. 
He narrowly escaped an assassination bid by Al-Qaeda in 2009. The succession plan was viewed as particularly important following unconfirmed reports that Salman has been in ill health himself, 
apparently having suffered a stroke.",邀,投标,出价,标,,,
,,,,,,,
,计划,,,,,,
,,,,,,,
,,,,,,,
,,,,,,,
,,,,,,,
,,,,,,,
,,,,,,,
,,,,,,,
,,,,,,,
,,,,,,,
,,,,,,,
,,,,,,,
,,,,,,,
,,,,,,,
,,,,,,,
66. job,,,,,,"TomDonilon,#job::",
"Tom Donilon, pointman for US relations with Saudi Arabia when he was Obama's National Security Advisor, 
praised Abdullah as a ""solid"" ally who had ensured two decades of stability in the kingdom. 
He also said that the late King's survivors had done a ""pretty effective job of indicating stability with a quick annoncement with repect to succession, 
continuity of policy."" He told ""The Lead"" with CNN's Jake Tapper that Mohammad, known as MBN in the United States was ""a very, 
very competent person who is essential in terms of our joint efforts to combat terrorists.""",岗位,工作,饭碗,承包,业,事,劳工
,,,,,,,
,方试,,,,,,
,,,,,,,
,,,,,,,
,,,,,,,
,,,,,,,
,,,,,,,
,,,,,,,
,,,,,,,
,,,,,,,
,,,,,,,
,,,,,,,
,,,,,,,
,,,,,,,
,,,,,,,
,,,,,,,
67. relief,,,,,,Thoughthere#relief::,
"Though there is relief at the apparent stability in Riyadh, relations between the United States and Saudi Arabia in recent years have have often been troubled. 
There was a tense period a decade ago, after it emerged that 15 of the 19 hijackers involved in the September 11 attacks originated from Saudi Arabia.",缓解,换班,解脱,慰藉,地势,,
,1,,,,,,
,,,,,,,
,,,,,,,
,,,,,,,
,,,,,,,
,,,,,,,
,,,,,,,
,,,,,,,
,,,,,,,
,,,,,,,
,,,,,,,
,,,,,,,
,,,,,,,
,,,,,,,
,,,,,,,
,,,,,,,
68. move,,,,,,Someanalysts#move::,
"Some analysts believe that the Saudi government could react to what it would see as a bad nuclear deal between world powers and Iran -- which left the Islamic Republic with some capacity to enrich uranium or produce plutonium -- by looking to find its own nuclear capability -- perhaps with assistance from Pakistan. 
Saudi princes took to the op-ed pages of US newspapers in 2013 in a highly unusual move to complain that a nuclear deal was a ""dangerous gamble."" The Saudi government also made clear its deep anger with Obama's last-minute decision not to launch planned air strikes on Syria to punish the Bashar al-Assad regime's use of chemical weapons the same year.",调,挪,举动,触动,打动,迁徙,移动
,,,1,,,,
,感,动,搬迁,搬,感到,搬家,感动
,,,,,,,
,游,运行,举,迁,动弹,摆,步骤
,,,,,,,1
,行动,挪动,运动,提议,迁移,跞,行径
,,,,,,,
,扤,触,拨,走,移,搬移,
,,,,,,,
,,,,,,,
,,,,,,,
,,,,,,,
,,,,,,,
,,,,,,,
,,,,,,,
,,,,,,,
69. first,,,,,,Inrecent#first::,
"In recent years, the Obama administration has attempted to assuage Saudi fears. The US president made a visit to Riyadh last year, 
on a trip that was widely seen as an attempt to mend fences. Saudi Arabian pilots, reportedly including one of Salman's sons, 
Prince Khaled, helped carry out the first air attacks on ISIS in Syria last year. 
Saudi Arabia also approved of Secretary of State John Kerry's exhaustive but ultimately futile efforts to keep Israel and the Palestinians talking. 
And White House spokesman Josh Earnest said that an underpinning of those efforts, 
an Arab Peace Plan framed by Abdullah would stand as his lasting memorial.",第一,首先,上,第一位,首要的,首,初
,1,,,,,,
,起点,最初,一次,第一个,第一次,甲,头
,,,,1,1,,
,上个,开始,憖,元,先,最先,乍
,,,,,,1,
,原始,首次,一日,开端,,,
,,,,,,,
,,,,,,,
,,,,,,,
,,,,,,,
,,,,,,,
,,,,,,,
,,,,,,,
,,,,,,,
,,,,,,,
,,,,,,,
70. keep,,,,,,SaudiArabian#keep::,
"Saudi Arabian pilots, reportedly including one of Salman's sons, Prince Khaled, helped carry out the first air attacks on ISIS in Syria last year. 
Saudi Arabia also approved of Secretary of State John Kerry's exhaustive but ultimately futile efforts to keep Israel and the Palestinians talking. 
 And White House spokesman Josh Earnest said that an underpinning of those efforts, 
an Arab Peace Plan framed by Abdullah would stand as his lasting memorial.Smith said that the relationship between Riyadh and Washington was now better than it had been earlier in the administration.",养,觇,翼庇,供养,操,含,保留
,,,,,,,
,保存,收藏,收存,养活,保管,储藏,存
,,,,,,,
,留,保持,留成,喂养,保,保守,维持
,,1,,,,,1
,,,,,,,
,,,,,,,
,,,,,,,
,,,,,,,
,,,,,,,
,,,,,,,
,,,,,,,
,,,,,,,
,,,,,,,
,,,,,,,
,,,,,,,
71. port,,,,,,Another102#port::,
"Another 102 people were injured, at least 75 of whom needed hospital treatment, and many suffered shrapnel injuries, 
Mariupol City Council said. Pro-Russian separatists are blamed for the attack on residential areas in the port city, 
Donetsk regional police chief Vyacheslav Abroskin said on his Facebook page. The Interior Ministry said one person was arrested in connection with the attack.",埠,端口,港口,端,接口,港,岸
,,,1,,,1,
,埔,,,,,,
,,,,,,,
,,,,,,,
,,,,,,,
,,,,,,,
,,,,,,,
,,,,,,,
,,,,,,,
,,,,,,,
,,,,,,,
,,,,,,,
,,,,,,,
,,,,,,,
,,,,,,,
,,,,,,,
72. control,,,,,,Basedon#control::,
"Based on preliminary assessments, the shells were fired from Grad rocket systems, a statement from Mariupol City Council said. 
The statement also said the situation was under control, and urged residents not to panic but to rely on information from official sources only. 
Monitors with the Organization for Security and Co-operation in Europe said they conducted a crater analysis which showed the use of Grad and Uragan rockets that likely originated from areas controlled by the pro-Russian rebel group Donetsk People's Republic (DPR).",羁,控制,经纪,掌管,按,律,辖
,,1,,,,,
,操纵,驾驭,管制,把持,管,按捺,控
,,,1,,,,
,管理的,节制,治,独揽,压,优越,抑制
,,,,,,,1
,秉,控制的,监督,筦,统制,调度,监察
,,,,,1,,
,治理,司,扼,懿,,,
,,,,,,,
,,,,,,,
,,,,,,,
,,,,,,,
,,,,,,,
,,,,,,,
,,,,,,,
,,,,,,,
73. state,,,,,,Theshelling#state::,
"The shelling comes amid a surge in fighting between government forces and pro-Russian separatists. U.S. 
Secretary of State John Kerry warned of increased international pressure on Russia. 
""We call on Russia to end its support for separatists immediately, close the international border with Ukraine, 
and withdraw all weapons, fighters and financial backing,"" Kerry said in a statement.",态,表示,述,境界,国度,状况,候
,,,,,,,
,国家的,称述,邦,陈述,申述,硬说,陈说
,,,,,,,
,发言,申,状,国有的,国营的,摅,诉
,,,,,,,
,陈,声称,申明,发表,声明,州,拥
,,,,,,1,
,胪,诉说,公家,称,国立的,述説,国
,,,,,,,
,局势,态势,,,,,
,,,,,,,
,,,,,,,
,,,,,,,
,,,,,,,
,,,,,,,
,,,,,,,
74. white,,,,,,U.S.Secretary#white::,
"U.S. Secretary of State John Kerry warned of increased international pressure on Russia. 
""We call on Russia to end its support for separatists immediately, close the international border with Ukraine, 
and withdraw all weapons, fighters and financial backing,"" Kerry said in a statement. 
 The White House says Vice President Biden spoke with Ukraine President Poroshenko on Saturday.",素,颢,皤,白色,皎,皓,皙
,,,,,,,
,白,皜,,,,,
,1,,,,,,
,,,,,,,
,,,,,,,
,,,,,,,
,,,,,,,
,,,,,,,
,,,,,,,
,,,,,,,
,,,,,,,
,,,,,,,
,,,,,,,
,,,,,,,
,,,,,,,
,,,,,,,
75. rise,,,,,,"They""expressed#rise::",
"They ""expressed grave concern over Russia's blatant disregard for its commitments under the September Minsk agreement and unilateral escalation of the conflict,"" the White House said. 
  The two leaders vowed to ""ensure that the costs continue to rise on Russia for its aggressive actions against Ukraine."" Thousands have been killed since the conflict broke out in the spring of last year and a ceasefire agreed to in September in Minsk, 
Belarus, crumbled long ago.",涌,发达,谡,稣,涨,鹊起,隮
,,,,,,,
,升级,暲,上涨,丰富,耸,摅,升
,,,1,,,,1
,扎根,上升,作,复活,升起,耸立,发展
,,1,,,,,
,竦,竦峙,起立,竦秀,飞扬,起,竖起
,,,,,,,
,腾,,,,,,
,,,,,,,
,,,,,,,
,,,,,,,
,,,,,,,
,,,,,,,
,,,,,,,
,,,,,,,
,,,,,,,
76. spring,,,,,,Thetwo#spring::,
"The two leaders vowed to ""ensure that the costs continue to rise on Russia for its aggressive actions against Ukraine."" Thousands have been killed since the conflict broke out in the spring of last year and a ceasefire agreed to in September in Minsk, 
Belarus, crumbled long ago.",绷簧,春天,踉,弹黄,春天的,弹跳,春
,,1,,,,,1
,泉眼,泉水,弹,跃,春季,泉,春令
,,,,,1,,
,弹簧,弹性,跳跃,蹦,跳,弹力,绷
,,,,,,,
,阳春,,,,,,
,,,,,,,
,,,,,,,
,,,,,,,
,,,,,,,
,,,,,,,
,,,,,,,
,,,,,,,
,,,,,,,
,,,,,,,
,,,,,,,
77. dead,,,,,,MarkGriffiths#dead::,
"Mark Griffiths is a Chartered Psychologist and Director of the International Gaming Research Unit at Nottingham Trent University (UK). 
His latest book published in January 2015 (written with Dr. Daria Kuss) is ""Internet Addiction in Psychotherapy"" (Palgrave Press). 
 The views expressed in this commentary are solely the author's.  (CNN)Earlier this month, 
a 32-year old male gamer was found dead at a Taiwanese Internet cafe following a non-stop three-day gaming session. 
This followed the death of another male gamer who died in Taipei at the start of the year following a five-day gaming binge. 
While these cases are extremely rare, it does beg the question of why gaming can lead to such excessive behavior. 
I have spent nearly three decades studying videogame addiction and there are many studies published in both the medical and psychological literature showing that very excessive gaming can lead to a variety of health problems that range from repetitive strain injuries and obesity, 
through to auditory and visual hallucinations and addiction.",过世,僵死,死人,死的,过世的,死者,完全地
,,1,,,,1,
,绝对地,死,,,,,
,,1,,,,,
,,,,,,,
,,,,,,,
,,,,,,,
,,,,,,,
,,,,,,,
,,,,,,,
,,,,,,,
,,,,,,,
,,,,,,,
,,,,,,,
,,,,,,,
,,,,,,,
,,,,,,,
78. put,,,,,,Butwhat#put::,
"But what is it that makes gaming so compulsive and addictive for the small minority?  For me, 
addiction boils down to constant reinforcement, or put more simply, being constantly rewarded while playing the game. 
Gaming rewards can be physiological (such as feeling ""high"" or getting a ""buzz"" while playing or beating your personal high score), 
psychological (such as feeling you have complete control in a specific situation or knowing that your strategic play helped you win), 
social (such as being congratulated by fellow gamers when doing something well in the game) and, in some cases, 
financial (such as winning a gaming tournament).  Most of these rewards are -- at least to some extent -- unpredictable. 
Not knowing when the next reward will come keeps some players in the game. In short, 
they carry on gaming even though they may not have received an immediate reward. They simply hope that another reward is ""just around the corner"" and keep on playing.",搁,赋予,投击,置于,摆列,摆,摆放
,,,,,,,
,置,坐,干,掷,放置,放置者,放
,,,,,,,1
,,,,,,,
,,,,,,,
,,,,,,,
,,,,,,,
,,,,,,,
,,,,,,,
,,,,,,,
,,,,,,,
,,,,,,,
,,,,,,,
,,,,,,,
,,,,,,,
,,,,,,,
79. carry,,,,,,"Forme,#carry::",
"For me, addiction boils down to constant reinforcement, or put more simply, being constantly rewarded while playing the game. 
Gaming rewards can be physiological (such as feeling ""high"" or getting a ""buzz"" while playing or beating your personal high score), 
psychological (such as feeling you have complete control in a specific situation or knowing that your strategic play helped you win), 
social (such as being congratulated by fellow gamers when doing something well in the game) and, in some cases, 
financial (such as winning a gaming tournament).  Most of these rewards are -- at least to some extent -- unpredictable. 
Not knowing when the next reward will come keeps some players in the game. In short, 
they carry on gaming even though they may not have received an immediate reward. They simply hope that another reward is ""just around the corner"" and keep on playing. 
 Added to this is the shift over the last decade from standalone console gaming to massively multiplayer online games where games never end and gamers have to compete and/or collaborate with other gamers in real time (instead of being able to pause the game and come back and play from the point at which the player left it). 
Many excessive gamers report that they hate logging off and leaving such games. They don't like it as they don't know what is going on in the game when they are not online.",送,超位,携带,通过,载携,提溜,盘
,,,,,,,
,盘运,负,带,抬,进位,携,儋
,,,,,,,
,担,拥护,登载,提,何,搬运,拥戴
,,,,,,,
,盛,端,载,承,,,
,,,,,,,
,,,,,,,
,,,,,,,
,,,,,,,
,,,,,,,
,,,,,,,
,,,,,,,
,,,,,,,
,,,,,,,
,,,,,,,
80. life,,,,,,Throughoutmy#life::,
"Throughout my research career I have argued that although all addictions have particular and idiosyncratic characteristics, 
they share more commonalities than differences such as total preoccupation, mood modification, cravings, tolerance, 
withdrawal symptoms, conflict with work, education and other people, and loss of control. 
These similarities likely reflect a common etiology of addictive behavior.   At the simplest level, 
healthy enthusiasms add to life and addictions take away from it.  Mark Griffiths",生命,春,生机,身,寿命,活命,世面
,1,,,,,,
,性命,人生,寿,生物,世,生活,命
,,1,,,,1,
,日子,生,,,,,
,,,,,,,
,,,,,,,
,,,,,,,
,,,,,,,
,,,,,,,
,,,,,,,
,,,,,,,
,,,,,,,
,,,,,,,
,,,,,,,
,,,,,,,
,,,,,,,
81. level,,,,,,MarkGriffiths#level::,
"Mark Griffiths So when does a healthy enthusiasm turn into an addiction? At the simplest level, 
healthy enthusiasms add to life and addictions take away from it. But how much is too much? This is difficult to answer as I know many gamers who play many hours every day without any detrimental effects. 
 The DSM-5 lists nine criteria for IGD. If any gamer endorses five or more of the following criteria they would likely be diagnosed as having IGD: (1) preoccupation with internet games; (2) withdrawal symptoms when internet gaming is taken away; (3) the need to spend increasing amounts of time engaged in internet gaming, 
(4) unsuccessful attempts to control participation in internet gaming; (5) loss of interest in hobbies and entertainment as a result of, 
and with the exception of, internet gaming; (6) continued excessive use of internet games despite knowledge of psychosocial problems; (7) deception of family members, 
therapists, or others regarding the amount of internet gaming; (8) use of the internet gaming to escape or relieve a negative mood;  and (9) loss of a significant relationship, 
job, or educational or career opportunity because of participation in internet games.",标高,夷平,阶段,级,级别,原,铺平
,,,,,1,,
,踧,刨,水平线,等高,层,程度,水准
,,,,1,,1,1
,对准,层次,坦,水平面,水平,同等,平
,,,,,1,,
,平整,,,,,,
,,,,,,,
,,,,,,,
,,,,,,,
,,,,,,,
,,,,,,,
,,,,,,,
,,,,,,,
,,,,,,,
,,,,,,,
,,,,,,,
82. suffer,,,,,,TheDSM-5#suffer::,
"The DSM-5 lists nine criteria for IGD. If any gamer endorses five or more of the following criteria they would likely be diagnosed as having IGD: (1) preoccupation with internet games; (2) withdrawal symptoms when internet gaming is taken away; (3) the need to spend increasing amounts of time engaged in internet gaming, 
(4) unsuccessful attempts to control participation in internet gaming; (5) loss of interest in hobbies and entertainment as a result of, 
and with the exception of, internet gaming; (6) continued excessive use of internet games despite knowledge of psychosocial problems; (7) deception of family members, 
therapists, or others regarding the amount of internet gaming; (8) use of the internet gaming to escape or relieve a negative mood;  and (9) loss of a significant relationship, 
job, or educational or career opportunity because of participation in internet games. 
The good news is that only a small minority of gamers suffer form IGD. Most online games are fun and exciting to play. 
But like any activity that is taken to excess, in a minority of cases the activity can become addictive. 
Any activity if done for days on end could lead to severe health problems and even death -- and gaming is no exception. 
Instead of demonizing games, we need to educate gamers about the potential dangers of very excessive use.",受苦,患,著,负,苦,挨,遇到
,,,,,,,
,遭,吃,捱,罹,遭受,蒙受,受
,,,,,1,,
,受到,给,闹,遭到,苦于,意会,
,1,,,,1,,
,,,,,,,
,,,,,,,
,,,,,,,
,,,,,,,
,,,,,,,
,,,,,,,
,,,,,,,
,,,,,,,
,,,,,,,
,,,,,,,
,,,,,,,
83. form,,,,,,TheDSM-5#form::,
"The DSM-5 lists nine criteria for IGD. If any gamer endorses five or more of the following criteria they would likely be diagnosed as having IGD: (1) preoccupation with internet games; (2) withdrawal symptoms when internet gaming is taken away; (3) the need to spend increasing amounts of time engaged in internet gaming, 
(4) unsuccessful attempts to control participation in internet gaming; (5) loss of interest in hobbies and entertainment as a result of, 
and with the exception of, internet gaming; (6) continued excessive use of internet games despite knowledge of psychosocial problems; (7) deception of family members, 
therapists, or others regarding the amount of internet gaming; (8) use of the internet gaming to escape or relieve a negative mood;  and (9) loss of a significant relationship, 
job, or educational or career opportunity because of participation in internet games. 
The good news is that only a small minority of gamers suffer form IGD. Most online games are fun and exciting to play. 
But like any activity that is taken to excess, in a minority of cases the activity can become addictive. 
Any activity if done for days on end could lead to severe health problems and even death -- and gaming is no exception. 
Instead of demonizing games, we need to educate gamers about the potential dangers of very excessive use.",态,形式,构,表格,组织,式,形状
,,,,,,,
,缔,构成,形态,结成,结,形成,树立
,,,,,,,
,组,体,格式,形,发展,样式,形像
,,,,,,,
,程式,单子,养,,,,
,1,,,,,,
,,,,,,,
,,,,,,,
,,,,,,,
,,,,,,,
,,,,,,,
,,,,,,,
,,,,,,,
,,,,,,,
,,,,,,,
84. make,,,,,,"Microsoft(MSFT,#make::",
"Microsoft (MSFT, Tech30) just patented a way to make your phone less noticeable and disruptive when you're in certain environments (Microsoft calls it ""inconspicuous mode""). 
You can use it at a movie theater, a dinner date or at home about to go to bed.   The U.S. 
government awarded Microsoft the patent on Thursday. The award was first noticed by Patent Yogi, 
an Indian consulting firm.",制造,造,为,令,让,叫,营建
,,,,,1,,
,营造,构造,牌,臆造,使得,打,造作
,,,,,1,,
,楷,制,做,制作,作,使,搞
,,,,,,1,
,,,,,,,
,,,,,,,
,,,,,,,
,,,,,,,
,,,,,,,
,,,,,,,
,,,,,,,
,,,,,,,
,,,,,,,
,,,,,,,
,,,,,,,
85. time,,,,,,Incomingmessage?#time::,
Incoming message? Need to check the time? Got an unstoppable itch to check Instagram?,倍,年华,时间,候,趟,年份,度
,,,1,,,,
,光阴,辰,期,安排正在,工夫,遍,秋
,,,,,,,
,拍,时刻,季节,年头,期间,拍子,时
,,,,,,,
,时候,,,,,,
,,,,,,,
,,,,,,,
,,,,,,,
,,,,,,,
,,,,,,,
,,,,,,,
,,,,,,,
,,,,,,,
,,,,,,,
,,,,,,,
86. bright,,,,,,It'sall#bright::,
"It's all based on the notion that your phone can annoy the person next to you -- especially if you're in a dark, quiet place. 
  Incoming message? Need to check the time? Got an unstoppable itch to check Instagram? You're about to bathe your neighbors in a monstrously bright light and set off a chain of irksome bleeps. 
  In ""inconspicuous mode,"" sounds are gone, and the screen is a faint glow. Notifications don't show up on the home screen. 
The time is displayed in large numbers that are easier to glace at.",颖,晶,透亮,辉,灿然,明亮的,明
,,,,,,,
,紑,皓,朗,光明,蠲,嬛,爚
,,,,,,,
,炜,颢,皦,聪颖,炳,炯,亮
,,,,,,1,1
,昱,聪明,贲,光亮,熹,昺,爽
,,,,1,,,
,粲,耿,明亮地,烁,伶,优美,昶
,,,,,,,
,翌,湑,镐,晔,詗,晖,聪慧
,,,,,,,
,仡,有光,爽朗,晢,皎,慧,精彩
,,,,,,,
,曨,锦,暲,发光的,白,灼,灿
,,,,,,,
,的光,,,,,,
87. glow,,,,,,Incomingmessage?#glow::,
"Incoming message? Need to check the time? Got an unstoppable itch to check Instagram? You're about to bathe your neighbors in a monstrously bright light and set off a chain of irksome bleeps. 
  In ""inconspicuous mode,"" sounds are gone, and the screen is a faint glow. Notifications don't show up on the home screen. 
The time is displayed in large numbers that are easier to glace at.   In Microsoft's description, 
you could tailor the ""inconspicuous"" display any way you like. Maybe it only shows text messages. 
Or it dims more than normal.",熠,辉光,发光,炽热,发热,炜,
,,,1,,,,
,,,,,,,
,,,,,,,
,,,,,,,
,,,,,,,
,,,,,,,
,,,,,,,
,,,,,,,
,,,,,,,
,,,,,,,
,,,,,,,
,,,,,,,
,,,,,,,
,,,,,,,
,,,,,,,
,,,,,,,
88. home,,,,,,Incomingmessage?#home::,
"Incoming message? Need to check the time? Got an unstoppable itch to check Instagram? You're about to bathe your neighbors in a monstrously bright light and set off a chain of irksome bleeps. 
  In ""inconspicuous mode,"" sounds are gone, and the screen is a faint glow. Notifications don't show up on the home screen. 
The time is displayed in large numbers that are easier to glace at.   In Microsoft's description, 
you could tailor the ""inconspicuous"" display any way you like. Maybe it only shows text messages. 
Or it dims more than normal.",斋,故乡,家园,乡土,家,,
,,,,,,,
,主面,,,,,,
,,,,,,,
,,,,,,,
,,,,,,,
,,,,,,,
,,,,,,,
,,,,,,,
,,,,,,,
,,,,,,,
,,,,,,,
,,,,,,,
,,,,,,,
,,,,,,,
,,,,,,,
,,,,,,,
89. time,,,,,,Incomingmessage?2#time::,
"Incoming message? Need to check the time? Got an unstoppable itch to check Instagram? You're about to bathe your neighbors in a monstrously bright light and set off a chain of irksome bleeps. 
  In ""inconspicuous mode,"" sounds are gone, and the screen is a faint glow. Notifications don't show up on the home screen. 
The time is displayed in large numbers that are easier to glace at.   In Microsoft's description, 
you could tailor the ""inconspicuous"" display any way you like. Maybe it only shows text messages. 
Or it dims more than normal.",倍,年华,时间,候,趟,年份,度
,,,1,,,,
,光阴,辰,期,安排正在,工夫,遍,秋
,,,,,,,
,拍,时刻,季节,年头,期间,拍子,时
,,,,,,,
,时候,,,,,,
,,,,,,,
,,,,,,,
,,,,,,,
,,,,,,,
,,,,,,,
,,,,,,,
,,,,,,,
,,,,,,,
,,,,,,,
,,,,,,,
90. light,,,,,,InMicrosoft's#light::,
"In Microsoft's description, you could tailor the ""inconspicuous"" display any way you like. Maybe it only shows text messages. 
Or it dims more than normal.   But the key feature is that it would be automatic. 
It would go into this mode if your phone's GPS detects you're at the location of a movie theater. 
Or if a restaurant's or stage theater's Wi-Fi or Bluetooth beacons tell it to. Or if your phone's light sensor detects darkness while the microphone also detects silence (like just before a movie starts playing). 
  To figure this out, the phone could even tap your calendar or your recent mobile payments. 
If you bought event tickets at the counter using tap-to-pay technology, your phone would know when to go quiet.",薄,明亮,明亮的,轻便,阳光,朗,暘
,,,,,,,
,粗心,轻微,生,脚灯,忧,点燃,纾缓
,,,,,,,
,亮,昱,燃点,暲,燃放,点,光纤
,,,,,,,
,发光体,燃,浅,灯光,光,晔,轻浮
,,,,1,,,
,淡,圣光,晢,淡薄,荧,嫩,轻飘
,,,,,,,
,灯,娇嫩,发光,轻,烺,,
,1,,,,,,
,,,,,,,
,,,,,,,
,,,,,,,
,,,,,,,
,,,,,,,
91. new,,,,,,Tofigure#new::,
"To figure this out, the phone could even tap your calendar or your recent mobile payments. 
If you bought event tickets at the counter using tap-to-pay technology, your phone would know when to go quiet. 
  If this gets popular, venues will probably be quick to embrace it. Mobile phone use in theaters is so pervasive nowadays that brief ""please silence your phones"" requests are now full-blown, 
pre-movie short films. And every performance by the New York Philharmonic is preceded by a 30-second, 
pre-recorded plea by Alec Baldwin. It's downright embarrassing.   And no, theaters aren't going to start hijacking your phones. 
Microsoft's careful wording in its patent application shows that users retain control.",异,新颖,新兴,新任,全新,新,新奇
,,,,,,,
,耗,,,,,,
,,,,,,,
,,,,,,,
,,,,,,,
,,,,,,,
,,,,,,,
,,,,,,,
,,,,,,,
,,,,,,,
,,,,,,,
,,,,,,,
,,,,,,,
,,,,,,,
,,,,,,,
,,,,,,,
92. control,,,,,,Ifthis#control::,
"If this gets popular, venues will probably be quick to embrace it. Mobile phone use in theaters is so pervasive nowadays that brief ""please silence your phones"" requests are now full-blown, 
pre-movie short films. And every performance by the New York Philharmonic is preceded by a 30-second, 
pre-recorded plea by Alec Baldwin. It's downright embarrassing.   And no, theaters aren't going to start hijacking your phones. 
Microsoft's careful wording in its patent application shows that users retain control. 
  ""The mobile communication device can exit the inconspicuous mode and return to the normal mode upon the user's request,"" it says.",羁,控制,经纪,掌管,按,律,辖
,,1,,,,,
,操纵,驾驭,管制,把持,管,按捺,控
,1,,,,,,
,管理的,节制,治,独揽,压,优越,抑制
,,,,,,,
,秉,控制的,监督,筦,统制,调度,监察
,,,,,,,
,治理,司,扼,懿,,,
,,,,,,,
,,,,,,,
,,,,,,,
,,,,,,,
,,,,,,,
,,,,,,,
,,,,,,,
,,,,,,,
93. place,,,,,,It'snot#place::,
"It's not a peyote-induced hallucination, but a genuinely impressive illusion created by Microsoft's (MSFT, 
Tech30) new augmented-reality goggles, HoloLens.   In this case, it was a 3-D game of Minecraft taking place, on, over, under, 
behind and inside real furniture and walls. As you move your head and body around, the illusion moves completely with you in 3-D, 
remarkably affixed to the real world objects.   Microsoft previewed the brand new piece of hardware on Wednesday. 
HoloLens is Microsoft's foray into the virtual reality market. In its unique spin on VR, 
Microsoft has developed goggles that offer an augmented -- or ""mixed"" -- reality experience. Unlike Facebook's (FB, 
Tech30) Oculus Rift, which completely blocks out the outside world to fully immerse the wearer in another reality, 
HoloLens keeps one foot (and both eyes) firmly planted in the real world.",搁,境,地方,处,摆列,寄托,场地
,,,,,,,
,部位,寄予,座,停放,厝,地点,席
,,,,,,,
,地,点,禺,放,所,竖立,寄
,,,,,,,
,置于,摆,位置,位,到位,放置,竖
,,,,,,,
,地位,扣,场,安放,场所,摆放,置
,,,,,,,
,位子,去处,座位,,,,
,,,,,,,
,发生,,,,,,
,,,,,,,
,,,,,,,
,,,,,,,
,,,,,,,
94. head,,,,,,It'snot#head::,
"It's not a peyote-induced hallucination, but a genuinely impressive illusion created by Microsoft's (MSFT, 
Tech30) new augmented-reality goggles, HoloLens.   In this case, it was a 3-D game of Minecraft taking place, on, over, under, 
behind and inside real furniture and walls. As you move your head and body around, the illusion moves completely with you in 3-D, 
remarkably affixed to the real world objects.   Microsoft previewed the brand new piece of hardware on Wednesday. 
HoloLens is Microsoft's foray into the virtual reality market. In its unique spin on VR, 
Microsoft has developed goggles that offer an augmented -- or ""mixed"" -- reality experience. Unlike Facebook's (FB, 
Tech30) Oculus Rift, which completely blocks out the outside world to fully immerse the wearer in another reality, 
HoloLens keeps one foot (and both eyes) firmly planted in the real world.",魁,养,首领,领袖,率领,主任,羑
,,,,,,,
,首脑,头,头部,首,前进,总,为首
,,1,1,,,,
,长,督办,,,,,
,,,,,,,
,,,,,,,
,,,,,,,
,,,,,,,
,,,,,,,
,,,,,,,
,,,,,,,
,,,,,,,
,,,,,,,
,,,,,,,
,,,,,,,
,,,,,,,
95. around,,,,,,It'snot#around::,
"It's not a peyote-induced hallucination, but a genuinely impressive illusion created by Microsoft's (MSFT, 
Tech30) new augmented-reality goggles, HoloLens.   In this case, it was a 3-D game of Minecraft taking place, on, over, under, 
behind and inside real furniture and walls. As you move your head and body around, the illusion moves completely with you in 3-D, 
remarkably affixed to the real world objects.   Microsoft previewed the brand new piece of hardware on Wednesday. 
HoloLens is Microsoft's foray into the virtual reality market. In its unique spin on VR, 
Microsoft has developed goggles that offer an augmented -- or ""mixed"" -- reality experience. Unlike Facebook's (FB, 
Tech30) Oculus Rift, which completely blocks out the outside world to fully immerse the wearer in another reality, 
HoloLens keeps one foot (and both eyes) firmly planted in the real world.",靠,左右,围绕,周围,靠近,光景,四处
,,,,1,,,
,在 ... 周围,,,,,,
,1,,,,,,
,,,,,,,
,,,,,,,
,,,,,,,
,,,,,,,
,,,,,,,
,,,,,,,
,,,,,,,
,,,,,,,
,,,,,,,
,,,,,,,
,,,,,,,
,,,,,,,
,,,,,,,
96. brand,,,,,,It'snot#brand::,
"It's not a peyote-induced hallucination, but a genuinely impressive illusion created by Microsoft's (MSFT, 
Tech30) new augmented-reality goggles, HoloLens.   In this case, it was a 3-D game of Minecraft taking place, on, over, under, 
behind and inside real furniture and walls. As you move your head and body around, the illusion moves completely with you in 3-D, 
remarkably affixed to the real world objects.   Microsoft previewed the brand new piece of hardware on Wednesday. 
HoloLens is Microsoft's foray into the virtual reality market. In its unique spin on VR, 
Microsoft has developed goggles that offer an augmented -- or ""mixed"" -- reality experience. Unlike Facebook's (FB, 
Tech30) Oculus Rift, which completely blocks out the outside world to fully immerse the wearer in another reality, 
HoloLens keeps one foot (and both eyes) firmly planted in the real world.",打火印,牌,铭记,牌子,商标,烙印,爝
,,,,,,,
,全新,,,,,,
,,,,,,,
,,,,,,,
,,,,,,,
,,,,,,,
,,,,,,,
,,,,,,,
,,,,,,,
,,,,,,,
,,,,,,,
,,,,,,,
,,,,,,,
,,,,,,,
,,,,,,,
,,,,,,,
97. new,,,,,,Inthis#new::,
"In this case, it was a 3-D game of Minecraft taking place, on, over, under, behind and inside real furniture and walls. 
As you move your head and body around, the illusion moves completely with you in 3-D, 
remarkably affixed to the real world objects.   Microsoft previewed the brand new piece of hardware on Wednesday. 
HoloLens is Microsoft's foray into the virtual reality market. In its unique spin on VR, 
Microsoft has developed goggles that offer an augmented -- or ""mixed"" -- reality experience. Unlike Facebook's (FB, 
Tech30) Oculus Rift, which completely blocks out the outside world to fully immerse the wearer in another reality, 
HoloLens keeps one foot (and both eyes) firmly planted in the real world.   The lenses of the goggles are transparent, 
your view of the space around you only selectively blocked by digital images that can mingle with real objects. For example, 
an interior designer can move around a real room and rearrange 3-D pieces of furniture too see how they will look, 
even placing a virtual vase on a real shelf.",异,新颖,新兴,新任,全新,新,新奇
,,,,,1,1,
,耗,,,,,,
,,,,,,,
,,,,,,,
,,,,,,,
,,,,,,,
,,,,,,,
,,,,,,,
,,,,,,,
,,,,,,,
,,,,,,,
,,,,,,,
,,,,,,,
,,,,,,,
,,,,,,,
,,,,,,,
98. view,,,,,,Microsoftpreviewed#view::,
"Microsoft previewed the brand new piece of hardware on Wednesday. HoloLens is Microsoft's foray into the virtual reality market. 
In its unique spin on VR, Microsoft has developed goggles that offer an augmented -- or ""mixed"" -- reality experience. 
Unlike Facebook's (FB, Tech30) Oculus Rift, which completely blocks out the outside world to fully immerse the wearer in another reality, 
HoloLens keeps one foot (and both eyes) firmly planted in the real world.   The lenses of the goggles are transparent, 
your view of the space around you only selectively blocked by digital images that can mingle with real objects. For example, 
an interior designer can move around a real room and rearrange 3-D pieces of furniture too see how they will look, 
even placing a virtual vase on a real shelf.   To manipulate something in the HoloLens world, you use hand gestures, 
which are picked up by cameras on the front of the device. The single wiggle of an index finger can drop a flag on the surface of Mars or select a color for your 3-D sculpture. 
The cursor is always at the center of your view, moving when you move your head. Microphones pick up voice commands that bring up menus.",见,风光,见解,风貌,目光,览,看
,,,,,,,
,睊,意见,想法,景,意思,主张,视图
,,,,,,,1
,看法,图景,望,瞻,论,景色,鉴
,,,,,,,
,视觉,,,,,,
,,,,,,,
,,,,,,,
,,,,,,,
,,,,,,,
,,,,,,,
,,,,,,,
,,,,,,,
,,,,,,,
,,,,,,,
,,,,,,,
99. space,,,,,,Microsoftpreviewed#space::,
"Microsoft previewed the brand new piece of hardware on Wednesday. HoloLens is Microsoft's foray into the virtual reality market. 
In its unique spin on VR, Microsoft has developed goggles that offer an augmented -- or ""mixed"" -- reality experience. 
Unlike Facebook's (FB, Tech30) Oculus Rift, which completely blocks out the outside world to fully immerse the wearer in another reality, 
HoloLens keeps one foot (and both eyes) firmly planted in the real world.   The lenses of the goggles are transparent, 
your view of the space around you only selectively blocked by digital images that can mingle with real objects. For example, 
an interior designer can move around a real room and rearrange 3-D pieces of furniture too see how they will look, 
even placing a virtual vase on a real shelf.   To manipulate something in the HoloLens world, you use hand gestures, 
which are picked up by cameras on the front of the device. The single wiggle of an index finger can drop a flag on the surface of Mars or select a color for your 3-D sculpture. 
The cursor is always at the center of your view, moving when you move your head. Microphones pick up voice commands that bring up menus.",间距,间隙,场地,篇幅,宇宙的,空间,空地
,,,,,,1,
,,,,,,,
,,,,,,,
,,,,,,,
,,,,,,,
,,,,,,,
,,,,,,,
,,,,,,,
,,,,,,,
,,,,,,,
,,,,,,,
,,,,,,,
,,,,,,,
,,,,,,,
,,,,,,,
,,,,,,,
100. use,,,,,,Thelenses#use::,
"The lenses of the goggles are transparent, your view of the space around you only selectively blocked by digital images that can mingle with real objects. 
For example, an interior designer can move around a real room and rearrange 3-D pieces of furniture too see how they will look, 
even placing a virtual vase on a real shelf.   To manipulate something in the HoloLens world, you use hand gestures, 
which are picked up by cameras on the front of the device. The single wiggle of an index finger can drop a flag on the surface of Mars or select a color for your 3-D sculpture. 
The cursor is always at the center of your view, moving when you move your head. Microphones pick up voice commands that bring up menus. 
  The goggles are wireless and don't need to be tethered to any device, so while they're meant for home or office use, 
they wearer is able to roam freely. The speakers play ""spacial"" sound, so a noise might seem like it's coming from behind or beside you, 
adding to the virtual reality experience.",将,利用,应用,使用,使唤,用,功用
,,1,,1,,1,
,庸,施,采用,用场,采取,使出,展
,,,,,,,
,补,运用,施用,以,用途,用于,使
,,,1,,,,
,动,赢余,意向,,,,
,,,,,,,
,,,,,,,
,,,,,,,
,,,,,,,
,,,,,,,
,,,,,,,
,,,,,,,
,,,,,,,
,,,,,,,
,,,,,,,
101. color,,,,,,Thelenses#color::,
"The lenses of the goggles are transparent, your view of the space around you only selectively blocked by digital images that can mingle with real objects. 
For example, an interior designer can move around a real room and rearrange 3-D pieces of furniture too see how they will look, 
even placing a virtual vase on a real shelf.   To manipulate something in the HoloLens world, you use hand gestures, 
which are picked up by cameras on the front of the device. The single wiggle of an index finger can drop a flag on the surface of Mars or select a color for your 3-D sculpture. 
The cursor is always at the center of your view, moving when you move your head. Microphones pick up voice commands that bring up menus. 
  The goggles are wireless and don't need to be tethered to any device, so while they're meant for home or office use, 
they wearer is able to roam freely. The speakers play ""spacial"" sound, so a noise might seem like it's coming from behind or beside you, 
adding to the virtual reality experience.",颜色,绘画,彩,彩色,气色,颜,血色
,1,,,,,,
,脸红,色,脸色,绘,颜料,肤色,色彩
,,1,,,,,
,,,,,,,
,,,,,,,
,,,,,,,
,,,,,,,
,,,,,,,
,,,,,,,
,,,,,,,
,,,,,,,
,,,,,,,
,,,,,,,
,,,,,,,
,,,,,,,
,,,,,,,
102. move,,,,,,Thelenses#move::,
"The lenses of the goggles are transparent, your view of the space around you only selectively blocked by digital images that can mingle with real objects. 
For example, an interior designer can move around a real room and rearrange 3-D pieces of furniture too see how they will look, 
even placing a virtual vase on a real shelf.   To manipulate something in the HoloLens world, you use hand gestures, 
which are picked up by cameras on the front of the device. The single wiggle of an index finger can drop a flag on the surface of Mars or select a color for your 3-D sculpture. 
The cursor is always at the center of your view, moving when you move your head. Microphones pick up voice commands that bring up menus. 
  The goggles are wireless and don't need to be tethered to any device, so while they're meant for home or office use, 
they wearer is able to roam freely. The speakers play ""spacial"" sound, so a noise might seem like it's coming from behind or beside you, 
adding to the virtual reality experience.",调,挪,举动,触动,打动,迁徙,移动
,,,,,,,1
,感,动,搬迁,搬,感到,搬家,感动
,,1,,,,,
,游,运行,举,迁,动弹,摆,步骤
,,1,,,,,
,行动,挪动,运动,提议,迁移,跞,行径
,,,,,,,
,扤,触,拨,走,移,搬移,
,,,,1,1,,
,,,,,,,
,,,,,,,
,,,,,,,
,,,,,,,
,,,,,,,
,,,,,,,
,,,,,,,
103. voice,,,,,,Thelenses#voice::,
"The lenses of the goggles are transparent, your view of the space around you only selectively blocked by digital images that can mingle with real objects. 
For example, an interior designer can move around a real room and rearrange 3-D pieces of furniture too see how they will look, 
even placing a virtual vase on a real shelf.   To manipulate something in the HoloLens world, you use hand gestures, 
which are picked up by cameras on the front of the device. The single wiggle of an index finger can drop a flag on the surface of Mars or select a color for your 3-D sculpture. 
The cursor is always at the center of your view, moving when you move your head. Microphones pick up voice commands that bring up menus. 
  The goggles are wireless and don't need to be tethered to any device, so while they're meant for home or office use, 
they wearer is able to roam freely. The speakers play ""spacial"" sound, so a noise might seem like it's coming from behind or beside you, 
adding to the virtual reality experience.",态,声音,表达,抒发,呼声,发言,嗓子
,,1,,,,,
,声,嗓,喉舌,语音,发言权,,
,1,,,,,,
,音响,,,,,,
,,,,,,,
,,,,,,,
,,,,,,,
,,,,,,,
,,,,,,,
,,,,,,,
,,,,,,,
,,,,,,,
,,,,,,,
,,,,,,,
,,,,,,,
,,,,,,,
104. bring,,,,,,Thelenses#bring::,
"The lenses of the goggles are transparent, your view of the space around you only selectively blocked by digital images that can mingle with real objects. 
For example, an interior designer can move around a real room and rearrange 3-D pieces of furniture too see how they will look, 
even placing a virtual vase on a real shelf.   To manipulate something in the HoloLens world, you use hand gestures, 
which are picked up by cameras on the front of the device. The single wiggle of an index finger can drop a flag on the surface of Mars or select a color for your 3-D sculpture. 
The cursor is always at the center of your view, moving when you move your head. Microphones pick up voice commands that bring up menus. 
  The goggles are wireless and don't need to be tethered to any device, so while they're meant for home or office use, 
they wearer is able to roam freely. The speakers play ""spacial"" sound, so a noise might seem like it's coming from behind or beside you, 
adding to the virtual reality experience.",产生,停下,输,促使,带来,输送,拿来
,,,,1,,,
,,,,,,,
,,,,,,,
,,,,,,,
,,,,,,,
,,,,,,,
,,,,,,,
,,,,,,,
,,,,,,,
,,,,,,,
,,,,,,,
,,,,,,,
,,,,,,,
,,,,,,,
,,,,,,,
,,,,,,,
105. use,,,,,,Tomanipulate#use::,
"To manipulate something in the HoloLens world, you use hand gestures, which are picked up by cameras on the front of the device. 
The single wiggle of an index finger can drop a flag on the surface of Mars or select a color for your 3-D sculpture. 
The cursor is always at the center of your view, moving when you move your head. Microphones pick up voice commands that bring up menus. 
  The goggles are wireless and don't need to be tethered to any device, so while they're meant for home or office use, 
they wearer is able to roam freely. The speakers play ""spacial"" sound, so a noise might seem like it's coming from behind or beside you, 
adding to the virtual reality experience.   Related: Microsoft's insane holographic vision of the future",将,利用,应用,使用,使唤,用,功用
,,1,,1,,1,
,庸,施,采用,用场,采取,使出,展
,,,1,,,,
,补,运用,施用,以,用途,用于,使
,,,,,,,
,动,赢余,意向,,,,
,1,,,,,,
,,,,,,,
,,,,,,,
,,,,,,,
,,,,,,,
,,,,,,,
,,,,,,,
,,,,,,,
,,,,,,,
,,,,,,,
106. sound,,,,,,Tomanipulate#sound::,
"To manipulate something in the HoloLens world, you use hand gestures, which are picked up by cameras on the front of the device. 
The single wiggle of an index finger can drop a flag on the surface of Mars or select a color for your 3-D sculpture. 
The cursor is always at the center of your view, moving when you move your head. Microphones pick up voice commands that bring up menus. 
  The goggles are wireless and don't need to be tethered to any device, so while they're meant for home or office use, 
they wearer is able to roam freely. The speakers play ""spacial"" sound, so a noise might seem like it's coming from behind or beside you, 
adding to the virtual reality experience.   Related: Microsoft's insane holographic vision of the future",籁,声音,鸣,甜,发出声音,喧,嚆
,,1,,,,,
,响,合理的,唎,声,音,健全,响声
,,,,1,,,1
,音响,创立,健康,听起来,扎实,声息,声响
,1,,,,,,1
,,,,,,,
,,,,,,,
,,,,,,,
,,,,,,,
,,,,,,,
,,,,,,,
,,,,,,,
,,,,,,,
,,,,,,,
,,,,,,,
,,,,,,,
107. real,,,,,,Afteran#real::,
"After an on-stage demonstration of the sleek, wraparound black glasses, Microsoft gave reporters four hands-on demos of the device at its Redmond, 
Washington headquarters. (Notably, the goggles I tested were not the finished product Microsoft demonstrated on stage -- they had jumbles of exposed electronic elements connected to a box that hung around my neck). 
  The demonstration scenarios attempted to show real examples of practical uses for the technology.   Video games. 
Gamers tend to be enthusiastic early adopters of experimental immersive technology, 
and the stunning Minecraft demo seemed like the most natural and realistic use case. 
I do not usually play Minecraft but would absolutely start, and maybe forget to stop, 
if I had a HoloLens.",非常,真实,确实,实打实,真相,现实,确
,,1,,,,,
,实在,真币,活生生,真正,实际,真,实
,1,,,,1,,
,,,,,,,
,,,,,,,
,,,,,,,
,,,,,,,
,,,,,,,
,,,,,,,
,,,,,,,
,,,,,,,
,,,,,,,
,,,,,,,
,,,,,,,
,,,,,,,
,,,,,,,
108. stop,,,,,,Thedemonstration#stop::,
"The demonstration scenarios attempted to show real examples of practical uses for the technology.   Video games. 
Gamers tend to be enthusiastic early adopters of experimental immersive technology, 
and the stunning Minecraft demo seemed like the most natural and realistic use case. 
I do not usually play Minecraft but would absolutely start, and maybe forget to stop, if I had a HoloLens.   Customer service. 
A Skype call demo was to walk me through fixing a broken light. The person on the other end of the call could see what I saw (real wires, 
tools, a hole in the wall) and could annotate my view with colorful lines and arrows. 
She even doodled a little diagram on a patch of blank wall. Remote customer support is a commonly imagined use for smart glasses, 
including Google Glass. While a neat thing to have, it's nothing a phone or PC running video chat wouldn't be able to accomplish.",站住,辍止,阻击,断,碍,偃,阏
,,,,,,,
,阻止,戒,阻拦,逗,断绝,羇泊,跱
,,,,,,,
,锢,中止,堨,截,弭,踯,沮
,,1,,,,,
,已,收,终止,制止,柅,歇,辍
,,,1,,,,
,止息,遏,扎,停摆,停歇,阻挡,罢
,1,,,,,,
,住,杜,收起,站,寝,停,逗留
,,,,,,,
,煞,卡,止,住手,停顿,止住,湮
,,,,,1,,
,停车,休止,停止,车站,停息,停下来,拦住
,,,,,1,1,
,来，如,在,收手,,,,
109. light,,,,,,Videogames.#light::,
"Video games. Gamers tend to be enthusiastic early adopters of experimental immersive technology, 
and the stunning Minecraft demo seemed like the most natural and realistic use case. 
I do not usually play Minecraft but would absolutely start, and maybe forget to stop, if I had a HoloLens.   Customer service. 
A Skype call demo was to walk me through fixing a broken light. The person on the other end of the call could see what I saw (real wires, 
tools, a hole in the wall) and could annotate my view with colorful lines and arrows. 
She even doodled a little diagram on a patch of blank wall. Remote customer support is a commonly imagined use for smart glasses, 
including Google Glass. While a neat thing to have, it's nothing a phone or PC running video chat wouldn't be able to accomplish. 
  Design. HoloStudio is a creative app that is designed for anyone to easily tinker with, like a beefed up MS Paint. 
A palette of colors and shapes floats in front of the artist who can create simple or complex 3-D models. 
Final designs can be ordered online, and a printed version of your 3-D purple skyscraper will be delivered to your door.",薄,明亮,明亮的,轻便,阳光,朗,暘
,,,,,,,
,粗心,轻微,生,脚灯,忧,点燃,纾缓
,,,,,,,
,亮,昱,燃点,暲,燃放,点,光纤
,,,,,,,
,发光体,燃,浅,灯光,光,晔,轻浮
,,,,1,,,
,淡,圣光,晢,淡薄,荧,嫩,轻飘
,,,,,,,
,灯,娇嫩,发光,轻,烺,,
,1,,,,,,
,,,,,,,
,,,,,,,
,,,,,,,
,,,,,,,
,,,,,,,
110. hole,,,,,,Videogames.#hole::,
"Video games. Gamers tend to be enthusiastic early adopters of experimental immersive technology, 
and the stunning Minecraft demo seemed like the most natural and realistic use case. 
I do not usually play Minecraft but would absolutely start, and maybe forget to stop, if I had a HoloLens.   Customer service. 
A Skype call demo was to walk me through fixing a broken light. The person on the other end of the call could see what I saw (real wires, 
tools, a hole in the wall) and could annotate my view with colorful lines and arrows. 
She even doodled a little diagram on a patch of blank wall. Remote customer support is a commonly imagined use for smart glasses, 
including Google Glass. While a neat thing to have, it's nothing a phone or PC running video chat wouldn't be able to accomplish. 
  Design. HoloStudio is a creative app that is designed for anyone to easily tinker with, like a beefed up MS Paint. 
A palette of colors and shapes floats in front of the artist who can create simple or complex 3-D models. 
Final designs can be ordered online, and a printed version of your 3-D purple skyscraper will be delivered to your door.",窟窿,坑,穴,堀,窦,窍,孔穴
,,,,,,,
,窿,洞穴,阱,漏洞,隙缝,孔,錾
,,1,,,1,1,
,窟,洞,,,,,
,,1,,,,,
,,,,,,,
,,,,,,,
,,,,,,,
,,,,,,,
,,,,,,,
,,,,,,,
,,,,,,,
,,,,,,,
,,,,,,,
,,,,,,,
,,,,,,,
111. inside,,,,,,Design.HoloStudio#inside::,
"Design. HoloStudio is a creative app that is designed for anyone to easily tinker with, like a beefed up MS Paint. 
A palette of colors and shapes floats in front of the artist who can create simple or complex 3-D models. 
Final designs can be ordered online, and a printed version of your 3-D purple skyscraper will be delivered to your door. 
  Virtual reality. At NASA's Jet Propulsion Laboratory, scientists regularly dig through images of Mars collected by the Curiosity Rover. 
They've collaborated with Microsoft to create a program that places them inside a 3-D rendering of Mars using HoloLens. 
Whether you look up or down, turn left or right, or walk forward or back, the landscape shifts accordingly so you feel like you're taking a stroll on the red planet. 
  The Mars demo was one of the few times I wished I was using full virtual reality goggles. 
They had reasons for wanted to keep reality involved -- JPL scientists are working not playing, 
and they need to use other tools like computers at the same time. But as impressive as it was, 
the mixed-reality version of Mars looked thin and desaturated.",里面,里边,内,里,内部,,
,1,,,1,,,
,,,,,,,
,,,,,,,
,,,,,,,
,,,,,,,
,,,,,,,
,,,,,,,
,,,,,,,
,,,,,,,
,,,,,,,
,,,,,,,
,,,,,,,
,,,,,,,
,,,,,,,
,,,,,,,
,,,,,,,
112. light,,,,,,TheMars2#light::,
"The Mars demo was one of the few times I wished I was using full virtual reality goggles. 
They had reasons for wanted to keep reality involved -- JPL scientists are working not playing, 
and they need to use other tools like computers at the same time. But as impressive as it was, 
the mixed-reality version of Mars looked thin and desaturated.   Full and partial virtual reality look different because of the underlying technology. 
HoloLens doesn't display images on any screen, but projects light directly onto the retina, 
imitating the way light travels from real objects. The augmented view is contained in a rectangle directly in front of your face. 
Oculus Rift shows its images on a screen in front of the eyes and extends farther out and around for a more encompassing view. 
  The virtual reality space is still mostly filled with buzz and not-ready-for-prime-time products. 
But VR has been anointed the next big thing by a tech industry hungry for something fresh and exciting to woo customers.",薄,明亮,明亮的,轻便,阳光,朗,暘
,,,,,,,
,粗心,轻微,生,脚灯,忧,点燃,纾缓
,,,,,,,
,亮,昱,燃点,暲,燃放,点,光纤
,,,,,,,
,发光体,燃,浅,灯光,光,晔,轻浮
,,,,1,,,
,淡,圣光,晢,淡薄,荧,嫩,轻飘
,,,,,,,
,灯,娇嫩,发光,轻,烺,,
,1,,,,,,
,,,,,,,
,,,,,,,
,,,,,,,
,,,,,,,
,,,,,,,
113. place,,,,,,"Hey,this#place::",
"Hey, this is important. It's about who's No. 1. It's about bragging rights.  ""Chicago reclaims its place"" as the ""world's busiest airport,"" Chicago Mayor Rahm Emanuel said in a statement Thursday, 
crediting new airline routes, newly relocated businesses and the city's strong economy. 
 But Atlanta's Hartsfield-Jackson remains No. 1 in annual passenger traffic. Spokesman Reese McCranie said the airport is projected to top 96 million passengers for 2014, 
compared with O'Hare, which handled 66.7 million in 2013. That put O'Hare in fifth place globally for passengers.",搁,境,地方,处,摆列,寄托,场地
,,,,,,,
,部位,寄予,座,停放,厝,地点,席
,,,,,,,
,地,点,禺,放,所,竖立,寄
,,,,,,,
,置于,摆,位置,位,到位,放置,竖
,,,1,,,,
,地位,扣,场,安放,场所,摆放,置
,1,,,,,,
,位子,去处,座位,,,,
,,,,,,,
,,,,,,,
,,,,,,,
,,,,,,,
,,,,,,,
,,,,,,,
114. border,,,,,,Thedriver#border::,
"The driver cheerfully ignores the doctor's pleas and continues to take the corners at a clip, 
smoking all the while and occasionally breaking into wailed bursts of Kurdish folk song.  We're traveling from Sanandaj, 
the capital of Iran's Kurdistan province, to Marivan, a small city just a few kilometers from the border with Iraq. 
It's the final day of Nowruz, the Iranian new year, and my companions, a doctor called Ghaffar and a taxi driver named Jahan -- both from Sanandaj -- are still on holiday.",境,毗,疆,花坛,边界,境界,边际
,1,,,,1,1,1
,涯,边,圻,濒临,际,接壤,界
,,,,,1,,
,濒,邻接,毘,疆界,同 ... 交界,边境,陲
,,,,,,1,
,镶,埸,,,,,
,,,,,,,
,,,,,,,
,,,,,,,
,,,,,,,
,,,,,,,
,,,,,,,
,,,,,,,
,,,,,,,
,,,,,,,
,,,,,,,
115. still,,,,,,Italso#still::,
"It also seems a world away from Iran.  Although we're still within Iran's borders, the Kurdistan region is quite different, 
and more traditionally Persian compared to the country's heartland. Colorful dress, 
religions at odds",安,侐,宓,仍然,尚,寂静,依然
,,,,1,,,1
,还是,安慰,静止,澶,犹,寂,安生
,1,,,,,,
,但,仍,静,还,使 ... 安静,使 ... 放心,依旧
,,,,1,,,
,阒,更,恹,但是,,,
,,,,,,,
,,,,,,,
,,,,,,,
,,,,,,,
,,,,,,,
,,,,,,,
,,,,,,,
,,,,,,,
,,,,,,,
,,,,,,,
116. stop,,,,,,Dressis#stop::,
"Dress is traditional: men sport baggy shalwar trousers, plain shirts and heavy felt waistcoats, 
while the women wear colorful dresses and headscarves rather than the black chador or hijab seen throughout much of the rest of Iran. 
On the way, we stop in a tiny village called Negel.  The mosque in the village is home to large, 
handwritten Quran said to be about 1,300 years old.",站住,辍止,阻击,断,碍,偃,阏
,,,,,,,
,阻止,戒,阻拦,逗,断绝,羇泊,跱
,,,,,,,
,锢,中止,堨,截,弭,踯,沮
,,,,,,,
,已,收,终止,制止,柅,歇,辍
,,,,,,,
,止息,遏,扎,停摆,停歇,阻挡,罢
,,,,,1,,
,住,杜,收起,站,寝,停,逗留
,,,,,,1,1
,煞,卡,止,住手,停顿,止住,湮
,,,,,,,
,停车,休止,停止,车站,停息,停下来,拦住
,,1,,,1,1,
,来，如,在,,,,,
