0. time,,,,,,(CNN)Youcan't#time::,,,
"(CNN)You can't escape Disney's phenomenon ""Frozen."" It is the highest-grossing animated film of all time and one of Disney's top franchises. 
It was the most downloaded movie from Apple last year, and kids everywhere are still singing the movie's anthem, 
""Let It Go.""",倍,年华,时间,候,趟,年份,度,光阴,辰
,,,1,,,,,,
,期,安排正在,工夫,遍,秋,拍,时刻,季节,年头
,,,,,,,,,
,期间,拍子,时,时候,,,,,
,,,,,,,,,
,,,,,,,,,
,,,,,,,,,
,,,,,,,,,
,,,,,,,,,
,,,,,,,,,
,,,,,,,,,
,,,,,,,,,
,,,,,,,,,
,,,,,,,,,
,,,,,,,,,
,,,,,,,,,
1. still,,,,,,Itis#still::,,,
"It is the highest-grossing animated film of all time and one of Disney's top franchises. 
It was the most downloaded movie from Apple last year, and kids everywhere are still singing the movie's anthem, 
""Let It Go.""  Heck, it's now probably stuck in your own head right now, even if you have never seen the film.",安,侐,宓,仍然,尚,寂静,依然,还是,安慰
,,,,1,,,,,
,静止,澶,犹,寂,安生,但,仍,静,还
,,,,,,,1,,1
,使 ... 安静,使 ... 放心,依旧,阒,更,恹,但是,,
,,,,,,,,,
,,,,,,,,,
,,,,,,,,,
,,,,,,,,,
,,,,,,,,,
,,,,,,,,,
,,,,,,,,,
,,,,,,,,,
,,,,,,,,,
,,,,,,,,,
,,,,,,,,,
,,,,,,,,,
2. around,,,,,,"Heck,it's#around::",,,
"Heck, it's now probably stuck in your own head right now, even if you have never seen the film. 
So why has the 2013 movie stuck around for so long for the under-5 set?  Experts say it is not just because you can find images of movie's sisters on everything. 
Elsa and Anna are on dresses, on scooters and, just in time for the Easter season, 
even on jelly beans.",靠,左右,围绕,周围,靠近,光景,四处,在 ... 周围,
,,1,,,,,,,
,,,,,,,,,
,,,,,,,,,
,,,,,,,,,
,,,,,,,,,
,,,,,,,,,
,,,,,,,,,
,,,,,,,,,
,,,,,,,,,
,,,,,,,,,
,,,,,,,,,
,,,,,,,,,
,,,,,,,,,
,,,,,,,,,
,,,,,,,,,
,,,,,,,,,
3. say,,,,,,Sowhy#say::,,,
"So why has the 2013 movie stuck around for so long for the under-5 set?  Experts say it is not just because you can find images of movie's sisters on everything. 
Elsa and Anna are on dresses, on scooters and, just in time for the Easter season, even on jelly beans. 
 To understand the psychology behind ""Frozen"" Mania, CNN reached out to psychologists who are sisters themselves: Yalda Uhls is regional director for Common Sense Media. 
Maryam Kia-Keating is an associate professor of clinical psychology at University of California, Santa Barbara. 
Here is our edited conversation.",表示,言,说话,云,大约,谓,发言权,曰,意见
,1,,,,,,,,
,发言,讲,大概,看法,摅,讲话,告,道,拥
,,,,,,,,,
,见解,发痒的,称,念,说,,,,
,,,,,1,,,,
,,,,,,,,,
,,,,,,,,,
,,,,,,,,,
,,,,,,,,,
,,,,,,,,,
,,,,,,,,,
,,,,,,,,,
,,,,,,,,,
,,,,,,,,,
,,,,,,,,,
,,,,,,,,,
4. love,,,,,,MaryamKia-Keating:#love::,,,
"Maryam Kia-Keating: Kids can really understand the idea of their sister wanting to play with them, and sometimes not, 
but still having a strong family bond.  Ultimately, it's about the love between the sisters. 
That's a message that many little children understand. There are also good lessons about overcoming struggles and facing life challenges. 
But, what's interesting about preschoolers, in particular, is there's this loyalty and unrelenting interest to watch this movie over and over again. 
 Part of it is because it was so well done, but there are some themes that younger kids can really identify with.",宠,喜好,情,性爱,喜爱,春情,恋,慈爱,春心
,,,,,,,,,
,爱,恋爱,爱情,喜欢,春,心爱,好,,
,1,,,,,,,,
,,,,,,,,,
,,,,,,,,,
,,,,,,,,,
,,,,,,,,,
,,,,,,,,,
,,,,,,,,,
,,,,,,,,,
,,,,,,,,,
,,,,,,,,,
,,,,,,,,,
,,,,,,,,,
,,,,,,,,,
,,,,,,,,,
5. part,,,,,,"Ultimately,it's#part::",,,
"Ultimately, it's about the love between the sisters. That's a message that many little children understand. 
There are also good lessons about overcoming struggles and facing life challenges. But, what's interesting about preschoolers, 
in particular, is there's this loyalty and unrelenting interest to watch this movie over and over again. 
 Part of it is because it was so well done, but there are some themes that younger kids can really identify with. 
My 4-year-old daughter told me that she also liked that it didn't have a witch.",诀,异,处,角色,分,部分地,向,多多少少,股
,,,,,,,,,
,片段,局部,断裂,段,离,分别,部分,局,集
,,,,,,,1,,
,握别,局部地,部件,角,机件,组成,段落,分开,部
,,,,,,,,,
,仳,间,构件,份,,,,,
,,,,,,,,,
,,,,,,,,,
,,,,,,,,,
,,,,,,,,,
,,,,,,,,,
,,,,,,,,,
,,,,,,,,,
,,,,,,,,,
,,,,,,,,,
,,,,,,,,,
6. like,,,,,,CNN:Why#like::,,,
"CNN: Why is not having a witch important to a preschooler?  Kia-Keating: When you're an adult, 
you've heard a lot of these stories, like ""Snow White"" or ""Cinderella,"" and you forget the power they can have. 
 It's helpful to have a child's point of view on this.",好比,好像,若,喜爱,如同,待见,喜好,爱好,同
,1,1,,,,,,,
,似,爱,好以,比如,喜欢,一样,相似,看上,类
,,,,1,,,,,
,好,喜,不啻,,,,,,
,,,,,,,,,
,,,,,,,,,
,,,,,,,,,
,,,,,,,,,
,,,,,,,,,
,,,,,,,,,
,,,,,,,,,
,,,,,,,,,
,,,,,,,,,
,,,,,,,,,
,,,,,,,,,
,,,,,,,,,
7. point,,,,,,Kia-Keating:When#point::,,,
"Kia-Keating: When you're an adult, you've heard a lot of these stories, like ""Snow White"" or ""Cinderella,"" and you forget the power they can have. 
 It's helpful to have a child's point of view on this.  Kids are living in this world where the line between what's real and what's not really is blurry, 
and because they have such vivid imaginations, witches and monsters can feel very real.",尖,指引,处,指,点明,提示,分,指画,指出
,,,,,,,,,
,指示,问题,讲,表明,尖兵,点子,点,指明,详
,,,,,,,,,
,意向,详情,,,,,,,
,,,,,,,,,
,,,,,,,,,
,,,,,,,,,
,,,,,,,,,
,,,,,,,,,
,,,,,,,,,
,,,,,,,,,
,,,,,,,,,
,,,,,,,,,
,,,,,,,,,
,,,,,,,,,
,,,,,,,,,
8. like,,,,,,"Asadults,#like::",,,
"As adults, we may see these villains or monsters as a way to tell a story or a lesson, 
but when children are in the moment of being scared, they are caught up in the fear and not in finding the larger lesson. 
 Uhls: I used to work in the film industry, and as adults, we're told that we need conflict to drive drama. 
Take Grimm's Fairy Tales; there are always dire stakes. Or movies like ""Bambi"" and ""The Lion King,"" where the mother or father die. 
 These are serious issues and themes, and sometimes little kids aren't ready to process and understand these ideas.",好比,好像,若,喜爱,如同,待见,喜好,爱好,同
,1,1,,,,,,,
,似,爱,好以,比如,喜欢,一样,相似,看上,类
,,,,1,,,,,
,好,喜,不啻,,,,,,
,,,,,,,,,
,,,,,,,,,
,,,,,,,,,
,,,,,,,,,
,,,,,,,,,
,,,,,,,,,
,,,,,,,,,
,,,,,,,,,
,,,,,,,,,
,,,,,,,,,
,,,,,,,,,
,,,,,,,,,
9. feel,,,,,,"In""Frozen,""#feel::",,,
"In ""Frozen,"" Princess Elsa has these powers to control ice and snow -- and that really captures kids' imaginations. 
When you're small, you don't feel powerful. Everyone is always dictating what you can and cannot do. 
Having a character they can empathize with that has these powers can make them feel more empowered, as well. 
 Kia-Keating: That magical piece is exciting and is one of the things that really sets this movie apart from others.",知觉,觉察,触摸,摸索,觉得,感到,觉,挲,认为
,,,,,1,1,,,
,意会,感觉,摸,触觉,感觉到,作,感,,
,,1,,,,,,,
,,,,,,,,,
,,,,,,,,,
,,,,,,,,,
,,,,,,,,,
,,,,,,,,,
,,,,,,,,,
,,,,,,,,,
,,,,,,,,,
,,,,,,,,,
,,,,,,,,,
,,,,,,,,,
,,,,,,,,,
,,,,,,,,,
10. piece,,,,,,Whenyou're#piece::,,,
"When you're small, you don't feel powerful. Everyone is always dictating what you can and cannot do. 
Having a character they can empathize with that has these powers can make them feel more empowered, as well. 
 Kia-Keating: That magical piece is exciting and is one of the things that really sets this movie apart from others. 
 Another aspect that kids see themselves in Elsa and Anna is the impulsiveness.",瓣,篇,一片,片,篇子,紩,个,棋子,一块
,,,,1,,,,,
,块,连贯,拼凑,拚,部分,拼,拼合,,
,,,,,,,,,
,,,,,,,,,
,,,,,,,,,
,,,,,,,,,
,,,,,,,,,
,,,,,,,,,
,,,,,,,,,
,,,,,,,,,
,,,,,,,,,
,,,,,,,,,
,,,,,,,,,
,,,,,,,,,
,,,,,,,,,
,,,,,,,,,
11. see,,,,,,Kia-Keating:That#see::,,,
"Kia-Keating: That magical piece is exciting and is one of the things that really sets this movie apart from others. 
 Another aspect that kids see themselves in Elsa and Anna is the impulsiveness.  Parents are constantly trying to teach their little ones how to self-regulate their emotions, 
how to behave, how to sit down.",见,看见,见面,瞅,高桌,应付,询,览,看
,,1,,,,,,,
,瞅见,觏,看望,看到,瞧见,睹,看出,会,领会
,,,,,,,,,
,,,,,,,,,
,,,,,,,,,
,,,,,,,,,
,,,,,,,,,
,,,,,,,,,
,,,,,,,,,
,,,,,,,,,
,,,,,,,,,
,,,,,,,,,
,,,,,,,,,
,,,,,,,,,
,,,,,,,,,
,,,,,,,,,
12. life,,,,,,(CNN)Songlyrics#life::,,,
"(CNN)Song lyrics that glorify violence are hardly uncommon. But a prosecutor in California says one rapper's violent lyrics go beyond creative license to conspiracy. 
  San Diego-based rapper Tiny Doo has already spent eight months in prison, and faces 25 years to life in prison if convicted under a little-known California statute that makes it illegal to benefit from gang activities. 
 The statute in question is California Penal Code 182.5. The code makes it a felony for anyone to participate in a criminal street gang, 
have knowledge that a street gang has engaged in criminal activity, or benefit from that activity.",生命,春,生机,身,寿命,活命,世面,性命,人生
,1,,,,,,,,
,寿,生物,世,生活,命,日子,生,,
,,,,,,1,,,
,,,,,,,,,
,,,,,,,,,
,,,,,,,,,
,,,,,,,,,
,,,,,,,,,
,,,,,,,,,
,,,,,,,,,
,,,,,,,,,
,,,,,,,,,
,,,,,,,,,
,,,,,,,,,
,,,,,,,,,
,,,,,,,,,
13. under,,,,,,(CNN)Songlyrics#under::,,,
"(CNN)Song lyrics that glorify violence are hardly uncommon. But a prosecutor in California says one rapper's violent lyrics go beyond creative license to conspiracy. 
  San Diego-based rapper Tiny Doo has already spent eight months in prison, and faces 25 years to life in prison if convicted under a little-known California statute that makes it illegal to benefit from gang activities. 
 The statute in question is California Penal Code 182.5. The code makes it a felony for anyone to participate in a criminal street gang, 
have knowledge that a street gang has engaged in criminal activity, or benefit from that activity.",在 ... 之下,下面,在下边,在 ... 下,以下,根据,之下,下,底下
,,,,,,,1,,
,使用,在下面,下边,少于,,,,,
,,,,,,,,,
,,,,,,,,,
,,,,,,,,,
,,,,,,,,,
,,,,,,,,,
,,,,,,,,,
,,,,,,,,,
,,,,,,,,,
,,,,,,,,,
,,,,,,,,,
,,,,,,,,,
,,,,,,,,,
,,,,,,,,,
,,,,,,,,,
14. real,,,,,,It'sthat#real::,,,
"It's that last part -- benefiting from criminal activity -- that prosecutors are going after the rapper for. Tiny Doo, 
whose real name is Brandon Duncan, faces nine counts of criminal street gang conspiracy because prosecutors allege he and 14 other alleged gang members increased their stature and respect following a rash of shootings in the city in 2013. 
Prosecutors point to Tiny Doo's album, ""No Safety,"" and to lyrics like ""Ain't no safety on this pistol I'm holding"" as examples of a ""direct correlation to what the gang has been doing.""",非常,真实,确实,实打实,真相,现实,确,实在,真币
,,1,,,,,,,
,活生生,真正,实际,真,实,,,,
,,,,,,,,,
,,,,,,,,,
,,,,,,,,,
,,,,,,,,,
,,,,,,,,,
,,,,,,,,,
,,,,,,,,,
,,,,,,,,,
,,,,,,,,,
,,,,,,,,,
,,,,,,,,,
,,,,,,,,,
,,,,,,,,,
,,,,,,,,,
15. point,,,,,,"TinyDoo,#point::",,,
"Tiny Doo, whose real name is Brandon Duncan, faces nine counts of criminal street gang conspiracy because prosecutors allege he and 14 other alleged gang members increased their stature and respect following a rash of shootings in the city in 2013. 
Prosecutors point to Tiny Doo's album, ""No Safety,"" and to lyrics like ""Ain't no safety on this pistol I'm holding"" as examples of a ""direct correlation to what the gang has been doing.""  No one suggests the rapper ever actually pulled a trigger.",尖,指引,处,指,点明,提示,分,指画,指出
,,,,1,,,,,
,指示,问题,讲,表明,尖兵,点子,点,指明,详
,,,,,,,,,
,意向,详情,,,,,,,
,,,,,,,,,
,,,,,,,,,
,,,,,,,,,
,,,,,,,,,
,,,,,,,,,
,,,,,,,,,
,,,,,,,,,
,,,,,,,,,
,,,,,,,,,
,,,,,,,,,
,,,,,,,,,
,,,,,,,,,
16. life,,,,,,"Infact,#life::",,,
"In fact, Duncan may rap about violence but he's got no criminal record.  Duncan told CNN's Don Lemon he's just ""painting a picture of urban street life"" with his lyrics. 
 ""The studio is my canvas. I'm just painting a picture,"" he said. ""I'm not telling anybody to go out and kill somebody.""",生命,春,生机,身,寿命,活命,世面,性命,人生
,,,,,,,,,
,寿,生物,世,生活,命,日子,生,,
,,,,1,,1,,,
,,,,,,,,,
,,,,,,,,,
,,,,,,,,,
,,,,,,,,,
,,,,,,,,,
,,,,,,,,,
,,,,,,,,,
,,,,,,,,,
,,,,,,,,,
,,,,,,,,,
,,,,,,,,,
,,,,,,,,,
,,,,,,,,,
17. kill,,,,,,Duncantold#kill::,,,
"Duncan told CNN's Don Lemon he's just ""painting a picture of urban street life"" with his lyrics.  ""The studio is my canvas. 
I'm just painting a picture,"" he said. ""I'm not telling anybody to go out and kill somebody."" He denied any involvement with any gang but said the prosecution has him concerned about future creative expression.",打死,杀,戡,结果,殪,戮,残害,杀害,害
,,1,,,,,,1,
,杀人,刘,殛,要命,诛戮,,,,
,,,,,,,,,
,,,,,,,,,
,,,,,,,,,
,,,,,,,,,
,,,,,,,,,
,,,,,,,,,
,,,,,,,,,
,,,,,,,,,
,,,,,,,,,
,,,,,,,,,
,,,,,,,,,
,,,,,,,,,
,,,,,,,,,
,,,,,,,,,
18. mature,,,,,,It'sa#mature::,,,
"It's a children's book, as most Dr. Seuss books are, but its messages have resonated through a quarter-century because adults love it too, 
said Philip Nel, director of the program in children's literature at Kansas State University. 
Children's books ""possess an enormous amount of wisdom for the adults mature enough to recognize it,"" he said. 
Here are a few facts about ""Oh, The Places You'll Go!"" and its legacy.",发展,成长,成熟,到期,发达,足月,齎,熟,
,,,1,,,,,,
,,,,,,,,,
,,,,,,,,,
,,,,,,,,,
,,,,,,,,,
,,,,,,,,,
,,,,,,,,,
,,,,,,,,,
,,,,,,,,,
,,,,,,,,,
,,,,,,,,,
,,,,,,,,,
,,,,,,,,,
,,,,,,,,,
,,,,,,,,,
,,,,,,,,,
19. book,,,,,,Thoughit#book::,,,
"Though it presents plenty of Seussian optimism -- ""And will you succeed? Yes! You will, 
indeed! (98 and 3/4 percent guaranteed.)"" -- it references dark times and stumbles: ""I'm afraid that some times you'll play lonely games too. 
Games you can't win 'cause you'll play against you."" Geisel wrote from experience. After a successful career in advertising, 
his first book, ""And to Think That I Saw It on Mulberry Street,"" was famously rejected multiple times. 
Some projects in print and on screen simply never took off. In his personal life, 
he faced illness and the suicide of his first wife. ""The darkness of the book is what makes the optimism credible,"" Nel said.",定,册子,书,卷,籍,册,簿子,著,本子
,,,1,,,,,,
,编,著作,书本,簿,,,,,
,,1,,,,,,,
,,,,,,,,,
,,,,,,,,,
,,,,,,,,,
,,,,,,,,,
,,,,,,,,,
,,,,,,,,,
,,,,,,,,,
,,,,,,,,,
,,,,,,,,,
,,,,,,,,,
,,,,,,,,,
,,,,,,,,,
,,,,,,,,,
20. still,,,,,,"""Thedarkness#still::",,,
"""The darkness of the book is what makes the optimism credible,"" Nel said. Geisel was known to be shy but would be ""tickled"" to know that his words still have meaning now, 
said Susan Brandt, president of licensing and marketing at Dr. Seuss Enterprises. 
He was deliberate about what his last words to the world would be. ""You can feel him saying, 'Wait, 
I have one more thing to say,' "" she said. "" 'Listen to me; this is important.' """,安,侐,宓,仍然,尚,寂静,依然,还是,安慰
,,,,1,,,,1,
,静止,澶,犹,寂,安生,但,仍,静,还
,,,,,,,1,,
,使 ... 安静,使 ... 放心,依旧,阒,更,恹,但是,,
,,,,,,,,,
,,,,,,,,,
,,,,,,,,,
,,,,,,,,,
,,,,,,,,,
,,,,,,,,,
,,,,,,,,,
,,,,,,,,,
,,,,,,,,,
,,,,,,,,,
,,,,,,,,,
,,,,,,,,,
21. last,,,,,,"""Thedarkness#last::",,,
"""The darkness of the book is what makes the optimism credible,"" Nel said. Geisel was known to be shy but would be ""tickled"" to know that his words still have meaning now, 
said Susan Brandt, president of licensing and marketing at Dr. Seuss Enterprises. 
He was deliberate about what his last words to the world would be. ""You can feel him saying, 'Wait, 
I have one more thing to say,' "" she said. "" 'Listen to me; this is important.' """,剩余,历时,持续,末,上,最后,延续,底,在大家之后
,,,,,,1,,,
,上个,,,,,,,,
,,,,,,,,,
,,,,,,,,,
,,,,,,,,,
,,,,,,,,,
,,,,,,,,,
,,,,,,,,,
,,,,,,,,,
,,,,,,,,,
,,,,,,,,,
,,,,,,,,,
,,,,,,,,,
,,,,,,,,,
,,,,,,,,,
,,,,,,,,,
22. house,,,,,,Itssuccess#house::,,,
"Its success isn't exactly a surprise, said Mallory Loehr, vice president and publisher of Random House Children's Books. 
It was published the year she began her career at Random House, and she remember the buzz around the book even then. 
 ""People knew it was special (in 1990),"" Loehr said. ""But 10 million is crazy.""  The main character is You -- and you, and you, 
and you",驻防,家务,驻守,居,馆,住宅,驻扎,舍,房子
,,,,,,1,,,1
,屋子,收容,斋,宅院,驻屯,屋,房,,
,1,,,,,,,,
,,,,,,,,,
,,,,,,,,,
,,,,,,,,,
,,,,,,,,,
,,,,,,,,,
,,,,,,,,,
,,,,,,,,,
,,,,,,,,,
,,,,,,,,,
,,,,,,,,,
,,,,,,,,,
,,,,,,,,,
,,,,,,,,,
23. book,,,,,,Itssuccess#book::,,,
"Its success isn't exactly a surprise, said Mallory Loehr, vice president and publisher of Random House Children's Books. 
It was published the year she began her career at Random House, and she remember the buzz around the book even then. 
 ""People knew it was special (in 1990),"" Loehr said. ""But 10 million is crazy.""  The main character is You -- and you, and you, 
and you",定,册子,书,卷,籍,册,簿子,著,本子
,,,1,,,,,,
,编,著作,书本,簿,,,,,
,,,1,,,,,,
,,,,,,,,,
,,,,,,,,,
,,,,,,,,,
,,,,,,,,,
,,,,,,,,,
,,,,,,,,,
,,,,,,,,,
,,,,,,,,,
,,,,,,,,,
,,,,,,,,,
,,,,,,,,,
,,,,,,,,,
,,,,,,,,,
24. point,,,,,,Themain#point::,,,
"The main character is You -- and you, and you, and you Passages in ""The Cat in the Hat"" and ""The Lorax"" both slip into the second-person to make a point to readers, 
but Geisel made the main character of ""Oh, The Places You'll Go!"" a person called You, who conveniently happens to be, well, you. 
""That makes the book about the reader and puts the reader in the position of the character,"" Nel said. ""It's a motivator. 
See yourself as the character; take action.""",尖,指引,处,指,点明,提示,分,指画,指出
,,,,,,,,,
,指示,问题,讲,表明,尖兵,点子,点,指明,详
,,,,,,,,,
,意向,详情,,,,,,,
,,,,,,,,,
,,,,,,,,,
,,,,,,,,,
,,,,,,,,,
,,,,,,,,,
,,,,,,,,,
,,,,,,,,,
,,,,,,,,,
,,,,,,,,,
,,,,,,,,,
,,,,,,,,,
,,,,,,,,,
25. character,,,,,,Passagesin#character::,,,
"Passages in ""The Cat in the Hat"" and ""The Lorax"" both slip into the second-person to make a point to readers, 
but Geisel made the main character of ""Oh, The Places You'll Go!"" a person called You, who conveniently happens to be, well, you. 
""That makes the book about the reader and puts the reader in the position of the character,"" Nel said. ""It's a motivator. 
See yourself as the character; take action."" Dr. Seuss had already been a major player in children's literature for decades, 
but this was an early entry into a burgeoning category: children's stories that appeal to adults, 
Loehr said.",文字,字符,人,人物,文,言,品质,性格,心地
,,,,1,,,,,
,性,臧否,八字,字,个性,性格的,意向,性质,
,,,,,,,,,
,,,,,,,,,
,,,,,,,,,
,,,,,,,,,
,,,,,,,,,
,,,,,,,,,
,,,,,,,,,
,,,,,,,,,
,,,,,,,,,
,,,,,,,,,
,,,,,,,,,
,,,,,,,,,
,,,,,,,,,
,,,,,,,,,
26. character,,,,,,Passagesin2#character::,,,
"Passages in ""The Cat in the Hat"" and ""The Lorax"" both slip into the second-person to make a point to readers, 
but Geisel made the main character of ""Oh, The Places You'll Go!"" a person called You, who conveniently happens to be, well, you. 
""That makes the book about the reader and puts the reader in the position of the character,"" Nel said. ""It's a motivator. 
See yourself as the character; take action."" Dr. Seuss had already been a major player in children's literature for decades, 
but this was an early entry into a burgeoning category: children's stories that appeal to adults, 
Loehr said.",文字,字符,人,人物,文,言,品质,性格,心地
,,,,1,,,,,
,性,臧否,八字,字,个性,性格的,意向,性质,
,,,,,,,,,
,,,,,,,,,
,,,,,,,,,
,,,,,,,,,
,,,,,,,,,
,,,,,,,,,
,,,,,,,,,
,,,,,,,,,
,,,,,,,,,
,,,,,,,,,
,,,,,,,,,
,,,,,,,,,
,,,,,,,,,
,,,,,,,,,
27. number,,,,,,AsGeisel#number::,,,
"As Geisel himself put it, ""I never write for children. I write for people.""  The number of ""Places You'll Go"" is growing What started as a beloved graduation gift has spread into sort of an all-purpose greeting card, 
shared with a personal inscriptions during any period of transition, from baby showers to big moves. This month, 
Random House will publish a 25th anniversary edition of ""Oh! The Places You'll Go!"" This year, 
it will release a baby-fied version, ""Oh, Baby, the Places You'll Go!"" and a full-color journal filled with quotes from the book.",次,码,数字,号码,遍号码,报数,数,韵律,号
,,,1,,,,,,
,编号,数目,多少,,,,,,
,,,,,,,,,
,,,,,,,,,
,,,,,,,,,
,,,,,,,,,
,,,,,,,,,
,,,,,,,,,
,,,,,,,,,
,,,,,,,,,
,,,,,,,,,
,,,,,,,,,
,,,,,,,,,
,,,,,,,,,
,,,,,,,,,
,,,,,,,,,
28. top,,,,,,Forthe#top::,,,
"For the 10th year running, European champion Real Madrid is the world's richest club in the annual Football Money League published by accountants Deloitte, 
with a revenue of $639 million. Money clearly talks in European football with the combined revenues of the top 20 clubs in the rich list rising by a staggering 14% over the last year to $7 billion. 
All of the top five clubs for the 2013-14 financial year saw their revenue surpass the $500-million mark for the first time on a list dominated by the English Premier League, 
home to five of this year's top 10 and eight of the 20-strong list.",极,颠,面,尖峰,顶部,盖,顶端,尖,上身
,,,,,,,,,
,最大的,上面的,头,顶,顶级,最高的,,,
,,,,,1,,,,
,,,,,,,,,
,,,,,,,,,
,,,,,,,,,
,,,,,,,,,
,,,,,,,,,
,,,,,,,,,
,,,,,,,,,
,,,,,,,,,
,,,,,,,,,
,,,,,,,,,
,,,,,,,,,
,,,,,,,,,
,,,,,,,,,
29. rich,,,,,,Forthe#rich::,,,
"For the 10th year running, European champion Real Madrid is the world's richest club in the annual Football Money League published by accountants Deloitte, 
with a revenue of $639 million. Money clearly talks in European football with the combined revenues of the top 20 clubs in the rich list rising by a staggering 14% over the last year to $7 billion. 
All of the top five clubs for the 2013-14 financial year saw their revenue surpass the $500-million mark for the first time on a list dominated by the English Premier League, 
home to five of this year's top 10 and eight of the 20-strong list.",沃,醇,丰厚,富豪,贵重,阔,优裕,浓厚,丰富地
,,,,,,,,,
,富裕,丰裕,丰盛,醇厚,富,博,丰富,富裕地,富饶
,1,,,,,,,,
,饶沃,有钱,富有,盛产,腴,饶,,,
,,1,1,,,,,,
,,,,,,,,,
,,,,,,,,,
,,,,,,,,,
,,,,,,,,,
,,,,,,,,,
,,,,,,,,,
,,,,,,,,,
,,,,,,,,,
,,,,,,,,,
,,,,,,,,,
,,,,,,,,,
30. put,,,,,,Ofthe#put::,,,
"Of the clubs on the list only United's ""noisy neighbors"" Manchester City -- as Alex Ferguson once described them -- enjoyed a greater spike in year-on-year revenue, 
with a $114 million rise from 2012-13 to cement their place in sixth on the list. 
""The growth experienced within the top 20 has been remarkable,"" said Dan Jones, partner in the Sports Business Group at Deloitte. 
""Commercial and broadcast revenues are now more important than ever to clubs to enable them to compete financially and put the best talent on the pitch. 
""This has led to further dominance from the 'big five' European leagues  -- England, Germany, Spain, 
Italy and France -- this year, with just Turkey's Galatasaray making it in from outside of those countries.",搁,赋予,投击,置于,摆列,摆,摆放,置,坐
,,,,,,,,,
,干,掷,放置,放置者,放,,,,
,,,,,,,,,
,,,,,,,,,
,,,,,,,,,
,,,,,,,,,
,,,,,,,,,
,,,,,,,,,
,,,,,,,,,
,,,,,,,,,
,,,,,,,,,
,,,,,,,,,
,,,,,,,,,
,,,,,,,,,
,,,,,,,,,
,,,,,,,,,
31. drop,,,,,,"""Theclub's#drop::",,,
"""The club's continued success on the field is complemented by its financial strength and their accomplishment emphasizes their position as the most successful European club side of all time. 
However, their commercial supremacy is being challenged by Manchester United among others."" Barcelona's revenue plateaued last year, 
seeing them drop from second spot behind arch-rival Real to fourth below Manchester United and Bayern. 
Paris Saint-Germain completes the top five while Juventus, in 10th, is the only side from Italy's Serie A to make the top 10, 
with Premier League sides Chelsea, Arsenal and Liverpool rounding off the top clubs in seventh, 
eighth and ninth respectively in revenue terms.",掉,撒,投,降落,沥,下降,减退,放下,点
,1,,,,,,,,
,点子,落,降,跌,衰退,摔,摔交,改掉,水滴
,,,,1,,,,,
,降低,摔倒,作罢,滴,落下,,,,
,,,,,,,,,
,,,,,,,,,
,,,,,,,,,
,,,,,,,,,
,,,,,,,,,
,,,,,,,,,
,,,,,,,,,
,,,,,,,,,
,,,,,,,,,
,,,,,,,,,
,,,,,,,,,
,,,,,,,,,
32. hand,,,,,,Butdid#hand::,,,
"But did all the tennis last year cost Federer -- and his 33-year-old body -- at the Australian Open this year?  Was it a hand injury that he sustained earlier this week? Or was his opponent simply too good? No matter what the potential reasons, 
the end result is that Federer will have to wait for a record-extending 18th grand slam title after he lost to Andreas Seppi 6-4 7-6 (5) 4-6 7-6 (5) in the third round in Melbourne on Friday.",手的,手,笔迹,雇员,递交,巴掌,人,,
,,1,,,,,,,
,,,,,,,,,
,,,,,,,,,
,,,,,,,,,
,,,,,,,,,
,,,,,,,,,
,,,,,,,,,
,,,,,,,,,
,,,,,,,,,
,,,,,,,,,
,,,,,,,,,
,,,,,,,,,
,,,,,,,,,
,,,,,,,,,
,,,,,,,,,
,,,,,,,,,
33. double,,,,,,Insteadit#double::,,,
"Instead it was Federer who blinked in the fourth-set tiebreak.  He led 3-1 only to double fault at 3-2. Then leading 5-4, 
Federer made a costly backhand unforced error. Federer rued missed opportunities in the second set tiebreak, too, 
when Seppi was there for the taking.  ""It just broke me to lose that second set,"" Federer told reporters. 
""And actually the fourth, I should win it, too. Just a brutal couple of sets to lose there.""",重,双摺地,两倍,双重地,倍,双重,复,双,加倍
,,,1,,,,,,
,褔,双精度型,翻一番,双料,兼,双方,,,
,,,,,,,,,
,,,,,,,,,
,,,,,,,,,
,,,,,,,,,
,,,,,,,,,
,,,,,,,,,
,,,,,,,,,
,,,,,,,,,
,,,,,,,,,
,,,,,,,,,
,,,,,,,,,
,,,,,,,,,
,,,,,,,,,
,,,,,,,,,
34. sure,,,,,,Seppicompleted#sure::,,,
"Seppi completed the upset in stunning fashion, scrambling before hitting an instinctive forehand passing shot winner down the line. 
 ""For sure it was one of the important shots of my life,"" said Seppi.  Federer thus exited, 
despite winning more points in the match overall, 145 to 144.",准儿,稳,确切,当然,肯定,,,,
,,,,,1,,,,
,,,,,,,,,
,,,,,,,,,
,,,,,,,,,
,,,,,,,,,
,,,,,,,,,
,,,,,,,,,
,,,,,,,,,
,,,,,,,,,
,,,,,,,,,
,,,,,,,,,
,,,,,,,,,
,,,,,,,,,
,,,,,,,,,
,,,,,,,,,
,,,,,,,,,
35. practice,,,,,,Federerthus#practice::,,,
"Federer thus exited, despite winning more points in the match overall, 145 to 144. 
 ""I felt for some reason yesterday and this morning it was not going to be very simple today,"" Federer said. 
""Even in practice I still felt the same way.  ""I was just hoping it was one of those feelings you sometimes have and it's totally not true and you just come out and you play a routine match. 
I was aware of the test and was well prepared.",习,练,作法,肄,操练,练习,实践,习惯,演习
,,,,,,1,,,
,演,推行,实习,做法,熟练,实际,谟,,
,,,1,,,,,,
,,,,,,,,,
,,,,,,,,,
,,,,,,,,,
,,,,,,,,,
,,,,,,,,,
,,,,,,,,,
,,,,,,,,,
,,,,,,,,,
,,,,,,,,,
,,,,,,,,,
,,,,,,,,,
,,,,,,,,,
,,,,,,,,,
36. play,,,,,,"""Ifelt#play::",,,
"""I felt for some reason yesterday and this morning it was not going to be very simple today,"" Federer said. 
""Even in practice I still felt the same way.  ""I was just hoping it was one of those feelings you sometimes have and it's totally not true and you just come out and you play a routine match. 
I was aware of the test and was well prepared.  ""Just somehow couldn't play my best tennis today. 
It was definitely partially because of Andreas playing very well.""",游玩,弄,玩儿,嬉,耍,盘弄,演,逗,游戏
,,,,,,,,,
,吹奏,演戏,玩,表演,戏剧,玩耍,赌博,玩弄,演出
,,,1,,,,,,
,饰演,奏,戏,嬉戏,赌钱,剧本,比赛,剧,顽
,,,,,,,,,
,嫽,,,,,,,,
,,,,,,,,,
,,,,,,,,,
,,,,,,,,,
,,,,,,,,,
,,,,,,,,,
,,,,,,,,,
,,,,,,,,,
,,,,,,,,,
,,,,,,,,,
,,,,,,,,,
37. well,,,,,,"""Ifelt#well::",,,
"""I felt for some reason yesterday and this morning it was not going to be very simple today,"" Federer said. 
""Even in practice I still felt the same way.  ""I was just hoping it was one of those feelings you sometimes have and it's totally not true and you just come out and you play a routine match. 
I was aware of the test and was well prepared.  ""Just somehow couldn't play my best tennis today. 
It was definitely partially because of Andreas playing very well.""",适,安好,顺利,臧,很好,水井,顺手,顺遂,涌
,,,,,,,,,
,良好,井,满意地,舒服,颛,顺,好,顺当,
,,,,,,,,,
,,,,,,,,,
,,,,,,,,,
,,,,,,,,,
,,,,,,,,,
,,,,,,,,,
,,,,,,,,,
,,,,,,,,,
,,,,,,,,,
,,,,,,,,,
,,,,,,,,,
,,,,,,,,,
,,,,,,,,,
,,,,,,,,,
38. round,,,,,,"""Justsomehow#round::",,,
"""Just somehow couldn't play my best tennis today. It was definitely partially because of Andreas playing very well."" Perhaps the warning signs were there from his previous round.",巡,籀,环行,拐弯,圆,球形,围绕,周围,轮
,,,,,,,,,1
,回合,丰满,团,轮唱,附近,圜,范围,,
,1,,,,,,,,
,,,,,,,,,
,,,,,,,,,
,,,,,,,,,
,,,,,,,,,
,,,,,,,,,
,,,,,,,,,
,,,,,,,,,
,,,,,,,,,
,,,,,,,,,
,,,,,,,,,
,,,,,,,,,
,,,,,,,,,
,,,,,,,,,
39. short,,,,,,Hedidn't#short::,,,
"He didn't mention the hand or any other physical issue in his briefing with reporters. 
 Federer also defended his decision to play exhibition matches in India in December during tennis' notoriously short off-season. 
 ""I wanted to go to India,"" said Federer. ""I wanted to go back to Switzerland for Christmas. 
I practiced as hard as I possibly could.",局促,简要,酥,简略,短暂,酥脆,短,矬,急促
,,,,,1,,1,,
,矮,俴,不足,短裤,傥,不够,简短,遽,轾
,,,,,,,,,
,短缺,,,,,,,,
,,,,,,,,,
,,,,,,,,,
,,,,,,,,,
,,,,,,,,,
,,,,,,,,,
,,,,,,,,,
,,,,,,,,,
,,,,,,,,,
,,,,,,,,,
,,,,,,,,,
,,,,,,,,,
,,,,,,,,,
40. minor,,,,,,"""Iwas#minor::",,,
"""I was the first to introduce baseball fielding techniques to international cricket, 
because a major league outfielder will out-throw a professional cricketer every time. 
This is a sport that Americans can do well at."" Minor leaguer Boomer Collins has been chasing the dream of the big leagues since he was a boy. 
His looks, his build, the way he talks and even his name are as near to the definition of an American ballplayer as you're going to get. 
But beyond the square jaw and the all-state honors as both outfielder and quarterback, 
there's one thing that makes him different to every other guy out there on the diamond.",次要,副修科目,辅修,未成年人,二流的,裨,较小的,未成年者,
,,,,1,,,,1,
,,,,,,,,,
,,,,,,,,,
,,,,,,,,,
,,,,,,,,,
,,,,,,,,,
,,,,,,,,,
,,,,,,,,,
,,,,,,,,,
,,,,,,,,,
,,,,,,,,,
,,,,,,,,,
,,,,,,,,,
,,,,,,,,,
,,,,,,,,,
,,,,,,,,,
41. way,,,,,,"""Iwas#way::",,,
"""I was the first to introduce baseball fielding techniques to international cricket, 
because a major league outfielder will out-throw a professional cricketer every time. 
This is a sport that Americans can do well at."" Minor leaguer Boomer Collins has been chasing the dream of the big leagues since he was a boy. 
His looks, his build, the way he talks and even his name are as near to the definition of an American ballplayer as you're going to get. 
But beyond the square jaw and the all-state honors as both outfielder and quarterback, 
there's one thing that makes him different to every other guy out there on the diamond.",径,路径,办法,途,路上,非常,状态,般,路线
,,,,,,,,,
,样,方,途径,方法,作法,繇,中途,道,道路
,,,,,,,,,
,作风,路,迳,法,,,,,
,,,,,,,,,
,,,,,,,,,
,,,,,,,,,
,,,,,,,,,
,,,,,,,,,
,,,,,,,,,
,,,,,,,,,
,,,,,,,,,
,,,,,,,,,
,,,,,,,,,
,,,,,,,,,
,,,,,,,,,
42. thing,,,,,,Minorleaguer#thing::,,,
"Minor leaguer Boomer Collins has been chasing the dream of the big leagues since he was a boy. His looks, his build, 
the way he talks and even his name are as near to the definition of an American ballplayer as you're going to get. 
But beyond the square jaw and the all-state honors as both outfielder and quarterback, 
there's one thing that makes him different to every other guy out there on the diamond. 
He wants to be the greatest cricket player the world has ever seen.",玩意儿,事情,项目,物,东西,事,物件,项,一项
,,,,,,1,,,
,事儿,事物,,,,,,,
,,,,,,,,,
,,,,,,,,,
,,,,,,,,,
,,,,,,,,,
,,,,,,,,,
,,,,,,,,,
,,,,,,,,,
,,,,,,,,,
,,,,,,,,,
,,,,,,,,,
,,,,,,,,,
,,,,,,,,,
,,,,,,,,,
,,,,,,,,,
43. home,,,,,,ThomasCollins#home::,,,
"Thomas Collins III got the nickname ""Boomer"" thanks to the tornado crashing past the Texas hospital where he was born in June 1989. 
A couple of decades later and his .374 batting average, with 13 home runs in 60 junior-year games at Dallas Baptist, 
saw him eventually signed by the Blue Jays. His story since then is depressingly similar to thousands like him, 
becalmed in the minor leagues on a poverty-line salary of $1,200 a month.",斋,故乡,家园,乡土,家,,,,
,,,,,,,,,
,,,,,,,,,
,,,,,,,,,
,,,,,,,,,
,,,,,,,,,
,,,,,,,,,
,,,,,,,,,
,,,,,,,,,
,,,,,,,,,
,,,,,,,,,
,,,,,,,,,
,,,,,,,,,
,,,,,,,,,
,,,,,,,,,
,,,,,,,,,
,,,,,,,,,
44. blue,,,,,,ThomasCollins#blue::,,,
"Thomas Collins III got the nickname ""Boomer"" thanks to the tornado crashing past the Texas hospital where he was born in June 1989. 
A couple of decades later and his .374 batting average, with 13 home runs in 60 junior-year games at Dallas Baptist, 
saw him eventually signed by the Blue Jays. His story since then is depressingly similar to thousands like him, 
becalmed in the minor leagues on a poverty-line salary of $1,200 a month.",沮丧的,郁,碧,沧,蓝色,青色,郁郁,青,郁闷
,,,,,,,,,
,变蓝,变青,过份正经,蓝,,,,,
,,,,,,,,,
,,,,,,,,,
,,,,,,,,,
,,,,,,,,,
,,,,,,,,,
,,,,,,,,,
,,,,,,,,,
,,,,,,,,,
,,,,,,,,,
,,,,,,,,,
,,,,,,,,,
,,,,,,,,,
,,,,,,,,,
,,,,,,,,,
45. like,,,,,,Acouple#like::,,,
"A couple of decades later and his .374 batting average, with 13 home runs in 60 junior-year games at Dallas Baptist, 
saw him eventually signed by the Blue Jays. His story since then is depressingly similar to thousands like him, 
becalmed in the minor leagues on a poverty-line salary of $1,200 a month. ""I'm always an optimist. I'm 25 years old. 
This year will probably prove a lot. I want to make the big leagues and I'm going to work my butt off until it happens or doesn't happen,"" Collins said in his break between working an eight-hour milk delivery shift and a full afternoon of offseason training.",好比,好像,若,喜爱,如同,待见,喜好,爱好,同
,,1,,,1,,,,
,似,爱,好以,比如,喜欢,一样,相似,看上,类
,,,,1,,,1,,
,好,喜,不啻,,,,,,
,,,,,,,,,
,,,,,,,,,
,,,,,,,,,
,,,,,,,,,
,,,,,,,,,
,,,,,,,,,
,,,,,,,,,
,,,,,,,,,
,,,,,,,,,
,,,,,,,,,
,,,,,,,,,
,,,,,,,,,
46. switch,,,,,,"""I'malways#switch::",,,
"""I'm always an optimist. I'm 25 years old. This year will probably prove a lot. I want to make the big leagues and I'm going to work my butt off until it happens or doesn't happen,"" Collins said in his break between working an eight-hour milk delivery shift and a full afternoon of offseason training. 
Collins is one of the first signups to Switch Hit 20, and talks with surprising enthusiasm about a sport he has only seen on YouTube links sent to him by Fountain. 
Cricket's revolution 11 years ago into Twenty20 or T20 -- with games taking three hours instead of five days -- has seen sleepy spectators replaced with raucous crowds, 
batters swinging for the fences instead of blocking balls, cheerleaders on the sidelines, 
and the creation of new competitions.",交换器,交换,树条,开关,断路器,切换,刷,交换机,替换
,,,,,,,,,
,,,,,,,,,
,,,,,,,,,
,,,,,,,,,
,,,,,,,,,
,,,,,,,,,
,,,,,,,,,
,,,,,,,,,
,,,,,,,,,
,,,,,,,,,
,,,,,,,,,
,,,,,,,,,
,,,,,,,,,
,,,,,,,,,
,,,,,,,,,
,,,,,,,,,
47. game,,,,,,"""JackieRobinson#game::",,,
"""Jackie Robinson did it for African-Americans in baseball. We can do it for Americans in cricket. 
""The athleticism that Americans can bring to the table could revolutionize the game of cricket even more to become a bigger, 
faster, stronger sport. ""Look at soccer now. That all came from American players making a stand in what was a minority sport over here.",勇敢的,游戏,有胆量的,玩耍,赌钱,盘,赛,比赛,
,,1,,,,,,,
,,,,,,,,,
,,,,,,,,,
,,,,,,,,,
,,,,,,,,,
,,,,,,,,,
,,,,,,,,,
,,,,,,,,,
,,,,,,,,,
,,,,,,,,,
,,,,,,,,,
,,,,,,,,,
,,,,,,,,,
,,,,,,,,,
,,,,,,,,,
,,,,,,,,,
48. man,,,,,,"""Lookat#man::",,,
"""Look at soccer now. That all came from American players making a stand in what was a minority sport over here. 
""If you would've said 'soccer' about five years ago people would've said, ""Get outta here, man"". 
Now everyone's watching the World Cup."" Another player hoping to break the mold is middle infielder Jordan Dean, 
a 24-year-old drafted by the Tigers in 2012 but now with Illinois independents the Schaumburg Boomers -- and studying for an M.B.A. 
as a Plan B.",男性,鼓舞,汉,夫,爷们,佬,雇工,男子汉,男
,,,,,,,,,
,男子,人,男人,,,,,,
,,,1,,,,,,
,,,,,,,,,
,,,,,,,,,
,,,,,,,,,
,,,,,,,,,
,,,,,,,,,
,,,,,,,,,
,,,,,,,,,
,,,,,,,,,
,,,,,,,,,
,,,,,,,,,
,,,,,,,,,
,,,,,,,,,
,,,,,,,,,
49. cup,,,,,,"""Lookat#cup::",,,
"""Look at soccer now. That all came from American players making a stand in what was a minority sport over here. 
""If you would've said 'soccer' about five years ago people would've said, ""Get outta here, man"". 
Now everyone's watching the World Cup."" Another player hoping to break the mold is middle infielder Jordan Dean, 
a 24-year-old drafted by the Tigers in 2012 but now with Illinois independents the Schaumburg Boomers -- and studying for an M.B.A. 
as a Plan B.",盃,盂,盅,盏,杯,桮,瓯,碗,奖杯
,1,,,,,,,,
,茶杯,樽,壿,杯子,,,,,
,,,,,,,,,
,,,,,,,,,
,,,,,,,,,
,,,,,,,,,
,,,,,,,,,
,,,,,,,,,
,,,,,,,,,
,,,,,,,,,
,,,,,,,,,
,,,,,,,,,
,,,,,,,,,
,,,,,,,,,
,,,,,,,,,
,,,,,,,,,
50. bank,,,,,,"""Alot#bank::",,,
"""A lot of us guys in the minor leagues have to take the decision -- are my legs going to hold up, or my bank account, 
and which is going to go first?"" Dean says. ""In my case it'll be the bank account, 
because I know that otherwise I'll never be ready to finish playing ball. ""I've talked to my girlfriend about the cricket thing. 
We'd go through about five or 10 minutes thinking how amazing it would be, traveling the world playing sport. Then it would be, 
'What the hell am I saying?' It's ping-pong in my brain.""",坡,垠,滨,银行,坎,岸边,畔,岸,渚
,,,,1,,,,,
,屿,,,,,,,,
,,,,,,,,,
,,,,,,,,,
,,,,,,,,,
,,,,,,,,,
,,,,,,,,,
,,,,,,,,,
,,,,,,,,,
,,,,,,,,,
,,,,,,,,,
,,,,,,,,,
,,,,,,,,,
,,,,,,,,,
,,,,,,,,,
,,,,,,,,,
51. account,,,,,,"""Alot#account::",,,
"""A lot of us guys in the minor leagues have to take the decision -- are my legs going to hold up, or my bank account, 
and which is going to go first?"" Dean says. ""In my case it'll be the bank account, 
because I know that otherwise I'll never be ready to finish playing ball. ""I've talked to my girlfriend about the cricket thing. 
We'd go through about five or 10 minutes thinking how amazing it would be, traveling the world playing sport. Then it would be, 
'What the hell am I saying?' It's ping-pong in my brain.""",占,帐户,账户,诉,诉说,帐,认定,状,记事
,,,1,,,,,,
,认为,,,,,,,,
,,,,,,,,,
,,,,,,,,,
,,,,,,,,,
,,,,,,,,,
,,,,,,,,,
,,,,,,,,,
,,,,,,,,,
,,,,,,,,,
,,,,,,,,,
,,,,,,,,,
,,,,,,,,,
,,,,,,,,,
,,,,,,,,,
,,,,,,,,,
52. contract,,,,,,"""I'vetalked#contract::",,,
"""I've talked to my girlfriend about the cricket thing. We'd go through about five or 10 minutes thinking how amazing it would be, 
traveling the world playing sport. Then it would be, 'What the hell am I saying?' It's ping-pong in my brain."" For Fountain, 
the endgame goes beyond getting his players a T20 contract. ""I want to inject enough talent into USA cricket, 
to see it bounce back up the rankings. I want to coach a USA team at a World Cup.""",立约,字据,感染,收缩,聘书,括,契,缩,简约的
,,,,,,,,,
,合同,契约,承包,合约,契据,,,,
,1,,,1,,,,,
,,,,,,,,,
,,,,,,,,,
,,,,,,,,,
,,,,,,,,,
,,,,,,,,,
,,,,,,,,,
,,,,,,,,,
,,,,,,,,,
,,,,,,,,,
,,,,,,,,,
,,,,,,,,,
,,,,,,,,,
,,,,,,,,,
53. back,,,,,,"ForFountain,#back::",,,
"For Fountain, the endgame goes beyond getting his players a T20 contract. ""I want to inject enough talent into USA cricket, 
to see it bounce back up the rankings. I want to coach a USA team at a World Cup."" A team already exists, 
but he believes replacing its largely ex-pat spine with American baseball talent is the only way it can join the elite.",后部,以前,后身,背面,襄,腰杆子,腰,后面,脊
,,,,,,,,,
,后的,支持,后,脊背,后边,后部的,冀,翊,赌钱
,,,,,,,,,
,后面的,后边的,向后,,,,,,
,,,,,,,,,
,,,,,,,,,
,,,,,,,,,
,,,,,,,,,
,,,,,,,,,
,,,,,,,,,
,,,,,,,,,
,,,,,,,,,
,,,,,,,,,
,,,,,,,,,
,,,,,,,,,
,,,,,,,,,
54. know,,,,,,Ateam#know::,,,
"A team already exists, but he believes replacing its largely ex-pat spine with American baseball talent is the only way it can join the elite. 
""Wearing a jersey with the flag on the front and your name on the back is huge for any American,"" says Dean. 
But Fountain has also let his early sign ups know that there are a few things to iron out before he can start printing jerseys. 
""I'm aiming for tryouts in the spring, so the guys who are already with teams, or trying out for teams can also come and try out for me,"" says Fountain.",审,懂,知,认,了,认识,识,晓得,明
,,,,,,,,1,
,悉,晓,懂得,谂,知悉,通,知道,,
,,,1,,,,1,,
,,,,,,,,,
,,,,,,,,,
,,,,,,,,,
,,,,,,,,,
,,,,,,,,,
,,,,,,,,,
,,,,,,,,,
,,,,,,,,,
,,,,,,,,,
,,,,,,,,,
,,,,,,,,,
,,,,,,,,,
,,,,,,,,,
55. help,,,,,,"""I'maiming#help::",,,
"""I'm aiming for tryouts in the spring, so the guys who are already with teams, or trying out for teams can also come and try out for me,"" says Fountain. 
""Sponsorship is crucial. We're in talks with some interested parties but even if companies like Greyhound can lay on some tickets to get these players to the tryout, 
that would help. ""I've wanted to do this for years -- I talked to some TV companies about a reality TV show back in 2010 and I hope it could still be a part of it.""",协助,搭手,赈济,促成,佑,襄,帮助,宥,补益
,,,,,,,1,,
,助,帮,嬴,扶助,支援,弼,救援,赈,翊
,,,,,,,,,
,救,协,济,促进,帮忙,补,成全,援助,扶持
,,,,,,,,,
,赢,辅助,臂助,援,扶,输将,帮扶,,
,,,,,,,,,
,,,,,,,,,
,,,,,,,,,
,,,,,,,,,
,,,,,,,,,
,,,,,,,,,
,,,,,,,,,
,,,,,,,,,
,,,,,,,,,
,,,,,,,,,
56. go,,,,,,"""I'vewanted#go::",,,
"""I've wanted to do this for years -- I talked to some TV companies about a reality TV show back in 2010 and I hope it could still be a part of it."" Brenden Kalfus, 
23, was another earning in the region of $14,000 a year with a Blue Jays affiliate before they let him go this past season. 
""I think if we all started playing cricket, I don't think the expectation would be that we're going to be stars and make millions,"" he says. 
""It would just be great to be the first to bring it out to America. Then see where it goes after that.""",进去,诣,从事,前往,离去,行,走,徂,赴
,,,,,1,,1,,
,适,游,去,进行,,,,,
,,,1,,,,,,
,,,,,,,,,
,,,,,,,,,
,,,,,,,,,
,,,,,,,,,
,,,,,,,,,
,,,,,,,,,
,,,,,,,,,
,,,,,,,,,
,,,,,,,,,
,,,,,,,,,
,,,,,,,,,
,,,,,,,,,
,,,,,,,,,
57. go,,,,,,"""Ithink#go::",,,
"""I think if we all started playing cricket, I don't think the expectation would be that we're going to be stars and make millions,"" he says. 
""It would just be great to be the first to bring it out to America. Then see where it goes after that."" If the project stalls, 
Boomer Collins is prepared to go it alone. ""The whole thing with me is that whatever happens, 
I still want to go overseas and try because I have got that excitement so high,"" he says.",进去,诣,从事,前往,离去,行,走,徂,赴
,1,,,,,,,,
,适,游,去,进行,,,,,
,,,,,,,,,
,,,,,,,,,
,,,,,,,,,
,,,,,,,,,
,,,,,,,,,
,,,,,,,,,
,,,,,,,,,
,,,,,,,,,
,,,,,,,,,
,,,,,,,,,
,,,,,,,,,
,,,,,,,,,
,,,,,,,,,
,,,,,,,,,
58. work,,,,,,"""Thewhole#work::",,,
"""The whole thing with me is that whatever happens, I still want to go overseas and try because I have got that excitement so high,"" he says. 
""I still want to go and train with Julien to try it out myself. If we can work out a living situation with food, 
I would do it in a heartbeat. I don't have to have some sort of income, just as long as me and my wife have food and a place to stay. 
""I know that I'm not going to be the best in the world in the first five years of playing the sport. 
But I'm also never going to go in and say, 'I'll just be OK.'",劳方,工,工夫,做事,做工,事,干,作业,劳
,,,,,,,,,
,作,工作,活计,办事,劳工,在职,事务,活,机件
,,,,,,,,,
,运转,劳动,,,,,,,
,,,,,,,,,
,,,,,,,,,
,,,,,,,,,
,,,,,,,,,
,,,,,,,,,
,,,,,,,,,
,,,,,,,,,
,,,,,,,,,
,,,,,,,,,
,,,,,,,,,
,,,,,,,,,
,,,,,,,,,
59. try,,,,,,"""Iknow#try::",,,
"""I know that I'm not going to be the best in the world in the first five years of playing the sport. 
But I'm also never going to go in and say, 'I'll just be OK.' ""I'm going to go and try and be the best cricket player in the world."" Fountain says it will take less time than Collins thinks.",尝试,谋求,试图,讅,试做,设法,睯,想法,试验
,1,,,,,,,,
,试,试用,审,企图,,,,,
,1,,,,,,,,
,,,,,,,,,
,,,,,,,,,
,,,,,,,,,
,,,,,,,,,
,,,,,,,,,
,,,,,,,,,
,,,,,,,,,
,,,,,,,,,
,,,,,,,,,
,,,,,,,,,
,,,,,,,,,
,,,,,,,,,
,,,,,,,,,
60. take,,,,,,"""I'mgoing#take::",,,
"""I'm going to go and try and be the best cricket player in the world."" Fountain says it will take less time than Collins thinks. 
""These guys have the potential to take the world of T20 cricket by storm,"" he said.",吃,服,挐,吞,用,当成,搭,攻克,采取
,,,,,1,,,,
,感染,拏,当,吞服,取,留,摘,进,竦
,,,,,,,,,
,花费,买,攻下,拿,,,,,
,,,,,,,,,
,,,,,,,,,
,,,,,,,,,
,,,,,,,,,
,,,,,,,,,
,,,,,,,,,
,,,,,,,,,
,,,,,,,,,
,,,,,,,,,
,,,,,,,,,
,,,,,,,,,
,,,,,,,,,
61. day,,,,,,"However,the#day::",,,
"However, the schedule for the President's departure from India has been adjusted to allow Obama to stop in Riyadh himself on his way home, 
White House press secretary Josh Earnest said. Funeral services were held Friday for King Abdullah bin Abdulaziz al Saud, 
who died earlier that day. He was 90. World leaders are now traveling to the Saudi capital, Riyadh, 
to offer condolences for Abdullah's death and pay their respects to the new ruler.",日,旦,天,昼,辰,白天,日子,,
,1,,1,,,,,,
,,,,,,,,,
,,,,,,,,,
,,,,,,,,,
,,,,,,,,,
,,,,,,,,,
,,,,,,,,,
,,,,,,,,,
,,,,,,,,,
,,,,,,,,,
,,,,,,,,,
,,,,,,,,,
,,,,,,,,,
,,,,,,,,,
,,,,,,,,,
,,,,,,,,,
62. capital,,,,,,Funeralservices#capital::,,,
"Funeral services were held Friday for King Abdullah bin Abdulaziz al Saud, who died earlier that day. He was 90. 
World leaders are now traveling to the Saudi capital, Riyadh, to offer condolences for Abdullah's death and pay their respects to the new ruler. 
Abdullah was seen by many as a cautious reformer who succeeded in securing broader freedoms in the conservative kingdom, 
but fell short in gaining greater independence for women.",资本,会,资,省会,资本的,国都,栌,本金,京
,,,,,,,,,
,大写,老本,本钱,首都的,都城,都,首都,,
,,,,,,,1,,
,,,,,,,,,
,,,,,,,,,
,,,,,,,,,
,,,,,,,,,
,,,,,,,,,
,,,,,,,,,
,,,,,,,,,
,,,,,,,,,
,,,,,,,,,
,,,,,,,,,
,,,,,,,,,
,,,,,,,,,
,,,,,,,,,
63. pay,,,,,,Funeralservices#pay::,,,
"Funeral services were held Friday for King Abdullah bin Abdulaziz al Saud, who died earlier that day. He was 90. 
World leaders are now traveling to the Saudi capital, Riyadh, to offer condolences for Abdullah's death and pay their respects to the new ruler. 
Abdullah was seen by many as a cautious reformer who succeeded in securing broader freedoms in the conservative kingdom, 
but fell short in gaining greater independence for women.",报酬,薪俸,交,偿付,薪水,工资,待遇,应付的,开支
,,,,,,,,,
,有利益的,买,纳,付款,缴,交付,买进,付,支出
,,,,,,,,,
,交纳,赔,,,,,,,
,,,,,,,,,
,献上,,,,,,,,
,,,,,,,,,
,,,,,,,,,
,,,,,,,,,
,,,,,,,,,
,,,,,,,,,
,,,,,,,,,
,,,,,,,,,
,,,,,,,,,
,,,,,,,,,
,,,,,,,,,
64. like,,,,,,"Hissuccessor,#like::",,,
"His successor, who is 79, faces a number of challenges as he takes up the reins, including Iran, the rise of ISIS, 
the crisis in neighboring Yemen and the drop in oil prices. But Salman has plenty of experience to draw on, 
having served as defense minister and deputy prime minister of Saudi Arabia, a vital U.S. ally in the Middle East. Like Abdullah, 
he is one of the dozens of sons of Saudi Arabia's founder, King Abdulaziz.",好比,好像,若,喜爱,如同,待见,喜好,爱好,同
,1,1,,,1,,,,
,似,爱,好以,比如,喜欢,一样,相似,看上,类
,,,,1,,,,,
,好,喜,不啻,,,,,,
,,,,,,,,,
,,,,,,,,,
,,,,,,,,,
,,,,,,,,,
,,,,,,,,,
,,,,,,,,,
,,,,,,,,,
,,,,,,,,,
,,,,,,,,,
,,,,,,,,,
,,,,,,,,,
,,,,,,,,,
65. trip,,,,,,"OnMonday,#trip::",,,
"On Monday, he will become the first American president to headline India's Republic Day parade, 
standing beside Indian Prime Minister Narendra Modi. Why Obama's trip to my homeland is meaningful Earnest said Obama's schedule had been changed in coordination with the Indian government and that he would now be leaving India after giving a speech on Tuesday.",征,旅,旅程,羇,蹈,绊,踬,跲,旅游
,,,1,,,,,,
,旅途,趟,,,,,,,
,1,,,,,,,,
,,,,,,,,,
,,,,,,,,,
,,,,,,,,,
,,,,,,,,,
,,,,,,,,,
,,,,,,,,,
,,,,,,,,,
,,,,,,,,,
,,,,,,,,,
,,,,,,,,,
,,,,,,,,,
,,,,,,,,,
,,,,,,,,,
66. transfer,,,,,,"Thekingdom,#transfer::",,,
"The kingdom, despite signaling rare public dissent with the Obama administration over Iran and the Arab Spring, 
is a fulcrum of U.S. diplomacy in a region where Washington is. Saudi Arabia is crucial to U.S. goals on counter-terrorism, 
the campaign against ISIS and Al-Qaeda, the free flow of energy that sustains the global economy, 
as a counter-balance to Iran and as a sponsor of the long frustrated quest for peace between Israel and the Palestinians. 
struggling .Never mind that the U.S. is the world's foremost democracy and the transfer of power in Saudi Arabia was from one autocrat to the next. 
to adapt to dissolving national borders, chaotic change and sectarian carnage.",过户,转车,调,调动,搬迁,交待,转,搬动,转让
,,,,,,,,,
,传递,挪,转送,移交,换车,移动,划拨,,
,,,,,,,,,
,,,,,,,,,
,,,,,,,,,
,,,,,,,,,
,,,,,,,,,
,,,,,,,,,
,,,,,,,,,
,,,,,,,,,
,,,,,,,,,
,,,,,,,,,
,,,,,,,,,
,,,,,,,,,
,,,,,,,,,
,,,,,,,,,
67. new,,,,,,Ina#new::,,,
"In a sign of the kingdom's importance to the United States, President Barack Obama made hurried plans to call in Saudi Arabia on Tuesday after his trip to India to pay his respects to Abdullah and his family and to meet with King Salman. 
Originally, Vice President Joe Biden was to have made the trip. The message from Washington is clearly : Long live the new king. 
The regal choreography in Riyadh is especially welcome to the White House as it contrasts with events just across the border in Yemen, 
another key ally where a US-backed government crucial to its anti-terror campaign has just been toppled to rebels supported by Iran.",异,新颖,新兴,新任,全新,新,新奇,耗,
,,,,1,,1,,,
,,,,,,,,,
,,,,,,,,,
,,,,,,,,,
,,,,,,,,,
,,,,,,,,,
,,,,,,,,,
,,,,,,,,,
,,,,,,,,,
,,,,,,,,,
,,,,,,,,,
,,,,,,,,,
,,,,,,,,,
,,,,,,,,,
,,,,,,,,,
,,,,,,,,,
68. close,,,,,,"""Ithink#close::",,,
"""I think for the near term, continuity is going to be the centerpiece here,"" said Daniel Benjamin, 
a former coordinator for counter-terrorism at the State Department, now at Dartmouth College, told CNN. 
""There is now a member of the generation of the grandchildren who is second in line, 
he is a very close friend of the United States ... so I think there is a lot of hope the relationship will stay on an even keel."" Prince Mohammed, 
now behind the King's brother Prince Muqrin, 69, in the line of succession, is a frequent visitor to the United States and has presided over Saudi Arabia's anti-terrorism program. 
He narrowly escaped an assassination bid by Al-Qaeda in 2009.",隔离,合,闭合,骈阗,亲切,细密,堙,挚,截止
,,,,,,,,,
,缄,弥合,紧,掩,封闭,亲,昵,近的,不远
,,,,,,1,,,
,相近,窒闷,密,临近,闭幕,短,亲密,密切,贴心
,,,,,,,,,
,近,有蓬的,儩,迩,严密,闭,进逼,深,紧密
,,,,,,,,,
,关,关闭,合拢,新近,,,,,
,,,,,,,,,
,,,,,,,,,
,,,,,,,,,
,,,,,,,,,
,,,,,,,,,
,,,,,,,,,
,,,,,,,,,
,,,,,,,,,
69. even,,,,,,"""Thereis#even::",,,
"""There is now a member of the generation of the grandchildren who is second in line, 
he is a very close friend of the United States ... so I think there is a lot of hope the relationship will stay on an even keel."" Prince Mohammed, 
now behind the King's brother Prince Muqrin, 69, in the line of succession, is a frequent visitor to the United States and has presided over Saudi Arabia's anti-terrorism program. 
He narrowly escaped an assassination bid by Al-Qaeda in 2009.",匀,双日,偶数,双数,匀实,瀡,齐刷刷,相等,犹
,,,,,,,,1,
,连 ... 也,甚至,甚而,匀净,均,双,齐截,甚或,连
,,,,,1,,,,
,即使,偶,变平,甚至于,就是,,,,
,,,,,,,,,
,,,,,,,,,
,,,,,,,,,
,,,,,,,,,
,,,,,,,,,
,,,,,,,,,
,,,,,,,,,
,,,,,,,,,
,,,,,,,,,
,,,,,,,,,
,,,,,,,,,
,,,,,,,,,
70. bid,,,,,,"PrinceMohammed,#bid::",,,
"Prince Mohammed, now behind the King's brother Prince Muqrin, 69, in the line of succession, 
is a frequent visitor to the United States and has presided over Saudi Arabia's anti-terrorism program. 
He narrowly escaped an assassination bid by Al-Qaeda in 2009. The succession plan was viewed as particularly important following unconfirmed reports that Salman has been in ill health himself, 
apparently having suffered a stroke.",邀,投标,出价,标,,,,,
,,,,,,,,,
,,,,,,,,,
,,,,,,,,,
,,,,,,,,,
,,,,,,,,,
,,,,,,,,,
,,,,,,,,,
,,,,,,,,,
,,,,,,,,,
,,,,,,,,,
,,,,,,,,,
,,,,,,,,,
,,,,,,,,,
,,,,,,,,,
,,,,,,,,,
,,,,,,,,,
71. late,,,,,,"TomDonilon,#late::",,,
"Tom Donilon, pointman for US relations with Saudi Arabia when he was Obama's National Security Advisor, 
praised Abdullah as a ""solid"" ally who had ensured two decades of stability in the kingdom. 
He also said that the late King's survivors had done a ""pretty effective job of indicating stability with a quick annoncement with repect to succession, 
continuity of policy."" He told ""The Lead"" with CNN's Jake Tapper that Mohammad, known as MBN in the United States was ""a very, 
very competent person who is essential in terms of our joint efforts to combat terrorists.""",深,过世的,暮,阑,已故,晏,晚,迟慢,迟
,,1,,,1,,,,
,晚点,,,,,,,,
,,,,,,,,,
,,,,,,,,,
,,,,,,,,,
,,,,,,,,,
,,,,,,,,,
,,,,,,,,,
,,,,,,,,,
,,,,,,,,,
,,,,,,,,,
,,,,,,,,,
,,,,,,,,,
,,,,,,,,,
,,,,,,,,,
,,,,,,,,,
72. record,,,,,,"Critics,including#record::",,,
"Critics, including some in the U.S. government, faulted Saudis for backing jihadists movements throughout the region for geopolitical reasons. 
The Saudi government has also balked at U.S. criticisms of its human rights record and political system.",履历,唱片,纪,档案,纪录,识,案卷,记,簿籍
,,,,,,,,,
,记录,案,籍,录音,录,志,注,笔录,创纪录的
,1,,,,,,,,
,记载,收录,鋕,登,,,,,
,,,,,,,,,
,,,,,,,,,
,,,,,,,,,
,,,,,,,,,
,,,,,,,,,
,,,,,,,,,
,,,,,,,,,
,,,,,,,,,
,,,,,,,,,
,,,,,,,,,
,,,,,,,,,
,,,,,,,,,
73. think,,,,,,Saudileaders#think::,,,
"Saudi leaders were dismayed to learn about a secret backchannel of talks between the administration and Iran which built on the election of ""moderate"" Iranian President Hassan Rouhani in 2013 to launch an effort at rapprochment between Tehran and Washington. 
'""I think that the concern remains among the Saudi leadership about an agreement that is going to be at their expense,"" said David Ottaway, 
an author on Saudi Arabia and senior scholar at the Wilson Center. Some analysts believe that the Saudi government could react to what it would see as a bad nuclear deal between world powers and Iran -- which left the Islamic Republic with some capacity to enrich uranium or produce plutonium -- by looking to find its own nuclear capability -- perhaps with assistance from Pakistan.",怀,思考,看,意,设法,预期,算,预料,揣想
,,,,,,,,,
,想得到,考虑,思,意想,想到,溯,思索,打量,忆
,,,,,,,,,
,当,认为,以为,关心,料想,想起,道,想,念
,,1,,,,,,1,
,怀念,想象,臆断,,,,,,
,,,,,,,,,
,,,,,,,,,
,,,,,,,,,
,,,,,,,,,
,,,,,,,,,
,,,,,,,,,
,,,,,,,,,
,,,,,,,,,
,,,,,,,,,
,,,,,,,,,
74. center,,,,,,Saudileaders#center::,,,
"Saudi leaders were dismayed to learn about a secret backchannel of talks between the administration and Iran which built on the election of ""moderate"" Iranian President Hassan Rouhani in 2013 to launch an effort at rapprochment between Tehran and Washington. 
'""I think that the concern remains among the Saudi leadership about an agreement that is going to be at their expense,"" said David Ottaway, 
an author on Saudi Arabia and senior scholar at the Wilson Center. Some analysts believe that the Saudi government could react to what it would see as a bad nuclear deal between world powers and Iran -- which left the Islamic Republic with some capacity to enrich uranium or produce plutonium -- by looking to find its own nuclear capability -- perhaps with assistance from Pakistan.",心,枢,正中,中心,中央,中,央,中间,基点
,,,,,,,,,
,顶尖,围绕,集中,关于,,,,,
,,,,,,,,,
,场所,,,,,,,,
,,,,,,,,,
,,,,,,,,,
,,,,,,,,,
,,,,,,,,,
,,,,,,,,,
,,,,,,,,,
,,,,,,,,,
,,,,,,,,,
,,,,,,,,,
,,,,,,,,,
,,,,,,,,,
,,,,,,,,,
75. like,,,,,,TheSaudi#like::,,,
"The Saudi government also registered anger at the Obama administration's embrace of Arab Spring uprisings, 
which led to the ouster of allies like Egyptian President Hosni Mubarak. Obama appeared to make an oblique reference to those differences in a statement honoring Abdullah on Thursday as a ""steadfast and passionate"" believer in US-Saudi relations as a force for stability.",好比,好像,若,喜爱,如同,待见,喜好,爱好,同
,1,1,,,,,,,
,似,爱,好以,比如,喜欢,一样,相似,看上,类
,,,,1,,,,,
,好,喜,不啻,,,,,,
,,,,,,,,,
,,,,,,,,,
,,,,,,,,,
,,,,,,,,,
,,,,,,,,,
,,,,,,,,,
,,,,,,,,,
,,,,,,,,,
,,,,,,,,,
,,,,,,,,,
,,,,,,,,,
,,,,,,,,,
76. carry,,,,,,Inrecent#carry::,,,
"In recent years, the Obama administration has attempted to assuage Saudi fears. The US president made a visit to Riyadh last year, 
on a trip that was widely seen as an attempt to mend fences. Saudi Arabian pilots, reportedly including one of Salman's sons, 
Prince Khaled, helped carry out the first air attacks on ISIS in Syria last year. 
Saudi Arabia also approved of Secretary of State John Kerry's exhaustive but ultimately futile efforts to keep Israel and the Palestinians talking. 
And White House spokesman Josh Earnest said that an underpinning of those efforts, 
an Arab Peace Plan framed by Abdullah would stand as his lasting memorial.",送,超位,携带,通过,载携,提溜,盘,盘运,负
,,,,,,,,,
,带,抬,进位,携,儋,担,拥护,登载,提
,,,,,,,,,
,何,搬运,拥戴,盛,端,载,承,,
,,,,,,,,,
,,,,,,,,,
,,,,,,,,,
,,,,,,,,,
,,,,,,,,,
,,,,,,,,,
,,,,,,,,,
,,,,,,,,,
,,,,,,,,,
,,,,,,,,,
,,,,,,,,,
,,,,,,,,,
77. better,,,,,,SaudiArabia#better::,,,
"Saudi Arabia also approved of Secretary of State John Kerry's exhaustive but ultimately futile efforts to keep Israel and the Palestinians talking. 
And White House spokesman Josh Earnest said that an underpinning of those efforts, 
an Arab Peace Plan framed by Abdullah would stand as his lasting memorial. Smith said that the relationship between Riyadh and Washington was now better than it had been earlier in the administration. 
""A key element of our relationship with the Saudis over the years has been transparency, 
not always in public but we have done a good job in talking to each other,"" he said.",优越,更好,较好,愈,上,改进,改善,爽性,赢
,,1,,,,,1,,
,优胜,轶,强,宁愿,,,,,
,,,,,,,,,
,,,,,,,,,
,,,,,,,,,
,,,,,,,,,
,,,,,,,,,
,,,,,,,,,
,,,,,,,,,
,,,,,,,,,
,,,,,,,,,
,,,,,,,,,
,,,,,,,,,
,,,,,,,,,
,,,,,,,,,
,,,,,,,,,
78. better,,,,,,"""Akey#better::",,,
"""A key element of our relationship with the Saudis over the years has been transparency, 
not always in public but we have done a good job in talking to each other,"" he said. 
""When you leave your allies out of the conversation and they don't understand your negotiating position or don't understand how you are going to enforce an agreement. 
they are left to their own conclusions. ""I think we are doing a lot better at that.""",优越,更好,较好,愈,上,改进,改善,爽性,赢
,,1,,,,,,,
,优胜,轶,强,宁愿,,,,,
,,,,,,,,,
,,,,,,,,,
,,,,,,,,,
,,,,,,,,,
,,,,,,,,,
,,,,,,,,,
,,,,,,,,,
,,,,,,,,,
,,,,,,,,,
,,,,,,,,,
,,,,,,,,,
,,,,,,,,,
,,,,,,,,,
,,,,,,,,,
79. continue,,,,,,"They""expressed#continue::",,,
"They ""expressed grave concern over Russia's blatant disregard for its commitments under the September Minsk agreement and unilateral escalation of the conflict,"" the White House said. 
  The two leaders vowed to ""ensure that the costs continue to rise on Russia for its aggressive actions against Ukraine."" Thousands have been killed since the conflict broke out in the spring of last year and a ceasefire agreed to in September in Minsk, 
Belarus, crumbled long ago.",接续,连任,继,延续,续,持续,蝉联,接着,下去
,,,,,,1,,,
,赓,缵,绍,继续,,,,,
,,,,1,,,,,
,,,,,,,,,
,,,,,,,,,
,,,,,,,,,
,,,,,,,,,
,,,,,,,,,
,,,,,,,,,
,,,,,,,,,
,,,,,,,,,
,,,,,,,,,
,,,,,,,,,
,,,,,,,,,
,,,,,,,,,
,,,,,,,,,
80. game,,,,,,Butwhat#game::,,,
"But what is it that makes gaming so compulsive and addictive for the small minority?  For me, 
addiction boils down to constant reinforcement, or put more simply, being constantly rewarded while playing the game. 
Gaming rewards can be physiological (such as feeling ""high"" or getting a ""buzz"" while playing or beating your personal high score), 
psychological (such as feeling you have complete control in a specific situation or knowing that your strategic play helped you win), 
social (such as being congratulated by fellow gamers when doing something well in the game) and, in some cases, 
financial (such as winning a gaming tournament).  Most of these rewards are -- at least to some extent -- unpredictable. 
Not knowing when the next reward will come keeps some players in the game. In short, 
they carry on gaming even though they may not have received an immediate reward. They simply hope that another reward is ""just around the corner"" and keep on playing.",勇敢的,游戏,有胆量的,玩耍,赌钱,盘,赛,比赛,
,,1,,,,,,,
,,,,,,,,,
,,,,,,,,,
,,,,,,,,,
,,,,,,,,,
,,,,,,,,,
,,,,,,,,,
,,,,,,,,,
,,,,,,,,,
,,,,,,,,,
,,,,,,,,,
,,,,,,,,,
,,,,,,,,,
,,,,,,,,,
,,,,,,,,,
,,,,,,,,,
81. game,,,,,,"Forme,#game::",,,
"For me, addiction boils down to constant reinforcement, or put more simply, being constantly rewarded while playing the game. 
Gaming rewards can be physiological (such as feeling ""high"" or getting a ""buzz"" while playing or beating your personal high score), 
psychological (such as feeling you have complete control in a specific situation or knowing that your strategic play helped you win), 
social (such as being congratulated by fellow gamers when doing something well in the game) and, in some cases, 
financial (such as winning a gaming tournament).  Most of these rewards are -- at least to some extent -- unpredictable. 
Not knowing when the next reward will come keeps some players in the game. In short, 
they carry on gaming even though they may not have received an immediate reward. They simply hope that another reward is ""just around the corner"" and keep on playing. 
 Added to this is the shift over the last decade from standalone console gaming to massively multiplayer online games where games never end and gamers have to compete and/or collaborate with other gamers in real time (instead of being able to pause the game and come back and play from the point at which the player left it). 
Many excessive gamers report that they hate logging off and leaving such games. They don't like it as they don't know what is going on in the game when they are not online.",勇敢的,游戏,有胆量的,玩耍,赌钱,盘,赛,比赛,
,,1,,,,,,,
,,,,,,,,,
,,,,,,,,,
,,,,,,,,,
,,,,,,,,,
,,,,,,,,,
,,,,,,,,,
,,,,,,,,,
,,,,,,,,,
,,,,,,,,,
,,,,,,,,,
,,,,,,,,,
,,,,,,,,,
,,,,,,,,,
,,,,,,,,,
,,,,,,,,,
82. corner,,,,,,"Forme,#corner::",,,
"For me, addiction boils down to constant reinforcement, or put more simply, being constantly rewarded while playing the game. 
Gaming rewards can be physiological (such as feeling ""high"" or getting a ""buzz"" while playing or beating your personal high score), 
psychological (such as feeling you have complete control in a specific situation or knowing that your strategic play helped you win), 
social (such as being congratulated by fellow gamers when doing something well in the game) and, in some cases, 
financial (such as winning a gaming tournament).  Most of these rewards are -- at least to some extent -- unpredictable. 
Not knowing when the next reward will come keeps some players in the game. In short, 
they carry on gaming even though they may not have received an immediate reward. They simply hope that another reward is ""just around the corner"" and keep on playing. 
 Added to this is the shift over the last decade from standalone console gaming to massively multiplayer online games where games never end and gamers have to compete and/or collaborate with other gamers in real time (instead of being able to pause the game and come back and play from the point at which the player left it). 
Many excessive gamers report that they hate logging off and leaving such games. They don't like it as they don't know what is going on in the game when they are not online.",拐角,角的,垄断,隅,迫至一隅,角落,垄断贩卖,陬,棱
,,,,,,,,,
,困境,角,犄角,楞,,,,,
,,,,,,,,,
,,,,,,,,,
,,,,,,,,,
,,,,,,,,,
,,,,,,,,,
,,,,,,,,,
,,,,,,,,,
,,,,,,,,,
,,,,,,,,,
,,,,,,,,,
,,,,,,,,,
,,,,,,,,,
,,,,,,,,,
,,,,,,,,,
83. away,,,,,,Throughoutmy#away::,,,
"Throughout my research career I have argued that although all addictions have particular and idiosyncratic characteristics, 
they share more commonalities than differences such as total preoccupation, mood modification, cravings, tolerance, 
withdrawal symptoms, conflict with work, education and other people, and loss of control. 
These similarities likely reflect a common etiology of addictive behavior.   At the simplest level, 
healthy enthusiasms add to life and addictions take away from it.  Mark Griffiths",离去,离,远,缺席的,远离,,,,
,,,,,,,,,
,,,,,,,,,
,,,,,,,,,
,,,,,,,,,
,,,,,,,,,
,,,,,,,,,
,,,,,,,,,
,,,,,,,,,
,,,,,,,,,
,,,,,,,,,
,,,,,,,,,
,,,,,,,,,
,,,,,,,,,
,,,,,,,,,
,,,,,,,,,
,,,,,,,,,
84. firm,,,,,,"Microsoft(MSFT,#firm::",,,
"Microsoft (MSFT, Tech30) just patented a way to make your phone less noticeable and disruptive when you're in certain environments (Microsoft calls it ""inconspicuous mode""). 
You can use it at a movie theater, a dinner date or at home about to go to bed.   The U.S. 
government awarded Microsoft the patent on Thursday. The award was first noticed by Patent Yogi, an Indian consulting firm. 
  It's all based on the notion that your phone can annoy the person next to you -- especially if you're in a dark, 
quiet place.",严格,坚硬地,坚定,决心,刚,加固,稳固,坚,碻
,,,,,,,,,
,劼,稳健,坚决,弄结实,厂商,牢靠,坚固,硬性,严竣
,,,,,,,,,
,监,磐,牢,加强,企业,牢固,狠,果断,硬
,,,,,,,,,
,坚固地,确,公司,刚强,固,,,,
,,,1,,,,,,
,,,,,,,,,
,,,,,,,,,
,,,,,,,,,
,,,,,,,,,
,,,,,,,,,
,,,,,,,,,
,,,,,,,,,
,,,,,,,,,
,,,,,,,,,
85. time,,,,,,Incomingmessage?#time::,,,
Incoming message? Need to check the time? Got an unstoppable itch to check Instagram?,倍,年华,时间,候,趟,年份,度,光阴,辰
,,,1,,,,,,
,期,安排正在,工夫,遍,秋,拍,时刻,季节,年头
,,,,,,,,,
,期间,拍子,时,时候,,,,,
,,,,,,,,,
,,,,,,,,,
,,,,,,,,,
,,,,,,,,,
,,,,,,,,,
,,,,,,,,,
,,,,,,,,,
,,,,,,,,,
,,,,,,,,,
,,,,,,,,,
,,,,,,,,,
,,,,,,,,,
86. home,,,,,,Incomingmessage?#home::,,,
"Incoming message? Need to check the time? Got an unstoppable itch to check Instagram? You're about to bathe your neighbors in a monstrously bright light and set off a chain of irksome bleeps. 
  In ""inconspicuous mode,"" sounds are gone, and the screen is a faint glow. Notifications don't show up on the home screen. 
The time is displayed in large numbers that are easier to glace at.   In Microsoft's description, 
you could tailor the ""inconspicuous"" display any way you like. Maybe it only shows text messages. 
Or it dims more than normal.",斋,故乡,家园,乡土,家,,,,
,,,,,,,,,
,,,,,,,,,
,,,,,,,,,
,,,,,,,,,
,,,,,,,,,
,,,,,,,,,
,,,,,,,,,
,,,,,,,,,
,,,,,,,,,
,,,,,,,,,
,,,,,,,,,
,,,,,,,,,
,,,,,,,,,
,,,,,,,,,
,,,,,,,,,
,,,,,,,,,
87. even,,,,,,Butthe#even::,,,
"But the key feature is that it would be automatic. It would go into this mode if your phone's GPS detects you're at the location of a movie theater. 
Or if a restaurant's or stage theater's Wi-Fi or Bluetooth beacons tell it to. Or if your phone's light sensor detects darkness while the microphone also detects silence (like just before a movie starts playing). 
  To figure this out, the phone could even tap your calendar or your recent mobile payments. 
If you bought event tickets at the counter using tap-to-pay technology, your phone would know when to go quiet. 
  If this gets popular, venues will probably be quick to embrace it. Mobile phone use in theaters is so pervasive nowadays that brief ""please silence your phones"" requests are now full-blown, 
pre-movie short films. And every performance by the New York Philharmonic is preceded by a 30-second, 
pre-recorded plea by Alec Baldwin. It's downright embarrassing.",匀,双日,偶数,双数,匀实,瀡,齐刷刷,相等,犹
,,,,,,,,,
,连 ... 也,甚至,甚而,匀净,均,双,齐截,甚或,连
,,1,,,,,,,
,即使,偶,变平,甚至于,就是,,,,
,,,,,,,,,
,,,,,,,,,
,,,,,,,,,
,,,,,,,,,
,,,,,,,,,
,,,,,,,,,
,,,,,,,,,
,,,,,,,,,
,,,,,,,,,
,,,,,,,,,
,,,,,,,,,
,,,,,,,,,
88. short,,,,,,Tofigure#short::,,,
"To figure this out, the phone could even tap your calendar or your recent mobile payments. 
If you bought event tickets at the counter using tap-to-pay technology, your phone would know when to go quiet. 
  If this gets popular, venues will probably be quick to embrace it. Mobile phone use in theaters is so pervasive nowadays that brief ""please silence your phones"" requests are now full-blown, 
pre-movie short films. And every performance by the New York Philharmonic is preceded by a 30-second, 
pre-recorded plea by Alec Baldwin. It's downright embarrassing.   And no, theaters aren't going to start hijacking your phones. 
Microsoft's careful wording in its patent application shows that users retain control.",局促,简要,酥,简略,短暂,酥脆,短,矬,急促
,,,,,,,1,,
,矮,俴,不足,短裤,傥,不够,简短,遽,轾
,,,,,,,,,
,短缺,,,,,,,,
,,,,,,,,,
,,,,,,,,,
,,,,,,,,,
,,,,,,,,,
,,,,,,,,,
,,,,,,,,,
,,,,,,,,,
,,,,,,,,,
,,,,,,,,,
,,,,,,,,,
,,,,,,,,,
,,,,,,,,,
89. new,,,,,,Tofigure#new::,,,
"To figure this out, the phone could even tap your calendar or your recent mobile payments. 
If you bought event tickets at the counter using tap-to-pay technology, your phone would know when to go quiet. 
  If this gets popular, venues will probably be quick to embrace it. Mobile phone use in theaters is so pervasive nowadays that brief ""please silence your phones"" requests are now full-blown, 
pre-movie short films. And every performance by the New York Philharmonic is preceded by a 30-second, 
pre-recorded plea by Alec Baldwin. It's downright embarrassing.   And no, theaters aren't going to start hijacking your phones. 
Microsoft's careful wording in its patent application shows that users retain control.",异,新颖,新兴,新任,全新,新,新奇,耗,
,,,,,,,,,
,,,,,,,,,
,,,,,,,,,
,,,,,,,,,
,,,,,,,,,
,,,,,,,,,
,,,,,,,,,
,,,,,,,,,
,,,,,,,,,
,,,,,,,,,
,,,,,,,,,
,,,,,,,,,
,,,,,,,,,
,,,,,,,,,
,,,,,,,,,
,,,,,,,,,
90. head,,,,,,It'snot#head::,,,
"It's not a peyote-induced hallucination, but a genuinely impressive illusion created by Microsoft's (MSFT, 
Tech30) new augmented-reality goggles, HoloLens.   In this case, it was a 3-D game of Minecraft taking place, on, over, under, 
behind and inside real furniture and walls. As you move your head and body around, the illusion moves completely with you in 3-D, 
remarkably affixed to the real world objects.   Microsoft previewed the brand new piece of hardware on Wednesday. 
HoloLens is Microsoft's foray into the virtual reality market. In its unique spin on VR, 
Microsoft has developed goggles that offer an augmented -- or ""mixed"" -- reality experience. Unlike Facebook's (FB, 
Tech30) Oculus Rift, which completely blocks out the outside world to fully immerse the wearer in another reality, 
HoloLens keeps one foot (and both eyes) firmly planted in the real world.",魁,养,首领,领袖,率领,主任,羑,首脑,头
,,,,,,,,,1
,头部,首,前进,总,为首,长,督办,,
,1,,,,,,,,
,,,,,,,,,
,,,,,,,,,
,,,,,,,,,
,,,,,,,,,
,,,,,,,,,
,,,,,,,,,
,,,,,,,,,
,,,,,,,,,
,,,,,,,,,
,,,,,,,,,
,,,,,,,,,
,,,,,,,,,
,,,,,,,,,
91. real,,,,,,Microsoftpreviewed#real::,,,
"Microsoft previewed the brand new piece of hardware on Wednesday. HoloLens is Microsoft's foray into the virtual reality market. 
In its unique spin on VR, Microsoft has developed goggles that offer an augmented -- or ""mixed"" -- reality experience. 
Unlike Facebook's (FB, Tech30) Oculus Rift, which completely blocks out the outside world to fully immerse the wearer in another reality, 
HoloLens keeps one foot (and both eyes) firmly planted in the real world.   The lenses of the goggles are transparent, 
your view of the space around you only selectively blocked by digital images that can mingle with real objects. For example, 
an interior designer can move around a real room and rearrange 3-D pieces of furniture too see how they will look, 
even placing a virtual vase on a real shelf.   To manipulate something in the HoloLens world, you use hand gestures, 
which are picked up by cameras on the front of the device. The single wiggle of an index finger can drop a flag on the surface of Mars or select a color for your 3-D sculpture. 
The cursor is always at the center of your view, moving when you move your head. Microphones pick up voice commands that bring up menus.",非常,真实,确实,实打实,真相,现实,确,实在,真币
,,1,,,,1,,,
,活生生,真正,实际,真,实,,,,
,,,,,,,,,
,,,,,,,,,
,,,,,,,,,
,,,,,,,,,
,,,,,,,,,
,,,,,,,,,
,,,,,,,,,
,,,,,,,,,
,,,,,,,,,
,,,,,,,,,
,,,,,,,,,
,,,,,,,,,
,,,,,,,,,
,,,,,,,,,
92. hand,,,,,,Thelenses#hand::,,,
"The lenses of the goggles are transparent, your view of the space around you only selectively blocked by digital images that can mingle with real objects. 
For example, an interior designer can move around a real room and rearrange 3-D pieces of furniture too see how they will look, 
even placing a virtual vase on a real shelf.   To manipulate something in the HoloLens world, you use hand gestures, 
which are picked up by cameras on the front of the device. The single wiggle of an index finger can drop a flag on the surface of Mars or select a color for your 3-D sculpture. 
The cursor is always at the center of your view, moving when you move your head. Microphones pick up voice commands that bring up menus. 
  The goggles are wireless and don't need to be tethered to any device, so while they're meant for home or office use, 
they wearer is able to roam freely. The speakers play ""spacial"" sound, so a noise might seem like it's coming from behind or beside you, 
adding to the virtual reality experience.",手的,手,笔迹,雇员,递交,巴掌,人,,
,,1,,,,,,,
,,,,,,,,,
,,,,,,,,,
,,,,,,,,,
,,,,,,,,,
,,,,,,,,,
,,,,,,,,,
,,,,,,,,,
,,,,,,,,,
,,,,,,,,,
,,,,,,,,,
,,,,,,,,,
,,,,,,,,,
,,,,,,,,,
,,,,,,,,,
,,,,,,,,,
93. color,,,,,,Thelenses#color::,,,
"The lenses of the goggles are transparent, your view of the space around you only selectively blocked by digital images that can mingle with real objects. 
For example, an interior designer can move around a real room and rearrange 3-D pieces of furniture too see how they will look, 
even placing a virtual vase on a real shelf.   To manipulate something in the HoloLens world, you use hand gestures, 
which are picked up by cameras on the front of the device. The single wiggle of an index finger can drop a flag on the surface of Mars or select a color for your 3-D sculpture. 
The cursor is always at the center of your view, moving when you move your head. Microphones pick up voice commands that bring up menus. 
  The goggles are wireless and don't need to be tethered to any device, so while they're meant for home or office use, 
they wearer is able to roam freely. The speakers play ""spacial"" sound, so a noise might seem like it's coming from behind or beside you, 
adding to the virtual reality experience.",颜色,绘画,彩,彩色,气色,颜,血色,脸红,色
,1,,,1,,,,,
,脸色,绘,颜料,肤色,色彩,,,,
,,,,,,,,,
,,,,,,,,,
,,,,,,,,,
,,,,,,,,,
,,,,,,,,,
,,,,,,,,,
,,,,,,,,,
,,,,,,,,,
,,,,,,,,,
,,,,,,,,,
,,,,,,,,,
,,,,,,,,,
,,,,,,,,,
,,,,,,,,,
94. case,,,,,,Thedemonstration#case::,,,
"The demonstration scenarios attempted to show real examples of practical uses for the technology.   Video games. 
Gamers tend to be enthusiastic early adopters of experimental immersive technology, 
and the stunning Minecraft demo seemed like the most natural and realistic use case. 
I do not usually play Minecraft but would absolutely start, and maybe forget to stop, if I had a HoloLens.   Customer service. 
A Skype call demo was to walk me through fixing a broken light. The person on the other end of the call could see what I saw (real wires, 
tools, a hole in the wall) and could annotate my view with colorful lines and arrows. 
She even doodled a little diagram on a patch of blank wall. Remote customer support is a commonly imagined use for smart glasses, 
including Google Glass. While a neat thing to have, it's nothing a phone or PC running video chat wouldn't be able to accomplish.",箱子,机身,例,事件,套子,椟,案情,例证,盒子
,,,,1,,,,,
,诉讼,案件,外壳,景况,案子,框,壳体,案,匣
,,,,,,,,,
,盒,套,机壳,套管,事例,格,壳,例子,匣子
,,,,,,,,,
,函,,,,,,,,
,,,,,,,,,
,,,,,,,,,
,,,,,,,,,
,,,,,,,,,
,,,,,,,,,
,,,,,,,,,
,,,,,,,,,
,,,,,,,,,
,,,,,,,,,
,,,,,,,,,
95. call,,,,,,Videogames.#call::,,,
"Video games. Gamers tend to be enthusiastic early adopters of experimental immersive technology, 
and the stunning Minecraft demo seemed like the most natural and realistic use case. 
I do not usually play Minecraft but would absolutely start, and maybe forget to stop, if I had a HoloLens.   Customer service. 
A Skype call demo was to walk me through fixing a broken light. The person on the other end of the call could see what I saw (real wires, 
tools, a hole in the wall) and could annotate my view with colorful lines and arrows. 
She even doodled a little diagram on a patch of blank wall. Remote customer support is a commonly imagined use for smart glasses, 
including Google Glass. While a neat thing to have, it's nothing a phone or PC running video chat wouldn't be able to accomplish. 
  Design. HoloStudio is a creative app that is designed for anyone to easily tinker with, like a beefed up MS Paint. 
A palette of colors and shapes floats in front of the artist who can create simple or complex 3-D models. 
Final designs can be ordered online, and a printed version of your 3-D purple skyscraper will be delivered to your door.",邀,看,喊,拜会,拜望,访问,谓,谒,望
,,,,,,,,,
,呼叫,谥,曰,拜访,称呼,招呼,探望,偁,呼唤
,,,,,,,,,
,虖,召唤,通话,称为,叫,喊声,走,称,呼吁
,,,1,,,,,,
,看望,顾,呼,找,,,,,
,,,,,,,,,
,,,,,,,,,
,,,,,,,,,
,,,,,,,,,
,,,,,,,,,
,,,,,,,,,
,,,,,,,,,
,,,,,,,,,
,,,,,,,,,
,,,,,,,,,
96. light,,,,,,Videogames.#light::,,,
"Video games. Gamers tend to be enthusiastic early adopters of experimental immersive technology, 
and the stunning Minecraft demo seemed like the most natural and realistic use case. 
I do not usually play Minecraft but would absolutely start, and maybe forget to stop, if I had a HoloLens.   Customer service. 
A Skype call demo was to walk me through fixing a broken light. The person on the other end of the call could see what I saw (real wires, 
tools, a hole in the wall) and could annotate my view with colorful lines and arrows. 
She even doodled a little diagram on a patch of blank wall. Remote customer support is a commonly imagined use for smart glasses, 
including Google Glass. While a neat thing to have, it's nothing a phone or PC running video chat wouldn't be able to accomplish. 
  Design. HoloStudio is a creative app that is designed for anyone to easily tinker with, like a beefed up MS Paint. 
A palette of colors and shapes floats in front of the artist who can create simple or complex 3-D models. 
Final designs can be ordered online, and a printed version of your 3-D purple skyscraper will be delivered to your door.",薄,明亮,明亮的,轻便,阳光,朗,暘,粗心,轻微
,,,,,,,,,
,生,脚灯,忧,点燃,纾缓,亮,昱,燃点,暲
,,,,,,,,,
,燃放,点,光纤,发光体,燃,浅,灯光,光,晔
,,,,,,,1,,
,轻浮,淡,圣光,晢,淡薄,荧,嫩,轻飘,灯
,,,,,,,,,1
,娇嫩,发光,轻,烺,,,,,
,,,,,,,,,
,,,,,,,,,
,,,,,,,,,
,,,,,,,,,
,,,,,,,,,
,,,,,,,,,
,,,,,,,,,
,,,,,,,,,
97. little,,,,,,Videogames.#little::,,,
"Video games. Gamers tend to be enthusiastic early adopters of experimental immersive technology, 
and the stunning Minecraft demo seemed like the most natural and realistic use case. 
I do not usually play Minecraft but would absolutely start, and maybe forget to stop, if I had a HoloLens.   Customer service. 
A Skype call demo was to walk me through fixing a broken light. The person on the other end of the call could see what I saw (real wires, 
tools, a hole in the wall) and could annotate my view with colorful lines and arrows. 
She even doodled a little diagram on a patch of blank wall. Remote customer support is a commonly imagined use for smart glasses, 
including Google Glass. While a neat thing to have, it's nothing a phone or PC running video chat wouldn't be able to accomplish. 
  Design. HoloStudio is a creative app that is designed for anyone to easily tinker with, like a beefed up MS Paint. 
A palette of colors and shapes floats in front of the artist who can create simple or complex 3-D models. 
Final designs can be ordered online, and a printed version of your 3-D purple skyscraper will be delivered to your door.",短的,些少,蝇头,短时间,微小,小量的,小,少,不足的
,,,,,,,1,,
,鲜,少量,细小,,,,,,
,,,1,,,,,,
,,,,,,,,,
,,,,,,,,,
,,,,,,,,,
,,,,,,,,,
,,,,,,,,,
,,,,,,,,,
,,,,,,,,,
,,,,,,,,,
,,,,,,,,,
,,,,,,,,,
,,,,,,,,,
,,,,,,,,,
,,,,,,,,,
98. look,,,,,,Design.HoloStudio#look::,,,
"Design. HoloStudio is a creative app that is designed for anyone to easily tinker with, like a beefed up MS Paint. 
A palette of colors and shapes floats in front of the artist who can create simple or complex 3-D models. 
Final designs can be ordered online, and a printed version of your 3-D purple skyscraper will be delivered to your door. 
  Virtual reality. At NASA's Jet Propulsion Laboratory, scientists regularly dig through images of Mars collected by the Curiosity Rover. 
They've collaborated with Microsoft to create a program that places them inside a 3-D rendering of Mars using HoloLens. 
Whether you look up or down, turn left or right, or walk forward or back, the landscape shifts accordingly so you feel like you're taking a stroll on the red planet. 
  The Mars demo was one of the few times I wished I was using full virtual reality goggles. 
They had reasons for wanted to keep reality involved -- JPL scientists are working not playing, 
and they need to use other tools like computers at the same time. But as impressive as it was, 
the mixed-reality version of Mars looked thin and desaturated.",目光,瞅,看,模样,朝向,面容,张,看起来,面貌
,,,1,,,,,,
,面向,容,神采,留心,注意,观,面目,睊,像
,,,,,,,,,
,觑,举目,脸色,神情,神,形,神色,眼,色
,,,,,,,,,
,注视,盼,,,,,,,
,,,,,,,,,
,,,,,,,,,
,,,,,,,,,
,,,,,,,,,
,,,,,,,,,
,,,,,,,,,
,,,,,,,,,
,,,,,,,,,
,,,,,,,,,
,,,,,,,,,
99. full,,,,,,Virtualreality.#full::,,,
"Virtual reality. At NASA's Jet Propulsion Laboratory, scientists regularly dig through images of Mars collected by the Curiosity Rover. 
They've collaborated with Microsoft to create a program that places them inside a 3-D rendering of Mars using HoloLens. 
Whether you look up or down, turn left or right, or walk forward or back, the landscape shifts accordingly so you feel like you're taking a stroll on the red planet. 
  The Mars demo was one of the few times I wished I was using full virtual reality goggles. 
They had reasons for wanted to keep reality involved -- JPL scientists are working not playing, 
and they need to use other tools like computers at the same time. But as impressive as it was, 
the mixed-reality version of Mars looked thin and desaturated.   Full and partial virtual reality look different because of the underlying technology. 
HoloLens doesn't display images on any screen, but projects light directly onto the retina, 
imitating the way light travels from real objects. The augmented view is contained in a rectangle directly in front of your face. 
Oculus Rift shows its images on a screen in front of the eyes and extends farther out and around for a more encompassing view.",充分,详尽,充沛,赅,稛,匝,饱,弥,整整
,,,,,,,,,
,充份,足,弸,盈满,满,充,盈,尽是,盎然
,,,,,,,,,
,浡,详,饫,充满,富有,饱满,丰满,详细,
,,,,,,,,,
,完成,,,,,,,,
,,,,,,,,,
,,,,,,,,,
,,,,,,,,,
,,,,,,,,,
,,,,,,,,,
,,,,,,,,,
,,,,,,,,,
,,,,,,,,,
,,,,,,,,,
,,,,,,,,,
100. full,,,,,,Virtualreality.2#full::,,,
"Virtual reality. At NASA's Jet Propulsion Laboratory, scientists regularly dig through images of Mars collected by the Curiosity Rover. 
They've collaborated with Microsoft to create a program that places them inside a 3-D rendering of Mars using HoloLens. 
Whether you look up or down, turn left or right, or walk forward or back, the landscape shifts accordingly so you feel like you're taking a stroll on the red planet. 
  The Mars demo was one of the few times I wished I was using full virtual reality goggles. 
They had reasons for wanted to keep reality involved -- JPL scientists are working not playing, 
and they need to use other tools like computers at the same time. But as impressive as it was, 
the mixed-reality version of Mars looked thin and desaturated.   Full and partial virtual reality look different because of the underlying technology. 
HoloLens doesn't display images on any screen, but projects light directly onto the retina, 
imitating the way light travels from real objects. The augmented view is contained in a rectangle directly in front of your face. 
Oculus Rift shows its images on a screen in front of the eyes and extends farther out and around for a more encompassing view.",充分,详尽,充沛,赅,稛,匝,饱,弥,整整
,,,,,,,,,
,充份,足,弸,盈满,满,充,盈,尽是,盎然
,,,,,,,,,
,浡,详,饫,充满,富有,饱满,丰满,详细,
,,,,,,,,,
,完成,,,,,,,,
,,,,,,,,,
,,,,,,,,,
,,,,,,,,,
,,,,,,,,,
,,,,,,,,,
,,,,,,,,,
,,,,,,,,,
,,,,,,,,,
,,,,,,,,,
,,,,,,,,,
101. light,,,,,,TheMars#light::,,,
"The Mars demo was one of the few times I wished I was using full virtual reality goggles. 
They had reasons for wanted to keep reality involved -- JPL scientists are working not playing, 
and they need to use other tools like computers at the same time. But as impressive as it was, 
the mixed-reality version of Mars looked thin and desaturated.   Full and partial virtual reality look different because of the underlying technology. 
HoloLens doesn't display images on any screen, but projects light directly onto the retina, 
imitating the way light travels from real objects. The augmented view is contained in a rectangle directly in front of your face. 
Oculus Rift shows its images on a screen in front of the eyes and extends farther out and around for a more encompassing view. 
  The virtual reality space is still mostly filled with buzz and not-ready-for-prime-time products. 
But VR has been anointed the next big thing by a tech industry hungry for something fresh and exciting to woo customers.",薄,明亮,明亮的,轻便,阳光,朗,暘,粗心,轻微
,,,,,,,,,
,生,脚灯,忧,点燃,纾缓,亮,昱,燃点,暲
,,,,,,,,,
,燃放,点,光纤,发光体,燃,浅,灯光,光,晔
,,,,,,,,1,
,轻浮,淡,圣光,晢,淡薄,荧,嫩,轻飘,灯
,,,,,,,,,
,娇嫩,发光,轻,烺,,,,,
,,,,,,,,,
,,,,,,,,,
,,,,,,,,,
,,,,,,,,,
,,,,,,,,,
,,,,,,,,,
,,,,,,,,,
,,,,,,,,,
102. bit,,,,,,ButAtlanta's#bit::,,,
"But Atlanta's Hartsfield-Jackson remains No. 1 in annual passenger traffic. Spokesman Reese McCranie said the airport is projected to top 96 million passengers for 2014, 
compared with O'Hare, which handled 66.7 million in 2013. That put O'Hare in fifth place globally for passengers. 
 ""With our friends in Chicago, it's always a little bit of friendly rivalry,"" McCranie said. 
""Our operations folks are probably getting ribbed by their operations folks for edging us out. But you know, 
we're all one aviation system, so when O'Hare does well, other airports -- including ours -- do well."" ATL24: A day in the life of the world's busiest airport",钻子,钻机,辅币,屑,块,点滴,星,,
,,,,,,,,,
,点,,,,,,,,
,,,,,,,,,
,,,,,,,,,
,,,,,,,,,
,,,,,,,,,
,,,,,,,,,
,,,,,,,,,
,,,,,,,,,
,,,,,,,,,
,,,,,,,,,
,,,,,,,,,
,,,,,,,,,
,,,,,,,,,
,,,,,,,,,
,,,,,,,,,
103. border,,,,,,Thedriver#border::,,,
"The driver cheerfully ignores the doctor's pleas and continues to take the corners at a clip, 
smoking all the while and occasionally breaking into wailed bursts of Kurdish folk song.  We're traveling from Sanandaj, 
the capital of Iran's Kurdistan province, to Marivan, a small city just a few kilometers from the border with Iraq. 
It's the final day of Nowruz, the Iranian new year, and my companions, a doctor called Ghaffar and a taxi driver named Jahan -- both from Sanandaj -- are still on holiday.",境,毗,疆,花坛,边界,境界,边际,涯,边
,,,,,1,,,,
,圻,濒临,际,接壤,界,濒,邻接,毘,疆界
,,,,,,,,,
,同 ... 交界,边境,陲,镶,埸,,,,
,,1,,,,,,,
,,,,,,,,,
,,,,,,,,,
,,,,,,,,,
,,,,,,,,,
,,,,,,,,,
,,,,,,,,,
,,,,,,,,,
,,,,,,,,,
,,,,,,,,,
,,,,,,,,,
,,,,,,,,,
104. drop,,,,,,Tothe#drop::,,,
"To the left of the narrow road is a vertical, sand-colored mountain wall.  To the right, 
a 50-foot drop and a view across the spectacular Howraman Valley, a sparsely populated and beautiful part of the region. 
On the eastern edge of Iran, Kurdistan province makes up part of a broader Kurdish region, 
which also spans adjacent sections of Iraq, Syria and Turkey.",掉,撒,投,降落,沥,下降,减退,放下,点
,,,,,,,,,
,点子,落,降,跌,衰退,摔,摔交,改掉,水滴
,,1,1,,,,,,
,降低,摔倒,作罢,滴,落下,,,,
,,,,,,,,,
,,,,,,,,,
,,,,,,,,,
,,,,,,,,,
,,,,,,,,,
,,,,,,,,,
,,,,,,,,,
,,,,,,,,,
,,,,,,,,,
,,,,,,,,,
,,,,,,,,,
,,,,,,,,,
105. view,,,,,,Tothe#view::,,,
"To the left of the narrow road is a vertical, sand-colored mountain wall.  To the right, 
a 50-foot drop and a view across the spectacular Howraman Valley, a sparsely populated and beautiful part of the region. 
On the eastern edge of Iran, Kurdistan province makes up part of a broader Kurdish region, 
which also spans adjacent sections of Iraq, Syria and Turkey.",见,风光,见解,风貌,目光,览,看,睊,意见
,,,,,,,,,
,想法,景,意思,主张,视图,看法,图景,望,瞻
,,,,,,,,,
,论,景色,鉴,,,,,,
,,1,,,,,,,
,风景,,,,,,,,
,,,,,,,,,
,,,,,,,,,
,,,,,,,,,
,,,,,,,,,
,,,,,,,,,
,,,,,,,,,
,,,,,,,,,
,,,,,,,,,
,,,,,,,,,
,,,,,,,,,
106. common,,,,,,"Colorfuldress,#common::",,,
"Colorful dress, religions at odds Culturally and linguistically, the residents here have more in common with their fellow Kurds across the border than with Iranians from Tehran, 
Esfahan or Shiraz. Dress is traditional: men sport baggy shalwar trousers, plain shirts and heavy felt waistcoats, 
while the women wear colorful dresses and headscarves rather than the black chador or hijab seen throughout much of the rest of Iran.",简,平常,普遍,简单,寻常,常见,公,一般,共
,,,,,,,,,
,普通,恒,常规,公共,平,常,通,共同,通俗
,,,,,,,,1,
,,,,,,,,,
,,,,,,,,,
,,,,,,,,,
,,,,,,,,,
,,,,,,,,,
,,,,,,,,,
,,,,,,,,,
,,,,,,,,,
,,,,,,,,,
,,,,,,,,,
,,,,,,,,,
,,,,,,,,,
,,,,,,,,,
107. border,,,,,,"Colorfuldress,#border::",,,
"Colorful dress, religions at odds Culturally and linguistically, the residents here have more in common with their fellow Kurds across the border than with Iranians from Tehran, 
Esfahan or Shiraz. Dress is traditional: men sport baggy shalwar trousers, plain shirts and heavy felt waistcoats, 
while the women wear colorful dresses and headscarves rather than the black chador or hijab seen throughout much of the rest of Iran.",境,毗,疆,花坛,边界,境界,边际,涯,边
,,,,,1,,,,
,圻,濒临,际,接壤,界,濒,邻接,毘,疆界
,,,,,,,,,
,同 ... 交界,边境,陲,镶,埸,,,,
,,1,,,,,,,
,,,,,,,,,
,,,,,,,,,
,,,,,,,,,
,,,,,,,,,
,,,,,,,,,
,,,,,,,,,
,,,,,,,,,
,,,,,,,,,
,,,,,,,,,
,,,,,,,,,
,,,,,,,,,
108. home,,,,,,Onthe#home::,,,
"On the way, we stop in a tiny village called Negel.  The mosque in the village is home to large, 
handwritten Quran said to be about 1,300 years old.  The mosque's facade carries an inscription naming Abu Bakr the first caliph and, 
according to Sunni Muslims, the rightful successor of the prophet Mohammed.",斋,故乡,家园,乡土,家,,,,
,,,1,,1,,,,
,,,,,,,,,
,,,,,,,,,
,,,,,,,,,
,,,,,,,,,
,,,,,,,,,
,,,,,,,,,
,,,,,,,,,
,,,,,,,,,
,,,,,,,,,
,,,,,,,,,
,,,,,,,,,
,,,,,,,,,
,,,,,,,,,
,,,,,,,,,
,,,,,,,,,
109. put,,,,,,Themosque's#put::,,,
"The mosque's facade carries an inscription naming Abu Bakr the first caliph and, according to Sunni Muslims, 
the rightful successor of the prophet Mohammed.  Although most Iranians are Shia Muslims, 
the Kurds are predominantly Sunni and this has often put them at odds with the Iranian government. A few days earlier, 
a Kurdish man in Sanandaj had told me that police had forcibly removed a satellite dish from his roof to prevent him receiving Kurdish television channels.",搁,赋予,投击,置于,摆列,摆,摆放,置,坐
,,,,1,,,,1,
,干,掷,放置,放置者,放,,,,
,,,,,,,,,
,,,,,,,,,
,,,,,,,,,
,,,,,,,,,
,,,,,,,,,
,,,,,,,,,
,,,,,,,,,
,,,,,,,,,
,,,,,,,,,
,,,,,,,,,
,,,,,,,,,
,,,,,,,,,
,,,,,,,,,
,,,,,,,,,
110. good,,,,,,Afew#good::,,,
"A few days earlier, a Kurdish man in Sanandaj had told me that police had forcibly removed a satellite dish from his roof to prevent him receiving Kurdish television channels. 
 Another had pointed at a photo of a Shia cleric in my guidebook and shaken his head, saying ""Not good, not good."" After Negel, 
the road winds through snow-capped mountains and then drops down into the village of Howraman-at-Takht.",善,嘉,美,合乎正道的,爽口,颛,优良,良好,不赖
,,,,,,,,,
,合适的,和蔼的,和蔼可亲的,要得,乖,益处,善良,甜头,姤
,,,,,,,,,
,臧,和善的,好,良,佳,拿手,嫽,赢余,
,,,1,,1,,,,
,,,,,,,,,
,,,,,,,,,
,,,,,,,,,
,,,,,,,,,
,,,,,,,,,
,,,,,,,,,
,,,,,,,,,
,,,,,,,,,
,,,,,,,,,
,,,,,,,,,
,,,,,,,,,
111. back,,,,,,Hewashes#back::,,,
"He washes his hands, feet and head and then begins his afternoon prayers, in turn standing, 
kneeling and then pressing his forehead to the rock.  Once he's finished he carefully negotiates the way back and dries his feet with a cloth. 
As we continue the journey, the doctor takes over the driving and progress is slower, 
but the hairpin bends are no longer quite so terrifying.",后部,以前,后身,背面,襄,腰杆子,腰,后面,脊
,,,,,,,,,
,后的,支持,后,脊背,后边,后部的,冀,翊,赌钱
,,,,,,,,,
,后面的,后边的,向后,,,,,,
,,,,,,,,,
,回,,,,,,,,
,,,,,,,,,
,,,,,,,,,
,,,,,,,,,
,,,,,,,,,
,,,,,,,,,
,,,,,,,,,
,,,,,,,,,
,,,,,,,,,
,,,,,,,,,
,,,,,,,,,
112. continue,,,,,,Oncehe's#continue::,,,
"Once he's finished he carefully negotiates the way back and dries his feet with a cloth. As we continue the journey, 
the doctor takes over the driving and progress is slower, but the hairpin bends are no longer quite so terrifying. 
We arrive at Marivan in the late afternoon.",接续,连任,继,延续,续,持续,蝉联,接着,下去
,,,,,,,,1,
,赓,缵,绍,继续,,,,,
,,,,1,,,,,
,,,,,,,,,
,,,,,,,,,
,,,,,,,,,
,,,,,,,,,
,,,,,,,,,
,,,,,,,,,
,,,,,,,,,
,,,,,,,,,
,,,,,,,,,
,,,,,,,,,
,,,,,,,,,
,,,,,,,,,
,,,,,,,,,
113. floor,,,,,,Somefriends#floor::,,,
"Some friends of Dr. Ghaffar join us for a meal of barbecued fish, rice and pickled vegetables. 
 We sit cross-legged on the floor and drink more black tea. Afterward, music is played and people lock arms and dance in a line, 
men at one end and women at another, jumping in unison and kicking their feet in time to the music.",铺砌,层,最小的,地板,最低的,地面,楼面,楼层,铺
,,,,1,,,,,
,楼,,,,,,,,
,,,,,,,,,
,,,,,,,,,
,,,,,,,,,
,,,,,,,,,
,,,,,,,,,
,,,,,,,,,
,,,,,,,,,
,,,,,,,,,
,,,,,,,,,
,,,,,,,,,
,,,,,,,,,
,,,,,,,,,
,,,,,,,,,
,,,,,,,,,
114. inside,,,,,,Thefriend's#inside::,,,
"The friend's house is certainly that of a rich man; thickset gold picture frames enclose black canvases covered in intricate Persian script, 
thickly woven carpets are laid out across the floor and a huge flat-screen TV sits in the corner, blaring out Kurdish pop music. 
Before stepping further inside, I remind myself that it's not polite to shake hands with women in Iran. 
 As I'm mentally congratulating myself on my cultural sensitivity, the sister of the owner of the house steps forward, 
confidently shakes my hand and invites me to sit on the sofa.",里面,里边,内,里,内部,,,,
,1,1,,1,,,,,
,,,,,,,,,
,,,,,,,,,
,,,,,,,,,
,,,,,,,,,
,,,,,,,,,
,,,,,,,,,
,,,,,,,,,
,,,,,,,,,
,,,,,,,,,
,,,,,,,,,
,,,,,,,,,
,,,,,,,,,
,,,,,,,,,
,,,,,,,,,
,,,,,,,,,
115. sit,,,,,,Beforestepping#sit::,,,
"Before stepping further inside, I remind myself that it's not polite to shake hands with women in Iran. 
 As I'm mentally congratulating myself on my cultural sensitivity, the sister of the owner of the house steps forward, 
confidently shakes my hand and invites me to sit on the sofa.  Huge bowls of sweets and cashew nuts are laid out.",坐,坐在,,,,,,,
,1,,,,,,,,
,,,,,,,,,
,,,,,,,,,
,,,,,,,,,
,,,,,,,,,
,,,,,,,,,
,,,,,,,,,
,,,,,,,,,
,,,,,,,,,
,,,,,,,,,
,,,,,,,,,
,,,,,,,,,
,,,,,,,,,
,,,,,,,,,
,,,,,,,,,
,,,,,,,,,
116. feed,,,,,,Hugebowls#feed::,,,
"Huge bowls of sweets and cashew nuts are laid out. I sit next to the man's eldest daughter who takes out her iPhone and shows me photos on her Instagram feed. 
 Most of the images are of Western fashion models. I ask her why and she says: ""Model is the best job.""",喂,养活,进料,啖,饲料,哺,毓,进刀,哺育
,,,,,,,,,
,哺养,料,放牧,馈送,饲,饲养,食,喂养,
,,,,,,,,,
,资料,,,,,,,,
