0. last,,,,,,Itis#last::,
"It is the highest-grossing animated film of all time and one of Disney's top franchises. 
It was the most downloaded movie from Apple last year, and kids everywhere are still singing the movie's anthem, 
""Let It Go.""  Heck, it's now probably stuck in your own head right now, even if you have never seen the film.",剩余,历时,持续,末,上,最后,延续
,,,,,,,
,底,在大家之后,上个,,,,
,,,1,,,,
,,,,,,,
,,,,,,,
,,,,,,,
,,,,,,,
,,,,,,,
,,,,,,,
,,,,,,,
,,,,,,,
,,,,,,,
,,,,,,,
,,,,,,,
,,,,,,,
,,,,,,,
1. go,,,,,,Itis#go::,
"It is the highest-grossing animated film of all time and one of Disney's top franchises. 
It was the most downloaded movie from Apple last year, and kids everywhere are still singing the movie's anthem, 
""Let It Go.""  Heck, it's now probably stuck in your own head right now, even if you have never seen the film.",进去,诣,从事,前往,离去,行,走
,,,,,,,
,徂,赴,适,游,去,进行,
,,,,,1,,
,,,,,,,
,,,,,,,
,,,,,,,
,,,,,,,
,,,,,,,
,,,,,,,
,,,,,,,
,,,,,,,
,,,,,,,
,,,,,,,
,,,,,,,
,,,,,,,
,,,,,,,
2. find,,,,,,Sowhy#find::,
"So why has the 2013 movie stuck around for so long for the under-5 set?  Experts say it is not just because you can find images of movie's sisters on everything. 
Elsa and Anna are on dresses, on scooters and, just in time for the Easter season, even on jelly beans. 
 To understand the psychology behind ""Frozen"" Mania, CNN reached out to psychologists who are sisters themselves: Yalda Uhls is regional director for Common Sense Media. 
Maryam Kia-Keating is an associate professor of clinical psychology at University of California, Santa Barbara. 
Here is our edited conversation.",发现,找到,检测,搜寻,感到,拾物,薮
,,1,,1,,,
,搜索,偷,发觉,感觉到,,,
,,,,,,,
,,,,,,,
,,,,,,,
,,,,,,,
,,,,,,,
,,,,,,,
,,,,,,,
,,,,,,,
,,,,,,,
,,,,,,,
,,,,,,,
,,,,,,,
,,,,,,,
,,,,,,,
3. even,,,,,,Sowhy#even::,
"So why has the 2013 movie stuck around for so long for the under-5 set?  Experts say it is not just because you can find images of movie's sisters on everything. 
Elsa and Anna are on dresses, on scooters and, just in time for the Easter season, even on jelly beans. 
 To understand the psychology behind ""Frozen"" Mania, CNN reached out to psychologists who are sisters themselves: Yalda Uhls is regional director for Common Sense Media. 
Maryam Kia-Keating is an associate professor of clinical psychology at University of California, Santa Barbara. 
Here is our edited conversation.",匀,双日,偶数,双数,匀实,瀡,齐刷刷
,,,,,,,
,相等,犹,连 ... 也,甚至,甚而,匀净,均
,,,,1,,,
,双,齐截,甚或,连,即使,偶,变平
,,,,,,,
,甚至于,就是,,,,,
,,,,,,,
,,,,,,,
,,,,,,,
,,,,,,,
,,,,,,,
,,,,,,,
,,,,,,,
,,,,,,,
,,,,,,,
,,,,,,,
4. still,,,,,,Highlightingthat#still::,
"Highlighting that and making it feel important -- your sister, your brother, your mom and dad -- is something little kids can really identify with. 
 Maryam Kia-Keating: Kids can really understand the idea of their sister wanting to play with them, and sometimes not, 
but still having a strong family bond.  Ultimately, it's about the love between the sisters. 
That's a message that many little children understand. There are also good lessons about overcoming struggles and facing life challenges. 
But, what's interesting about preschoolers, in particular, is there's this loyalty and unrelenting interest to watch this movie over and over again.",安,侐,宓,仍然,尚,寂静,依然
,,,,1,,,1
,还是,安慰,静止,澶,犹,寂,安生
,,,,,,,
,但,仍,静,还,使 ... 安静,使 ... 放心,依旧
,,,,,,,
,阒,更,恹,但是,,,
,,,,,,,
,,,,,,,
,,,,,,,
,,,,,,,
,,,,,,,
,,,,,,,
,,,,,,,
,,,,,,,
,,,,,,,
,,,,,,,
5. strong,,,,,,Highlightingthat#strong::,
"Highlighting that and making it feel important -- your sister, your brother, your mom and dad -- is something little kids can really identify with. 
 Maryam Kia-Keating: Kids can really understand the idea of their sister wanting to play with them, and sometimes not, 
but still having a strong family bond.  Ultimately, it's about the love between the sisters. 
That's a message that many little children understand. There are also good lessons about overcoming struggles and facing life challenges. 
But, what's interesting about preschoolers, in particular, is there's this loyalty and unrelenting interest to watch this movie over and over again.",健全,疆,很,暋,强大,羌,刚
,,,,,,,
,非常,浓厚,大,有力地,强有力,冲,轰轰烈烈
,,,,,,,
,坚挺,醹,醼,浓的,强硬,强壮,有力
,,,,,,,
,牢靠,坚强,烈,壮大,勍,监,扎实
,,,,,,,
,棒,强固,健,坚,使劲地,仡,强烈
,,1,,,,,
,硬,壮,偲,浓重,霸道,固,酽
,,,,,,,
,烈性,乾,,,,,
,,,,,,,
,,,,,,,
,,,,,,,
,,,,,,,
6. view,,,,,,Kia-Keating:When#view::,
"Kia-Keating: When you're an adult, you've heard a lot of these stories, like ""Snow White"" or ""Cinderella,"" and you forget the power they can have. 
 It's helpful to have a child's point of view on this.  Kids are living in this world where the line between what's real and what's not really is blurry, 
and because they have such vivid imaginations, witches and monsters can feel very real.",见,风光,见解,风貌,目光,览,看
,,,,,,,
,睊,意见,想法,景,意思,主张,视图
,,,,,,,
,看法,图景,望,瞻,论,景色,鉴
,1,,,,,,
,,,,,,,
,,,,,,,
,,,,,,,
,,,,,,,
,,,,,,,
,,,,,,,
,,,,,,,
,,,,,,,
,,,,,,,
,,,,,,,
,,,,,,,
7. real,,,,,,It'shelpful#real::,
"It's helpful to have a child's point of view on this.  Kids are living in this world where the line between what's real and what's not really is blurry, 
and because they have such vivid imaginations, witches and monsters can feel very real.  As adults, 
we may see these villains or monsters as a way to tell a story or a lesson, but when children are in the moment of being scared, 
they are caught up in the fear and not in finding the larger lesson.",非常,真实,确实,实打实,真相,现实,确
,,1,,,,,
,实在,真币,活生生,真正,实际,真,实
,,,,,,1,
,,,,,,,
,,,,,,,
,,,,,,,
,,,,,,,
,,,,,,,
,,,,,,,
,,,,,,,
,,,,,,,
,,,,,,,
,,,,,,,
,,,,,,,
,,,,,,,
,,,,,,,
8. work,,,,,,"Asadults,#work::",
"As adults, we may see these villains or monsters as a way to tell a story or a lesson, 
but when children are in the moment of being scared, they are caught up in the fear and not in finding the larger lesson. 
 Uhls: I used to work in the film industry, and as adults, we're told that we need conflict to drive drama. 
Take Grimm's Fairy Tales; there are always dire stakes. Or movies like ""Bambi"" and ""The Lion King,"" where the mother or father die. 
 These are serious issues and themes, and sometimes little kids aren't ready to process and understand these ideas.",劳方,工,工夫,做事,做工,事,干
,,,,,1,,
,作业,劳,作,工作,活计,办事,劳工
,,,,1,,,
,在职,事务,活,机件,运转,劳动,
,,,,,,,
,,,,,,,
,,,,,,,
,,,,,,,
,,,,,,,
,,,,,,,
,,,,,,,
,,,,,,,
,,,,,,,
,,,,,,,
,,,,,,,
,,,,,,,
9. take,,,,,,"Asadults,#take::",
"As adults, we may see these villains or monsters as a way to tell a story or a lesson, 
but when children are in the moment of being scared, they are caught up in the fear and not in finding the larger lesson. 
 Uhls: I used to work in the film industry, and as adults, we're told that we need conflict to drive drama. 
Take Grimm's Fairy Tales; there are always dire stakes. Or movies like ""Bambi"" and ""The Lion King,"" where the mother or father die. 
 These are serious issues and themes, and sometimes little kids aren't ready to process and understand these ideas.",吃,服,挐,吞,用,当成,搭
,,,,,1,,
,攻克,采取,感染,拏,当,吞服,取
,,,,,,,
,留,摘,进,竦,花费,买,攻下
,,,,,,,
,拿,,,,,,
,1,,,,,,
,,,,,,,
,,,,,,,
,,,,,,,
,,,,,,,
,,,,,,,
,,,,,,,
,,,,,,,
,,,,,,,
,,,,,,,
10. die,,,,,,"Asadults,#die::",
"As adults, we may see these villains or monsters as a way to tell a story or a lesson, 
but when children are in the moment of being scared, they are caught up in the fear and not in finding the larger lesson. 
 Uhls: I used to work in the film industry, and as adults, we're told that we need conflict to drive drama. 
Take Grimm's Fairy Tales; there are always dire stakes. Or movies like ""Bambi"" and ""The Lion King,"" where the mother or father die. 
 These are serious issues and themes, and sometimes little kids aren't ready to process and understand these ideas.",踹腿儿,殁,殂,身故,逝世,逝,长眠
,,,,,1,,
,没,薨,作古,冲模,亡,压模,故
,,,,,,,
,殒命,辞世,卒,漠然,不讳,陨灭,殒灭
,,1,,,,,
,没命,弃世,咽气,气绝,去世,硬模,陨
,,,,,1,,
,呜呼,谢世,殒,死,歾,,
,,,,1,,,
,,,,,,,
,,,,,,,
,,,,,,,
,,,,,,,
,,,,,,,
,,,,,,,
,,,,,,,
11. feel,,,,,,"In""Frozen,""2#feel::",
"In ""Frozen,"" Princess Elsa has these powers to control ice and snow -- and that really captures kids' imaginations. 
When you're small, you don't feel powerful. Everyone is always dictating what you can and cannot do. 
Having a character they can empathize with that has these powers can make them feel more empowered, as well. 
 Kia-Keating: That magical piece is exciting and is one of the things that really sets this movie apart from others.",知觉,觉察,触摸,摸索,觉得,感到,觉
,,,,,,1,
,挲,认为,意会,感觉,摸,触觉,感觉到
,,,,,,,
,作,感,,,,,
,,,,,,,
,,,,,,,
,,,,,,,
,,,,,,,
,,,,,,,
,,,,,,,
,,,,,,,
,,,,,,,
,,,,,,,
,,,,,,,
,,,,,,,
,,,,,,,
12. control,,,,,,Parentsare#control::,
"Parents are constantly trying to teach their little ones how to self-regulate their emotions, how to behave, how to sit down. 
Elsa is constantly trying to tame or control her emotions -- and while this is something that is salient to everyone throughout their lifetimes, 
this is something preschoolers deal with all the time.   CNN: The song ""Let It Go"": It's everywhere, 
and kids can't stop singing it. What is it about this anthem?",羁,控制,经纪,掌管,按,律,辖
,,1,,,,,
,操纵,驾驭,管制,把持,管,按捺,控
,,,,,,,
,管理的,节制,治,独揽,压,优越,抑制
,,,,,,,
,秉,控制的,监督,筦,统制,调度,监察
,,,,,,,
,治理,司,扼,懿,,,
,,,,,,,
,压抑,,,,,,
,,,,,,,
,,,,,,,
,,,,,,,
,,,,,,,
,,,,,,,
,,,,,,,
13. time,,,,,,Parentsare#time::,
"Parents are constantly trying to teach their little ones how to self-regulate their emotions, how to behave, how to sit down. 
Elsa is constantly trying to tame or control her emotions -- and while this is something that is salient to everyone throughout their lifetimes, 
this is something preschoolers deal with all the time.   CNN: The song ""Let It Go"": It's everywhere, 
and kids can't stop singing it. What is it about this anthem?",倍,年华,时间,候,趟,年份,度
,,,,,,,
,光阴,辰,期,安排正在,工夫,遍,秋
,,,,,,,
,拍,时刻,季节,年头,期间,拍子,时
,,,,,,,
,时候,,,,,,
,1,,,,,,
,,,,,,,
,,,,,,,
,,,,,,,
,,,,,,,
,,,,,,,
,,,,,,,
,,,,,,,
,,,,,,,
,,,,,,,
14. record,,,,,,Noone#record::,
"No one suggests the rapper ever actually pulled a trigger.  In fact, Duncan may rap about violence but he's got no criminal record. 
 Duncan told CNN's Don Lemon he's just ""painting a picture of urban street life"" with his lyrics.",履历,唱片,纪,档案,纪录,识,案卷
,,,,,,,
,记,簿籍,记录,案,籍,录音,录
,,,1,,,,
,志,注,笔录,创纪录的,记载,收录,鋕
,,,,,,,
,登,,,,,,
,,,,,,,
,,,,,,,
,,,,,,,
,,,,,,,
,,,,,,,
,,,,,,,
,,,,,,,
,,,,,,,
,,,,,,,
,,,,,,,
15. picture,,,,,,"Infact,#picture::",
"In fact, Duncan may rap about violence but he's got no criminal record.  Duncan told CNN's Don Lemon he's just ""painting a picture of urban street life"" with his lyrics. 
 ""The studio is my canvas. I'm just painting a picture,"" he said. ""I'm not telling anybody to go out and kill somebody.""",影,图画,帧,描述,画儿,照片,想得到
,,1,,,,,
,影片,图像,相,画,图片,意想,想象
,,,,,,,
,图,,,,,,
,,,,,,,
,,,,,,,
,,,,,,,
,,,,,,,
,,,,,,,
,,,,,,,
,,,,,,,
,,,,,,,
,,,,,,,
,,,,,,,
,,,,,,,
,,,,,,,
16. just,,,,,,Duncantold#just::,
"Duncan told CNN's Don Lemon he's just ""painting a picture of urban street life"" with his lyrics.  ""The studio is my canvas. 
I'm just painting a picture,"" he said. ""I'm not telling anybody to go out and kill somebody."" He denied any involvement with any gang but said the prosecution has him concerned about future creative expression.",合乎正道的,只是,刚,只不过,恰恰,公正,甫
,,1,,,,,
,刚好,公平,光是,方,允,顷,义
,,,,,,,
,聊,才,干脆,刚刚,合理的,正,止
,,,,,,,
,只,公,恰,直,简直,啻,
,,,,,,,
,,,,,,,
,,,,,,,
,,,,,,,
,,,,,,,
,,,,,,,
,,,,,,,
,,,,,,,
,,,,,,,
,,,,,,,
17. go,,,,,,Duncantold#go::,
"Duncan told CNN's Don Lemon he's just ""painting a picture of urban street life"" with his lyrics.  ""The studio is my canvas. 
I'm just painting a picture,"" he said. ""I'm not telling anybody to go out and kill somebody."" He denied any involvement with any gang but said the prosecution has him concerned about future creative expression.",进去,诣,从事,前往,离去,行,走
,,,,,,,
,徂,赴,适,游,去,进行,
,,,,,1,,
,,,,,,,
,,,,,,,
,,,,,,,
,,,,,,,
,,,,,,,
,,,,,,,
,,,,,,,
,,,,,,,
,,,,,,,
,,,,,,,
,,,,,,,
,,,,,,,
,,,,,,,
18. continue,,,,,,Hedenied#continue::,
"He denied any involvement with any gang but said the prosecution has him concerned about future creative expression. 
 ""I would love to continue to rap,"" he said. ""But these people have you scared to do anything around here."" Prosecutors say lyrics aren't the only evidence they have. 
At Duncan's preliminary hearing, they presented social media posts that they say prove Duncan is still a gang member.",接续,连任,继,延续,续,持续,蝉联
,1,,,,,,
,接着,下去,赓,缵,绍,继续,
,,,,,,,
,,,,,,,
,,,,,,,
,,,,,,,
,,,,,,,
,,,,,,,
,,,,,,,
,,,,,,,
,,,,,,,
,,,,,,,
,,,,,,,
,,,,,,,
,,,,,,,
,,,,,,,
19. run,,,,,,CNNLegal#run::,
"CNN Legal Analyst Mark Geragos says the district attorney may be trying to send a message ""that you shouldn't glorify or glamorize gang activity.""  ""The problem is you're going to run straight head-on into the First  Amendment,"" he said. 
""If they don't have anything other than the album, this case I don't think would ever stand up.""",浇铸的,开,路程,理,经营,奔走,辖
,,,,,,,
,办,管,颠,营,举办,管理,奔跑
,,,,,,,
,执行,运行,走向,跑,跑步,泝,走
,,,,1,,,
,熔化的,,,,,,
,,,,,,,
,,,,,,,
,,,,,,,
,,,,,,,
,,,,,,,
,,,,,,,
,,,,,,,
,,,,,,,
,,,,,,,
,,,,,,,
20. first,,,,,,CNNLegal#first::,
"CNN Legal Analyst Mark Geragos says the district attorney may be trying to send a message ""that you shouldn't glorify or glamorize gang activity.""  ""The problem is you're going to run straight head-on into the First  Amendment,"" he said. 
""If they don't have anything other than the album, this case I don't think would ever stand up.""",第一,首先,上,第一位,首要的,首,初
,1,,,,,,
,起点,最初,一次,第一个,第一次,甲,头
,,,,,,,
,上个,开始,憖,元,先,最先,乍
,,,,,,,
,原始,首次,一日,开端,,,
,,,,,,,
,,,,,,,
,,,,,,,
,,,,,,,
,,,,,,,
,,,,,,,
,,,,,,,
,,,,,,,
,,,,,,,
,,,,,,,
21. case,,,,,,CNNLegal#case::,
"CNN Legal Analyst Mark Geragos says the district attorney may be trying to send a message ""that you shouldn't glorify or glamorize gang activity.""  ""The problem is you're going to run straight head-on into the First  Amendment,"" he said. 
""If they don't have anything other than the album, this case I don't think would ever stand up.""",箱子,机身,例,事件,套子,椟,案情
,,,,,,,
,例证,盒子,诉讼,案件,外壳,景况,案子
,1,,,,,,
,框,壳体,案,匣,盒,套,机壳
,,,,,,,
,套管,事例,格,壳,例子,匣子,函
,,,,,,,
,,,,,,,
,,,,,,,
,,,,,,,
,,,,,,,
,,,,,,,
,,,,,,,
,,,,,,,
,,,,,,,
,,,,,,,
22. state,,,,,,"Sincethen,#state::",
"Since then, millions of high school and college grads have heard the same zealous affirmation, 
a not-so-gentle reminder to live up to their potential -- ""KID, YOU'LL MOVE MOUNTAINS!"" -- mixed with warnings about loneliness and uncertainty. 
 It's a children's book, as most Dr. Seuss books are, but its messages have resonated through a quarter-century because adults love it too, 
said Philip Nel, director of the program in children's literature at Kansas State University. 
Children's books ""possess an enormous amount of wisdom for the adults mature enough to recognize it,"" he said.",态,表示,述,境界,国度,状况,候
,,,,,,,
,国家的,称述,邦,陈述,申述,硬说,陈说
,1,,,,,,
,发言,申,状,国有的,国营的,摅,诉
,,,,,,,
,陈,声称,申明,发表,声明,州,拥
,,,,,,,
,胪,诉说,公家,称,国立的,述説,国
,,,,,,,
,局势,态势,,,,,
,,,,,,,
,,,,,,,
,,,,,,,
,,,,,,,
,,,,,,,
,,,,,,,
23. book,,,,,,Hereare#book::,
"Here are a few facts about ""Oh, The Places You'll Go!"" and its legacy. Dr. Seuss knew it would be the last book he published Geisel was writing and illustrating ""Oh, 
The Places You'll Go!"" in the final years of his life, as he battled cancer. Other Seuss books have emerged since his death in 1991, 
but this was the last he had a hand in.",定,册子,书,卷,籍,册,簿子
,,,1,,,,
,著,本子,编,著作,书本,簿,
,,,,,,,
,,,,,,,
,,,,,,,
,,,,,,,
,,,,,,,
,,,,,,,
,,,,,,,
,,,,,,,
,,,,,,,
,,,,,,,
,,,,,,,
,,,,,,,
,,,,,,,
,,,,,,,
24. first,,,,,,Thoughit2#first::,
"Though it presents plenty of Seussian optimism -- ""And will you succeed? Yes! You will, 
indeed! (98 and 3/4 percent guaranteed.)"" -- it references dark times and stumbles: ""I'm afraid that some times you'll play lonely games too. 
Games you can't win 'cause you'll play against you."" Geisel wrote from experience. After a successful career in advertising, 
his first book, ""And to Think That I Saw It on Mulberry Street,"" was famously rejected multiple times. 
Some projects in print and on screen simply never took off. In his personal life, 
he faced illness and the suicide of his first wife. ""The darkness of the book is what makes the optimism credible,"" Nel said.",第一,首先,上,第一位,首要的,首,初
,,,,,,,
,起点,最初,一次,第一个,第一次,甲,头
,,,,1,,,
,上个,开始,憖,元,先,最先,乍
,,,,,,,
,原始,首次,一日,开端,,,
,,,,,,,
,,,,,,,
,,,,,,,
,,,,,,,
,,,,,,,
,,,,,,,
,,,,,,,
,,,,,,,
,,,,,,,
,,,,,,,
25. life,,,,,,Thoughit#life::,
"Though it presents plenty of Seussian optimism -- ""And will you succeed? Yes! You will, 
indeed! (98 and 3/4 percent guaranteed.)"" -- it references dark times and stumbles: ""I'm afraid that some times you'll play lonely games too. 
Games you can't win 'cause you'll play against you."" Geisel wrote from experience. After a successful career in advertising, 
his first book, ""And to Think That I Saw It on Mulberry Street,"" was famously rejected multiple times. 
Some projects in print and on screen simply never took off. In his personal life, 
he faced illness and the suicide of his first wife. ""The darkness of the book is what makes the optimism credible,"" Nel said.",生命,春,生机,身,寿命,活命,世面
,,,,,,,
,性命,人生,寿,生物,世,生活,命
,,1,,,,,
,日子,生,,,,,
,,,,,,,
,,,,,,,
,,,,,,,
,,,,,,,
,,,,,,,
,,,,,,,
,,,,,,,
,,,,,,,
,,,,,,,
,,,,,,,
,,,,,,,
,,,,,,,
26. book,,,,,,Geiselwrote#book::,
"Geisel wrote from experience. After a successful career in advertising, his first book, 
""And to Think That I Saw It on Mulberry Street,"" was famously rejected multiple times. 
Some projects in print and on screen simply never took off. In his personal life, 
he faced illness and the suicide of his first wife. ""The darkness of the book is what makes the optimism credible,"" Nel said. 
Geisel was known to be shy but would be ""tickled"" to know that his words still have meaning now, said Susan Brandt, 
president of licensing and marketing at Dr. Seuss Enterprises. He was deliberate about what his last words to the world would be.",定,册子,书,卷,籍,册,簿子
,,,1,,,,
,著,本子,编,著作,书本,簿,
,,,,,,,
,,,,,,,
,,,,,,,
,,,,,,,
,,,,,,,
,,,,,,,
,,,,,,,
,,,,,,,
,,,,,,,
,,,,,,,
,,,,,,,
,,,,,,,
,,,,,,,
,,,,,,,
27. character,,,,,,Themain#character::,
"The main character is You -- and you, and you, and you Passages in ""The Cat in the Hat"" and ""The Lorax"" both slip into the second-person to make a point to readers, 
but Geisel made the main character of ""Oh, The Places You'll Go!"" a person called You, who conveniently happens to be, well, you. 
""That makes the book about the reader and puts the reader in the position of the character,"" Nel said. ""It's a motivator. 
See yourself as the character; take action.""",文字,字符,人,人物,文,言,品质
,,,,1,,,
,性格,心地,性,臧否,八字,字,个性
,,,,,,,
,性格的,意向,性质,,,,
,,,,,,,
,,,,,,,
,,,,,,,
,,,,,,,
,,,,,,,
,,,,,,,
,,,,,,,
,,,,,,,
,,,,,,,
,,,,,,,
,,,,,,,
,,,,,,,
28. action,,,,,,Passagesin#action::,
"Passages in ""The Cat in the Hat"" and ""The Lorax"" both slip into the second-person to make a point to readers, 
but Geisel made the main character of ""Oh, The Places You'll Go!"" a person called You, who conveniently happens to be, well, you. 
""That makes the book about the reader and puts the reader in the position of the character,"" Nel said. ""It's a motivator. 
See yourself as the character; take action."" Dr. Seuss had already been a major player in children's literature for decades, 
but this was an early entry into a burgeoning category: children's stories that appeal to adults, 
Loehr said.",议案,行径,动作,作为,行动,行为,作用
,,,,,1,,
,,,,,,,
,,,,,,,
,,,,,,,
,,,,,,,
,,,,,,,
,,,,,,,
,,,,,,,
,,,,,,,
,,,,,,,
,,,,,,,
,,,,,,,
,,,,,,,
,,,,,,,
,,,,,,,
,,,,,,,
29. book,,,,,,Dr.Seuss2#book::,
"Dr. Seuss had already been a major player in children's literature for decades, but this was an early entry into a burgeoning category: children's stories that appeal to adults, 
Loehr said. ""This is almost a self-help book. People forget that it has pages that really acknowledge that things will be tough some times,"" she said. 
""Sit down; read this book. It will be OK."" As Geisel himself put it, ""I never write for children. 
I write for people.""",定,册子,书,卷,籍,册,簿子
,,1,,,,,
,著,本子,编,著作,书本,簿,
,,,,,,,
,,,,,,,
,,,,,,,
,,,,,,,
,,,,,,,
,,,,,,,
,,,,,,,
,,,,,,,
,,,,,,,
,,,,,,,
,,,,,,,
,,,,,,,
,,,,,,,
,,,,,,,
30. go,,,,,,AsGeisel#go::,
"As Geisel himself put it, ""I never write for children. I write for people.""  The number of ""Places You'll Go"" is growing What started as a beloved graduation gift has spread into sort of an all-purpose greeting card, 
shared with a personal inscriptions during any period of transition, from baby showers to big moves. This month, 
Random House will publish a 25th anniversary edition of ""Oh! The Places You'll Go!"" This year, 
it will release a baby-fied version, ""Oh, Baby, the Places You'll Go!"" and a full-color journal filled with quotes from the book.",进去,诣,从事,前往,离去,行,走
,,,,,,,
,徂,赴,适,游,去,进行,
,,,,,1,,
,,,,,,,
,,,,,,,
,,,,,,,
,,,,,,,
,,,,,,,
,,,,,,,
,,,,,,,
,,,,,,,
,,,,,,,
,,,,,,,
,,,,,,,
,,,,,,,
,,,,,,,
31. slide,,,,,,Unitedhas#slide::,
"United has been below par on the pitch in recent times, under former manager David Moyes and his successor Louis van Gaal, 
but figures show an 83% growth in commercial revenue over the last three years. That said, 
United is expected to slide in next year's Money League having missed out on Champions League revenues in this current season. 
Of the clubs on the list only United's ""noisy neighbors"" Manchester City -- as Alex Ferguson once described them -- enjoyed a greater spike in year-on-year revenue, 
with a $114 million rise from 2012-13 to cement their place in sixth on the list.",滑道,闸阀,滑落,滑行,滑,闸板,滑动
,,,1,,,,
,溜,,,,,,
,,,,,,,
,,,,,,,
,,,,,,,
,,,,,,,
,,,,,,,
,,,,,,,
,,,,,,,
,,,,,,,
,,,,,,,
,,,,,,,
,,,,,,,
,,,,,,,
,,,,,,,
,,,,,,,
32. pitch,,,,,,Ofthe#pitch::,
"Of the clubs on the list only United's ""noisy neighbors"" Manchester City -- as Alex Ferguson once described them -- enjoyed a greater spike in year-on-year revenue, 
with a $114 million rise from 2012-13 to cement their place in sixth on the list. 
""The growth experienced within the top 20 has been remarkable,"" said Dan Jones, partner in the Sports Business Group at Deloitte. 
""Commercial and broadcast revenues are now more important than ever to clubs to enable them to compete financially and put the best talent on the pitch. 
""This has led to further dominance from the 'big five' European leagues  -- England, Germany, Spain, 
Italy and France -- this year, with just Turkey's Galatasaray making it in from outside of those countries.",议案,音高,野营,周节,投,腔,足球场
,,,,,,,
,音调,沥青,,,,,
,,,,,,,
,间距,,,,,,
,,,,,,,
,,,,,,,
,,,,,,,
,,,,,,,
,,,,,,,
,,,,,,,
,,,,,,,
,,,,,,,
,,,,,,,
,,,,,,,
,,,,,,,
,,,,,,,
33. second,,,,,,"""Theclub's#second::",
"""The club's continued success on the field is complemented by its financial strength and their accomplishment emphasizes their position as the most successful European club side of all time. 
However, their commercial supremacy is being challenged by Manchester United among others."" Barcelona's revenue plateaued last year, 
seeing them drop from second spot behind arch-rival Real to fourth below Manchester United and Bayern. 
Paris Saint-Germain completes the top five while Juventus, in 10th, is the only side from Italy's Serie A to make the top 10, 
with Premier League sides Chelsea, Arsenal and Liverpool rounding off the top clubs in seventh, 
eighth and ninth respectively in revenue terms.",其次,倅,拥护,第二,再,支持,秒
,,,,1,,,
,乙,第二次,亚,伯仲叔季,,,
,,,,,,,
,,,,,,,
,,,,,,,
,,,,,,,
,,,,,,,
,,,,,,,
,,,,,,,
,,,,,,,
,,,,,,,
,,,,,,,
,,,,,,,
,,,,,,,
,,,,,,,
,,,,,,,
34. good,,,,,,Butdid#good::,
"But did all the tennis last year cost Federer -- and his 33-year-old body -- at the Australian Open this year?  Was it a hand injury that he sustained earlier this week? Or was his opponent simply too good? No matter what the potential reasons, 
the end result is that Federer will have to wait for a record-extending 18th grand slam title after he lost to Andreas Seppi 6-4 7-6 (5) 4-6 7-6 (5) in the third round in Melbourne on Friday.",善,嘉,美,合乎正道的,爽口,颛,优良
,,,,,,,
,良好,不赖,合适的,和蔼的,和蔼可亲的,要得,乖
,,,,,,,
,益处,善良,甜头,姤,臧,和善的,好
,,,,,,,1
,良,佳,拿手,嫽,赢余,,
,,,,,,,
,,,,,,,
,,,,,,,
,,,,,,,
,,,,,,,
,,,,,,,
,,,,,,,
,,,,,,,
,,,,,,,
,,,,,,,
35. lose,,,,,,Heled#lose::,
"He led 3-1 only to double fault at 3-2. Then leading 5-4, Federer made a costly backhand unforced error. 
Federer rued missed opportunities in the second set tiebreak, too, when Seppi was there for the taking. 
 ""It just broke me to lose that second set,"" Federer told reporters. ""And actually the fourth, I should win it, too. 
Just a brutal couple of sets to lose there."" Seppi completed the upset in stunning fashion, 
scrambling before hitting an instinctive forehand passing shot winner down the line.",少,丢,败,丧,丧失,蚀,掉
,,,,,,,
,失去,失落,损失,失,失掉,输,丢失
,1,,,,,,
,遗,耗损,折,损,负,,
,,,,,,,
,,,,,,,
,,,,,,,
,,,,,,,
,,,,,,,
,,,,,,,
,,,,,,,
,,,,,,,
,,,,,,,
,,,,,,,
,,,,,,,
,,,,,,,
36. round,,,,,,Federerlost#round::,
"Federer lost a set in the second round to Seppi's fellow Italian, Simone Bolelli. 
He -- and this is rare for Federer -- called for the trainer to address an issue with his hand. 
Federer thought he might have been stung by a bee.  He didn't mention the hand or any other physical issue in his briefing with reporters.",巡,籀,环行,拐弯,圆,球形,围绕
,,,,,,,
,周围,轮,回合,丰满,团,轮唱,附近
,,1,,,,,
,圜,范围,,,,,
,,,,,,,
,,,,,,,
,,,,,,,
,,,,,,,
,,,,,,,
,,,,,,,
,,,,,,,
,,,,,,,
,,,,,,,
,,,,,,,
,,,,,,,
,,,,,,,
37. short,,,,,,Hedidn't#short::,
"He didn't mention the hand or any other physical issue in his briefing with reporters. 
 Federer also defended his decision to play exhibition matches in India in December during tennis' notoriously short off-season. 
 ""I wanted to go to India,"" said Federer. ""I wanted to go back to Switzerland for Christmas. 
I practiced as hard as I possibly could.",局促,简要,酥,简略,短暂,酥脆,短
,,,,,1,,
,矬,急促,矮,俴,不足,短裤,傥
,,,,,,,
,不够,简短,遽,轾,短缺,,
,,,,,,,
,,,,,,,
,,,,,,,
,,,,,,,
,,,,,,,
,,,,,,,
,,,,,,,
,,,,,,,
,,,,,,,
,,,,,,,
,,,,,,,
,,,,,,,
38. back,,,,,,Federeralso#back::,
"Federer also defended his decision to play exhibition matches in India in December during tennis' notoriously short off-season. 
 ""I wanted to go to India,"" said Federer. ""I wanted to go back to Switzerland for Christmas. 
I practiced as hard as I possibly could.  ""Can't do more than that. Sure, the year ended late, but one week later than normal. 
At the end of the day, honestly I'm confident that what I did was the right thing.""",后部,以前,后身,背面,襄,腰杆子,腰
,,1,,,,,
,后面,脊,后的,支持,后,脊背,后边
,,,,,,,
,后部的,冀,翊,赌钱,后面的,后边的,向后
,,,,,,,
,,,,,,,
,,,,,,,
,,,,,,,
,,,,,,,
,,,,,,,
,,,,,,,
,,,,,,,
,,,,,,,
,,,,,,,
,,,,,,,
,,,,,,,
39. sure,,,,,,"""Iwanted#sure::",
"""I wanted to go to India,"" said Federer. ""I wanted to go back to Switzerland for Christmas. 
I practiced as hard as I possibly could.  ""Can't do more than that. Sure, the year ended late, but one week later than normal. 
At the end of the day, honestly I'm confident that what I did was the right thing."" Federer's exit means Murray's path to the semifinals has become significantly easier. 
The two-time grand slam champion and Federer were, on paper, due to meet in the quarterfinals.",准儿,稳,确切,当然,肯定,,
,,,,1,,,
,,,,,,,
,,,,,,,
,,,,,,,
,,,,,,,
,,,,,,,
,,,,,,,
,,,,,,,
,,,,,,,
,,,,,,,
,,,,,,,
,,,,,,,
,,,,,,,
,,,,,,,
,,,,,,,
,,,,,,,
40. back,,,,,,@edsmithwriterSouth#back::,
"@edsmithwriter South Korea's cricket switch: http://t.co/qTlIhSRnJt ""Having moved back and forth between the two sports myself, 
I know the potential these guys have for success in T20 cricket,"" says Fountain. ""I was the first to introduce baseball fieldin",后部,以前,后身,背面,襄,腰杆子,腰
,,,,,,,
,后面,脊,后的,支持,后,脊背,后边
,,,,,1,,
,后部的,冀,翊,赌钱,后面的,后边的,向后
,,,,,,,
,,,,,,,
,,,,,,,
,,,,,,,
,,,,,,,
,,,,,,,
,,,,,,,
,,,,,,,
,,,,,,,
,,,,,,,
,,,,,,,
,,,,,,,
41. even,,,,,,"""Iwas#even::",
"""I was the first to introduce baseball fielding techniques to international cricket, 
because a major league outfielder will out-throw a professional cricketer every time. 
This is a sport that Americans can do well at."" Minor leaguer Boomer Collins has been chasing the dream of the big leagues since he was a boy. 
His looks, his build, the way he talks and even his name are as near to the definition of an American ballplayer as you're going to get. 
But beyond the square jaw and the all-state honors as both outfielder and quarterback, 
there's one thing that makes him different to every other guy out there on the diamond.",匀,双日,偶数,双数,匀实,瀡,齐刷刷
,,,,,,,
,相等,犹,连 ... 也,甚至,甚而,匀净,均
,,,,1,,,
,双,齐截,甚或,连,即使,偶,变平
,,,,,,,
,甚至于,就是,,,,,
,,,,,,,
,,,,,,,
,,,,,,,
,,,,,,,
,,,,,,,
,,,,,,,
,,,,,,,
,,,,,,,
,,,,,,,
,,,,,,,
42. blue,,,,,,ThomasCollins#blue::,
"Thomas Collins III got the nickname ""Boomer"" thanks to the tornado crashing past the Texas hospital where he was born in June 1989. 
A couple of decades later and his .374 batting average, with 13 home runs in 60 junior-year games at Dallas Baptist, 
saw him eventually signed by the Blue Jays. His story since then is depressingly similar to thousands like him, 
becalmed in the minor leagues on a poverty-line salary of $1,200 a month.",沮丧的,郁,碧,沧,蓝色,青色,郁郁
,,,,,1,,
,青,郁闷,变蓝,变青,过份正经,蓝,
,,,,,,,
,,,,,,,
,,,,,,,
,,,,,,,
,,,,,,,
,,,,,,,
,,,,,,,
,,,,,,,
,,,,,,,
,,,,,,,
,,,,,,,
,,,,,,,
,,,,,,,
,,,,,,,
43. first,,,,,,"""I'malways#first::",
"""I'm always an optimist. I'm 25 years old. This year will probably prove a lot. I want to make the big leagues and I'm going to work my butt off until it happens or doesn't happen,"" Collins said in his break between working an eight-hour milk delivery shift and a full afternoon of offseason training. 
Collins is one of the first signups to Switch Hit 20, and talks with surprising enthusiasm about a sport he has only seen on YouTube links sent to him by Fountain. 
Cricket's revolution 11 years ago into Twenty20 or T20 -- with games taking three hours instead of five days -- has seen sleepy spectators replaced with raucous crowds, 
batters swinging for the fences instead of blocking balls, cheerleaders on the sidelines, 
and the creation of new competitions.",第一,首先,上,第一位,首要的,首,初
,,,,,,,
,起点,最初,一次,第一个,第一次,甲,头
,,,,1,,,
,上个,开始,憖,元,先,最先,乍
,,,,,,,
,原始,首次,一日,开端,,,
,,,,,,,
,,,,,,,
,,,,,,,
,,,,,,,
,,,,,,,
,,,,,,,
,,,,,,,
,,,,,,,
,,,,,,,
,,,,,,,
44. know,,,,,,"""Alot#know::",
"""A lot of us guys in the minor leagues have to take the decision -- are my legs going to hold up, or my bank account, 
and which is going to go first?"" Dean says. ""In my case it'll be the bank account, 
because I know that otherwise I'll never be ready to finish playing ball. ""I've talked to my girlfriend about the cricket thing. 
We'd go through about five or 10 minutes thinking how amazing it would be, traveling the world playing sport. Then it would be, 
'What the hell am I saying?' It's ping-pong in my brain.""",审,懂,知,认,了,认识,识
,,,,,,,
,晓得,明,悉,晓,懂得,谂,知悉
,,,,,,,
,通,知道,,,,,
,,1,,,,,
,,,,,,,
,,,,,,,
,,,,,,,
,,,,,,,
,,,,,,,
,,,,,,,
,,,,,,,
,,,,,,,
,,,,,,,
,,,,,,,
,,,,,,,
45. see,,,,,,"ForFountain,#see::",
"For Fountain, the endgame goes beyond getting his players a T20 contract. ""I want to inject enough talent into USA cricket, 
to see it bounce back up the rankings. I want to coach a USA team at a World Cup."" A team already exists, 
but he believes replacing its largely ex-pat spine with American baseball talent is the only way it can join the elite.",见,看见,见面,瞅,高桌,应付,询
,,1,,,,,
,览,看,瞅见,觏,看望,看到,瞧见
,,,,,,,
,睹,看出,会,领会,供桌,,
,,,,,,,
,,,,,,,
,,,,,,,
,,,,,,,
,,,,,,,
,,,,,,,
,,,,,,,
,,,,,,,
,,,,,,,
,,,,,,,
,,,,,,,
,,,,,,,
46. back,,,,,,Ateam#back::,
"A team already exists, but he believes replacing its largely ex-pat spine with American baseball talent is the only way it can join the elite. 
""Wearing a jersey with the flag on the front and your name on the back is huge for any American,"" says Dean. 
But Fountain has also let his early sign ups know that there are a few things to iron out before he can start printing jerseys. 
""I'm aiming for tryouts in the spring, so the guys who are already with teams, or trying out for teams can also come and try out for me,"" says Fountain.",后部,以前,后身,背面,襄,腰杆子,腰
,,,,1,,,
,后面,脊,后的,支持,后,脊背,后边
,,,,,,,
,后部的,冀,翊,赌钱,后面的,后边的,向后
,,,,,,,
,,,,,,,
,,,,,,,
,,,,,,,
,,,,,,,
,,,,,,,
,,,,,,,
,,,,,,,
,,,,,,,
,,,,,,,
,,,,,,,
,,,,,,,
47. like,,,,,,"""I'maiming#like::",
"""I'm aiming for tryouts in the spring, so the guys who are already with teams, or trying out for teams can also come and try out for me,"" says Fountain. 
""Sponsorship is crucial. We're in talks with some interested parties but even if companies like Greyhound can lay on some tickets to get these players to the tryout, 
that would help. ""I've wanted to do this for years -- I talked to some TV companies about a reality TV show back in 2010 and I hope it could still be a part of it.""",好比,好像,若,喜爱,如同,待见,喜好
,,,,,,,
,爱好,同,似,爱,好以,比如,喜欢
,,,,,,1,
,一样,相似,看上,类,好,喜,不啻
,,,,,,,
,,,,,,,
,,,,,,,
,,,,,,,
,,,,,,,
,,,,,,,
,,,,,,,
,,,,,,,
,,,,,,,
,,,,,,,
,,,,,,,
,,,,,,,
48. get,,,,,,"""I'maiming#get::",
"""I'm aiming for tryouts in the spring, so the guys who are already with teams, or trying out for teams can also come and try out for me,"" says Fountain. 
""Sponsorship is crucial. We're in talks with some interested parties but even if companies like Greyhound can lay on some tickets to get these players to the tryout, 
that would help. ""I've wanted to do this for years -- I talked to some TV companies about a reality TV show back in 2010 and I hope it could still be a part of it.""",收到,弄,将,领,取,获得,搜罗
,1,,,,,,
,受到,得,得到,博,搞,,
,,,,,,,
,,,,,,,
,,,,,,,
,,,,,,,
,,,,,,,
,,,,,,,
,,,,,,,
,,,,,,,
,,,,,,,
,,,,,,,
,,,,,,,
,,,,,,,
,,,,,,,
,,,,,,,
49. help,,,,,,"""I'maiming#help::",
"""I'm aiming for tryouts in the spring, so the guys who are already with teams, or trying out for teams can also come and try out for me,"" says Fountain. 
""Sponsorship is crucial. We're in talks with some interested parties but even if companies like Greyhound can lay on some tickets to get these players to the tryout, 
that would help. ""I've wanted to do this for years -- I talked to some TV companies about a reality TV show back in 2010 and I hope it could still be a part of it.""",协助,搭手,赈济,促成,佑,襄,帮助
,1,,,,,,
,宥,补益,助,帮,嬴,扶助,支援
,,,,,,,
,弼,救援,赈,翊,救,协,济
,,,,,,,
,促进,帮忙,补,成全,援助,扶持,赢
,,,,,,,
,辅助,臂助,援,扶,输将,帮扶,
,,,,,,,
,,,,,,,
,,,,,,,
,,,,,,,
,,,,,,,
,,,,,,,
,,,,,,,
,,,,,,,
50. blue,,,,,,"""I'vewanted#blue::",
"""I've wanted to do this for years -- I talked to some TV companies about a reality TV show back in 2010 and I hope it could still be a part of it."" Brenden Kalfus, 
23, was another earning in the region of $14,000 a year with a Blue Jays affiliate before they let him go this past season. 
""I think if we all started playing cricket, I don't think the expectation would be that we're going to be stars and make millions,"" he says. 
""It would just be great to be the first to bring it out to America. Then see where it goes after that.""",沮丧的,郁,碧,沧,蓝色,青色,郁郁
,,,,,1,,
,青,郁闷,变蓝,变青,过份正经,蓝,
,,,,,,,
,,,,,,,
,,,,,,,
,,,,,,,
,,,,,,,
,,,,,,,
,,,,,,,
,,,,,,,
,,,,,,,
,,,,,,,
,,,,,,,
,,,,,,,
,,,,,,,
,,,,,,,
51. think,,,,,,"BrendenKalfus,#think::",
"Brenden Kalfus, 23, was another earning in the region of $14,000 a year with a Blue Jays affiliate before they let him go this past season. 
""I think if we all started playing cricket, I don't think the expectation would be that we're going to be stars and make millions,"" he says. 
""It would just be great to be the first to bring it out to America. Then see where it goes after that."" If the project stalls, 
Boomer Collins is prepared to go it alone.",怀,思考,看,意,设法,预期,算
,,1,,,,,
,预料,揣想,想得到,考虑,思,意想,想到
,,,,,,,
,溯,思索,打量,忆,当,认为,以为
,,,,,,,
,关心,料想,想起,道,想,念,怀念
,,,,,,,
,想象,臆断,,,,,
,,,,,,,
,,,,,,,
,,,,,,,
,,,,,,,
,,,,,,,
,,,,,,,
,,,,,,,
,,,,,,,
52. see,,,,,,"BrendenKalfus,#see::",
"Brenden Kalfus, 23, was another earning in the region of $14,000 a year with a Blue Jays affiliate before they let him go this past season. 
""I think if we all started playing cricket, I don't think the expectation would be that we're going to be stars and make millions,"" he says. 
""It would just be great to be the first to bring it out to America. Then see where it goes after that."" If the project stalls, 
Boomer Collins is prepared to go it alone.",见,看见,见面,瞅,高桌,应付,询
,,1,,,,,
,览,看,瞅见,觏,看望,看到,瞧见
,,,,,,,
,睹,看出,会,领会,供桌,,
,,,,,,,
,,,,,,,
,,,,,,,
,,,,,,,
,,,,,,,
,,,,,,,
,,,,,,,
,,,,,,,
,,,,,,,
,,,,,,,
,,,,,,,
,,,,,,,
53. go,,,,,,"""Thewhole#go::",
"""The whole thing with me is that whatever happens, I still want to go overseas and try because I have got that excitement so high,"" he says. 
""I still want to go and train with Julien to try it out myself. If we can work out a living situation with food, 
I would do it in a heartbeat. I don't have to have some sort of income, just as long as me and my wife have food and a place to stay. 
""I know that I'm not going to be the best in the world in the first five years of playing the sport. 
But I'm also never going to go in and say, 'I'll just be OK.'",进去,诣,从事,前往,离去,行,走
,,,,,,,
,徂,赴,适,游,去,进行,
,,,,,1,,
,,,,,,,
,,,,,,,
,,,,,,,
,,,,,,,
,,,,,,,
,,,,,,,
,,,,,,,
,,,,,,,
,,,,,,,
,,,,,,,
,,,,,,,
,,,,,,,
,,,,,,,
54. train,,,,,,"""Thewhole#train::",
"""The whole thing with me is that whatever happens, I still want to go overseas and try because I have got that excitement so high,"" he says. 
""I still want to go and train with Julien to try it out myself. If we can work out a living situation with food, 
I would do it in a heartbeat. I don't have to have some sort of income, just as long as me and my wife have food and a place to stay. 
""I know that I'm not going to be the best in the world in the first five years of playing the sport. 
But I'm also never going to go in and say, 'I'll just be OK.'",造,练,培训,火车,训练,列车,栽培
,,1,,,,,
,训,教养,驯,培养,造就,操练,培
,,,,,,,
,培植,培育,,,,,
,,,,,,,
,,,,,,,
,,,,,,,
,,,,,,,
,,,,,,,
,,,,,,,
,,,,,,,
,,,,,,,
,,,,,,,
,,,,,,,
,,,,,,,
,,,,,,,
55. know,,,,,,"""Istill#know::",
"""I still want to go and train with Julien to try it out myself. If we can work out a living situation with food, 
I would do it in a heartbeat. I don't have to have some sort of income, just as long as me and my wife have food and a place to stay. 
""I know that I'm not going to be the best in the world in the first five years of playing the sport. 
But I'm also never going to go in and say, 'I'll just be OK.' ""I'm going to go and try and be the best cricket player in the world.""",审,懂,知,认,了,认识,识
,,,1,,,,
,晓得,明,悉,晓,懂得,谂,知悉
,,,,,,,
,通,知道,,,,,
,,,,,,,
,,,,,,,
,,,,,,,
,,,,,,,
,,,,,,,
,,,,,,,
,,,,,,,
,,,,,,,
,,,,,,,
,,,,,,,
,,,,,,,
,,,,,,,
56. trip,,,,,,Earnestsaid#trip::,
"Earnest said Obama's schedule had been changed in coordination with the Indian government and that he would now be leaving India after giving a speech on Tuesday. 
""The President regrets that he will be unable to visit Agra during this trip,"" Earnest said. 
Agra is where the spectacular Taj Mahal mausoleum is located. Biden will now remain in Washington rather than go to Saudi Arabia.",征,旅,旅程,羇,蹈,绊,踬
,,,1,,,,
,跲,旅游,旅途,趟,,,
,,,,,,,
,,,,,,,
,,,,,,,
,,,,,,,
,,,,,,,
,,,,,,,
,,,,,,,
,,,,,,,
,,,,,,,
,,,,,,,
,,,,,,,
,,,,,,,
,,,,,,,
,,,,,,,
57. offer,,,,,,Althoughno#offer::,
"Although no reason for the change of plan was given, it follows criticism this month of the Obama administration for its failure to send a senior representative to France for a huge unity march held in the wake of the Paris terror attacks. 
The administration admitted it erred and dispatched U.S. Secretary of State John Kerry to Paris the following week to offer the United States' support and condolences.",议案,发给,提供,敬,意,发放,让
,,,,,,,
,纳,呈,献,供,捐助,开设,
,,,,,1,,
,,,,,,,
,,,,,,,
,,,,,,,
,,,,,,,
,,,,,,,
,,,,,,,
,,,,,,,
,,,,,,,
,,,,,,,
,,,,,,,
,,,,,,,
,,,,,,,
,,,,,,,
58. support,,,,,,Althoughno#support::,
"Although no reason for the change of plan was given, it follows criticism this month of the Obama administration for its failure to send a senior representative to France for a huge unity march held in the wake of the Paris terror attacks. 
The administration admitted it erred and dispatched U.S. Secretary of State John Kerry to Paris the following week to offer the United States' support and condolences.",持,撑腰,养活,撑,腰杆子,襄,帮
,,,,,,,
,资,帮助,台,支子,声援,翼庇,作主
,,,,,,,
,支,伴唱,抵,戴,拥护,支援,救援
,,,,,,,1
,慉,扶助,翊,支持,济,靠山,拥戴
,,,,,,,
,托子,支撑,赡,拥,承受,扶植,拯
,,,,,,,
,供养,帮扶,援助,支架,养,输将,承
,,,,,,,
,,,,,,,
,,,,,,,
,,,,,,,
,,,,,,,
,,,,,,,
59. left,,,,,,"""Idon't#left::",
"""I don't anticipate anything based on the conversation we have had, no,"" he said. 
Jordan's King Abdullah and Egypt's President Abdel Fattah al-Sisi both left Davos early to attend the funeral on Friday. 
In line with custom, Abdullah was laid to rest in an unmarked grave in a brief and simple ceremony after funeral prayers in Riyadh's Imam Turki Bin Abdullah Grand Mosque.",左边,左面,向左,左侧,左,,
,,,,,1,,
,,,,,,,
,,,,,,,
,,,,,,,
,,,,,,,
,,,,,,,
,,,,,,,
,,,,,,,
,,,,,,,
,,,,,,,
,,,,,,,
,,,,,,,
,,,,,,,
,,,,,,,
,,,,,,,
,,,,,,,
60. power,,,,,,"Thekingdom,#power::",
"The kingdom, despite signaling rare public dissent with the Obama administration over Iran and the Arab Spring, 
is a fulcrum of U.S. diplomacy in a region where Washington is. Saudi Arabia is crucial to U.S. goals on counter-terrorism, 
the campaign against ISIS and Al-Qaeda, the free flow of energy that sustains the global economy, 
as a counter-balance to Iran and as a sponsor of the long frustrated quest for peace between Israel and the Palestinians. 
struggling .Never mind that the U.S. is the world's foremost democracy and the transfer of power in Saudi Arabia was from one autocrat to the next. 
to adapt to dissolving national borders, chaotic change and sectarian carnage.",威,威权,威风,权力,使 ... 有力量,功率,力
,,1,,,,,
,乘冪,威武,乘方,幂数,方,强,势
,,,,,,,
,优越,权,幂,大国,权柄,威力,力量
,,,,,,,
,动力,势力,强权,激励,大权,权能,
,,,,,,,
,,,,,,,
,,,,,,,
,,,,,,,
,,,,,,,
,,,,,,,
,,,,,,,
,,,,,,,
,,,,,,,
,,,,,,,
61. see,,,,,,"""Weknow#see::",
"""We know Salman well, he was governor of Riyadh for the better part of 50 years, he is well known to the US government. 
I see no break in the U.S.-Saudi relationship,"" Smith said. Salman vowed just hours after the death of Abdullah, 
that the kingdom ""would continue adhering to the correct policies which Saudi Arabia has followed since its establishment.""",见,看见,见面,瞅,高桌,应付,询
,,1,,,,,
,览,看,瞅见,觏,看望,看到,瞧见
,,,,,,,
,睹,看出,会,领会,供桌,,
,,,,,,,
,,,,,,,
,,,,,,,
,,,,,,,
,,,,,,,
,,,,,,,
,,,,,,,
,,,,,,,
,,,,,,,
,,,,,,,
,,,,,,,
,,,,,,,
62. state,,,,,,Salmanvowed#state::,
"Salman vowed just hours after the death of Abdullah, that the kingdom ""would continue adhering to the correct policies which Saudi Arabia has followed since its establishment."" State Department spokeswoman Jen Psaki said that the allies had a ""long history of cooperation. 
We don't have any indication that that cooperation will change."" Saudi watchers in Washington were impressed and reassured by the line of succession outlined by Salman in an apparent effort to solve a dynastic riddle and send a signal of continuity to the outside world.",态,表示,述,境界,国度,状况,候
,,,,,,,
,国家的,称述,邦,陈述,申述,硬说,陈说
,1,,,,,,
,发言,申,状,国有的,国营的,摅,诉
,,,,,,,
,陈,声称,申明,发表,声明,州,拥
,,,,,,,
,胪,诉说,公家,称,国立的,述説,国
,,,,,,,
,局势,态势,,,,,
,,,,,,,
,,,,,,,
,,,,,,,
,,,,,,,
,,,,,,,
,,,,,,,
63. long,,,,,,Salmanvowed#long::,
"Salman vowed just hours after the death of Abdullah, that the kingdom ""would continue adhering to the correct policies which Saudi Arabia has followed since its establishment."" State Department spokeswoman Jen Psaki said that the allies had a ""long history of cooperation. 
We don't have any indication that that cooperation will change."" Saudi watchers in Washington were impressed and reassured by the line of succession outlined by Salman in an apparent effort to solve a dynastic riddle and send a signal of continuity to the outside world.",长期,冀,悠悠,长远,久,渴望,悠久
,1,,,,,,
,悠长,愒,悠然,梴,多头,莘,长久
,,,,,,,
,很久,曼,长,长期地,,,
,,,,,,,
,,,,,,,
,,,,,,,
,,,,,,,
,,,,,,,
,,,,,,,
,,,,,,,
,,,,,,,
,,,,,,,
,,,,,,,
,,,,,,,
,,,,,,,
64. think,,,,,,"""Thereis#think::",
"""There is now a member of the generation of the grandchildren who is second in line, 
he is a very close friend of the United States ... so I think there is a lot of hope the relationship will stay on an even keel."" Prince Mohammed, 
now behind the King's brother Prince Muqrin, 69, in the line of succession, is a frequent visitor to the United States and has presided over Saudi Arabia's anti-terrorism program. 
He narrowly escaped an assassination bid by Al-Qaeda in 2009.",怀,思考,看,意,设法,预期,算
,,1,,,,,
,预料,揣想,想得到,考虑,思,意想,想到
,,,,,,,
,溯,思索,打量,忆,当,认为,以为
,,,,,,,
,关心,料想,想起,道,想,念,怀念
,,,,,,,
,想象,臆断,,,,,
,,,,,,,
,,,,,,,
,,,,,,,
,,,,,,,
,,,,,,,
,,,,,,,
,,,,,,,
,,,,,,,
65. job,,,,,,"TomDonilon,#job::",
"Tom Donilon, pointman for US relations with Saudi Arabia when he was Obama's National Security Advisor, 
praised Abdullah as a ""solid"" ally who had ensured two decades of stability in the kingdom. 
He also said that the late King's survivors had done a ""pretty effective job of indicating stability with a quick annoncement with repect to succession, 
continuity of policy."" He told ""The Lead"" with CNN's Jake Tapper that Mohammad, known as MBN in the United States was ""a very, 
very competent person who is essential in terms of our joint efforts to combat terrorists.""",岗位,工作,饭碗,承包,业,事,劳工
,,1,,,,,
,,,,,,,
,,,,,,,
,,,,,,,
,,,,,,,
,,,,,,,
,,,,,,,
,,,,,,,
,,,,,,,
,,,,,,,
,,,,,,,
,,,,,,,
,,,,,,,
,,,,,,,
,,,,,,,
,,,,,,,
66. deal,,,,,,Someanalysts#deal::,
"Some analysts believe that the Saudi government could react to what it would see as a bad nuclear deal between world powers and Iran -- which left the Islamic Republic with some capacity to enrich uranium or produce plutonium -- by looking to find its own nuclear capability -- perhaps with assistance from Pakistan. 
Saudi princes took to the op-ed pages of US newspapers in 2013 in a highly unusual move to complain that a nuclear deal was a ""dangerous gamble."" The Saudi government also made clear its deep anger with Obama's last-minute decision not to launch planned air strikes on Syria to punish the Bashar al-Assad regime's use of chemical weapons the same year.",交,发给,发放,交易,合同,份量,经销
,,,,1,,,
,合约,发牌,,,,,
,,,,,,,
,,,,,,,
,,,,,,,
,,,,,,,
,,,,,,,
,,,,,,,
,,,,,,,
,,,,,,,
,,,,,,,
,,,,,,,
,,,,,,,
,,,,,,,
,,,,,,,
,,,,,,,
67. begin,,,,,,TheSaudi#begin::,
"The Saudi government also made clear its deep anger with Obama's last-minute decision not to launch planned air strikes on Syria to punish the Bashar al-Assad regime's use of chemical weapons the same year. 
Saudi Arabia has also been frustrated at how long it has taken the United States to begin training opposition fighters in Syria.",谡,起,开工,昉,开始,始,开幕
,,,1,,,,
,开创,启,摅愤,兴,开头,俶,发动
,,,,,,,
,创,,,,,,
,,,,,,,
,,,,,,,
,,,,,,,
,,,,,,,
,,,,,,,
,,,,,,,
,,,,,,,
,,,,,,,
,,,,,,,
,,,,,,,
,,,,,,,
,,,,,,,
68. keep,,,,,,SaudiArabian#keep::,
"Saudi Arabian pilots, reportedly including one of Salman's sons, Prince Khaled, helped carry out the first air attacks on ISIS in Syria last year. 
Saudi Arabia also approved of Secretary of State John Kerry's exhaustive but ultimately futile efforts to keep Israel and the Palestinians talking. 
 And White House spokesman Josh Earnest said that an underpinning of those efforts, 
an Arab Peace Plan framed by Abdullah would stand as his lasting memorial.Smith said that the relationship between Riyadh and Washington was now better than it had been earlier in the administration.",养,觇,翼庇,供养,操,含,保留
,,,,,,,
,保存,收藏,收存,养活,保管,储藏,存
,,,,,,,
,留,保持,留成,喂养,保,保守,维持
,,,,,,1,
,,,,,,,
,,,,,,,
,,,,,,,
,,,,,,,
,,,,,,,
,,,,,,,
,,,,,,,
,,,,,,,
,,,,,,,
,,,,,,,
,,,,,,,
69. house,,,,,,SaudiArabian#house::,
"Saudi Arabian pilots, reportedly including one of Salman's sons, Prince Khaled, helped carry out the first air attacks on ISIS in Syria last year. 
Saudi Arabia also approved of Secretary of State John Kerry's exhaustive but ultimately futile efforts to keep Israel and the Palestinians talking. 
And White House spokesman Josh Earnest said that an underpinning of those efforts, 
an Arab Peace Plan framed by Abdullah would stand as his lasting memorial. Smith said that the relationship between Riyadh and Washington was now better than it had been earlier in the administration.",驻防,家务,驻守,居,馆,住宅,驻扎
,,,,,,,
,舍,房子,屋子,收容,斋,宅院,驻屯
,,,,,,,
,屋,房,,,,,
,1,,,,,,
,,,,,,,
,,,,,,,
,,,,,,,
,,,,,,,
,,,,,,,
,,,,,,,
,,,,,,,
,,,,,,,
,,,,,,,
,,,,,,,
,,,,,,,
70. stand,,,,,,SaudiArabian#stand::,
"Saudi Arabian pilots, reportedly including one of Salman's sons, Prince Khaled, helped carry out the first air attacks on ISIS in Syria last year. 
Saudi Arabia also approved of Secretary of State John Kerry's exhaustive but ultimately futile efforts to keep Israel and the Palestinians talking. 
And White House spokesman Josh Earnest said that an underpinning of those efforts, 
an Arab Peace Plan framed by Abdullah would stand as his lasting memorial. Smith said that the relationship between Riyadh and Washington was now better than it had been earlier in the administration.",经受,挺,站住,座,座子,慉,立
,,,,,,,
,算数,经,台,忍受,主张,受,架
,,,,,,,
,站,支架,旗帜,货摊,支子,,
,1,,,,,,
,,,,,,,
,,,,,,,
,,,,,,,
,,,,,,,
,,,,,,,
,,,,,,,
,,,,,,,
,,,,,,,
,,,,,,,
,,,,,,,
,,,,,,,
71. leave,,,,,,"""Akey#leave::",
"""A key element of our relationship with the Saudis over the years has been transparency, 
not always in public but we have done a good job in talking to each other,"" he said. 
""When you leave your allies out of the conversation and they don't understand your negotiating position or don't understand how you are going to enforce an agreement. 
they are left to their own conclusions. ""I think we are doing a lot better at that.""",撂,朅,假期,起身,留,出走,撤走
,,,,,,,
,遗赠,别,起程,罢休,去,出发,假
,,,,,,,
,动身,撤离,给,离,准许,走,离开
,,,,,,,
,告别,别离,避,,,,
,1,,,,,,
,,,,,,,
,,,,,,,
,,,,,,,
,,,,,,,
,,,,,,,
,,,,,,,
,,,,,,,
,,,,,,,
,,,,,,,
72. control,,,,,,Basedon#control::,
"Based on preliminary assessments, the shells were fired from Grad rocket systems, a statement from Mariupol City Council said. 
The statement also said the situation was under control, and urged residents not to panic but to rely on information from official sources only. 
Monitors with the Organization for Security and Co-operation in Europe said they conducted a crater analysis which showed the use of Grad and Uragan rockets that likely originated from areas controlled by the pro-Russian rebel group Donetsk People's Republic (DPR).",羁,控制,经纪,掌管,按,律,辖
,,1,,,,,
,操纵,驾驭,管制,把持,管,按捺,控
,,,,,,,
,管理的,节制,治,独揽,压,优越,抑制
,,,,,,,
,秉,控制的,监督,筦,统制,调度,监察
,,,,,,,
,治理,司,扼,懿,,,
,,,,,,,
,,,,,,,
,,,,,,,
,,,,,,,
,,,,,,,
,,,,,,,
,,,,,,,
,,,,,,,
73. put,,,,,,Butwhat#put::,
"But what is it that makes gaming so compulsive and addictive for the small minority?  For me, 
addiction boils down to constant reinforcement, or put more simply, being constantly rewarded while playing the game. 
Gaming rewards can be physiological (such as feeling ""high"" or getting a ""buzz"" while playing or beating your personal high score), 
psychological (such as feeling you have complete control in a specific situation or knowing that your strategic play helped you win), 
social (such as being congratulated by fellow gamers when doing something well in the game) and, in some cases, 
financial (such as winning a gaming tournament).  Most of these rewards are -- at least to some extent -- unpredictable. 
Not knowing when the next reward will come keeps some players in the game. In short, 
they carry on gaming even though they may not have received an immediate reward. They simply hope that another reward is ""just around the corner"" and keep on playing.",搁,赋予,投击,置于,摆列,摆,摆放
,,,,,,,
,置,坐,干,掷,放置,放置者,放
,,,,,,,1
,,,,,,,
,,,,,,,
,,,,,,,
,,,,,,,
,,,,,,,
,,,,,,,
,,,,,,,
,,,,,,,
,,,,,,,
,,,,,,,
,,,,,,,
,,,,,,,
,,,,,,,
74. game,,,,,,"Forme,#game::",
"For me, addiction boils down to constant reinforcement, or put more simply, being constantly rewarded while playing the game. 
Gaming rewards can be physiological (such as feeling ""high"" or getting a ""buzz"" while playing or beating your personal high score), 
psychological (such as feeling you have complete control in a specific situation or knowing that your strategic play helped you win), 
social (such as being congratulated by fellow gamers when doing something well in the game) and, in some cases, 
financial (such as winning a gaming tournament).  Most of these rewards are -- at least to some extent -- unpredictable. 
Not knowing when the next reward will come keeps some players in the game. In short, 
they carry on gaming even though they may not have received an immediate reward. They simply hope that another reward is ""just around the corner"" and keep on playing. 
 Added to this is the shift over the last decade from standalone console gaming to massively multiplayer online games where games never end and gamers have to compete and/or collaborate with other gamers in real time (instead of being able to pause the game and come back and play from the point at which the player left it). 
Many excessive gamers report that they hate logging off and leaving such games. They don't like it as they don't know what is going on in the game when they are not online.",勇敢的,游戏,有胆量的,玩耍,赌钱,盘,赛
,,1,,,,,
,比赛,,,,,,
,,,,,,,
,,,,,,,
,,,,,,,
,,,,,,,
,,,,,,,
,,,,,,,
,,,,,,,
,,,,,,,
,,,,,,,
,,,,,,,
,,,,,,,
,,,,,,,
,,,,,,,
,,,,,,,
75. carry,,,,,,"Forme,#carry::",
"For me, addiction boils down to constant reinforcement, or put more simply, being constantly rewarded while playing the game. 
Gaming rewards can be physiological (such as feeling ""high"" or getting a ""buzz"" while playing or beating your personal high score), 
psychological (such as feeling you have complete control in a specific situation or knowing that your strategic play helped you win), 
social (such as being congratulated by fellow gamers when doing something well in the game) and, in some cases, 
financial (such as winning a gaming tournament).  Most of these rewards are -- at least to some extent -- unpredictable. 
Not knowing when the next reward will come keeps some players in the game. In short, 
they carry on gaming even though they may not have received an immediate reward. They simply hope that another reward is ""just around the corner"" and keep on playing. 
 Added to this is the shift over the last decade from standalone console gaming to massively multiplayer online games where games never end and gamers have to compete and/or collaborate with other gamers in real time (instead of being able to pause the game and come back and play from the point at which the player left it). 
Many excessive gamers report that they hate logging off and leaving such games. They don't like it as they don't know what is going on in the game when they are not online.",送,超位,携带,通过,载携,提溜,盘
,,,,,,,
,盘运,负,带,抬,进位,携,儋
,,,,1,,,
,担,拥护,登载,提,何,搬运,拥戴
,,,,,,,
,盛,端,载,承,,,
,,,,,,,
,,,,,,,
,,,,,,,
,,,,,,,
,,,,,,,
,,,,,,,
,,,,,,,
,,,,,,,
,,,,,,,
,,,,,,,
76. life,,,,,,MarkGriffiths#life::,
"Mark Griffiths So when does a healthy enthusiasm turn into an addiction? At the simplest level, 
healthy enthusiasms add to life and addictions take away from it. But how much is too much? This is difficult to answer as I know many gamers who play many hours every day without any detrimental effects. 
 The DSM-5 lists nine criteria for IGD. If any gamer endorses five or more of the following criteria they would likely be diagnosed as having IGD: (1) preoccupation with internet games; (2) withdrawal symptoms when internet gaming is taken away; (3) the need to spend increasing amounts of time engaged in internet gaming, 
(4) unsuccessful attempts to control participation in internet gaming; (5) loss of interest in hobbies and entertainment as a result of, 
and with the exception of, internet gaming; (6) continued excessive use of internet games despite knowledge of psychosocial problems; (7) deception of family members, 
therapists, or others regarding the amount of internet gaming; (8) use of the internet gaming to escape or relieve a negative mood;  and (9) loss of a significant relationship, 
job, or educational or career opportunity because of participation in internet games.",生命,春,生机,身,寿命,活命,世面
,1,,,,,,
,性命,人生,寿,生物,世,生活,命
,,,,,,,
,日子,生,,,,,
,,,,,,,
,,,,,,,
,,,,,,,
,,,,,,,
,,,,,,,
,,,,,,,
,,,,,,,
,,,,,,,
,,,,,,,
,,,,,,,
,,,,,,,
,,,,,,,
77. day,,,,,,MarkGriffiths#day::,
"Mark Griffiths So when does a healthy enthusiasm turn into an addiction? At the simplest level, 
healthy enthusiasms add to life and addictions take away from it. But how much is too much? This is difficult to answer as I know many gamers who play many hours every day without any detrimental effects. 
 The DSM-5 lists nine criteria for IGD. If any gamer endorses five or more of the following criteria they would likely be diagnosed as having IGD: (1) preoccupation with internet games; (2) withdrawal symptoms when internet gaming is taken away; (3) the need to spend increasing amounts of time engaged in internet gaming, 
(4) unsuccessful attempts to control participation in internet gaming; (5) loss of interest in hobbies and entertainment as a result of, 
and with the exception of, internet gaming; (6) continued excessive use of internet games despite knowledge of psychosocial problems; (7) deception of family members, 
therapists, or others regarding the amount of internet gaming; (8) use of the internet gaming to escape or relieve a negative mood;  and (9) loss of a significant relationship, 
job, or educational or career opportunity because of participation in internet games.",日,旦,天,昼,辰,白天,日子
,,,1,,,,
,,,,,,,
,,,,,,,
,,,,,,,
,,,,,,,
,,,,,,,
,,,,,,,
,,,,,,,
,,,,,,,
,,,,,,,
,,,,,,,
,,,,,,,
,,,,,,,
,,,,,,,
,,,,,,,
,,,,,,,
78. like,,,,,,TheDSM-5#like::,
"The DSM-5 lists nine criteria for IGD. If any gamer endorses five or more of the following criteria they would likely be diagnosed as having IGD: (1) preoccupation with internet games; (2) withdrawal symptoms when internet gaming is taken away; (3) the need to spend increasing amounts of time engaged in internet gaming, 
(4) unsuccessful attempts to control participation in internet gaming; (5) loss of interest in hobbies and entertainment as a result of, 
and with the exception of, internet gaming; (6) continued excessive use of internet games despite knowledge of psychosocial problems; (7) deception of family members, 
therapists, or others regarding the amount of internet gaming; (8) use of the internet gaming to escape or relieve a negative mood;  and (9) loss of a significant relationship, 
job, or educational or career opportunity because of participation in internet games. 
The good news is that only a small minority of gamers suffer form IGD. Most online games are fun and exciting to play. 
But like any activity that is taken to excess, in a minority of cases the activity can become addictive. 
Any activity if done for days on end could lead to severe health problems and even death -- and gaming is no exception. 
Instead of demonizing games, we need to educate gamers about the potential dangers of very excessive use.",好比,好像,若,喜爱,如同,待见,喜好
,,1,,,,,
,爱好,同,似,爱,好以,比如,喜欢
,,,,,,,
,一样,相似,看上,类,好,喜,不啻
,,,,,,,
,,,,,,,
,,,,,,,
,,,,,,,
,,,,,,,
,,,,,,,
,,,,,,,
,,,,,,,
,,,,,,,
,,,,,,,
,,,,,,,
,,,,,,,
79. bed,,,,,,"Microsoft(MSFT,#bed::",
"Microsoft (MSFT, Tech30) just patented a way to make your phone less noticeable and disruptive when you're in certain environments (Microsoft calls it ""inconspicuous mode""). 
You can use it at a movie theater, a dinner date or at home about to go to bed.   The U.S. 
government awarded Microsoft the patent on Thursday. The award was first noticed by Patent Yogi, 
an Indian consulting firm.",床铺,河床,花坛,床,熟荒,床位,铺
,,,,1,,,
,矿,,,,,,
,,,,,,,
,,,,,,,
,,,,,,,
,,,,,,,
,,,,,,,
,,,,,,,
,,,,,,,
,,,,,,,
,,,,,,,
,,,,,,,
,,,,,,,
,,,,,,,
,,,,,,,
,,,,,,,
80. set,,,,,,It'sall#set::,
"It's all based on the notion that your phone can annoy the person next to you -- especially if you're in a dark, quiet place. 
Incoming message? Need to check the time? Got an unstoppable itch to check Instagram? You're about to bathe your neighbors in a monstrously bright light and set off a chain of irksome bleeps. 
In ""inconspicuous mode,"" sounds are gone, and the screen is a faint glow. Notifications don't show up on the home screen. 
The time is displayed in large numbers that are easier to glace at.",套,摆列,定,结伙,系列,不动的,摆
,,1,,,,,
,既定的,落,放,局,组,集,竖立
,,,,,,,
,嵌,规定,一套,放置,竖,集合,盘
,,,,,,,
,机组,静止的,摆放,固定,镶,套房,放置者
,,,,,,,
,落下,,,,,,
,,,,,,,
,,,,,,,
,,,,,,,
,,,,,,,
,,,,,,,
,,,,,,,
,,,,,,,
,,,,,,,
81. way,,,,,,"In""inconspicuous#way::",
"In ""inconspicuous mode,"" sounds are gone, and the screen is a faint glow. Notifications don't show up on the home screen. 
The time is displayed in large numbers that are easier to glace at.   In Microsoft's description, 
you could tailor the ""inconspicuous"" display any way you like. Maybe it only shows text messages. Or it dims more than normal. 
  But the key feature is that it would be automatic. It would go into this mode if your phone's GPS detects you're at the location of a movie theater. 
Or if a restaurant's or stage theater's Wi-Fi or Bluetooth beacons tell it to. Or if your phone's light sensor detects darkness while the microphone also detects silence (like just before a movie starts playing).",径,路径,办法,途,路上,非常,状态
,,,,,,,
,般,路线,样,方,途径,方法,作法
,,,,,,1,
,繇,中途,道,道路,作风,路,迳
,,,,,,,
,法,,,,,,
,,,,,,,
,,,,,,,
,,,,,,,
,,,,,,,
,,,,,,,
,,,,,,,
,,,,,,,
,,,,,,,
,,,,,,,
,,,,,,,
82. key,,,,,,InMicrosoft's#key::,
"In Microsoft's description, you could tailor the ""inconspicuous"" display any way you like. Maybe it only shows text messages. 
Or it dims more than normal.   But the key feature is that it would be automatic. 
It would go into this mode if your phone's GPS detects you're at the location of a movie theater. 
Or if a restaurant's or stage theater's Wi-Fi or Bluetooth beacons tell it to. Or if your phone's light sensor detects darkness while the microphone also detects silence (like just before a movie starts playing). 
  To figure this out, the phone could even tap your calendar or your recent mobile payments. 
If you bought event tickets at the counter using tap-to-pay technology, your phone would know when to go quiet.",钤键,基本的,钥,根本,图例,调调,锁上
,,,,,,,
,窍,窍门,键,电键,钥匙,关键,答案
,,,,,,,
,主要的,,,,,,
,1,,,,,,
,,,,,,,
,,,,,,,
,,,,,,,
,,,,,,,
,,,,,,,
,,,,,,,
,,,,,,,
,,,,,,,
,,,,,,,
,,,,,,,
,,,,,,,
83. tap,,,,,,Butthe#tap::,
"But the key feature is that it would be automatic. It would go into this mode if your phone's GPS detects you're at the location of a movie theater. 
Or if a restaurant's or stage theater's Wi-Fi or Bluetooth beacons tell it to. Or if your phone's light sensor detects darkness while the microphone also detects silence (like just before a movie starts playing). 
  To figure this out, the phone could even tap your calendar or your recent mobile payments. 
If you bought event tickets at the counter using tap-to-pay technology, your phone would know when to go quiet. 
  If this gets popular, venues will probably be quick to embrace it. Mobile phone use in theaters is so pervasive nowadays that brief ""please silence your phones"" requests are now full-blown, 
pre-movie short films. And every performance by the New York Philharmonic is preceded by a 30-second, 
pre-recorded plea by Alec Baldwin. It's downright embarrassing.",轻打,抃,偷听,敲打,踢踏,敲击,磕
,,1,,,,,
,龙头,斟,窃听,,,,
,,,,,,,
,,,,,,,
,,,,,,,
,,,,,,,
,,,,,,,
,,,,,,,
,,,,,,,
,,,,,,,
,,,,,,,
,,,,,,,
,,,,,,,
,,,,,,,
,,,,,,,
,,,,,,,
84. start,,,,,,Ifthis#start::,
"If this gets popular, venues will probably be quick to embrace it. Mobile phone use in theaters is so pervasive nowadays that brief ""please silence your phones"" requests are now full-blown, 
pre-movie short films. And every performance by the New York Philharmonic is preceded by a 30-second, 
pre-recorded plea by Alec Baldwin. It's downright embarrassing.   And no, theaters aren't going to start hijacking your phones. 
Microsoft's careful wording in its patent application shows that users retain control. 
  ""The mobile communication device can exit the inconspicuous mode and return to the normal mode upon the user's request,"" it says.",开,草创,初期,开幕,起动,起头,发动
,,,,,,,
,开创,创,开办,开辟,搞,谡,摅愤
,,,,,,,
,开动,启,头,开头,兴,开始,始
,,,,,,1,
,惊,开展,发端,启动,初,开工,开端
,,,,,,,
,掀起,起,,,,,
,,,,,,,
,,,,,,,
,,,,,,,
,,,,,,,
,,,,,,,
,,,,,,,
,,,,,,,
,,,,,,,
85. control,,,,,,Ifthis#control::,
"If this gets popular, venues will probably be quick to embrace it. Mobile phone use in theaters is so pervasive nowadays that brief ""please silence your phones"" requests are now full-blown, 
pre-movie short films. And every performance by the New York Philharmonic is preceded by a 30-second, 
pre-recorded plea by Alec Baldwin. It's downright embarrassing.   And no, theaters aren't going to start hijacking your phones. 
Microsoft's careful wording in its patent application shows that users retain control. 
  ""The mobile communication device can exit the inconspicuous mode and return to the normal mode upon the user's request,"" it says.",羁,控制,经纪,掌管,按,律,辖
,,1,,,,,
,操纵,驾驭,管制,把持,管,按捺,控
,,,,,,,
,管理的,节制,治,独揽,压,优越,抑制
,,,,,,,
,秉,控制的,监督,筦,统制,调度,监察
,,,,,,,
,治理,司,扼,懿,,,
,,,,,,,
,,,,,,,
,,,,,,,
,,,,,,,
,,,,,,,
,,,,,,,
,,,,,,,
,,,,,,,
86. under,,,,,,It'snot#under::,
"It's not a peyote-induced hallucination, but a genuinely impressive illusion created by Microsoft's (MSFT, 
Tech30) new augmented-reality goggles, HoloLens.   In this case, it was a 3-D game of Minecraft taking place, on, over, under, 
behind and inside real furniture and walls. As you move your head and body around, the illusion moves completely with you in 3-D, 
remarkably affixed to the real world objects.   Microsoft previewed the brand new piece of hardware on Wednesday. 
HoloLens is Microsoft's foray into the virtual reality market. In its unique spin on VR, 
Microsoft has developed goggles that offer an augmented -- or ""mixed"" -- reality experience. Unlike Facebook's (FB, 
Tech30) Oculus Rift, which completely blocks out the outside world to fully immerse the wearer in another reality, 
HoloLens keeps one foot (and both eyes) firmly planted in the real world.",在 ... 之下,下面,在下边,在 ... 下,以下,根据,之下
,,,,,,,
,下,底下,使用,在下面,下边,少于,
,,1,,,,,
,,,,,,,
,,,,,,,
,,,,,,,
,,,,,,,
,,,,,,,
,,,,,,,
,,,,,,,
,,,,,,,
,,,,,,,
,,,,,,,
,,,,,,,
,,,,,,,
,,,,,,,
87. view,,,,,,Microsoftpreviewed#view::,
"Microsoft previewed the brand new piece of hardware on Wednesday. HoloLens is Microsoft's foray into the virtual reality market. 
In its unique spin on VR, Microsoft has developed goggles that offer an augmented -- or ""mixed"" -- reality experience. 
Unlike Facebook's (FB, Tech30) Oculus Rift, which completely blocks out the outside world to fully immerse the wearer in another reality, 
HoloLens keeps one foot (and both eyes) firmly planted in the real world.   The lenses of the goggles are transparent, 
your view of the space around you only selectively blocked by digital images that can mingle with real objects. For example, 
an interior designer can move around a real room and rearrange 3-D pieces of furniture too see how they will look, 
even placing a virtual vase on a real shelf.   To manipulate something in the HoloLens world, you use hand gestures, 
which are picked up by cameras on the front of the device. The single wiggle of an index finger can drop a flag on the surface of Mars or select a color for your 3-D sculpture. 
The cursor is always at the center of your view, moving when you move your head. Microphones pick up voice commands that bring up menus.",见,风光,见解,风貌,目光,览,看
,,,,,,,
,睊,意见,想法,景,意思,主张,视图
,,,,,,,
,看法,图景,望,瞻,论,景色,鉴
,1,,,,,,
,,,,,,,
,,,,,,,
,,,,,,,
,,,,,,,
,,,,,,,
,,,,,,,
,,,,,,,
,,,,,,,
,,,,,,,
,,,,,,,
,,,,,,,
88. single,,,,,,Thelenses#single::,
"The lenses of the goggles are transparent, your view of the space around you only selectively blocked by digital images that can mingle with real objects. 
For example, an interior designer can move around a real room and rearrange 3-D pieces of furniture too see how they will look, 
even placing a virtual vase on a real shelf.   To manipulate something in the HoloLens world, you use hand gestures, 
which are picked up by cameras on the front of the device. The single wiggle of an index finger can drop a flag on the surface of Mars or select a color for your 3-D sculpture. 
The cursor is always at the center of your view, moving when you move your head. Microphones pick up voice commands that bring up menus. 
  The goggles are wireless and don't need to be tethered to any device, so while they're meant for home or office use, 
they wearer is able to roam freely. The speakers play ""spacial"" sound, so a noise might seem like it's coming from behind or beside you, 
adding to the virtual reality experience.",独身主义的,一,只,独身主义者,个别,独,独身
,,,,,,,
,独身者,单,单身,单个,单一,,
,1,,,,,,
,,,,,,,
,,,,,,,
,,,,,,,
,,,,,,,
,,,,,,,
,,,,,,,
,,,,,,,
,,,,,,,
,,,,,,,
,,,,,,,
,,,,,,,
,,,,,,,
,,,,,,,
89. center,,,,,,Thelenses#center::,
"The lenses of the goggles are transparent, your view of the space around you only selectively blocked by digital images that can mingle with real objects. 
For example, an interior designer can move around a real room and rearrange 3-D pieces of furniture too see how they will look, 
even placing a virtual vase on a real shelf.   To manipulate something in the HoloLens world, you use hand gestures, 
which are picked up by cameras on the front of the device. The single wiggle of an index finger can drop a flag on the surface of Mars or select a color for your 3-D sculpture. 
The cursor is always at the center of your view, moving when you move your head. Microphones pick up voice commands that bring up menus. 
  The goggles are wireless and don't need to be tethered to any device, so while they're meant for home or office use, 
they wearer is able to roam freely. The speakers play ""spacial"" sound, so a noise might seem like it's coming from behind or beside you, 
adding to the virtual reality experience.",心,枢,正中,中心,中央,中,央
,,,,,,,
,中间,基点,顶尖,围绕,集中,关于,
,1,,,,,,
,,,,,,,
,,,,,,,
,,,,,,,
,,,,,,,
,,,,,,,
,,,,,,,
,,,,,,,
,,,,,,,
,,,,,,,
,,,,,,,
,,,,,,,
,,,,,,,
,,,,,,,
90. view,,,,,,Thelenses#view::,
"The lenses of the goggles are transparent, your view of the space around you only selectively blocked by digital images that can mingle with real objects. 
For example, an interior designer can move around a real room and rearrange 3-D pieces of furniture too see how they will look, 
even placing a virtual vase on a real shelf.   To manipulate something in the HoloLens world, you use hand gestures, 
which are picked up by cameras on the front of the device. The single wiggle of an index finger can drop a flag on the surface of Mars or select a color for your 3-D sculpture. 
The cursor is always at the center of your view, moving when you move your head. Microphones pick up voice commands that bring up menus. 
  The goggles are wireless and don't need to be tethered to any device, so while they're meant for home or office use, 
they wearer is able to roam freely. The speakers play ""spacial"" sound, so a noise might seem like it's coming from behind or beside you, 
adding to the virtual reality experience.",见,风光,见解,风貌,目光,览,看
,,,,,,,
,睊,意见,想法,景,意思,主张,视图
,,,,,,,
,看法,图景,望,瞻,论,景色,鉴
,1,,,,,,
,,,,,,,
,,,,,,,
,,,,,,,
,,,,,,,
,,,,,,,
,,,,,,,
,,,,,,,
,,,,,,,
,,,,,,,
,,,,,,,
,,,,,,,
91. black,,,,,,Related:Microsoft's#black::,
"Related: Microsoft's insane holographic vision of the future. After an on-stage demonstration of the sleek, 
wraparound black glasses, Microsoft gave reporters four hands-on demos of the device at its Redmond, Washington headquarters. 
(Notably, the goggles I tested were not the finished product Microsoft demonstrated on stage -- they had jumbles of exposed electronic elements connected to a box that hung around my neck). 
  The demonstration scenarios attempted to show real examples of practical uses for the technology.",缁,黑色,黑色的,玄,玈,黑人,皂
,,,1,,,,
,黎,黑,青,墨,黝,淄,
,,,,,,,
,,,,,,,
,,,,,,,
,,,,,,,
,,,,,,,
,,,,,,,
,,,,,,,
,,,,,,,
,,,,,,,
,,,,,,,
,,,,,,,
,,,,,,,
,,,,,,,
,,,,,,,
92. natural,,,,,,Thedemonstration#natural::,
"The demonstration scenarios attempted to show real examples of practical uses for the technology.   Video games. 
Gamers tend to be enthusiastic early adopters of experimental immersive technology, 
and the stunning Minecraft demo seemed like the most natural and realistic use case. 
I do not usually play Minecraft but would absolutely start, and maybe forget to stop, if I had a HoloLens.   Customer service. 
A Skype call demo was to walk me through fixing a broken light. The person on the other end of the call could see what I saw (real wires, 
tools, a hole in the wall) and could annotate my view with colorful lines and arrows. 
She even doodled a little diagram on a patch of blank wall. Remote customer support is a commonly imagined use for smart glasses, 
including Google Glass. While a neat thing to have, it's nothing a phone or PC running video chat wouldn't be able to accomplish.",迹先,蒙昧的,固有,白痴,自然,当然,天然
,,,,,,,1
,扑质,天然的东西,,,,,
,,,,,,,
,,,,,,,
,,,,,,,
,,,,,,,
,,,,,,,
,,,,,,,
,,,,,,,
,,,,,,,
,,,,,,,
,,,,,,,
,,,,,,,
,,,,,,,
,,,,,,,
,,,,,,,
93. call,,,,,,Videogames.2#call::,
"Video games. Gamers tend to be enthusiastic early adopters of experimental immersive technology, 
and the stunning Minecraft demo seemed like the most natural and realistic use case. 
I do not usually play Minecraft but would absolutely start, and maybe forget to stop, if I had a HoloLens.   Customer service. 
A Skype call demo was to walk me through fixing a broken light. The person on the other end of the call could see what I saw (real wires, 
tools, a hole in the wall) and could annotate my view with colorful lines and arrows. 
She even doodled a little diagram on a patch of blank wall. Remote customer support is a commonly imagined use for smart glasses, 
including Google Glass. While a neat thing to have, it's nothing a phone or PC running video chat wouldn't be able to accomplish. 
  Design. HoloStudio is a creative app that is designed for anyone to easily tinker with, like a beefed up MS Paint. 
A palette of colors and shapes floats in front of the artist who can create simple or complex 3-D models. 
Final designs can be ordered online, and a printed version of your 3-D purple skyscraper will be delivered to your door.",邀,看,喊,拜会,拜望,访问,谓
,,,,,,,
,谒,望,呼叫,谥,曰,拜访,称呼
,,,,,,,
,招呼,探望,偁,呼唤,虖,召唤,通话
,,,,,,,1
,称为,叫,喊声,走,称,呼吁,看望
,,,,,,,
,顾,呼,找,,,,
,,,,,,,
,,,,,,,
,,,,,,,
,,,,,,,
,,,,,,,
,,,,,,,
,,,,,,,
,,,,,,,
94. patch,,,,,,Videogames.#patch::,
"Video games. Gamers tend to be enthusiastic early adopters of experimental immersive technology, 
and the stunning Minecraft demo seemed like the most natural and realistic use case. 
I do not usually play Minecraft but would absolutely start, and maybe forget to stop, if I had a HoloLens.   Customer service. 
A Skype call demo was to walk me through fixing a broken light. The person on the other end of the call could see what I saw (real wires, 
tools, a hole in the wall) and could annotate my view with colorful lines and arrows. 
She even doodled a little diagram on a patch of blank wall. Remote customer support is a commonly imagined use for smart glasses, 
including Google Glass. While a neat thing to have, it's nothing a phone or PC running video chat wouldn't be able to accomplish. 
  Design. HoloStudio is a creative app that is designed for anyone to easily tinker with, like a beefed up MS Paint. 
A palette of colors and shapes floats in front of the artist who can create simple or complex 3-D models. 
Final designs can be ordered online, and a printed version of your 3-D purple skyscraper will be delivered to your door.",补,补丁,补缀,傻瓜,瑕,打补丁,
,,1,,,,,
,,,,,,,
,,,,,,,
,,,,,,,
,,,,,,,
,,,,,,,
,,,,,,,
,,,,,,,
,,,,,,,
,,,,,,,
,,,,,,,
,,,,,,,
,,,,,,,
,,,,,,,
,,,,,,,
,,,,,,,
95. thing,,,,,,Videogames.#thing::,
"Video games. Gamers tend to be enthusiastic early adopters of experimental immersive technology, 
and the stunning Minecraft demo seemed like the most natural and realistic use case. 
I do not usually play Minecraft but would absolutely start, and maybe forget to stop, if I had a HoloLens.   Customer service. 
A Skype call demo was to walk me through fixing a broken light. The person on the other end of the call could see what I saw (real wires, 
tools, a hole in the wall) and could annotate my view with colorful lines and arrows. 
She even doodled a little diagram on a patch of blank wall. Remote customer support is a commonly imagined use for smart glasses, 
including Google Glass. While a neat thing to have, it's nothing a phone or PC running video chat wouldn't be able to accomplish. 
  Design. HoloStudio is a creative app that is designed for anyone to easily tinker with, like a beefed up MS Paint. 
A palette of colors and shapes floats in front of the artist who can create simple or complex 3-D models. 
Final designs can be ordered online, and a printed version of your 3-D purple skyscraper will be delivered to your door.",玩意儿,事情,项目,物,东西,事,物件
,,1,,,,,
,项,一项,事儿,事物,,,
,,,,,,,
,,,,,,,
,,,,,,,
,,,,,,,
,,,,,,,
,,,,,,,
,,,,,,,
,,,,,,,
,,,,,,,
,,,,,,,
,,,,,,,
,,,,,,,
,,,,,,,
,,,,,,,
96. front,,,,,,Customerservice.#front::,
"Customer service. A Skype call demo was to walk me through fixing a broken light. 
The person on the other end of the call could see what I saw (real wires, tools, a hole in the wall) and could annotate my view with colorful lines and arrows. 
She even doodled a little diagram on a patch of blank wall. Remote customer support is a commonly imagined use for smart glasses, 
including Google Glass. While a neat thing to have, it's nothing a phone or PC running video chat wouldn't be able to accomplish. 
  Design. HoloStudio is a creative app that is designed for anyone to easily tinker with, like a beefed up MS Paint. 
A palette of colors and shapes floats in front of the artist who can create simple or complex 3-D models. 
Final designs can be ordered online, and a printed version of your 3-D purple skyscraper will be delivered to your door. 
  Virtual reality. At NASA's Jet Propulsion Laboratory, scientists regularly dig through images of Mars collected by the Curiosity Rover. 
They've collaborated with Microsoft to create a program that places them inside a 3-D rendering of Mars using HoloLens. 
Whether you look up or down, turn left or right, or walk forward or back, the landscape shifts accordingly so you feel like you're taking a stroll on the red planet.",阵线,面,正面的,前面,前面的,正面,前部的
,,,,1,,,
,前,阵地,场面,对付,阵,对,前线
,,,,,,,
,前边的,,,,,,
,,,,,,,
,,,,,,,
,,,,,,,
,,,,,,,
,,,,,,,
,,,,,,,
,,,,,,,
,,,,,,,
,,,,,,,
,,,,,,,
,,,,,,,
,,,,,,,
97. down,,,,,,Design.HoloStudio#down::,
"Design. HoloStudio is a creative app that is designed for anyone to easily tinker with, like a beefed up MS Paint. 
A palette of colors and shapes floats in front of the artist who can create simple or complex 3-D models. 
Final designs can be ordered online, and a printed version of your 3-D purple skyscraper will be delivered to your door. 
  Virtual reality. At NASA's Jet Propulsion Laboratory, scientists regularly dig through images of Mars collected by the Curiosity Rover. 
They've collaborated with Microsoft to create a program that places them inside a 3-D rendering of Mars using HoloLens. 
Whether you look up or down, turn left or right, or walk forward or back, the landscape shifts accordingly so you feel like you're taking a stroll on the red planet. 
  The Mars demo was one of the few times I wished I was using full virtual reality goggles. 
They had reasons for wanted to keep reality involved -- JPL scientists are working not playing, 
and they need to use other tools like computers at the same time. But as impressive as it was, 
the mixed-reality version of Mars looked thin and desaturated.",忧闷,击落的,氄,毧,往下,下,击落
,,,,,,1,
,绒毛,下来,忧伤,忧愁,向下,向下的,沿着
,,,,,,,
,,,,,,,
,,,,,,,
,,,,,,,
,,,,,,,
,,,,,,,
,,,,,,,
,,,,,,,
,,,,,,,
,,,,,,,
,,,,,,,
,,,,,,,
,,,,,,,
,,,,,,,
98. look,,,,,,TheMars#look::,
"The Mars demo was one of the few times I wished I was using full virtual reality goggles. 
They had reasons for wanted to keep reality involved -- JPL scientists are working not playing, 
and they need to use other tools like computers at the same time. But as impressive as it was, 
the mixed-reality version of Mars looked thin and desaturated.   Full and partial virtual reality look different because of the underlying technology. 
HoloLens doesn't display images on any screen, but projects light directly onto the retina, 
imitating the way light travels from real objects. The augmented view is contained in a rectangle directly in front of your face. 
Oculus Rift shows its images on a screen in front of the eyes and extends farther out and around for a more encompassing view. 
  The virtual reality space is still mostly filled with buzz and not-ready-for-prime-time products. 
But VR has been anointed the next big thing by a tech industry hungry for something fresh and exciting to woo customers.",目光,瞅,看,模样,朝向,面容,张
,,,,,,,
,看起来,面貌,面向,容,神采,留心,注意
,,,,,,,
,观,面目,睊,像,觑,举目,脸色
,,,,,,,
,神情,神,形,神色,眼,色,注视
,,,,,,,1
,盼,,,,,,
,,,,,,,
,,,,,,,
,,,,,,,
,,,,,,,
,,,,,,,
,,,,,,,
,,,,,,,
,,,,,,,
99. real,,,,,,TheMars#real::,
"The Mars demo was one of the few times I wished I was using full virtual reality goggles. 
They had reasons for wanted to keep reality involved -- JPL scientists are working not playing, 
and they need to use other tools like computers at the same time. But as impressive as it was, 
the mixed-reality version of Mars looked thin and desaturated.   Full and partial virtual reality look different because of the underlying technology. 
HoloLens doesn't display images on any screen, but projects light directly onto the retina, 
imitating the way light travels from real objects. The augmented view is contained in a rectangle directly in front of your face. 
Oculus Rift shows its images on a screen in front of the eyes and extends farther out and around for a more encompassing view. 
  The virtual reality space is still mostly filled with buzz and not-ready-for-prime-time products. 
But VR has been anointed the next big thing by a tech industry hungry for something fresh and exciting to woo customers.",非常,真实,确实,实打实,真相,现实,确
,,1,,,,,
,实在,真币,活生生,真正,实际,真,实
,,,,,,,
,,,,,,,
,,,,,,,
,,,,,,,
,,,,,,,
,,,,,,,
,,,,,,,
,,,,,,,
,,,,,,,
,,,,,,,
,,,,,,,
,,,,,,,
,,,,,,,
,,,,,,,
100. thing,,,,,,Fulland#thing::,
"Full and partial virtual reality look different because of the underlying technology. 
HoloLens doesn't display images on any screen, but projects light directly onto the retina, 
imitating the way light travels from real objects. The augmented view is contained in a rectangle directly in front of your face. 
Oculus Rift shows its images on a screen in front of the eyes and extends farther out and around for a more encompassing view. 
  The virtual reality space is still mostly filled with buzz and not-ready-for-prime-time products. 
But VR has been anointed the next big thing by a tech industry hungry for something fresh and exciting to woo customers. 
  Overlaying digital 3-D creations onto the real world is cool, but are there practical uses are there for this type of technology?",玩意儿,事情,项目,物,东西,事,物件
,,,,,1,,
,项,一项,事儿,事物,,,
,,,,,,,
,,,,,,,
,,,,,,,
,,,,,,,
,,,,,,,
,,,,,,,
,,,,,,,
,,,,,,,
,,,,,,,
,,,,,,,
,,,,,,,
,,,,,,,
,,,,,,,
,,,,,,,
101. fresh,,,,,,Fulland#fresh::,
"Full and partial virtual reality look different because of the underlying technology. 
HoloLens doesn't display images on any screen, but projects light directly onto the retina, 
imitating the way light travels from real objects. The augmented view is contained in a rectangle directly in front of your face. 
Oculus Rift shows its images on a screen in front of the eyes and extends farther out and around for a more encompassing view. 
  The virtual reality space is still mostly filled with buzz and not-ready-for-prime-time products. 
But VR has been anointed the next big thing by a tech industry hungry for something fresh and exciting to woo customers. 
  Overlaying digital 3-D creations onto the real world is cool, but are there practical uses are there for this type of technology?",新兴,凊,新鲜,新,冒失的,使清新,鲜
,,,1,,,,
,,,,,,,
,,,,,,,
,,,,,,,
,,,,,,,
,,,,,,,
,,,,,,,
,,,,,,,
,,,,,,,
,,,,,,,
,,,,,,,
,,,,,,,
,,,,,,,
,,,,,,,
,,,,,,,
,,,,,,,
102. cool,,,,,,Thevirtual#cool::,
"The virtual reality space is still mostly filled with buzz and not-ready-for-prime-time products. 
But VR has been anointed the next big thing by a tech industry hungry for something fresh and exciting to woo customers. 
  Overlaying digital 3-D creations onto the real world is cool, but are there practical uses are there for this type of technology?   Microsoft hopes so. 
HoloLens was by far the most interesting announcement at a daylong event for Windows 10, 
and one Microsoft believes can help get customers excited about its products again.",风凉,凉爽,镇,凉,凊,凉丝丝,镇静
,1,,,,,,
,阴凉,沉着,冷静,,,,
,,,,,,,
,,,,,,,
,,,,,,,
,,,,,,,
,,,,,,,
,,,,,,,
,,,,,,,
,,,,,,,
,,,,,,,
,,,,,,,
,,,,,,,
,,,,,,,
,,,,,,,
,,,,,,,
103. drop,,,,,,Tothe#drop::,
"To the left of the narrow road is a vertical, sand-colored mountain wall.  To the right, 
a 50-foot drop and a view across the spectacular Howraman Valley, a sparsely populated and beautiful part of the region. 
On the eastern edge of Iran, Kurdistan province makes up part of a broader Kurdish region, 
which also spans adjacent sections of Iraq, Syria and Turkey.",掉,撒,投,降落,沥,下降,减退
,,,,,,1,
,放下,点,点子,落,降,跌,衰退
,,,,,,,
,摔,摔交,改掉,水滴,降低,摔倒,作罢
,,,,,,,
,滴,落下,,,,,
,,,,,,,
,,,,,,,
,,,,,,,
,,,,,,,
,,,,,,,
,,,,,,,
,,,,,,,
,,,,,,,
,,,,,,,
,,,,,,,
104. home,,,,,,Onthe#home::,
"On the way, we stop in a tiny village called Negel.  The mosque in the village is home to large, 
handwritten Quran said to be about 1,300 years old.  The mosque's facade carries an inscription naming Abu Bakr the first caliph and, 
according to Sunni Muslims, the rightful successor of the prophet Mohammed.",斋,故乡,家园,乡土,家,,
,,,,,1,,
,,,,,,,
,,,,,,,
,,,,,,,
,,,,,,,
,,,,,,,
,,,,,,,
,,,,,,,
,,,,,,,
,,,,,,,
,,,,,,,
,,,,,,,
,,,,,,,
,,,,,,,
,,,,,,,
,,,,,,,
105. large,,,,,,Onthe#large::,
"On the way, we stop in a tiny village called Negel.  The mosque in the village is home to large, 
handwritten Quran said to be about 1,300 years old.  The mosque's facade carries an inscription naming Abu Bakr the first caliph and, 
according to Sunni Muslims, the rightful successor of the prophet Mohammed.",广泛地,丰厚,强大,褒,澔,众,广大
,,,1,,,,
,厚,伟,大,广大地,丰,伟大,鸿
,,,,,,,
,豁达,大号,灏,济,竑,硕,丰富
,,,,,,,
,俣,量大,优渥,大幅,曼,广,
,,,,,,,
,,,,,,,
,,,,,,,
,,,,,,,
,,,,,,,
,,,,,,,
,,,,,,,
,,,,,,,
,,,,,,,
,,,,,,,
106. good,,,,,,Afew2#good::,
"A few days earlier, a Kurdish man in Sanandaj had told me that police had forcibly removed a satellite dish from his roof to prevent him receiving Kurdish television channels. 
 Another had pointed at a photo of a Shia cleric in my guidebook and shaken his head, saying ""Not good, not good."" After Negel, 
the road winds through snow-capped mountains and then drops down into the village of Howraman-at-Takht.",善,嘉,美,合乎正道的,爽口,颛,优良
,,,,,,,
,良好,不赖,合适的,和蔼的,和蔼可亲的,要得,乖
,1,,,,,,
,益处,善良,甜头,姤,臧,和善的,好
,,,,,,,
,良,佳,拿手,嫽,赢余,,
,,,,,,,
,,,,,,,
,,,,,,,
,,,,,,,
,,,,,,,
,,,,,,,
,,,,,,,
,,,,,,,
,,,,,,,
,,,,,,,
107. come,,,,,,Asin#come::,
"As in other parts of Iran, people don't sweeten their tea directly, preferring to place a sugar cube between their front teeth and then sucking the tea through the sugar. 
 The teashop owner asks me where I come from: ""Russ-stan, French-stan?"" he guesses.  I tell him ""England-stan"" and he smiles. 
""Welcome!""",过来,来,来到,发生,,,
,1,,,,,,
,,,,,,,
,,,,,,,
,,,,,,,
,,,,,,,
,,,,,,,
,,,,,,,
,,,,,,,
,,,,,,,
,,,,,,,
,,,,,,,
,,,,,,,
,,,,,,,
,,,,,,,
,,,,,,,
,,,,,,,
108. turn,,,,,,Aswe#turn::,
"As we drink the tea, an elderly man walks to the edge of the stream, removes his shoes and socks, 
rolls up his trousers and wades out to a large, flat rock in the stream.  He washes his hands, 
feet and head and then begins his afternoon prayers, in turn standing, kneeling and then pressing his forehead to the rock. 
 Once he's finished he carefully negotiates the way back and dries his feet with a cloth.",斡,翻倒,顺序,摇,车,掉,轮流
,,,,,,,1
,转,转动,拐,弯,化,捩,翻
,,,,,,,
,弯子,纽,翻转,,,,
,,,,,,,
,,,,,,,
,,,,,,,
,,,,,,,
,,,,,,,
,,,,,,,
,,,,,,,
,,,,,,,
,,,,,,,
,,,,,,,
,,,,,,,
,,,,,,,
109. late,,,,,,Aswe#late::,
"As we continue the journey, the doctor takes over the driving and progress is slower, 
but the hairpin bends are no longer quite so terrifying. We arrive at Marivan in the late afternoon. 
 A large lake catches the afternoon sun and we stop at a restaurant at its edge.",深,过世的,暮,阑,已故,晏,晚
,,1,,,,,
,迟慢,迟,晚点,,,,
,,,,,,,
,,,,,,,
,,,,,,,
,,,,,,,
,,,,,,,
,,,,,,,
,,,,,,,
,,,,,,,
,,,,,,,
,,,,,,,
,,,,,,,
,,,,,,,
,,,,,,,
,,,,,,,
110. leave,,,,,,Oneof#leave::,
"One of the women's veils slips back off her hair, but no one pays much attention. 
The dancing goes on until the sun sets over the lake. We leave Marivan and head back toward Sanandaj. 
 The doctor's phone rings and he talks in rapid Farsi before suggesting we stop at a friend's house on the way.",撂,朅,假期,起身,留,出走,撤走
,,,,,,,
,遗赠,别,起程,罢休,去,出发,假
,,,,,,,
,动身,撤离,给,离,准许,走,离开
,,,,,,,1
,告别,别离,避,,,,
,,,,,,,
,,,,,,,
,,,,,,,
,,,,,,,
,,,,,,,
,,,,,,,
,,,,,,,
,,,,,,,
,,,,,,,
,,,,,,,
111. stop,,,,,,Weleave#stop::,
"We leave Marivan and head back toward Sanandaj.  The doctor's phone rings and he talks in rapid Farsi before suggesting we stop at a friend's house on the way. 
 ""My friend is very wealthy,"" he tells me, ""and he can trace his family back 1,300 years.""",站住,辍止,阻击,断,碍,偃,阏
,,,,,,,
,阻止,戒,阻拦,逗,断绝,羇泊,跱
,1,,,,,,
,锢,中止,堨,截,弭,踯,沮
,,,,,,,
,已,收,终止,制止,柅,歇,辍
,,,,,,,
,止息,遏,扎,停摆,停歇,阻挡,罢
,,,,,,,
,住,杜,收起,站,寝,停,逗留
,,,,,,,
,煞,卡,止,住手,停顿,止住,湮
,,,,,,,
,停车,休止,停止,车站,停息,停下来,拦住
,,,,,,,
,来，如,在,,,,,
112. model,,,,,,Isit#model::,
"I sit next to the man's eldest daughter who takes out her iPhone and shows me photos on her Instagram feed. 
 Most of the images are of Western fashion models. I ask her why and she says: ""Model is the best job.""  She plans to go to university in Tehran and wants to study German, 
but her long-term ambition is to leave Iran and she has many questions about life in the West.",范,师,试样,式,标杆,型号,宗
,,,,,,,
,样板,模,标兵,机型,模型,样,样子
,,,,,1,,
,表率,范例,模范,塑,套,式样,榜样
,,,,,,,
,塑造,典范,型,楷,造型,,
,,,,,,,
,,,,,,,
,,,,,,,
,,,,,,,
,,,,,,,
,,,,,,,
,,,,,,,
,,,,,,,
,,,,,,,
,,,,,,,
113. go,,,,,,Isit#go::,
"I sit next to the man's eldest daughter who takes out her iPhone and shows me photos on her Instagram feed. 
 Most of the images are of Western fashion models. I ask her why and she says: ""Model is the best job.""  She plans to go to university in Tehran and wants to study German, 
but her long-term ambition is to leave Iran and she has many questions about life in the West.",进去,诣,从事,前往,离去,行,走
,1,,,,,,
,徂,赴,适,游,去,进行,
,,,,,,,
,,,,,,,
,,,,,,,
,,,,,,,
,,,,,,,
,,,,,,,
,,,,,,,
,,,,,,,
,,,,,,,
,,,,,,,
,,,,,,,
,,,,,,,
,,,,,,,
,,,,,,,
114. tone,,,,,,It'slate#tone::,
"It's late and after more dancing -- this time in the marble-floored living room to the music coming from the TV -- it's time to go. 
Jahan drives back toward the center of Sanandaj. He sings in Kurdish again, but this time there's a more melancholy tone to the song. 
 How to get there: British, Canadian and U.S. citizens wishing to travel to Iran must do so as part of an official tour due to restrictions on independent travel.",调,声,调准,声调,音,状况,调好
,,,,1,,,
,色调,音调,调子,笔调,,,
,,,,,,,
,,,,,,,
,,,,,,,
,,,,,,,
,,,,,,,
,,,,,,,
,,,,,,,
,,,,,,,
,,,,,,,
,,,,,,,
,,,,,,,
,,,,,,,
,,,,,,,
,,,,,,,
115. heavy,,,,,,"In2009,2#heavy::",
"In 2009, SkyMall's website generated $80.5 million in revenue, making it one of the top 200 e-commerce websites in the world. 
Add in about $50 million in magazine revenues (about the same amount the company reported bringing in from the magazine in 2000, 
according to a Travelocity magazine report) and the company was generating an estimated $130 million in revenue annually just half a decade ago.

A 2013 Atlantic article cast heavy doubts on SkyMall's then-recent merger with the Phoenix-based Xhibit Corp, 
a company it said ""raises all sorts of red flags.""

The Atlantic didn't see good things in SkyMall's future, 
but that had nothing to do with a loss of public appetite for talking picture frames and replica 1957 Chevy Bel-Air convertibles with 3.5 horsepower gas engines that could safely transport a person weighing up to 250 pounds.",俣,句型,大,沉,笨重,重,过胖的
,,,,,,,
,浓,沉重,惨重,,,,
,,1,,,,,
,,,,,,,
,,,,,,,
,,,,,,,
,,,,,,,
,,,,,,,
,,,,,,,
,,,,,,,
,,,,,,,
,,,,,,,
,,,,,,,
,,,,,,,
,,,,,,,
,,,,,,,
116. smoke,,,,,,Notthe#smoke::,
"Not the Stay Fresh Feline Drinking Fountain that kept kitty happy and hydrated while you were in Tibet. 
 Not the Emergency Evacuation Smoke Hood, which looked like a cross between a 1950s cosmonaut training device and a children's toy sold by Irwin Mainway. 
Not the iGrow Hair Rejuvenation Laser.",烟雾,弥漫,抽烟,冒烟,熏,吸烟,烟
,,,,,,,1
