0. still,,,,,,Itis#still::,
"It is the highest-grossing animated film of all time and one of Disney's top franchises. 
It was the most downloaded movie from Apple last year, and kids everywhere are still singing the movie's anthem, 
""Let It Go.""  Heck, it's now probably stuck in your own head right now, even if you have never seen the film.",安,侐,宓,仍然,尚,寂静,依然
,,,,,,,1
,还是,安慰,静止,澶,犹,寂,安生
,,,,,,,
,但,仍,静,还,使 ... 安静,使 ... 放心,依旧
,,,,,,,
,阒,更,恹,但是,,,
,,,,,,,
,,,,,,,
,,,,,,,
,,,,,,,
,,,,,,,
,,,,,,,
,,,,,,,
,,,,,,,
,,,,,,,
,,,,,,,
1. find,,,,,,Sowhy#find::,
"So why has the 2013 movie stuck around for so long for the under-5 set?  Experts say it is not just because you can find images of movie's sisters on everything. 
Elsa and Anna are on dresses, on scooters and, just in time for the Easter season, even on jelly beans. 
 To understand the psychology behind ""Frozen"" Mania, CNN reached out to psychologists who are sisters themselves: Yalda Uhls is regional director for Common Sense Media. 
Maryam Kia-Keating is an associate professor of clinical psychology at University of California, Santa Barbara. 
Here is our edited conversation.",发现,找到,检测,搜寻,感到,拾物,薮
,,,,,,,
,搜索,偷,发觉,感觉到,,,
,,,1,,,,
,,,,,,,
,,,,,,,
,,,,,,,
,,,,,,,
,,,,,,,
,,,,,,,
,,,,,,,
,,,,,,,
,,,,,,,
,,,,,,,
,,,,,,,
,,,,,,,
,,,,,,,
2. time,,,,,,Sowhy#time::,
"So why has the 2013 movie stuck around for so long for the under-5 set?  Experts say it is not just because you can find images of movie's sisters on everything. 
Elsa and Anna are on dresses, on scooters and, just in time for the Easter season, even on jelly beans. 
 To understand the psychology behind ""Frozen"" Mania, CNN reached out to psychologists who are sisters themselves: Yalda Uhls is regional director for Common Sense Media. 
Maryam Kia-Keating is an associate professor of clinical psychology at University of California, Santa Barbara. 
Here is our edited conversation.",倍,年华,时间,候,趟,年份,度
,,,,,,,
,光阴,辰,期,安排正在,工夫,遍,秋
,,,,,,,
,拍,时刻,季节,年头,期间,拍子,时
,,,,,,,
,时候,,,,,,
,,,,,,,
,时期,,,,,,
,,,,,,,
,,,,,,,
,,,,,,,
,,,,,,,
,,,,,,,
,,,,,,,
,,,,,,,
,,,,,,,
3. even,,,,,,Sowhy#even::,
"So why has the 2013 movie stuck around for so long for the under-5 set?  Experts say it is not just because you can find images of movie's sisters on everything. 
Elsa and Anna are on dresses, on scooters and, just in time for the Easter season, even on jelly beans. 
 To understand the psychology behind ""Frozen"" Mania, CNN reached out to psychologists who are sisters themselves: Yalda Uhls is regional director for Common Sense Media. 
Maryam Kia-Keating is an associate professor of clinical psychology at University of California, Santa Barbara. 
Here is our edited conversation.",匀,双日,偶数,双数,匀实,瀡,齐刷刷
,,,,,,,
,相等,犹,连 ... 也,甚至,甚而,匀净,均
,,,1,,,,
,双,齐截,甚或,连,即使,偶,变平
,,,,,,,
,甚至于,就是,,,,,
,1,,,,,,
,,,,,,,
,,,,,,,
,,,,,,,
,,,,,,,
,,,,,,,
,,,,,,,
,,,,,,,
,,,,,,,
,,,,,,,
4. view,,,,,,Kia-Keating:When#view::,
"Kia-Keating: When you're an adult, you've heard a lot of these stories, like ""Snow White"" or ""Cinderella,"" and you forget the power they can have. 
 It's helpful to have a child's point of view on this.  Kids are living in this world where the line between what's real and what's not really is blurry, 
and because they have such vivid imaginations, witches and monsters can feel very real.",见,风光,见解,风貌,目光,览,看
,,,,,,,
,睊,意见,想法,景,意思,主张,视图
,,1,1,,,,
,看法,图景,望,瞻,论,景色,鉴
,1,,,,,,
,,,,,,,
,,,,,,,
,,,,,,,
,,,,,,,
,,,,,,,
,,,,,,,
,,,,,,,
,,,,,,,
,,,,,,,
,,,,,,,
,,,,,,,
5. real,,,,,,It'shelpful2#real::,
"It's helpful to have a child's point of view on this.  Kids are living in this world where the line between what's real and what's not really is blurry, 
and because they have such vivid imaginations, witches and monsters can feel very real.  As adults, 
we may see these villains or monsters as a way to tell a story or a lesson, but when children are in the moment of being scared, 
they are caught up in the fear and not in finding the larger lesson.",非常,真实,确实,实打实,真相,现实,确
,,1,,,,,
,实在,真币,活生生,真正,实际,真,实
,,,,,,,
,,,,,,,
,,,,,,,
,,,,,,,
,,,,,,,
,,,,,,,
,,,,,,,
,,,,,,,
,,,,,,,
,,,,,,,
,,,,,,,
,,,,,,,
,,,,,,,
,,,,,,,
6. process,,,,,,Uhls:I#process::,
"Uhls: I used to work in the film industry, and as adults, we're told that we need conflict to drive drama. 
Take Grimm's Fairy Tales; there are always dire stakes. Or movies like ""Bambi"" and ""The Lion King,"" where the mother or father die. 
 These are serious issues and themes, and sometimes little kids aren't ready to process and understand these ideas. 
 CNN: What about the characters seem so easy for kids to empathize with?",繇,加工,处理,提炼,经过,对 ... 处置,进程
,,,,,,1,
,顺,过程,,,,,
,,,,,,,
,,,,,,,
,,,,,,,
,,,,,,,
,,,,,,,
,,,,,,,
,,,,,,,
,,,,,,,
,,,,,,,
,,,,,,,
,,,,,,,
,,,,,,,
,,,,,,,
,,,,,,,
7. well,,,,,,"In""Frozen,""#well::",
"In ""Frozen,"" Princess Elsa has these powers to control ice and snow -- and that really captures kids' imaginations. 
When you're small, you don't feel powerful. Everyone is always dictating what you can and cannot do. 
Having a character they can empathize with that has these powers can make them feel more empowered, as well. 
 Kia-Keating: That magical piece is exciting and is one of the things that really sets this movie apart from others.",适,安好,顺利,臧,很好,水井,顺手
,,,,,,,
,顺遂,涌,良好,井,满意地,舒服,颛
,,,,,,,
,顺,好,顺当,,,,
,,,,,,,
,也,,,,,,
,,,,,,,
,,,,,,,
,,,,,,,
,,,,,,,
,,,,,,,
,,,,,,,
,,,,,,,
,,,,,,,
,,,,,,,
,,,,,,,
8. down,,,,,,Anotheraspect#down::,
"Another aspect that kids see themselves in Elsa and Anna is the impulsiveness.  Parents are constantly trying to teach their little ones how to self-regulate their emotions, 
how to behave, how to sit down. Elsa is constantly trying to tame or control her emotions -- and while this is something that is salient to everyone throughout their lifetimes, 
this is something preschoolers deal with all the time.",忧闷,击落的,氄,毧,往下,下,击落
,,,,,,1,
,绒毛,下来,忧伤,忧愁,向下,向下的,沿着
,,,,,,,
,,,,,,,
,,,,,,,
,,,,,,,
,,,,,,,
,,,,,,,
,,,,,,,
,,,,,,,
,,,,,,,
,,,,,,,
,,,,,,,
,,,,,,,
,,,,,,,
,,,,,,,
9. direct,,,,,,"TinyDoo,#direct::",
"Tiny Doo, whose real name is Brandon Duncan, faces nine counts of criminal street gang conspiracy because prosecutors allege he and 14 other alleged gang members increased their stature and respect following a rash of shootings in the city in 2013. 
Prosecutors point to Tiny Doo's album, ""No Safety,"" and to lyrics like ""Ain't no safety on this pistol I'm holding"" as examples of a ""direct correlation to what the gang has been doing.""  No one suggests the rapper ever actually pulled a trigger.",点拨,指,正面,向导,驾驭,督导,直接地
,,,,,,,1
,督饰,指导,指挥,指令,主,董,直率
,,,,,,,
,导演,针对,导向,迪,督率,饬,监察
,,1,,,,,
,迳直,主持,直接,,,,
,,,1,,,,
,,,,,,,
,,,,,,,
,,,,,,,
,,,,,,,
,,,,,,,
,,,,,,,
,,,,,,,
,,,,,,,
,,,,,,,
10. just,,,,,,"Infact,#just::",
"In fact, Duncan may rap about violence but he's got no criminal record.  Duncan told CNN's Don Lemon he's just ""painting a picture of urban street life"" with his lyrics. 
 ""The studio is my canvas. I'm just painting a picture,"" he said. ""I'm not telling anybody to go out and kill somebody.""",合乎正道的,只是,刚,只不过,恰恰,公正,甫
,,,,1,,,
,刚好,公平,光是,方,允,顷,义
,,,,,,,
,聊,才,干脆,刚刚,合理的,正,止
,,,,,,,
,只,公,恰,直,简直,啻,
,,,,,,,
,,,,,,,
,,,,,,,
,,,,,,,
,,,,,,,
,,,,,,,
,,,,,,,
,,,,,,,
,,,,,,,
,,,,,,,
11. picture,,,,,,Duncantold#picture::,
"Duncan told CNN's Don Lemon he's just ""painting a picture of urban street life"" with his lyrics.  ""The studio is my canvas. 
I'm just painting a picture,"" he said. ""I'm not telling anybody to go out and kill somebody."" He denied any involvement with any gang but said the prosecution has him concerned about future creative expression.",影,图画,帧,描述,画儿,照片,想得到
,,,,1,,,
,影片,图像,相,画,图片,意想,想象
,,,,,,,
,图,,,,,,
,,,,,,,
,,,,,,,
,,,,,,,
,,,,,,,
,,,,,,,
,,,,,,,
,,,,,,,
,,,,,,,
,,,,,,,
,,,,,,,
,,,,,,,
,,,,,,,
12. straight,,,,,,CNNLegal#straight::,
"CNN Legal Analyst Mark Geragos says the district attorney may be trying to send a message ""that you shouldn't glorify or glamorize gang activity.""  ""The problem is you're going to run straight head-on into the First  Amendment,"" he said. 
""If they don't have anything other than the album, this case I don't think would ever stand up.""",脡,正,挺,海峡,迳直,直行,恂
,,,,,,1,
,直,直接地,直的,直接,,,
,,1,,,,,
,,,,,,,
,,,,,,,
,,,,,,,
,,,,,,,
,,,,,,,
,,,,,,,
,,,,,,,
,,,,,,,
,,,,,,,
,,,,,,,
,,,,,,,
,,,,,,,
,,,,,,,
13. think,,,,,,Thoughit#think::,
"Though it presents plenty of Seussian optimism -- ""And will you succeed? Yes! You will, 
indeed! (98 and 3/4 percent guaranteed.)"" -- it references dark times and stumbles: ""I'm afraid that some times you'll play lonely games too. 
Games you can't win 'cause you'll play against you."" Geisel wrote from experience. After a successful career in advertising, 
his first book, ""And to Think That I Saw It on Mulberry Street,"" was famously rejected multiple times. 
Some projects in print and on screen simply never took off. In his personal life, 
he faced illness and the suicide of his first wife. ""The darkness of the book is what makes the optimism credible,"" Nel said.",怀,思考,看,意,设法,预期,算
,,,,,,,
,预料,揣想,想得到,考虑,思,意想,想到
,,,,,,,
,溯,思索,打量,忆,当,认为,以为
,,,,,,1,
,关心,料想,想起,道,想,念,怀念
,,,,,,,
,想象,臆断,,,,,
,,,,,,,
,,,,,,,
,,,,,,,
,,,,,,,
,,,,,,,
,,,,,,,
,,,,,,,
,,,,,,,
14. house,,,,,,Itssuccess#house::,
"Its success isn't exactly a surprise, said Mallory Loehr, vice president and publisher of Random House Children's Books. 
It was published the year she began her career at Random House, and she remember the buzz around the book even then. 
 ""People knew it was special (in 1990),"" Loehr said. ""But 10 million is crazy.""  The main character is You -- and you, and you, 
and you",驻防,家务,驻守,居,馆,住宅,驻扎
,,,,,,,
,舍,房子,屋子,收容,斋,宅院,驻屯
,1,,,,,,
,屋,房,,,,,
,,,,,,,
,,,,,,,
,,,,,,,
,,,,,,,
,,,,,,,
,,,,,,,
,,,,,,,
,,,,,,,
,,,,,,,
,,,,,,,
,,,,,,,
,,,,,,,
15. around,,,,,,Itssuccess#around::,
"Its success isn't exactly a surprise, said Mallory Loehr, vice president and publisher of Random House Children's Books. 
It was published the year she began her career at Random House, and she remember the buzz around the book even then. 
 ""People knew it was special (in 1990),"" Loehr said. ""But 10 million is crazy.""  The main character is You -- and you, and you, 
and you",靠,左右,围绕,周围,靠近,光景,四处
,,,1,,,,
,在 ... 周围,,,,,,
,,,,,,,
,,,,,,,
,,,,,,,
,,,,,,,
,,,,,,,
,,,,,,,
,,,,,,,
,,,,,,,
,,,,,,,
,,,,,,,
,,,,,,,
,,,,,,,
,,,,,,,
,,,,,,,
16. position,,,,,,Passagesin#position::,
"Passages in ""The Cat in the Hat"" and ""The Lorax"" both slip into the second-person to make a point to readers, 
but Geisel made the main character of ""Oh, The Places You'll Go!"" a person called You, who conveniently happens to be, well, you. 
""That makes the book about the reader and puts the reader in the position of the character,"" Nel said. ""It's a motivator. 
See yourself as the character; take action."" Dr. Seuss had already been a major player in children's literature for decades, 
but this was an early entry into a burgeoning category: children's stories that appeal to adults, 
Loehr said.",姿势,定位,职位,方位,身分,部位,阵脚
,,,,,1,,
,状态,位置,位,阵地,职务,主张,阵
,,,,,,,
,蕴,立论,发现,立场,蕴蓄,姿,地位
,,,,,,,
,,,,,,,
,,,,,,,
,,,,,,,
,,,,,,,
,,,,,,,
,,,,,,,
,,,,,,,
,,,,,,,
,,,,,,,
,,,,,,,
,,,,,,,
17. character,,,,,,Passagesin#character::,
"Passages in ""The Cat in the Hat"" and ""The Lorax"" both slip into the second-person to make a point to readers, 
but Geisel made the main character of ""Oh, The Places You'll Go!"" a person called You, who conveniently happens to be, well, you. 
""That makes the book about the reader and puts the reader in the position of the character,"" Nel said. ""It's a motivator. 
See yourself as the character; take action."" Dr. Seuss had already been a major player in children's literature for decades, 
but this was an early entry into a burgeoning category: children's stories that appeal to adults, 
Loehr said.",文字,字符,人,人物,文,言,品质
,,,,1,,,
,性格,心地,性,臧否,八字,字,个性
,,,,,,,
,性格的,意向,性质,,,,
,,,,,,,
,,,,,,,
,,,,,,,
,,,,,,,
,,,,,,,
,,,,,,,
,,,,,,,
,,,,,,,
,,,,,,,
,,,,,,,
,,,,,,,
,,,,,,,
18. major,,,,,,"""Thatmakes#major::",
"""That makes the book about the reader and puts the reader in the position of the character,"" Nel said. ""It's a motivator. 
See yourself as the character; take action."" Dr. Seuss had already been a major player in children's literature for decades, 
but this was an early entry into a burgeoning category: children's stories that appeal to adults, Loehr said. 
""This is almost a self-help book. People forget that it has pages that really acknowledge that things will be tough some times,"" she said. 
""Sit down; read this book. It will be OK.""",重大,重要,大,主要,成年人,陆军少校,大型
,,1,,1,,,
,主修,,,,,,
,,,,,,,
,,,,,,,
,,,,,,,
,,,,,,,
,,,,,,,
,,,,,,,
,,,,,,,
,,,,,,,
,,,,,,,
,,,,,,,
,,,,,,,
,,,,,,,
,,,,,,,
,,,,,,,
19. top,,,,,,Allof#top::,
"All of the top five clubs for the 2013-14 financial year saw their revenue surpass the $500-million mark for the first time on a list dominated by the English Premier League, 
home to five of this year's top 10 and eight of the 20-strong list. As a result of the latest Premier League broadcast rights deal, 
all of its teams have made it into the world's top 40 highest-earning clubs. This year is the 18th running of Deloitte's Money League, 
which has been dominated by Real for a decade, although Manchester United catapulted past both Barcelona ($563.5 million) and Bayern Munich ($566.8 million) to move into second place with revenues of $602.3 million, 
a hike in revenue of some $110 million.",极,颠,面,尖峰,顶部,盖,顶端
,,,,,,,
,尖,上身,最大的,上面的,头,顶,顶级
,,,,,,,1
,最高的,,,,,,
,,,,,,,
,,,,,,,
,,,,,,,
,,,,,,,
,,,,,,,
,,,,,,,
,,,,,,,
,,,,,,,
,,,,,,,
,,,,,,,
,,,,,,,
,,,,,,,
20. line,,,,,,"""Itjust#line::",
"""It just broke me to lose that second set,"" Federer told reporters. ""And actually the fourth, I should win it, too. 
Just a brutal couple of sets to lose there."" Seppi completed the upset in stunning fashion, 
scrambling before hitting an instinctive forehand passing shot winner down the line. 
 ""For sure it was one of the important shots of my life,"" said Seppi.",路线,诗句,排,衬,线路,行列,衲
,,,,,1,,
,线条,划线于,纹,系,线,,
,,,,,,,
,,,,,,,
,,,,,,,
,,,,,,,
,,,,,,,
,,,,,,,
,,,,,,,
,,,,,,,
,,,,,,,
,,,,,,,
,,,,,,,
,,,,,,,
,,,,,,,
,,,,,,,
21. even,,,,,,Federerthus#even::,
"Federer thus exited, despite winning more points in the match overall, 145 to 144. 
 ""I felt for some reason yesterday and this morning it was not going to be very simple today,"" Federer said. 
""Even in practice I still felt the same way.  ""I was just hoping it was one of those feelings you sometimes have and it's totally not true and you just come out and you play a routine match. 
I was aware of the test and was well prepared.",匀,双日,偶数,双数,匀实,瀡,齐刷刷
,,,,,,,
,相等,犹,连 ... 也,甚至,甚而,匀净,均
,,,1,,,,
,双,齐截,甚或,连,即使,偶,变平
,,,,,,,
,甚至于,就是,,,,,
,,,,,,,
,,,,,,,
,,,,,,,
,,,,,,,
,,,,,,,
,,,,,,,
,,,,,,,
,,,,,,,
,,,,,,,
,,,,,,,
22. still,,,,,,Federerthus#still::,
"Federer thus exited, despite winning more points in the match overall, 145 to 144. 
 ""I felt for some reason yesterday and this morning it was not going to be very simple today,"" Federer said. 
""Even in practice I still felt the same way.  ""I was just hoping it was one of those feelings you sometimes have and it's totally not true and you just come out and you play a routine match. 
I was aware of the test and was well prepared.",安,侐,宓,仍然,尚,寂静,依然
,,,,,,,
,还是,安慰,静止,澶,犹,寂,安生
,,,,,,,
,但,仍,静,还,使 ... 安静,使 ... 放心,依旧
,,1,,1,,,
,阒,更,恹,但是,,,
,,,,,,,
,,,,,,,
,,,,,,,
,,,,,,,
,,,,,,,
,,,,,,,
,,,,,,,
,,,,,,,
,,,,,,,
,,,,,,,
23. come,,,,,,"""Ifelt#come::",
"""I felt for some reason yesterday and this morning it was not going to be very simple today,"" Federer said. 
""Even in practice I still felt the same way.  ""I was just hoping it was one of those feelings you sometimes have and it's totally not true and you just come out and you play a routine match. 
I was aware of the test and was well prepared.  ""Just somehow couldn't play my best tennis today. 
It was definitely partially because of Andreas playing very well.""",过来,来,来到,发生,,,
,,,,,,,
,出来,,,,,,
,,,,,,,
,,,,,,,
,,,,,,,
,,,,,,,
,,,,,,,
,,,,,,,
,,,,,,,
,,,,,,,
,,,,,,,
,,,,,,,
,,,,,,,
,,,,,,,
,,,,,,,
,,,,,,,
24. round,,,,,,Federerlost#round::,
"Federer lost a set in the second round to Seppi's fellow Italian, Simone Bolelli. 
He -- and this is rare for Federer -- called for the trainer to address an issue with his hand. 
Federer thought he might have been stung by a bee.  He didn't mention the hand or any other physical issue in his briefing with reporters.",巡,籀,环行,拐弯,圆,球形,围绕
,,,,,,,
,周围,轮,回合,丰满,团,轮唱,附近
,,1,1,,,,
,圜,范围,,,,,
,,,,,,,
,,,,,,,
,,,,,,,
,,,,,,,
,,,,,,,
,,,,,,,
,,,,,,,
,,,,,,,
,,,,,,,
,,,,,,,
,,,,,,,
,,,,,,,
25. short,,,,,,Hedidn't#short::,
"He didn't mention the hand or any other physical issue in his briefing with reporters. 
 Federer also defended his decision to play exhibition matches in India in December during tennis' notoriously short off-season. 
 ""I wanted to go to India,"" said Federer. ""I wanted to go back to Switzerland for Christmas. 
I practiced as hard as I possibly could.",局促,简要,酥,简略,短暂,酥脆,短
,,,,,,,1
,矬,急促,矮,俴,不足,短裤,傥
,,,,,,,
,不够,简短,遽,轾,短缺,,
,,,,,,,
,短暂,,,,,,
,,,,,,,
,,,,,,,
,,,,,,,
,,,,,,,
,,,,,,,
,,,,,,,
,,,,,,,
,,,,,,,
,,,,,,,
,,,,,,,
26. end,,,,,,"""Iwanted#end::",
"""I wanted to go to India,"" said Federer. ""I wanted to go back to Switzerland for Christmas. 
I practiced as hard as I possibly could.  ""Can't do more than that. Sure, the year ended late, but one week later than normal. 
At the end of the day, honestly I'm confident that what I did was the right thing."" Federer's exit means Murray's path to the semifinals has become significantly easier. 
The two-time grand slam champion and Federer were, on paper, due to meet in the quarterfinals.",殁,结论,告终,穷尽,收场,截止,末日
,,,,,,,
,止境,终了,末,终端,界限,终止,尽
,,,,,,,
,尾,尾声,终,穷期,卒,委,寝
,,,,,,,
,末梢,罢,结束,办到,端,完毕,完结
,,,,,,,
,穷,终点,底,末尾,歾,,
,,,,,,,
,最终,,,,,,
,,,,,,,
,,,,,,,
,,,,,,,
,,,,,,,
,,,,,,,
,,,,,,,
27. bounce,,,,,,"ForFountain,#bounce::",
"For Fountain, the endgame goes beyond getting his players a T20 contract. ""I want to inject enough talent into USA cricket, 
to see it bounce back up the rankings. I want to coach a USA team at a World Cup."" A team already exists, 
but he believes replacing its largely ex-pat spine with American baseball talent is the only way it can join the elite.",跃,骤,蹦,蓦,乱跳,跳,绷
,,,,,,,
,跳跃,弹跳,蹿条,,,,
,,,,,,,
,回彈,,,,,,
,,,,,,,
,,,,,,,
,,,,,,,
,,,,,,,
,,,,,,,
,,,,,,,
,,,,,,,
,,,,,,,
,,,,,,,
,,,,,,,
,,,,,,,
,,,,,,,
28. back,,,,,,"ForFountain,#back::",
"For Fountain, the endgame goes beyond getting his players a T20 contract. ""I want to inject enough talent into USA cricket, 
to see it bounce back up the rankings. I want to coach a USA team at a World Cup."" A team already exists, 
but he believes replacing its largely ex-pat spine with American baseball talent is the only way it can join the elite.",后部,以前,后身,背面,襄,腰杆子,腰
,,,,,,,
,后面,脊,后的,支持,后,脊背,后边
,,,,,,,
,后部的,冀,翊,赌钱,后面的,后边的,向后
,,,,,,,
,回,,,,,,
,,,,,,,
,,,,,,,
,,,,,,,
,,,,,,,
,,,,,,,
,,,,,,,
,,,,,,,
,,,,,,,
,,,,,,,
,,,,,,,
29. back,,,,,,Ateam#back::,
"A team already exists, but he believes replacing its largely ex-pat spine with American baseball talent is the only way it can join the elite. 
""Wearing a jersey with the flag on the front and your name on the back is huge for any American,"" says Dean. 
But Fountain has also let his early sign ups know that there are a few things to iron out before he can start printing jerseys. 
""I'm aiming for tryouts in the spring, so the guys who are already with teams, or trying out for teams can also come and try out for me,"" says Fountain.",后部,以前,后身,背面,襄,腰杆子,腰
,,,,,,,
,后面,脊,后的,支持,后,脊背,后边
,1,,,,,,
,后部的,冀,翊,赌钱,后面的,后边的,向后
,,,,,,,
,,,,,,,
,,,,,,,
,,,,,,,
,,,,,,,
,,,,,,,
,,,,,,,
,,,,,,,
,,,,,,,
,,,,,,,
,,,,,,,
,,,,,,,
30. try,,,,,,"""Wearinga#try::",
"""Wearing a jersey with the flag on the front and your name on the back is huge for any American,"" says Dean. 
But Fountain has also let his early sign ups know that there are a few things to iron out before he can start printing jerseys. 
""I'm aiming for tryouts in the spring, so the guys who are already with teams, or trying out for teams can also come and try out for me,"" says Fountain. 
""Sponsorship is crucial. We're in talks with some interested parties but even if companies like Greyhound can lay on some tickets to get these players to the tryout, 
that would help.",尝试,谋求,试图,讅,试做,设法,睯
,,,,,,,
,想法,试验,试,试用,审,企图,
,,,1,,,,
,,,,,,,
,,,,,,,
,,,,,,,
,,,,,,,
,,,,,,,
,,,,,,,
,,,,,,,
,,,,,,,
,,,,,,,
,,,,,,,
,,,,,,,
,,,,,,,
,,,,,,,
31. even,,,,,,"""I'maiming#even::",
"""I'm aiming for tryouts in the spring, so the guys who are already with teams, or trying out for teams can also come and try out for me,"" says Fountain. 
""Sponsorship is crucial. We're in talks with some interested parties but even if companies like Greyhound can lay on some tickets to get these players to the tryout, 
that would help. ""I've wanted to do this for years -- I talked to some TV companies about a reality TV show back in 2010 and I hope it could still be a part of it.""",匀,双日,偶数,双数,匀实,瀡,齐刷刷
,,,,,,,
,相等,犹,连 ... 也,甚至,甚而,匀净,均
,,,,,,,
,双,齐截,甚或,连,即使,偶,变平
,,,,,,,
,甚至于,就是,,,,,
,,,,,,,
,就连,,,,,,
,,,,,,,
,,,,,,,
,,,,,,,
,,,,,,,
,,,,,,,
,,,,,,,
,,,,,,,
,,,,,,,
32. first,,,,,,"BrendenKalfus,#first::",
"Brenden Kalfus, 23, was another earning in the region of $14,000 a year with a Blue Jays affiliate before they let him go this past season. 
""I think if we all started playing cricket, I don't think the expectation would be that we're going to be stars and make millions,"" he says. 
""It would just be great to be the first to bring it out to America. Then see where it goes after that."" If the project stalls, 
Boomer Collins is prepared to go it alone.",第一,首先,上,第一位,首要的,首,初
,,,,,,,
,起点,最初,一次,第一个,第一次,甲,头
,,,,1,,,
,上个,开始,憖,元,先,最先,乍
,,,,,,,
,原始,首次,一日,开端,,,
,,,,,,,
,,,,,,,
,,,,,,,
,,,,,,,
,,,,,,,
,,,,,,,
,,,,,,,
,,,,,,,
,,,,,,,
,,,,,,,
33. project,,,,,,"""Ithink#project::",
"""I think if we all started playing cricket, I don't think the expectation would be that we're going to be stars and make millions,"" he says. 
""It would just be great to be the first to bring it out to America. Then see where it goes after that."" If the project stalls, 
Boomer Collins is prepared to go it alone. ""The whole thing with me is that whatever happens, 
I still want to go overseas and try because I have got that excitement so high,"" he says.",表达,预测,工程,项目,预报,计划,发射
,,,1,,,,
,放映,投射,,,,,
,,,,,,,
,,,,,,,
,,,,,,,
,,,,,,,
,,,,,,,
,,,,,,,
,,,,,,,
,,,,,,,
,,,,,,,
,,,,,,,
,,,,,,,
,,,,,,,
,,,,,,,
,,,,,,,
34. work,,,,,,"""Thewhole#work::",
"""The whole thing with me is that whatever happens, I still want to go overseas and try because I have got that excitement so high,"" he says. 
""I still want to go and train with Julien to try it out myself. If we can work out a living situation with food, 
I would do it in a heartbeat. I don't have to have some sort of income, just as long as me and my wife have food and a place to stay. 
""I know that I'm not going to be the best in the world in the first five years of playing the sport. 
But I'm also never going to go in and say, 'I'll just be OK.'",劳方,工,工夫,做事,做工,事,干
,,,,,,,
,作业,劳,作,工作,活计,办事,劳工
,,,,,,,
,在职,事务,活,机件,运转,劳动,
,,,,,,,
,,,,,,,
,,,,,,,
,,,,,,,
,,,,,,,
,,,,,,,
,,,,,,,
,,,,,,,
,,,,,,,
,,,,,,,
,,,,,,,
,,,,,,,
35. place,,,,,,"""Thewhole#place::",
"""The whole thing with me is that whatever happens, I still want to go overseas and try because I have got that excitement so high,"" he says. 
""I still want to go and train with Julien to try it out myself. If we can work out a living situation with food, 
I would do it in a heartbeat. I don't have to have some sort of income, just as long as me and my wife have food and a place to stay. 
""I know that I'm not going to be the best in the world in the first five years of playing the sport. 
But I'm also never going to go in and say, 'I'll just be OK.'",搁,境,地方,处,摆列,寄托,场地
,,,1,,,,
,部位,寄予,座,停放,厝,地点,席
,,,,,,,
,地,点,禺,放,所,竖立,寄
,,,,,,,
,置于,摆,位置,位,到位,放置,竖
,,,,,,,
,地位,扣,场,安放,场所,摆放,置
,,,,,,,
,位子,去处,座位,,,,
,,,,,,,
,,,,,,,
,,,,,,,
,,,,,,,
,,,,,,,
,,,,,,,
36. first,,,,,,"""Istill#first::",
"""I still want to go and train with Julien to try it out myself. If we can work out a living situation with food, 
I would do it in a heartbeat. I don't have to have some sort of income, just as long as me and my wife have food and a place to stay. 
""I know that I'm not going to be the best in the world in the first five years of playing the sport. 
But I'm also never going to go in and say, 'I'll just be OK.' ""I'm going to go and try and be the best cricket player in the world.""",第一,首先,上,第一位,首要的,首,初
,,,,,,1,
,起点,最初,一次,第一个,第一次,甲,头
,,,,,,,
,上个,开始,憖,元,先,最先,乍
,,,,,,,
,原始,首次,一日,开端,,,
,,,,,,,
,,,,,,,
,,,,,,,
,,,,,,,
,,,,,,,
,,,,,,,
,,,,,,,
,,,,,,,
,,,,,,,
,,,,,,,
37. go,,,,,,"""Istill#go::",
"""I still want to go and train with Julien to try it out myself. If we can work out a living situation with food, 
I would do it in a heartbeat. I don't have to have some sort of income, just as long as me and my wife have food and a place to stay. 
""I know that I'm not going to be the best in the world in the first five years of playing the sport. 
But I'm also never going to go in and say, 'I'll just be OK.' ""I'm going to go and try and be the best cricket player in the world.""",进去,诣,从事,前往,离去,行,走
,,,,,,,
,徂,赴,适,游,去,进行,
,,,,,1,,
,,,,,,,
,,,,,,,
,,,,,,,
,,,,,,,
,,,,,,,
,,,,,,,
,,,,,,,
,,,,,,,
,,,,,,,
,,,,,,,
,,,,,,,
,,,,,,,
,,,,,,,
38. day,,,,,,"However,the#day::",
"However, the schedule for the President's departure from India has been adjusted to allow Obama to stop in Riyadh himself on his way home, 
White House press secretary Josh Earnest said. Funeral services were held Friday for King Abdullah bin Abdulaziz al Saud, 
who died earlier that day. He was 90. World leaders are now traveling to the Saudi capital, Riyadh, 
to offer condolences for Abdullah's death and pay their respects to the new ruler.",日,旦,天,昼,辰,白天,日子
,,,1,,,,
,,,,,,,
,,,,,,,
,,,,,,,
,,,,,,,
,,,,,,,
,,,,,,,
,,,,,,,
,,,,,,,
,,,,,,,
,,,,,,,
,,,,,,,
,,,,,,,
,,,,,,,
,,,,,,,
,,,,,,,
39. offer,,,,,,Funeralservices#offer::,
"Funeral services were held Friday for King Abdullah bin Abdulaziz al Saud, who died earlier that day. He was 90. 
World leaders are now traveling to the Saudi capital, Riyadh, to offer condolences for Abdullah's death and pay their respects to the new ruler. 
Abdullah was seen by many as a cautious reformer who succeeded in securing broader freedoms in the conservative kingdom, 
but fell short in gaining greater independence for women.",议案,发给,提供,敬,意,发放,让
,,,,,,,
,纳,呈,献,供,捐助,开设,
,,1,1,,,,
,,,,,,,
,,,,,,,
,,,,,,,
,,,,,,,
,,,,,,,
,,,,,,,
,,,,,,,
,,,,,,,
,,,,,,,
,,,,,,,
,,,,,,,
,,,,,,,
,,,,,,,
40. new,,,,,,Funeralservices#new::,
"Funeral services were held Friday for King Abdullah bin Abdulaziz al Saud, who died earlier that day. He was 90. 
World leaders are now traveling to the Saudi capital, Riyadh, to offer condolences for Abdullah's death and pay their respects to the new ruler. 
Abdullah was seen by many as a cautious reformer who succeeded in securing broader freedoms in the conservative kingdom, 
but fell short in gaining greater independence for women.",异,新颖,新兴,新任,全新,新,新奇
,,,,1,,,
,耗,,,,,,
,,,,,,,
,,,,,,,
,,,,,,,
,,,,,,,
,,,,,,,
,,,,,,,
,,,,,,,
,,,,,,,
,,,,,,,
,,,,,,,
,,,,,,,
,,,,,,,
,,,,,,,
,,,,,,,
41. trip,,,,,,Earnestsaid#trip::,
"Earnest said Obama's schedule had been changed in coordination with the Indian government and that he would now be leaving India after giving a speech on Tuesday. 
""The President regrets that he will be unable to visit Agra during this trip,"" Earnest said. 
Agra is where the spectacular Taj Mahal mausoleum is located. Biden will now remain in Washington rather than go to Saudi Arabia.",征,旅,旅程,羇,蹈,绊,踬
,,,1,,,,
,跲,旅游,旅途,趟,,,
,,,1,1,,,
,,,,,,,
,,,,,,,
,,,,,,,
,,,,,,,
,,,,,,,
,,,,,,,
,,,,,,,
,,,,,,,
,,,,,,,
,,,,,,,
,,,,,,,
,,,,,,,
,,,,,,,
42. king,,,,,,Ina#king::,
"In a sign of the kingdom's importance to the United States, President Barack Obama made hurried plans to call in Saudi Arabia on Tuesday after his trip to India to pay his respects to Abdullah and his family and to meet with King Salman. 
Originally, Vice President Joe Biden was to have made the trip. The message from Washington is clearly : Long live the new king. 
The regal choreography in Riyadh is especially welcome to the White House as it contrasts with events just across the border in Yemen, 
another key ally where a US-backed government crucial to its anti-terror campaign has just been toppled to rebels supported by Iran.",君王,王,辟,国王,,,
,,1,,,,,
,,,,,,,
,,,,,,,
,,,,,,,
,,,,,,,
,,,,,,,
,,,,,,,
,,,,,,,
,,,,,,,
,,,,,,,
,,,,,,,
,,,,,,,
,,,,,,,
,,,,,,,
,,,,,,,
,,,,,,,
43. change,,,,,,Salmanvowed#change::,
"Salman vowed just hours after the death of Abdullah, that the kingdom ""would continue adhering to the correct policies which Saudi Arabia has followed since its establishment."" State Department spokeswoman Jen Psaki said that the allies had a ""long history of cooperation. 
We don't have any indication that that cooperation will change."" Saudi watchers in Washington were impressed and reassured by the line of succession outlined by Salman in an apparent effort to solve a dynastic riddle and send a signal of continuity to the outside world.",易,倒,迁变,变化,转变,变动,转换
,,,,,,,
,改变,改,更换,涂改,迁,改动,换车
,1,,,,,,
,改造,变迁,辅币,变革,变,换,演变
,,,,,,,1
,更改,迭,换取,让位,更,串换,移
,,,,,,,
,变更,,,,,,
,,,,,,,
,,,,,,,
,,,,,,,
,,,,,,,
,,,,,,,
,,,,,,,
,,,,,,,
,,,,,,,
44. new,,,,,,Saudiwatchers#new::,
"Saudi watchers in Washington were impressed and reassured by the line of succession outlined by Salman in an apparent effort to solve a dynastic riddle and send a signal of continuity to the outside world. 
He named Prince Mohammed bin Nayef, one of scores of posssible candidates, as deputy crown prince, 
a move which puts him second in line to the throne and establishes a future transfer of power from the sons of the founder of Saudi Arabia, 
King Abdulaziz Ibn Saud, who have ruled the country since the 1950s, to a new generation. ""I think for the near term, 
continuity is going to be the centerpiece here,"" said Daniel Benjamin, a former coordinator for counter-terrorism at the State Department, 
now at Dartmouth College, told CNN.",异,新颖,新兴,新任,全新,新,新奇
,,,,,,1,
,耗,,,,,,
,,,,,,,
,,,,,,,
,,,,,,,
,,,,,,,
,,,,,,,
,,,,,,,
,,,,,,,
,,,,,,,
,,,,,,,
,,,,,,,
,,,,,,,
,,,,,,,
,,,,,,,
,,,,,,,
45. stay,,,,,,"""Thereis#stay::",
"""There is now a member of the generation of the grandchildren who is second in line, 
he is a very close friend of the United States ... so I think there is a lot of hope the relationship will stay on an even keel."" Prince Mohammed, 
now behind the King's brother Prince Muqrin, 69, in the line of succession, is a frequent visitor to the United States and has presided over Saudi Arabia's anti-terrorism program. 
He narrowly escaped an assassination bid by Al-Qaeda in 2009.",羁,待,处,迟留,撑,逗,栖
,,,,,,,
,羇泊,栖止,撑条,盘旋,留下,一直保持,呆
,,,,,,,
,留,盘桓,停,逗留,住宿,栖身,延缓
,,,,1,,,
,耽搁,,,,,,
,,,,,,,
,,,,,,,
,,,,,,,
,,,,,,,
,,,,,,,
,,,,,,,
,,,,,,,
,,,,,,,
,,,,,,,
,,,,,,,
46. stroke,,,,,,"PrinceMohammed,#stroke::",
"Prince Mohammed, now behind the King's brother Prince Muqrin, 69, in the line of succession, 
is a frequent visitor to the United States and has presided over Saudi Arabia's anti-terrorism program. 
He narrowly escaped an assassination bid by Al-Qaeda in 2009. The succession plan was viewed as particularly important following unconfirmed reports that Salman has been in ill health himself, 
apparently having suffered a stroke. Tom Donilon, pointman for US relations with Saudi Arabia when he was Obama's National Security Advisor, 
praised Abdullah as a ""solid"" ally who had ensured two decades of stability in the kingdom.",中风,积储,摩,捋,摩挲,行程,嘉
,1,,,,,,
,划,笔锋,积存,摸,抚,冲程,笔
,,,,,,,
,,,,,,,
,,,,,,,
,,,,,,,
,,,,,,,
,,,,,,,
,,,,,,,
,,,,,,,
,,,,,,,
,,,,,,,
,,,,,,,
,,,,,,,
,,,,,,,
,,,,,,,
47. record,,,,,,"Critics,including#record::",
"Critics, including some in the U.S. government, faulted Saudis for backing jihadists movements throughout the region for geopolitical reasons. 
The Saudi government has also balked at U.S. criticisms of its human rights record and political system.",履历,唱片,纪,档案,纪录,识,案卷
,,,,,,,
,记,簿籍,记录,案,籍,录音,录
,,,1,,,,
,志,注,笔录,创纪录的,记载,收录,鋕
,,,,,,,
,登,,,,,,
,,,,,,,
,,,,,,,
,,,,,,,
,,,,,,,
,,,,,,,
,,,,,,,
,,,,,,,
,,,,,,,
,,,,,,,
,,,,,,,
48. better,,,,,,"""Akey#better::",
"""A key element of our relationship with the Saudis over the years has been transparency, 
not always in public but we have done a good job in talking to each other,"" he said. 
""When you leave your allies out of the conversation and they don't understand your negotiating position or don't understand how you are going to enforce an agreement. 
they are left to their own conclusions. ""I think we are doing a lot better at that.""",优越,更好,较好,愈,上,改进,改善
,,,1,,,,
,爽性,赢,优胜,轶,强,宁愿,
,,,,,,,
,,,,,,,
,,,,,,,
,,,,,,,
,,,,,,,
,,,,,,,
,,,,,,,
,,,,,,,
,,,,,,,
,,,,,,,
,,,,,,,
,,,,,,,
,,,,,,,
,,,,,,,
49. game,,,,,,"Forme,#game::",
"For me, addiction boils down to constant reinforcement, or put more simply, being constantly rewarded while playing the game. 
Gaming rewards can be physiological (such as feeling ""high"" or getting a ""buzz"" while playing or beating your personal high score), 
psychological (such as feeling you have complete control in a specific situation or knowing that your strategic play helped you win), 
social (such as being congratulated by fellow gamers when doing something well in the game) and, in some cases, 
financial (such as winning a gaming tournament).  Most of these rewards are -- at least to some extent -- unpredictable. 
Not knowing when the next reward will come keeps some players in the game. In short, 
they carry on gaming even though they may not have received an immediate reward. They simply hope that another reward is ""just around the corner"" and keep on playing. 
 Added to this is the shift over the last decade from standalone console gaming to massively multiplayer online games where games never end and gamers have to compete and/or collaborate with other gamers in real time (instead of being able to pause the game and come back and play from the point at which the player left it). 
Many excessive gamers report that they hate logging off and leaving such games. They don't like it as they don't know what is going on in the game when they are not online.",勇敢的,游戏,有胆量的,玩耍,赌钱,盘,赛
,,1,,,,,
,比赛,,,,,,
,,,,,,,
,,,,,,,
,,,,,,,
,,,,,,,
,,,,,,,
,,,,,,,
,,,,,,,
,,,,,,,
,,,,,,,
,,,,,,,
,,,,,,,
,,,,,,,
,,,,,,,
,,,,,,,
50. report,,,,,,Mostof#report::,
"Most of these rewards are -- at least to some extent -- unpredictable. Not knowing when the next reward will come keeps some players in the game. 
In short, they carry on gaming even though they may not have received an immediate reward. 
They simply hope that another reward is ""just around the corner"" and keep on playing. 
 Added to this is the shift over the last decade from standalone console gaming to massively multiplayer online games where games never end and gamers have to compete and/or collaborate with other gamers in real time (instead of being able to pause the game and come back and play from the point at which the player left it). 
Many excessive gamers report that they hate logging off and leaving such games. They don't like it as they don't know what is going on in the game when they are not online. 
 The last five years has seen large increase in the number of scientific studies on problematic gaming. In May 2013, 
the American Psychiatric Association published the  fifth edition of the ""Diagnostic and Statistical Manual of Mental Disorders""(DSM-5). 
For the first time, the DSM-5 included ""internet gaming disorder"" (IGD) as a psychological condition that warrants future research.",报,反映,报告,愬,调查报告,汇报,讲
,,1,,,,,
,呈报,,,,,,
,,,,,,,
,,,,,,,
,,,,,,,
,,,,,,,
,,,,,,,
,,,,,,,
,,,,,,,
,,,,,,,
,,,,,,,
,,,,,,,
,,,,,,,
,,,,,,,
,,,,,,,
,,,,,,,
51. number,,,,,,Addedto#number::,
"Added to this is the shift over the last decade from standalone console gaming to massively multiplayer online games where games never end and gamers have to compete and/or collaborate with other gamers in real time (instead of being able to pause the game and come back and play from the point at which the player left it). 
Many excessive gamers report that they hate logging off and leaving such games. They don't like it as they don't know what is going on in the game when they are not online. 
 The last five years has seen large increase in the number of scientific studies on problematic gaming. In May 2013, 
the American Psychiatric Association published the  fifth edition of the ""Diagnostic and Statistical Manual of Mental Disorders""(DSM-5). 
For the first time, the DSM-5 included ""internet gaming disorder"" (IGD) as a psychological condition that warrants future research. 
 Throughout my research career I have argued that although all addictions have particular and idiosyncratic characteristics, 
they share more commonalities than differences such as total preoccupation, mood modification, cravings, tolerance, 
withdrawal symptoms, conflict with work, education and other people, and loss of control. 
These similarities likely reflect a common etiology of addictive behavior.",次,码,数字,号码,遍号码,报数,数
,,,,,,,
,韵律,号,编号,数目,多少,,
,,,,,,,
,数量,,,,,,
,,,,,,,
,,,,,,,
,,,,,,,
,,,,,,,
,,,,,,,
,,,,,,,
,,,,,,,
,,,,,,,
,,,,,,,
,,,,,,,
,,,,,,,
,,,,,,,
52. first,,,,,,Addedto#first::,
"Added to this is the shift over the last decade from standalone console gaming to massively multiplayer online games where games never end and gamers have to compete and/or collaborate with other gamers in real time (instead of being able to pause the game and come back and play from the point at which the player left it). 
Many excessive gamers report that they hate logging off and leaving such games. They don't like it as they don't know what is going on in the game when they are not online. 
 The last five years has seen large increase in the number of scientific studies on problematic gaming. In May 2013, 
the American Psychiatric Association published the  fifth edition of the ""Diagnostic and Statistical Manual of Mental Disorders""(DSM-5). 
For the first time, the DSM-5 included ""internet gaming disorder"" (IGD) as a psychological condition that warrants future research. 
 Throughout my research career I have argued that although all addictions have particular and idiosyncratic characteristics, 
they share more commonalities than differences such as total preoccupation, mood modification, cravings, tolerance, 
withdrawal symptoms, conflict with work, education and other people, and loss of control. 
These similarities likely reflect a common etiology of addictive behavior.",第一,首先,上,第一位,首要的,首,初
,,,,,,,
,起点,最初,一次,第一个,第一次,甲,头
,,,,,,,
,上个,开始,憖,元,先,最先,乍
,,,,,,,
,原始,首次,一日,开端,,,
,,1,,,,,
,,,,,,,
,,,,,,,
,,,,,,,
,,,,,,,
,,,,,,,
,,,,,,,
,,,,,,,
,,,,,,,
,,,,,,,
53. condition,,,,,,Addedto#condition::,
"Added to this is the shift over the last decade from standalone console gaming to massively multiplayer online games where games never end and gamers have to compete and/or collaborate with other gamers in real time (instead of being able to pause the game and come back and play from the point at which the player left it). 
Many excessive gamers report that they hate logging off and leaving such games. They don't like it as they don't know what is going on in the game when they are not online. 
 The last five years has seen large increase in the number of scientific studies on problematic gaming. In May 2013, 
the American Psychiatric Association published the  fifth edition of the ""Diagnostic and Statistical Manual of Mental Disorders""(DSM-5). 
For the first time, the DSM-5 included ""internet gaming disorder"" (IGD) as a psychological condition that warrants future research. 
 Throughout my research career I have argued that although all addictions have particular and idiosyncratic characteristics, 
they share more commonalities than differences such as total preoccupation, mood modification, cravings, tolerance, 
withdrawal symptoms, conflict with work, education and other people, and loss of control. 
These similarities likely reflect a common etiology of addictive behavior.",态,境,训练,教练,状况,养肥,条件
,,,,,,,
,候,肥育,状态,田地,制约,况,状
,,,1,,,,
,决定,情,环境,精整,阵势,造成,光景
,,,,,,,
,地步,境地,境况,,,,
,,,,,,,
,,,,,,,
,,,,,,,
,,,,,,,
,,,,,,,
,,,,,,,
,,,,,,,
,,,,,,,
,,,,,,,
,,,,,,,
54. life,,,,,,MarkGriffiths#life::,
"Mark Griffiths So when does a healthy enthusiasm turn into an addiction? At the simplest level, 
healthy enthusiasms add to life and addictions take away from it. But how much is too much? This is difficult to answer as I know many gamers who play many hours every day without any detrimental effects. 
 The DSM-5 lists nine criteria for IGD. If any gamer endorses five or more of the following criteria they would likely be diagnosed as having IGD: (1) preoccupation with internet games; (2) withdrawal symptoms when internet gaming is taken away; (3) the need to spend increasing amounts of time engaged in internet gaming, 
(4) unsuccessful attempts to control participation in internet gaming; (5) loss of interest in hobbies and entertainment as a result of, 
and with the exception of, internet gaming; (6) continued excessive use of internet games despite knowledge of psychosocial problems; (7) deception of family members, 
therapists, or others regarding the amount of internet gaming; (8) use of the internet gaming to escape or relieve a negative mood;  and (9) loss of a significant relationship, 
job, or educational or career opportunity because of participation in internet games.",生命,春,生机,身,寿命,活命,世面
,,,1,,,,
,性命,人生,寿,生物,世,生活,命
,,,,,,,
,日子,生,,,,,
,,,,,,,
,,,,,,,
,,,,,,,
,,,,,,,
,,,,,,,
,,,,,,,
,,,,,,,
,,,,,,,
,,,,,,,
,,,,,,,
,,,,,,,
,,,,,,,
55. answer,,,,,,MarkGriffiths#answer::,
"Mark Griffiths So when does a healthy enthusiasm turn into an addiction? At the simplest level, 
healthy enthusiasms add to life and addictions take away from it. But how much is too much? This is difficult to answer as I know many gamers who play many hours every day without any detrimental effects. 
 The DSM-5 lists nine criteria for IGD. If any gamer endorses five or more of the following criteria they would likely be diagnosed as having IGD: (1) preoccupation with internet games; (2) withdrawal symptoms when internet gaming is taken away; (3) the need to spend increasing amounts of time engaged in internet gaming, 
(4) unsuccessful attempts to control participation in internet gaming; (5) loss of interest in hobbies and entertainment as a result of, 
and with the exception of, internet gaming; (6) continued excessive use of internet games despite knowledge of psychosocial problems; (7) deception of family members, 
therapists, or others regarding the amount of internet gaming; (8) use of the internet gaming to escape or relieve a negative mood;  and (9) loss of a significant relationship, 
job, or educational or career opportunity because of participation in internet games.",答对,复,搭腔,应,答话,响应,答案
,,,,,,,
,解答,作答,荅,回话,应对,回答,顺应
,,,,,,1,
,答,答理,回,答应,答复,对,酬对
,,,,,1,,
,应答,,,,,,
,,,,,,,
,,,,,,,
,,,,,,,
,,,,,,,
,,,,,,,
,,,,,,,
,,,,,,,
,,,,,,,
,,,,,,,
,,,,,,,
56. good,,,,,,Sowhen#good::,
"So when does a healthy enthusiasm turn into an addiction? At the simplest level, healthy enthusiasms add to life and addictions take away from it. 
But how much is too much? This is difficult to answer as I know many gamers who play many hours every day without any detrimental effects. 
 The DSM-5 lists nine criteria for IGD. If any gamer endorses five or more of the following criteria they would likely be diagnosed as having IGD: (1) preoccupation with internet games; (2) withdrawal symptoms when internet gaming is taken away; (3) the need to spend increasing amounts of time engaged in internet gaming, 
(4) unsuccessful attempts to control participation in internet gaming; (5) loss of interest in hobbies and entertainment as a result of, 
and with the exception of, internet gaming; (6) continued excessive use of internet games despite knowledge of psychosocial problems; (7) deception of family members, 
therapists, or others regarding the amount of internet gaming; (8) use of the internet gaming to escape or relieve a negative mood;  and (9) loss of a significant relationship, 
job, or educational or career opportunity because of participation in internet games. 
The good news is that only a small minority of gamers suffer form IGD. Most online games are fun and exciting to play. 
But like any activity that is taken to excess, in a minority of cases the activity can become addictive.",善,嘉,美,合乎正道的,爽口,颛,优良
,,,,,,,
,良好,不赖,合适的,和蔼的,和蔼可亲的,要得,乖
,,,,,,,
,益处,善良,甜头,姤,臧,和善的,好
,,,,,,,1
,良,佳,拿手,嫽,赢余,,
,,,,,,,
,,,,,,,
,,,,,,,
,,,,,,,
,,,,,,,
,,,,,,,
,,,,,,,
,,,,,,,
,,,,,,,
,,,,,,,
57. use,,,,,,Thegood#use::,
"The good news is that only a small minority of gamers suffer form IGD. Most online games are fun and exciting to play. 
But like any activity that is taken to excess, in a minority of cases the activity can become addictive. 
Any activity if done for days on end could lead to severe health problems and even death -- and gaming is no exception. 
Instead of demonizing games, we need to educate gamers about the potential dangers of very excessive use.",将,利用,应用,使用,使唤,用,功用
,,,,1,,,
,庸,施,采用,用场,采取,使出,展
,,,,,,,
,补,运用,施用,以,用途,用于,使
,,,,,,,
,动,赢余,意向,,,,
,,,,,,,
,,,,,,,
,,,,,,,
,,,,,,,
,,,,,,,
,,,,,,,
,,,,,,,
,,,,,,,
,,,,,,,
,,,,,,,
58. firm,,,,,,"Microsoft(MSFT,#firm::",
"Microsoft (MSFT, Tech30) just patented a way to make your phone less noticeable and disruptive when you're in certain environments (Microsoft calls it ""inconspicuous mode""). 
You can use it at a movie theater, a dinner date or at home about to go to bed.   The U.S. 
government awarded Microsoft the patent on Thursday. The award was first noticed by Patent Yogi, an Indian consulting firm. 
  It's all based on the notion that your phone can annoy the person next to you -- especially if you're in a dark, 
quiet place.",严格,坚硬地,坚定,决心,刚,加固,稳固
,,,,,,,
,坚,碻,劼,稳健,坚决,弄结实,厂商
,,,,,,,
,牢靠,坚固,硬性,严竣,监,磐,牢
,,,,,,,
,加强,企业,牢固,狠,果断,硬,坚固地
,,1,,,,,
,确,公司,刚强,固,,,
,,,,,,,
,,,,,,,
,,,,,,,
,,,,,,,
,,,,,,,
,,,,,,,
,,,,,,,
,,,,,,,
59. check,,,,,,It'sall#check::,
"It's all based on the notion that your phone can annoy the person next to you -- especially if you're in a dark, quiet place. 
  Incoming message? Need to check the time? Got an unstoppable itch to check Instagram? You're about to bathe your neighbors in a monstrously bright light and set off a chain of irksome bleeps. 
  In ""inconspicuous mode,"" sounds are gone, and the screen is a faint glow. Notifications don't show up on the home screen. 
The time is displayed in large numbers that are easier to glace at.",考,牵制,将,按,将军,验,稽查
,,,,,,,
,阻止,阻止物,查对,驾驭,寄存,审核,遏制
,,,,,,,
,校,支票,清查,截,校验,考查,阻击
,,,,,,,
,盘点,核,详述,检,制止,稽核,遏
,,,,,,,
,托运,卡,查验,考核,查,格子,帐单
,,,,,1,,
,监察,把关,检查的,抑止,清点,,
,,,,,,,
,,,,,,,
,,,,,,,
,,,,,,,
,,,,,,,
,,,,,,,
60. key,,,,,,InMicrosoft's#key::,
"In Microsoft's description, you could tailor the ""inconspicuous"" display any way you like. Maybe it only shows text messages. 
Or it dims more than normal.   But the key feature is that it would be automatic. 
It would go into this mode if your phone's GPS detects you're at the location of a movie theater. 
Or if a restaurant's or stage theater's Wi-Fi or Bluetooth beacons tell it to. Or if your phone's light sensor detects darkness while the microphone also detects silence (like just before a movie starts playing). 
  To figure this out, the phone could even tap your calendar or your recent mobile payments. 
If you bought event tickets at the counter using tap-to-pay technology, your phone would know when to go quiet.",钤键,基本的,钥,根本,图例,调调,锁上
,,,,,,,
,窍,窍门,键,电键,钥匙,关键,答案
,,,,,,1,
,主要的,,,,,,
,,,,,,,
,,,,,,,
,,,,,,,
,,,,,,,
,,,,,,,
,,,,,,,
,,,,,,,
,,,,,,,
,,,,,,,
,,,,,,,
,,,,,,,
,,,,,,,
61. figure,,,,,,InMicrosoft's#figure::,
"In Microsoft's description, you could tailor the ""inconspicuous"" display any way you like. Maybe it only shows text messages. 
Or it dims more than normal.   But the key feature is that it would be automatic. 
It would go into this mode if your phone's GPS detects you're at the location of a movie theater. 
Or if a restaurant's or stage theater's Wi-Fi or Bluetooth beacons tell it to. Or if your phone's light sensor detects darkness while the microphone also detects silence (like just before a movie starts playing). 
  To figure this out, the phone could even tap your calendar or your recent mobile payments. 
If you bought event tickets at the counter using tap-to-pay technology, your phone would know when to go quiet.",外形,图解,数字,人士,筭,形像,位
,,,,,,,
,揣,音型,数,身材,谋取,身段,图形
,,,,,,,
,轮廓,画像,盘算,人物,,,
,,,,,,,
,揣摩,,,,,,
,,,,,,,
,,,,,,,
,,,,,,,
,,,,,,,
,,,,,,,
,,,,,,,
,,,,,,,
,,,,,,,
,,,,,,,
,,,,,,,
62. counter,,,,,,Butthe#counter::,
"But the key feature is that it would be automatic. It would go into this mode if your phone's GPS detects you're at the location of a movie theater. 
Or if a restaurant's or stage theater's Wi-Fi or Bluetooth beacons tell it to. Or if your phone's light sensor detects darkness while the microphone also detects silence (like just before a movie starts playing). 
  To figure this out, the phone could even tap your calendar or your recent mobile payments. 
If you bought event tickets at the counter using tap-to-pay technology, your phone would know when to go quiet. 
  If this gets popular, venues will probably be quick to embrace it. Mobile phone use in theaters is so pervasive nowadays that brief ""please silence your phones"" requests are now full-blown, 
pre-movie short films. And every performance by the New York Philharmonic is preceded by a 30-second, 
pre-recorded plea by Alec Baldwin. It's downright embarrassing.",应答,柜台,应对,筹码,案子,违反,计数器
,,1,,,,,
,相反的,筹,相反地,响应,计数者,,
,,,,,,,
,,,,,,,
,,,,,,,
,,,,,,,
,,,,,,,
,,,,,,,
,,,,,,,
,,,,,,,
,,,,,,,
,,,,,,,
,,,,,,,
,,,,,,,
,,,,,,,
,,,,,,,
63. go,,,,,,Butthe#go::,
"But the key feature is that it would be automatic. It would go into this mode if your phone's GPS detects you're at the location of a movie theater. 
Or if a restaurant's or stage theater's Wi-Fi or Bluetooth beacons tell it to. Or if your phone's light sensor detects darkness while the microphone also detects silence (like just before a movie starts playing). 
  To figure this out, the phone could even tap your calendar or your recent mobile payments. 
If you bought event tickets at the counter using tap-to-pay technology, your phone would know when to go quiet. 
  If this gets popular, venues will probably be quick to embrace it. Mobile phone use in theaters is so pervasive nowadays that brief ""please silence your phones"" requests are now full-blown, 
pre-movie short films. And every performance by the New York Philharmonic is preceded by a 30-second, 
pre-recorded plea by Alec Baldwin. It's downright embarrassing.",进去,诣,从事,前往,离去,行,走
,,,,1,,,
,徂,赴,适,游,去,进行,
,,,,,,,
,,,,,,,
,,,,,,,
,,,,,,,
,,,,,,,
,,,,,,,
,,,,,,,
,,,,,,,
,,,,,,,
,,,,,,,
,,,,,,,
,,,,,,,
,,,,,,,
,,,,,,,
64. case,,,,,,It'snot#case::,
"It's not a peyote-induced hallucination, but a genuinely impressive illusion created by Microsoft's (MSFT, 
Tech30) new augmented-reality goggles, HoloLens.   In this case, it was a 3-D game of Minecraft taking place, on, over, under, 
behind and inside real furniture and walls. As you move your head and body around, the illusion moves completely with you in 3-D, 
remarkably affixed to the real world objects.",箱子,机身,例,事件,套子,椟,案情
,,,,,,,
,例证,盒子,诉讼,案件,外壳,景况,案子
,,,,,,,
,框,壳体,案,匣,盒,套,机壳
,,,1,,,,
,套管,事例,格,壳,例子,匣子,函
,,,,,,,
,,,,,,,
,,,,,,,
,,,,,,,
,,,,,,,
,,,,,,,
,,,,,,,
,,,,,,,
,,,,,,,
,,,,,,,
65. piece,,,,,,Inthis#piece::,
"In this case, it was a 3-D game of Minecraft taking place, on, over, under, behind and inside real furniture and walls. 
As you move your head and body around, the illusion moves completely with you in 3-D, 
remarkably affixed to the real world objects.   Microsoft previewed the brand new piece of hardware on Wednesday. 
HoloLens is Microsoft's foray into the virtual reality market. In its unique spin on VR, 
Microsoft has developed goggles that offer an augmented -- or ""mixed"" -- reality experience. Unlike Facebook's (FB, 
Tech30) Oculus Rift, which completely blocks out the outside world to fully immerse the wearer in another reality, 
HoloLens keeps one foot (and both eyes) firmly planted in the real world.   The lenses of the goggles are transparent, 
your view of the space around you only selectively blocked by digital images that can mingle with real objects. For example, 
an interior designer can move around a real room and rearrange 3-D pieces of furniture too see how they will look, 
even placing a virtual vase on a real shelf.",瓣,篇,一片,片,篇子,紩,个
,,,,,,,1
,棋子,一块,块,连贯,拼凑,拚,部分
,,,,,,,
,拼,拼合,,,,,
,,,,,,,
,,,,,,,
,,,,,,,
,,,,,,,
,,,,,,,
,,,,,,,
,,,,,,,
,,,,,,,
,,,,,,,
,,,,,,,
,,,,,,,
,,,,,,,
66. around,,,,,,Microsoftpreviewed#around::,
"Microsoft previewed the brand new piece of hardware on Wednesday. HoloLens is Microsoft's foray into the virtual reality market. 
In its unique spin on VR, Microsoft has developed goggles that offer an augmented -- or ""mixed"" -- reality experience. 
Unlike Facebook's (FB, Tech30) Oculus Rift, which completely blocks out the outside world to fully immerse the wearer in another reality, 
HoloLens keeps one foot (and both eyes) firmly planted in the real world.   The lenses of the goggles are transparent, 
your view of the space around you only selectively blocked by digital images that can mingle with real objects. For example, 
an interior designer can move around a real room and rearrange 3-D pieces of furniture too see how they will look, 
even placing a virtual vase on a real shelf.   To manipulate something in the HoloLens world, you use hand gestures, 
which are picked up by cameras on the front of the device. The single wiggle of an index finger can drop a flag on the surface of Mars or select a color for your 3-D sculpture. 
The cursor is always at the center of your view, moving when you move your head. Microphones pick up voice commands that bring up menus.",靠,左右,围绕,周围,靠近,光景,四处
,,,,1,,,
,在 ... 周围,,,,,,
,,,,,,,
,,,,,,,
,,,,,,,
,,,,,,,
,,,,,,,
,,,,,,,
,,,,,,,
,,,,,,,
,,,,,,,
,,,,,,,
,,,,,,,
,,,,,,,
,,,,,,,
,,,,,,,
67. hand,,,,,,Thelenses#hand::,
"The lenses of the goggles are transparent, your view of the space around you only selectively blocked by digital images that can mingle with real objects. 
For example, an interior designer can move around a real room and rearrange 3-D pieces of furniture too see how they will look, 
even placing a virtual vase on a real shelf.   To manipulate something in the HoloLens world, you use hand gestures, 
which are picked up by cameras on the front of the device. The single wiggle of an index finger can drop a flag on the surface of Mars or select a color for your 3-D sculpture. 
The cursor is always at the center of your view, moving when you move your head. Microphones pick up voice commands that bring up menus. 
  The goggles are wireless and don't need to be tethered to any device, so while they're meant for home or office use, 
they wearer is able to roam freely. The speakers play ""spacial"" sound, so a noise might seem like it's coming from behind or beside you, 
adding to the virtual reality experience.",手的,手,笔迹,雇员,递交,巴掌,人
,1,,,,,,
,,,,,,,
,,,,,,,
,,,,,,,
,,,,,,,
,,,,,,,
,,,,,,,
,,,,,,,
,,,,,,,
,,,,,,,
,,,,,,,
,,,,,,,
,,,,,,,
,,,,,,,
,,,,,,,
,,,,,,,
68. drop,,,,,,Thelenses#drop::,
"The lenses of the goggles are transparent, your view of the space around you only selectively blocked by digital images that can mingle with real objects. 
For example, an interior designer can move around a real room and rearrange 3-D pieces of furniture too see how they will look, 
even placing a virtual vase on a real shelf.   To manipulate something in the HoloLens world, you use hand gestures, 
which are picked up by cameras on the front of the device. The single wiggle of an index finger can drop a flag on the surface of Mars or select a color for your 3-D sculpture. 
The cursor is always at the center of your view, moving when you move your head. Microphones pick up voice commands that bring up menus. 
  The goggles are wireless and don't need to be tethered to any device, so while they're meant for home or office use, 
they wearer is able to roam freely. The speakers play ""spacial"" sound, so a noise might seem like it's coming from behind or beside you, 
adding to the virtual reality experience.",掉,撒,投,降落,沥,下降,减退
,,,,,,,
,放下,点,点子,落,降,跌,衰退
,1,,,,,,
,摔,摔交,改掉,水滴,降低,摔倒,作罢
,,,,,,,
,滴,落下,,,,,
,,,,,,,
,,,,,,,
,,,,,,,
,,,,,,,
,,,,,,,
,,,,,,,
,,,,,,,
,,,,,,,
,,,,,,,
,,,,,,,
69. show,,,,,,Related:Microsoft's#show::,
"Related: Microsoft's insane holographic vision of the future. After an on-stage demonstration of the sleek, 
wraparound black glasses, Microsoft gave reporters four hands-on demos of the device at its Redmond, Washington headquarters. 
(Notably, the goggles I tested were not the finished product Microsoft demonstrated on stage -- they had jumbles of exposed electronic elements connected to a box that hung around my neck). 
  The demonstration scenarios attempted to show real examples of practical uses for the technology.",表示,显示,演示,出示,龇,表露,表现
,,,,,,,
,向导,透,放映,意味着,带,表演,献
,,,,,,,
,现,露,表明,暴,示,展览会,揭示
,,,1,,,,
,指引,演出,寄予,摆,呈,戏,著
,,,,,,,
,使被看见,表,节目,披露,展览,显,外观
,,,,,,,
,,,,,,,
,,,,,,,
,,,,,,,
,,,,,,,
,,,,,,,
,,,,,,,
,,,,,,,
70. play,,,,,,Thedemonstration#play::,
"The demonstration scenarios attempted to show real examples of practical uses for the technology.   Video games. 
Gamers tend to be enthusiastic early adopters of experimental immersive technology, 
and the stunning Minecraft demo seemed like the most natural and realistic use case. 
I do not usually play Minecraft but would absolutely start, and maybe forget to stop, if I had a HoloLens.   Customer service. 
A Skype call demo was to walk me through fixing a broken light. The person on the other end of the call could see what I saw (real wires, 
tools, a hole in the wall) and could annotate my view with colorful lines and arrows. 
She even doodled a little diagram on a patch of blank wall. Remote customer support is a commonly imagined use for smart glasses, 
including Google Glass. While a neat thing to have, it's nothing a phone or PC running video chat wouldn't be able to accomplish.",游玩,弄,玩儿,嬉,耍,盘弄,演
,,,1,,,,
,逗,游戏,吹奏,演戏,玩,表演,戏剧
,,,,,,,
,玩耍,赌博,玩弄,演出,饰演,奏,戏
,,,,,,,
,嬉戏,赌钱,剧本,比赛,剧,顽,嫽
,,,,,,,
,,,,,,,
,,,,,,,
,,,,,,,
,,,,,,,
,,,,,,,
,,,,,,,
,,,,,,,
,,,,,,,
,,,,,,,
71. walk,,,,,,Videogames.#walk::,
"Video games. Gamers tend to be enthusiastic early adopters of experimental immersive technology, 
and the stunning Minecraft demo seemed like the most natural and realistic use case. 
I do not usually play Minecraft but would absolutely start, and maybe forget to stop, if I had a HoloLens.   Customer service. 
A Skype call demo was to walk me through fixing a broken light. The person on the other end of the call could see what I saw (real wires, 
tools, a hole in the wall) and could annotate my view with colorful lines and arrows. 
She even doodled a little diagram on a patch of blank wall. Remote customer support is a commonly imagined use for smart glasses, 
including Google Glass. While a neat thing to have, it's nothing a phone or PC running video chat wouldn't be able to accomplish. 
  Design. HoloStudio is a creative app that is designed for anyone to easily tinker with, like a beefed up MS Paint. 
A palette of colors and shapes floats in front of the artist who can create simple or complex 3-D models. 
Final designs can be ordered online, and a printed version of your 3-D purple skyscraper will be delivered to your door.",步行,步,走道,跋,行,走,行走
,,,,,,,
,游,躘,走路,跞,,,
,,,,,,,
,引导,,,,,,
,,,,,,,
,,,,,,,
,,,,,,,
,,,,,,,
,,,,,,,
,,,,,,,
,,,,,,,
,,,,,,,
,,,,,,,
,,,,,,,
,,,,,,,
,,,,,,,
72. view,,,,,,Videogames.#view::,
"Video games. Gamers tend to be enthusiastic early adopters of experimental immersive technology, 
and the stunning Minecraft demo seemed like the most natural and realistic use case. 
I do not usually play Minecraft but would absolutely start, and maybe forget to stop, if I had a HoloLens.   Customer service. 
A Skype call demo was to walk me through fixing a broken light. The person on the other end of the call could see what I saw (real wires, 
tools, a hole in the wall) and could annotate my view with colorful lines and arrows. 
She even doodled a little diagram on a patch of blank wall. Remote customer support is a commonly imagined use for smart glasses, 
including Google Glass. While a neat thing to have, it's nothing a phone or PC running video chat wouldn't be able to accomplish. 
  Design. HoloStudio is a creative app that is designed for anyone to easily tinker with, like a beefed up MS Paint. 
A palette of colors and shapes floats in front of the artist who can create simple or complex 3-D models. 
Final designs can be ordered online, and a printed version of your 3-D purple skyscraper will be delivered to your door.",见,风光,见解,风貌,目光,览,看
,,,,,1,,
,睊,意见,想法,景,意思,主张,视图
,,,,,,,
,看法,图景,望,瞻,论,景色,鉴
,,,,,,,
,,,,,,,
,,,,,,,
,,,,,,,
,,,,,,,
,,,,,,,
,,,,,,,
,,,,,,,
,,,,,,,
,,,,,,,
,,,,,,,
,,,,,,,
73. support,,,,,,Videogames.#support::,
"Video games. Gamers tend to be enthusiastic early adopters of experimental immersive technology, 
and the stunning Minecraft demo seemed like the most natural and realistic use case. 
I do not usually play Minecraft but would absolutely start, and maybe forget to stop, if I had a HoloLens.   Customer service. 
A Skype call demo was to walk me through fixing a broken light. The person on the other end of the call could see what I saw (real wires, 
tools, a hole in the wall) and could annotate my view with colorful lines and arrows. 
She even doodled a little diagram on a patch of blank wall. Remote customer support is a commonly imagined use for smart glasses, 
including Google Glass. While a neat thing to have, it's nothing a phone or PC running video chat wouldn't be able to accomplish. 
  Design. HoloStudio is a creative app that is designed for anyone to easily tinker with, like a beefed up MS Paint. 
A palette of colors and shapes floats in front of the artist who can create simple or complex 3-D models. 
Final designs can be ordered online, and a printed version of your 3-D purple skyscraper will be delivered to your door.",持,撑腰,养活,撑,腰杆子,襄,帮
,,,,,,,
,资,帮助,台,支子,声援,翼庇,作主
,,,,,1,,
,支,伴唱,抵,戴,拥护,支援,救援
,,,,,,,
,慉,扶助,翊,支持,济,靠山,拥戴
,,,,,,,
,托子,支撑,赡,拥,承受,扶植,拯
,,,,,,,
,供养,帮扶,援助,支架,养,输将,承
,,,,,,,
,,,,,,,
,,,,,,,
,,,,,,,
,,,,,,,
,,,,,,,
74. turn,,,,,,Design.HoloStudio#turn::,
"Design. HoloStudio is a creative app that is designed for anyone to easily tinker with, like a beefed up MS Paint. 
A palette of colors and shapes floats in front of the artist who can create simple or complex 3-D models. 
Final designs can be ordered online, and a printed version of your 3-D purple skyscraper will be delivered to your door. 
  Virtual reality. At NASA's Jet Propulsion Laboratory, scientists regularly dig through images of Mars collected by the Curiosity Rover. 
They've collaborated with Microsoft to create a program that places them inside a 3-D rendering of Mars using HoloLens. 
Whether you look up or down, turn left or right, or walk forward or back, the landscape shifts accordingly so you feel like you're taking a stroll on the red planet. 
  The Mars demo was one of the few times I wished I was using full virtual reality goggles. 
They had reasons for wanted to keep reality involved -- JPL scientists are working not playing, 
and they need to use other tools like computers at the same time. But as impressive as it was, 
the mixed-reality version of Mars looked thin and desaturated.",斡,翻倒,顺序,摇,车,掉,轮流
,,,,,,,
,转,转动,拐,弯,化,捩,翻
,1,,,,,,
,弯子,纽,翻转,,,,
,,,,,,,
,,,,,,,
,,,,,,,
,,,,,,,
,,,,,,,
,,,,,,,
,,,,,,,
,,,,,,,
,,,,,,,
,,,,,,,
,,,,,,,
,,,,,,,
75. right,,,,,,Design.HoloStudio#right::,
"Design. HoloStudio is a creative app that is designed for anyone to easily tinker with, like a beefed up MS Paint. 
A palette of colors and shapes floats in front of the artist who can create simple or complex 3-D models. 
Final designs can be ordered online, and a printed version of your 3-D purple skyscraper will be delivered to your door. 
  Virtual reality. At NASA's Jet Propulsion Laboratory, scientists regularly dig through images of Mars collected by the Curiosity Rover. 
They've collaborated with Microsoft to create a program that places them inside a 3-D rendering of Mars using HoloLens. 
Whether you look up or down, turn left or right, or walk forward or back, the landscape shifts accordingly so you feel like you're taking a stroll on the red planet. 
  The Mars demo was one of the few times I wished I was using full virtual reality goggles. 
They had reasons for wanted to keep reality involved -- JPL scientists are working not playing, 
and they need to use other tools like computers at the same time. But as impressive as it was, 
the mixed-reality version of Mars looked thin and desaturated.",纠正,向右,直接地,权利,是,然,权
,,1,,,,,
,合适的,正义,当,顒,拨正,直的,合理的
,,,,,,,
,有方,右方的,不错,韪,右,右边,对
,,,,,1,,
,直接,在理,,,,,
,,,,,,,
,,,,,,,
,,,,,,,
,,,,,,,
,,,,,,,
,,,,,,,
,,,,,,,
,,,,,,,
,,,,,,,
,,,,,,,
76. feel,,,,,,Design.HoloStudio#feel::,
"Design. HoloStudio is a creative app that is designed for anyone to easily tinker with, like a beefed up MS Paint. 
A palette of colors and shapes floats in front of the artist who can create simple or complex 3-D models. 
Final designs can be ordered online, and a printed version of your 3-D purple skyscraper will be delivered to your door. 
  Virtual reality. At NASA's Jet Propulsion Laboratory, scientists regularly dig through images of Mars collected by the Curiosity Rover. 
They've collaborated with Microsoft to create a program that places them inside a 3-D rendering of Mars using HoloLens. 
Whether you look up or down, turn left or right, or walk forward or back, the landscape shifts accordingly so you feel like you're taking a stroll on the red planet. 
  The Mars demo was one of the few times I wished I was using full virtual reality goggles. 
They had reasons for wanted to keep reality involved -- JPL scientists are working not playing, 
and they need to use other tools like computers at the same time. But as impressive as it was, 
the mixed-reality version of Mars looked thin and desaturated.",知觉,觉察,触摸,摸索,觉得,感到,觉
,,,,,1,,
,挲,认为,意会,感觉,摸,触觉,感觉到
,,1,,,,,
,作,感,,,,,
,,,,,,,
,,,,,,,
,,,,,,,
,,,,,,,
,,,,,,,
,,,,,,,
,,,,,,,
,,,,,,,
,,,,,,,
,,,,,,,
,,,,,,,
,,,,,,,
77. thin,,,,,,Virtualreality.#thin::,
"Virtual reality. At NASA's Jet Propulsion Laboratory, scientists regularly dig through images of Mars collected by the Curiosity Rover. 
They've collaborated with Microsoft to create a program that places them inside a 3-D rendering of Mars using HoloLens. 
Whether you look up or down, turn left or right, or walk forward or back, the landscape shifts accordingly so you feel like you're taking a stroll on the red planet. 
  The Mars demo was one of the few times I wished I was using full virtual reality goggles. 
They had reasons for wanted to keep reality involved -- JPL scientists are working not playing, 
and they need to use other tools like computers at the same time. But as impressive as it was, 
the mixed-reality version of Mars looked thin and desaturated.   Full and partial virtual reality look different because of the underlying technology. 
HoloLens doesn't display images on any screen, but projects light directly onto the retina, 
imitating the way light travels from real objects. The augmented view is contained in a rectangle directly in front of your face. 
Oculus Rift shows its images on a screen in front of the eyes and extends farther out and around for a more encompassing view.",孱弱,淡,薄,瘦,纤细,细,稀疏
,,,,,,,
,疏,稀播,嘒,单,空洞的,单薄,瘦削
,,,,,1,1,
,消瘦,薄地,淡薄,,,,
,,,,,,,
,,,,,,,
,,,,,,,
,,,,,,,
,,,,,,,
,,,,,,,
,,,,,,,
,,,,,,,
,,,,,,,
,,,,,,,
,,,,,,,
,,,,,,,
78. full,,,,,,Virtualreality.#full::,
"Virtual reality. At NASA's Jet Propulsion Laboratory, scientists regularly dig through images of Mars collected by the Curiosity Rover. 
They've collaborated with Microsoft to create a program that places them inside a 3-D rendering of Mars using HoloLens. 
Whether you look up or down, turn left or right, or walk forward or back, the landscape shifts accordingly so you feel like you're taking a stroll on the red planet. 
  The Mars demo was one of the few times I wished I was using full virtual reality goggles. 
They had reasons for wanted to keep reality involved -- JPL scientists are working not playing, 
and they need to use other tools like computers at the same time. But as impressive as it was, 
the mixed-reality version of Mars looked thin and desaturated.   Full and partial virtual reality look different because of the underlying technology. 
HoloLens doesn't display images on any screen, but projects light directly onto the retina, 
imitating the way light travels from real objects. The augmented view is contained in a rectangle directly in front of your face. 
Oculus Rift shows its images on a screen in front of the eyes and extends farther out and around for a more encompassing view.",充分,详尽,充沛,赅,稛,匝,饱
,,1,,,,,
,弥,整整,充份,足,弸,盈满,满
,,,,,,,
,充,盈,尽是,盎然,浡,详,饫
,,,,,,,
,充满,富有,饱满,丰满,详细,,
,,,,,,,
,,,,,,,
,,,,,,,
,,,,,,,
,,,,,,,
,,,,,,,
,,,,,,,
,,,,,,,
,,,,,,,
,,,,,,,
79. way,,,,,,TheMars#way::,
"The Mars demo was one of the few times I wished I was using full virtual reality goggles. 
They had reasons for wanted to keep reality involved -- JPL scientists are working not playing, 
and they need to use other tools like computers at the same time. But as impressive as it was, 
the mixed-reality version of Mars looked thin and desaturated.   Full and partial virtual reality look different because of the underlying technology. 
HoloLens doesn't display images on any screen, but projects light directly onto the retina, 
imitating the way light travels from real objects. The augmented view is contained in a rectangle directly in front of your face. 
Oculus Rift shows its images on a screen in front of the eyes and extends farther out and around for a more encompassing view. 
  The virtual reality space is still mostly filled with buzz and not-ready-for-prime-time products. 
But VR has been anointed the next big thing by a tech industry hungry for something fresh and exciting to woo customers.",径,路径,办法,途,路上,非常,状态
,,,,,,,
,般,路线,样,方,途径,方法,作法
,,,,,,,
,繇,中途,道,道路,作风,路,迳
,,,,,,,1
,法,,,,,,
,,,,,,,
,,,,,,,
,,,,,,,
,,,,,,,
,,,,,,,
,,,,,,,
,,,,,,,
,,,,,,,
,,,,,,,
,,,,,,,
80. light,,,,,,TheMars#light::,
"The Mars demo was one of the few times I wished I was using full virtual reality goggles. 
They had reasons for wanted to keep reality involved -- JPL scientists are working not playing, 
and they need to use other tools like computers at the same time. But as impressive as it was, 
the mixed-reality version of Mars looked thin and desaturated.   Full and partial virtual reality look different because of the underlying technology. 
HoloLens doesn't display images on any screen, but projects light directly onto the retina, 
imitating the way light travels from real objects. The augmented view is contained in a rectangle directly in front of your face. 
Oculus Rift shows its images on a screen in front of the eyes and extends farther out and around for a more encompassing view. 
  The virtual reality space is still mostly filled with buzz and not-ready-for-prime-time products. 
But VR has been anointed the next big thing by a tech industry hungry for something fresh and exciting to woo customers.",薄,明亮,明亮的,轻便,阳光,朗,暘
,,,,,,,
,粗心,轻微,生,脚灯,忧,点燃,纾缓
,,,,,,,
,亮,昱,燃点,暲,燃放,点,光纤
,,,,,,,
,发光体,燃,浅,灯光,光,晔,轻浮
,,,,,,,
,淡,圣光,晢,淡薄,荧,嫩,轻飘
,,,,,,,
,灯,娇嫩,发光,轻,烺,,
,,,,,,,
,光线,,,,,,
,,,,,,,
,,,,,,,
,,,,,,,
,,,,,,,
81. real,,,,,,Thevirtual#real::,
"The virtual reality space is still mostly filled with buzz and not-ready-for-prime-time products. 
But VR has been anointed the next big thing by a tech industry hungry for something fresh and exciting to woo customers. 
  Overlaying digital 3-D creations onto the real world is cool, but are there practical uses are there for this type of technology?   Microsoft hopes so. 
HoloLens was by far the most interesting announcement at a daylong event for Windows 10, 
and one Microsoft believes can help get customers excited about its products again.",非常,真实,确实,实打实,真相,现实,确
,,1,,,,,
,实在,真币,活生生,真正,实际,真,实
,,,,,,,
,,,,,,,
,,,,,,,
,,,,,,,
,,,,,,,
,,,,,,,
,,,,,,,
,,,,,,,
,,,,,,,
,,,,,,,
,,,,,,,
,,,,,,,
,,,,,,,
,,,,,,,
82. top,,,,,,"""Chicagoreclaims#top::",
"""Chicago reclaims its place"" as the ""world's busiest airport,"" Chicago Mayor Rahm Emanuel said in a statement Thursday, 
crediting new airline routes, newly relocated businesses and the city's strong economy. 
But Atlanta's Hartsfield-Jackson remains No. 1 in annual passenger traffic. Spokesman Reese McCranie said the airport is projected to top 96 million passengers for 2014, 
compared with O'Hare, which handled 66.7 million in 2013. That put O'Hare in fifth place globally for passengers. 
""With our friends in Chicago, it's always a little bit of friendly rivalry,"" McCranie said. 
""Our operations folks are probably getting ribbed by their operations folks for edging us out. But you know, 
we're all one aviation system, so when O'Hare does well, other airports -- including ours -- do well.",极,颠,面,尖峰,顶部,盖,顶端
,,,,,,,
,尖,上身,最大的,上面的,头,顶,顶级
,,,,,,,
,最高的,,,,,,
,,,,,,,
,抵达,,,,,,
,,,,,,,
,,,,,,,
,,,,,,,
,,,,,,,
,,,,,,,
,,,,,,,
,,,,,,,
,,,,,,,
,,,,,,,
,,,,,,,
83. right,,,,,,Ina#right::,
"In a typical display of Iranian hospitality, they've offered to accompany me on the journey. 
To the left of the narrow road is a vertical, sand-colored mountain wall.  To the right, 
a 50-foot drop and a view across the spectacular Howraman Valley, a sparsely populated and beautiful part of the region.",纠正,向右,直接地,权利,是,然,权
,,,,,,,
,合适的,正义,当,顒,拨正,直的,合理的
,,,,,,,
,有方,右方的,不错,韪,右,右边,对
,,1,,,,,
,直接,在理,,,,,
,,,,,,,
,,,,,,,
,,,,,,,
,,,,,,,
,,,,,,,
,,,,,,,
,,,,,,,
,,,,,,,
,,,,,,,
,,,,,,,
84. part,,,,,,Tothe2#part::,
"To the left of the narrow road is a vertical, sand-colored mountain wall.  To the right, 
a 50-foot drop and a view across the spectacular Howraman Valley, a sparsely populated and beautiful part of the region. 
On the eastern edge of Iran, Kurdistan province makes up part of a broader Kurdish region, 
which also spans adjacent sections of Iraq, Syria and Turkey.",诀,异,处,角色,分,部分地,向
,,,,,,,
,多多少少,股,片段,局部,断裂,段,离
,,,,,,,
,分别,部分,局,集,握别,局部地,部件
,,1,,,,,
,角,机件,组成,段落,分开,部,仳
,,,,,,,
,间,构件,份,,,,
,,,,,,,
,,,,,,,
,,,,,,,
,,,,,,,
,,,,,,,
,,,,,,,
,,,,,,,
,,,,,,,
85. common,,,,,,"Colorfuldress,#common::",
"Colorful dress, religions at odds Culturally and linguistically, the residents here have more in common with their fellow Kurds across the border than with Iranians from Tehran, 
Esfahan or Shiraz. Dress is traditional: men sport baggy shalwar trousers, plain shirts and heavy felt waistcoats, 
while the women wear colorful dresses and headscarves rather than the black chador or hijab seen throughout much of the rest of Iran.",简,平常,普遍,简单,寻常,常见,公
,,,,,,,
,一般,共,普通,恒,常规,公共,平
,,,,,,,
,常,通,共同,通俗,,,
,,,1,,,,
,,,,,,,
,,,,,,,
,,,,,,,
,,,,,,,
,,,,,,,
,,,,,,,
,,,,,,,
,,,,,,,
,,,,,,,
,,,,,,,
,,,,,,,
86. home,,,,,,Onthe#home::,
"On the way, we stop in a tiny village called Negel.  The mosque in the village is home to large, 
handwritten Quran said to be about 1,300 years old.  The mosque's facade carries an inscription naming Abu Bakr the first caliph and, 
according to Sunni Muslims, the rightful successor of the prophet Mohammed.",斋,故乡,家园,乡土,家,,
,,,,,,,
,所在地,,,,,,
,,,,,,,
,,,,,,,
,,,,,,,
,,,,,,,
,,,,,,,
,,,,,,,
,,,,,,,
,,,,,,,
,,,,,,,
,,,,,,,
,,,,,,,
,,,,,,,
,,,,,,,
,,,,,,,
87. down,,,,,,Anotherhad#down::,
"Another had pointed at a photo of a Shia cleric in my guidebook and shaken his head, saying ""Not good, not good."" After Negel, 
the road winds through snow-capped mountains and then drops down into the village of Howraman-at-Takht. 
 Here the houses are built into the steep hillside, with the roof of one doubling as a porch area for the building behind it. 
Large blue or green latticed windows face out over the valley. Children chase each other around the streets.",忧闷,击落的,氄,毧,往下,下,击落
,,,,,1,,
,绒毛,下来,忧伤,忧愁,向下,向下的,沿着
,,,,,1,,
,,,,,,,
,,,,,,,
,,,,,,,
,,,,,,,
,,,,,,,
,,,,,,,
,,,,,,,
,,,,,,,
,,,,,,,
,,,,,,,
,,,,,,,
,,,,,,,
,,,,,,,
88. come,,,,,,Asin#come::,
"As in other parts of Iran, people don't sweeten their tea directly, preferring to place a sugar cube between their front teeth and then sucking the tea through the sugar. 
 The teashop owner asks me where I come from: ""Russ-stan, French-stan?"" he guesses.  I tell him ""England-stan"" and he smiles. 
""Welcome!""",过来,来,来到,发生,,,
,,,,,,,
,所源地,,,,,,
,,,,,,,
,,,,,,,
,,,,,,,
,,,,,,,
,,,,,,,
,,,,,,,
,,,,,,,
,,,,,,,
,,,,,,,
,,,,,,,
,,,,,,,
,,,,,,,
,,,,,,,
,,,,,,,
89. turn,,,,,,Aswe#turn::,
"As we drink the tea, an elderly man walks to the edge of the stream, removes his shoes and socks, 
rolls up his trousers and wades out to a large, flat rock in the stream.  He washes his hands, 
feet and head and then begins his afternoon prayers, in turn standing, kneeling and then pressing his forehead to the rock. 
 Once he's finished he carefully negotiates the way back and dries his feet with a cloth.",斡,翻倒,顺序,摇,车,掉,轮流
,,,,,,,1
,转,转动,拐,弯,化,捩,翻
,,,,,,,
,弯子,纽,翻转,,,,
,,,,,,,
,,,,,,,
,,,,,,,
,,,,,,,
,,,,,,,
,,,,,,,
,,,,,,,
,,,,,,,
,,,,,,,
,,,,,,,
,,,,,,,
,,,,,,,
90. way,,,,,,Hewashes#way::,
"He washes his hands, feet and head and then begins his afternoon prayers, in turn standing, 
kneeling and then pressing his forehead to the rock.  Once he's finished he carefully negotiates the way back and dries his feet with a cloth. 
As we continue the journey, the doctor takes over the driving and progress is slower, 
but the hairpin bends are no longer quite so terrifying.",径,路径,办法,途,路上,非常,状态
,,1,,,,,
,般,路线,样,方,途径,方法,作法
,,,,,1,,
,繇,中途,道,道路,作风,路,迳
,,,,,,,
,法,,,,,,
,,,,,,,
,,,,,,,
,,,,,,,
,,,,,,,
,,,,,,,
,,,,,,,
,,,,,,,
,,,,,,,
,,,,,,,
,,,,,,,
91. continue,,,,,,Oncehe's#continue::,
"Once he's finished he carefully negotiates the way back and dries his feet with a cloth. As we continue the journey, 
the doctor takes over the driving and progress is slower, but the hairpin bends are no longer quite so terrifying. 
We arrive at Marivan in the late afternoon.",接续,连任,继,延续,续,持续,蝉联
,,,,,,,
,接着,下去,赓,缵,绍,继续,
,,,,,,1,
,,,,,,,
,,,,,,,
,,,,,,,
,,,,,,,
,,,,,,,
,,,,,,,
,,,,,,,
,,,,,,,
,,,,,,,
,,,,,,,
,,,,,,,
,,,,,,,
,,,,,,,
92. black,,,,,,Somefriends#black::,
"Some friends of Dr. Ghaffar join us for a meal of barbecued fish, rice and pickled vegetables. 
 We sit cross-legged on the floor and drink more black tea. Afterward, music is played and people lock arms and dance in a line, 
men at one end and women at another, jumping in unison and kicking their feet in time to the music.",缁,黑色,黑色的,玄,玈,黑人,皂
,,,,,,,
,黎,黑,青,墨,黝,淄,
,,1,,,,,
,,,,,,,
,,,,,,,
,,,,,,,
,,,,,,,
,,,,,,,
,,,,,,,
,,,,,,,
,,,,,,,
,,,,,,,
,,,,,,,
,,,,,,,
,,,,,,,
,,,,,,,
93. back,,,,,,"Afterward,music#back::",
"Afterward, music is played and people lock arms and dance in a line, men at one end and women at another, 
jumping in unison and kicking their feet in time to the music.  One of the women's veils slips back off her hair, 
but no one pays much attention. The dancing goes on until the sun sets over the lake. 
We leave Marivan and head back toward Sanandaj.",后部,以前,后身,背面,襄,腰杆子,腰
,,,,,,,
,后面,脊,后的,支持,后,脊背,后边
,,,,,,,
,后部的,冀,翊,赌钱,后面的,后边的,向后
,,,,,,,1
,,,,,,,
,,,,,,,
,,,,,,,
,,,,,,,
,,,,,,,
,,,,,,,
,,,,,,,
,,,,,,,
,,,,,,,
,,,,,,,
,,,,,,,
94. head,,,,,,Oneof#head::,
"One of the women's veils slips back off her hair, but no one pays much attention. 
The dancing goes on until the sun sets over the lake. We leave Marivan and head back toward Sanandaj. 
 The doctor's phone rings and he talks in rapid Farsi before suggesting we stop at a friend's house on the way.",魁,养,首领,领袖,率领,主任,羑
,,,,,,,
,首脑,头,头部,首,前进,总,为首
,,,,,1,,
,长,督办,,,,,
,,,,,,,
,,,,,,,
,,,,,,,
,,,,,,,
,,,,,,,
,,,,,,,
,,,,,,,
,,,,,,,
,,,,,,,
,,,,,,,
,,,,,,,
,,,,,,,
95. feed,,,,,,Hugebowls#feed::,
"Huge bowls of sweets and cashew nuts are laid out. I sit next to the man's eldest daughter who takes out her iPhone and shows me photos on her Instagram feed. 
 Most of the images are of Western fashion models. I ask her why and she says: ""Model is the best job.""",喂,养活,进料,啖,饲料,哺,毓
,,,,,,,
,进刀,哺育,哺养,料,放牧,馈送,饲
,,,,,,,
,饲养,食,喂养,,,,
,,,,,,,
,网页,,,,,,
,,,,,,,
,,,,,,,
,,,,,,,
,,,,,,,
,,,,,,,
,,,,,,,
,,,,,,,
,,,,,,,
,,,,,,,
,,,,,,,
96. model,,,,,,Isit#model::,
"I sit next to the man's eldest daughter who takes out her iPhone and shows me photos on her Instagram feed. 
 Most of the images are of Western fashion models. I ask her why and she says: ""Model is the best job.""  She plans to go to university in Tehran and wants to study German, 
but her long-term ambition is to leave Iran and she has many questions about life in the West.",范,师,试样,式,标杆,型号,宗
,,,,,,,
,样板,模,标兵,机型,模型,样,样子
,,,,,,,
,表率,范例,模范,塑,套,式样,榜样
,,,,,,,
,塑造,典范,型,楷,造型,,
,,,,,,,
,模特,,,,,,
,,,,,,,
,,,,,,,
,,,,,,,
,,,,,,,
,,,,,,,
,,,,,,,
,,,,,,,
,,,,,,,
97. job,,,,,,Isit#job::,
"I sit next to the man's eldest daughter who takes out her iPhone and shows me photos on her Instagram feed. 
 Most of the images are of Western fashion models. I ask her why and she says: ""Model is the best job.""  She plans to go to university in Tehran and wants to study German, 
but her long-term ambition is to leave Iran and she has many questions about life in the West.",岗位,工作,饭碗,承包,业,事,劳工
,,1,,,,,
,,,,,,,
,,,,,,,
,,,,,,,
,,,,,,,
,,,,,,,
,,,,,,,
,,,,,,,
,,,,,,,
,,,,,,,
,,,,,,,
,,,,,,,
,,,,,,,
,,,,,,,
,,,,,,,
,,,,,,,
98. go,,,,,,Isit#go::,
"I sit next to the man's eldest daughter who takes out her iPhone and shows me photos on her Instagram feed. 
 Most of the images are of Western fashion models. I ask her why and she says: ""Model is the best job.""  She plans to go to university in Tehran and wants to study German, 
but her long-term ambition is to leave Iran and she has many questions about life in the West.",进去,诣,从事,前往,离去,行,走
,,,,,,,
,徂,赴,适,游,去,进行,
,,1,,,,,
,,,,,,,
,,,,,,,
,,,,,,,
,,,,,,,
,,,,,,,
,,,,,,,
,,,,,,,
,,,,,,,
,,,,,,,
,,,,,,,
,,,,,,,
,,,,,,,
,,,,,,,
99. study,,,,,,Mostof#study::,
"Most of the images are of Western fashion models. I ask her why and she says: ""Model is the best job.""  She plans to go to university in Tehran and wants to study German, 
but her long-term ambition is to leave Iran and she has many questions about life in the West. 
It's late and after more dancing -- this time in the marble-floored living room to the music coming from the TV -- it's time to go.",考,肄,书房,考察,研,业,讨
,,,,,,,
,学会,论文,考查,攻,考究,揅,研究
,,,,,,,
,学习,读书,习,学,修,念,读
,1,,,,,,
,念书,,,,,,
,,,,,,,
,,,,,,,
,,,,,,,
,,,,,,,
,,,,,,,
,,,,,,,
,,,,,,,
,,,,,,,
,,,,,,,
,,,,,,,
100. tone,,,,,,It'slate#tone::,
"It's late and after more dancing -- this time in the marble-floored living room to the music coming from the TV -- it's time to go. 
Jahan drives back toward the center of Sanandaj. He sings in Kurdish again, but this time there's a more melancholy tone to the song. 
 How to get there: British, Canadian and U.S. citizens wishing to travel to Iran must do so as part of an official tour due to restrictions on independent travel.",调,声,调准,声调,音,状况,调好
,,,,,,,
,色调,音调,调子,笔调,,,
,,1,,,,,
,,,,,,,
,,,,,,,
,,,,,,,
,,,,,,,
,,,,,,,
,,,,,,,
,,,,,,,
,,,,,,,
,,,,,,,
,,,,,,,
,,,,,,,
,,,,,,,
,,,,,,,
101. get,,,,,,Jahandrives#get::,
"Jahan drives back toward the center of Sanandaj. He sings in Kurdish again, but this time there's a more melancholy tone to the song. 
 How to get there: British, Canadian and U.S. citizens wishing to travel to Iran must do so as part of an official tour due to restrictions on independent travel. 
Most other foreign nationals need to obtain a visa before traveling and the application process can sometimes seem slightly opaque. 
It's worth checking the most up-to-date visa requirements ahead of traveling as these can change with little notice.",收到,弄,将,领,取,获得,搜罗
,,,,,,,
,受到,得,得到,博,搞,,
,,,,,,,
,去,,,,,,
,,,,,,,
,,,,,,,
,,,,,,,
,,,,,,,
,,,,,,,
,,,,,,,
,,,,,,,
,,,,,,,
,,,,,,,
,,,,,,,
,,,,,,,
,,,,,,,
102. part,,,,,,Jahandrives#part::,
"Jahan drives back toward the center of Sanandaj. He sings in Kurdish again, but this time there's a more melancholy tone to the song. 
 How to get there: British, Canadian and U.S. citizens wishing to travel to Iran must do so as part of an official tour due to restrictions on independent travel. 
Most other foreign nationals need to obtain a visa before traveling and the application process can sometimes seem slightly opaque. 
It's worth checking the most up-to-date visa requirements ahead of traveling as these can change with little notice.",诀,异,处,角色,分,部分地,向
,,,,,,,
,多多少少,股,片段,局部,断裂,段,离
,,,,,,,
,分别,部分,局,集,握别,局部地,部件
,,1,,,,,
,角,机件,组成,段落,分开,部,仳
,,,,,,,
,间,构件,份,,,,
,,,,,,,
,,,,,,,
,,,,,,,
,,,,,,,
,,,,,,,
,,,,,,,
,,,,,,,
,,,,,,,
103. heavy,,,,,,"In2009,#heavy::",
"In 2009, SkyMall's website generated $80.5 million in revenue, making it one of the top 200 e-commerce websites in the world. 
Add in about $50 million in magazine revenues (about the same amount the company reported bringing in from the magazine in 2000, 
according to a Travelocity magazine report) and the company was generating an estimated $130 million in revenue annually just half a decade ago.

A 2013 Atlantic article cast heavy doubts on SkyMall's then-recent merger with the Phoenix-based Xhibit Corp, 
a company it said ""raises all sorts of red flags.""

The Atlantic didn't see good things in SkyMall's future, 
but that had nothing to do with a loss of public appetite for talking picture frames and replica 1957 Chevy Bel-Air convertibles with 3.5 horsepower gas engines that could safely transport a person weighing up to 250 pounds.",俣,句型,大,沉,笨重,重,过胖的
,,,,,,,
,浓,沉重,惨重,,,,
,,1,,,,,
,,,,,,,
,,,,,,,
,,,,,,,
,,,,,,,
,,,,,,,
,,,,,,,
,,,,,,,
,,,,,,,
,,,,,,,
,,,,,,,
,,,,,,,
,,,,,,,
,,,,,,,
104. single,,,,,,(CNN)Inever#single::,
"(CNN)I never knew anyone who ordered anything from SkyMall. I never bought a single item from the catalog myself. 
Not the Stay Fresh Feline Drinking Fountain that kept kitty happy and hydrated while you were in Tibet.",独身主义的,一,只,独身主义者,个别,独,独身
,,,,,,,
,独身者,单,单身,单个,单一,,
,,,,,,,
,连一个,,,,,,
,,,,,,,
,,,,,,,
,,,,,,,
,,,,,,,
,,,,,,,
,,,,,,,
,,,,,,,
,,,,,,,
,,,,,,,
,,,,,,,
,,,,,,,
,,,,,,,
105. fresh,,,,,,Inever#fresh::,
"I never bought a single item from the catalog myself. Not the Stay Fresh Feline Drinking Fountain that kept kitty happy and hydrated while you were in Tibet. 
 Not the Emergency Evacuation Smoke Hood, which looked like a cross between a 1950s cosmonaut training device and a children's toy sold by Irwin Mainway.",新兴,凊,新鲜,新,冒失的,使清新,鲜
,,,,,,,
,清新,,,,,,
,,,,,,,
,,,,,,,
,,,,,,,
,,,,,,,
,,,,,,,
,,,,,,,
,,,,,,,
,,,,,,,
,,,,,,,
,,,,,,,
,,,,,,,
,,,,,,,
,,,,,,,
,,,,,,,
106. smoke,,,,,,Notthe#smoke::,
"Not the Stay Fresh Feline Drinking Fountain that kept kitty happy and hydrated while you were in Tibet. 
 Not the Emergency Evacuation Smoke Hood, which looked like a cross between a 1950s cosmonaut training device and a children's toy sold by Irwin Mainway. 
Not the iGrow Hair Rejuvenation Laser.",烟雾,弥漫,抽烟,冒烟,熏,吸烟,烟
,1,,,,,,
,,,,,,,
,,,,,,,
,,,,,,,
,,,,,,,
,,,,,,,
,,,,,,,
,,,,,,,
,,,,,,,
,,,,,,,
,,,,,,,
,,,,,,,
,,,,,,,
,,,,,,,
,,,,,,,
,,,,,,,
107. cross,,,,,,Notthe2#cross::,
"Not the Stay Fresh Feline Drinking Fountain that kept kitty happy and hydrated while you were in Tibet. 
 Not the Emergency Evacuation Smoke Hood, which looked like a cross between a 1950s cosmonaut training device and a children's toy sold by Irwin Mainway. 
Not the iGrow Hair Rejuvenation Laser.",渡,坏心眼的,超,交,过,交叉,交叉的
,,,,,,,
,十字架,南十字座,翻,横过,穿,,
,,,,,,,
,交错,,,,,,
,,,,,,,
,,,,,,,
,,,,,,,
,,,,,,,
,,,,,,,
,,,,,,,
,,,,,,,
,,,,,,,
,,,,,,,
,,,,,,,
,,,,,,,
,,,,,,,
108. like,,,,,,Accordingto#like::,
"According to the bankruptcy filing from SkyMall owner Xhibit Corp, the ubiquity of mobile devices and Internet access on airplanes pretty much doomed the old warhorse. 
 But as a convenient scapegoat ""the Internet"" is a lot like China these days, and I'm not sure technology is the real culprit here. 
 It's not like SkyMall was some creaky dinosaur, plodding along contentedly unaware of the Internet.",好比,好像,若,喜爱,如同,待见,喜好
,,1,1,,,,
,爱好,同,似,爱,好以,比如,喜欢
,,,,,1,,
,一样,相似,看上,类,好,喜,不啻
,,,,,,,
,,,,,,,
,,,,,,,
,,,,,,,
,,,,,,,
,,,,,,,
,,,,,,,
,,,,,,,
,,,,,,,
,,,,,,,
,,,,,,,
,,,,,,,
109. heavy,,,,,,"In2009,2#heavy::",
"In 2009, SkyMall's website generated $80.5 million in revenue, making it one of the top 200 e-commerce websites in the world. 
Add in about $50 million in magazine revenues (about the same amount the company reported bringing in from the magazine in 2000, 
according to a Travelocity magazine report) and the company was generating an estimated $130 million in revenue annually just half a decade ago. 
A 2013 Atlantic article cast heavy doubts on SkyMall's then-recent merger with the Phoenix-based Xhibit Corp, 
a company it said ""raises all sorts of red flags."" The Atlantic didn't see good things in SkyMall's future, 
but that had nothing to do with a loss of public appetite for talking picture frames and replica 1957 Chevy Bel-Air convertibles with 3.5 horsepower gas engines that could safely transport a person weighing up to 250 pounds.",俣,句型,大,沉,笨重,重,过胖的
,,,,,,,
,浓,沉重,惨重,,,,
,,1,,,,,
,,,,,,,
,,,,,,,
,,,,,,,
,,,,,,,
,,,,,,,
,,,,,,,
,,,,,,,
,,,,,,,
,,,,,,,
,,,,,,,
,,,,,,,
,,,,,,,
,,,,,,,
110. company,,,,,,"In2009,#company::",
"In 2009, SkyMall's website generated $80.5 million in revenue, making it one of the top 200 e-commerce websites in the world. 
Add in about $50 million in magazine revenues (about the same amount the company reported bringing in from the magazine in 2000, 
according to a Travelocity magazine report) and the company was generating an estimated $130 million in revenue annually just half a decade ago. 
A 2013 Atlantic article cast heavy doubts on SkyMall's then-recent merger with the Phoenix-based Xhibit Corp, 
a company it said ""raises all sorts of red flags."" The Atlantic didn't see good things in SkyMall's future, 
but that had nothing to do with a loss of public appetite for talking picture frames and replica 1957 Chevy Bel-Air convertibles with 3.5 horsepower gas engines that could safely transport a person weighing up to 250 pounds.",厂商,连队,侪,伍,公司,企业,队
,,,,,1,1,
,连,,,,,,
,,,,,,,
,,,,,,,
,,,,,,,
,,,,,,,
,,,,,,,
,,,,,,,
,,,,,,,
,,,,,,,
,,,,,,,
,,,,,,,
,,,,,,,
,,,,,,,
,,,,,,,
,,,,,,,
111. even,,,,,,Somaybe#even::,
"So maybe there was an element of mismanagement behind SkyMall's demise.  This seems possible, 
but I can't help thinking there's something even more insidious at work here -- maybe the death of the place where the world could always go (well, 
at least since 1990) to satisfy its impulses for iFetch ball launchers for dogs and Slankets (""Best Blanket Hands Down"") signifies the diminution of something even sadder -- our senses of humor. 
With air rage, anxiety and traveler frustration at worrying levels across our increasingly tense skies, 
maybe it was inevitable that those easy laughs and stolen moments of inflight frivolity would finally go the way of complimentary blankets, 
pillows and cocktails.",匀,双日,偶数,双数,匀实,瀡,齐刷刷
,,,,,,,
,相等,犹,连 ... 也,甚至,甚而,匀净,均
,,,,,,,
,双,齐截,甚或,连,即使,偶,变平
,,,,,,,
,甚至于,就是,,,,,
,,,,,,,
,更多,,,,,,
,,,,,,,
,,,,,,,
,,,,,,,
,,,,,,,
,,,,,,,
,,,,,,,
,,,,,,,
,,,,,,,
112. little,,,,,,Withair#little::,
"With air rage, anxiety and traveler frustration at worrying levels across our increasingly tense skies, 
maybe it was inevitable that those easy laughs and stolen moments of inflight frivolity would finally go the way of complimentary blankets, 
pillows and cocktails. Flying's not as much fun as it used to be, we all know that, and with the passing of SkyMall, 
it just got a little unfunner. Adios, SkyMall. Whatever journey you're embarking on, 
I'm pretty sure you're going to get there with a few more laughs than we will.",短的,些少,蝇头,短时间,微小,小量的,小
,,,,,,,
,少,不足的,鲜,少量,细小,,
,1,,,1,,,
