0. time,,,,,,(CNN)Youcan't#time::,
"(CNN)You can't escape Disney's phenomenon ""Frozen."" It is the highest-grossing animated film of all time and one of Disney's top franchises. 
It was the most downloaded movie from Apple last year, and kids everywhere are still singing the movie's anthem, 
""Let It Go.""",倍,年华,时间,候,趟,年份,度
,,,,,,,
,光阴,辰,期,安排正在,工夫,遍,秋
,,,,,,,
,拍,时刻,季节,年头,期间,拍子,时
,,,,1,,,
,时候,,,,,,
,,,,,,,
,,,,,,,
,,,,,,,
,,,,,,,
,,,,,,,
,,,,,,,
,,,,,,,
,,,,,,,
,,,,,,,
,,,,,,,
1. still,,,,,,Itis#still::,
"It is the highest-grossing animated film of all time and one of Disney's top franchises. 
It was the most downloaded movie from Apple last year, and kids everywhere are still singing the movie's anthem, 
""Let It Go.""  Heck, it's now probably stuck in your own head right now, even if you have never seen the film.",安,侐,宓,仍然,尚,寂静,依然
,,,,,,,1
,还是,安慰,静止,澶,犹,寂,安生
,1,,,,,,
,但,仍,静,还,使 ... 安静,使 ... 放心,依旧
,,1,,1,,,
,阒,更,恹,但是,,,
,,,,,,,
,,,,,,,
,,,,,,,
,,,,,,,
,,,,,,,
,,,,,,,
,,,,,,,
,,,,,,,
,,,,,,,
,,,,,,,
2. set,,,,,,"Heck,it's#set::",
"Heck, it's now probably stuck in your own head right now, even if you have never seen the film. 
So why has the 2013 movie stuck around for so long for the under-5 set?  Experts say it is not just because you can find images of movie's sisters on everything. 
Elsa and Anna are on dresses, on scooters and, just in time for the Easter season, 
even on jelly beans.",套,摆列,定,结伙,系列,不动的,摆
,,,,,,,
,既定的,落,放,局,组,集,竖立
,,,,,1,,
,嵌,规定,一套,放置,竖,集合,盘
,,,,,,,
,机组,静止的,摆放,固定,镶,套房,放置者
,,,,,,,
,落下,,,,,,
,,,,,,,
,,,,,,,
,,,,,,,
,,,,,,,
,,,,,,,
,,,,,,,
,,,,,,,
,,,,,,,
3. time,,,,,,Sowhy#time::,
"So why has the 2013 movie stuck around for so long for the under-5 set?  Experts say it is not just because you can find images of movie's sisters on everything. 
Elsa and Anna are on dresses, on scooters and, just in time for the Easter season, even on jelly beans. 
 To understand the psychology behind ""Frozen"" Mania, CNN reached out to psychologists who are sisters themselves: Yalda Uhls is regional director for Common Sense Media. 
Maryam Kia-Keating is an associate professor of clinical psychology at University of California, Santa Barbara. 
Here is our edited conversation.",倍,年华,时间,候,趟,年份,度
,,,,,,,
,光阴,辰,期,安排正在,工夫,遍,秋
,,,,,,,
,拍,时刻,季节,年头,期间,拍子,时
,,1,1,,1,,
,时候,,,,,,
,1,,,,,,
,,,,,,,
,,,,,,,
,,,,,,,
,,,,,,,
,,,,,,,
,,,,,,,
,,,,,,,
,,,,,,,
,,,,,,,
4. but,,,,,,Tounderstand#but::,
"To understand the psychology behind ""Frozen"" Mania, CNN reached out to psychologists who are sisters themselves: Yalda Uhls is regional director for Common Sense Media. 
Maryam Kia-Keating is an associate professor of clinical psychology at University of California, Santa Barbara. 
Here is our edited conversation. CNN: Princess movies have been around since the beginning of time, but this has really resonated. 
What has made this one so unique?  Yalda Uhls: One of the things that really struck me, and I think struck little children, 
is that there is a really strong intergenerational, family-themed message here. Despite the sisters Anna and Elsa being separated for so long, 
the story is ultimately about the bond between the two of them.",可是,不过,但,任何人,只,然而,而
,1,,1,,,,
,可,答辩,只是,却,然,除 ... 以外,惟
,,,,,,,
,但是,,,,,,
,1,,,,,,
,,,,,,,
,,,,,,,
,,,,,,,
,,,,,,,
,,,,,,,
,,,,,,,
,,,,,,,
,,,,,,,
,,,,,,,
,,,,,,,
,,,,,,,
5. think,,,,,,CNN:Princess#think::,
"CNN: Princess movies have been around since the beginning of time, but this has really resonated. 
What has made this one so unique?  Yalda Uhls: One of the things that really struck me, and I think struck little children, 
is that there is a really strong intergenerational, family-themed message here. Despite the sisters Anna and Elsa being separated for so long, 
the story is ultimately about the bond between the two of them.  When you're little, 
that is your zone; that's your group; they define your world.",怀,思考,看,意,设法,预期,算
,,,,,,,
,预料,揣想,想得到,考虑,思,意想,想到
,,,,,,,
,溯,思索,打量,忆,当,认为,以为
,,,,,,1,
,关心,料想,想起,道,想,念,怀念
,,,,,1,,
,想象,臆断,,,,,
,,,,,,,
,,,,,,,
,,,,,,,
,,,,,,,
,,,,,,,
,,,,,,,
,,,,,,,
,,,,,,,
6. strong,,,,,,Highlightingthat#strong::,
"Highlighting that and making it feel important -- your sister, your brother, your mom and dad -- is something little kids can really identify with. 
 Maryam Kia-Keating: Kids can really understand the idea of their sister wanting to play with them, and sometimes not, 
but still having a strong family bond.  Ultimately, it's about the love between the sisters. 
That's a message that many little children understand. There are also good lessons about overcoming struggles and facing life challenges. 
But, what's interesting about preschoolers, in particular, is there's this loyalty and unrelenting interest to watch this movie over and over again.",健全,疆,很,暋,强大,羌,刚
,,,,,,,
,非常,浓厚,大,有力地,强有力,冲,轰轰烈烈
,,,,,,,
,坚挺,醹,醼,浓的,强硬,强壮,有力
,1,,,,,,
,牢靠,坚强,烈,壮大,勍,监,扎实
,,,,,,,
,棒,强固,健,坚,使劲地,仡,强烈
,,1,,,,,
,硬,壮,偲,浓重,霸道,固,酽
,,,,,,,
,烈性,乾,,,,,
,,,,,,,
,,,,,,,
,,,,,,,
,,,,,,,
7. power,,,,,,CNN:Why#power::,
"CNN: Why is not having a witch important to a preschooler?  Kia-Keating: When you're an adult, 
you've heard a lot of these stories, like ""Snow White"" or ""Cinderella,"" and you forget the power they can have. 
 It's helpful to have a child's point of view on this.",威,威权,威风,权力,使 ... 有力量,功率,力
,,,,,,,
,乘冪,威武,乘方,幂数,方,强,势
,,,,,,,
,优越,权,幂,大国,权柄,威力,力量
,,,,,,1,
,动力,势力,强权,激励,大权,权能,
,,,,,,,
,,,,,,,
,,,,,,,
,,,,,,,
,,,,,,,
,,,,,,,
,,,,,,,
,,,,,,,
,,,,,,,
,,,,,,,
8. living,,,,,,It'shelpful#living::,
"It's helpful to have a child's point of view on this.  Kids are living in this world where the line between what's real and what's not really is blurry, 
and because they have such vivid imaginations, witches and monsters can feel very real.  As adults, 
we may see these villains or monsters as a way to tell a story or a lesson, but when children are in the moment of being scared, 
they are caught up in the fear and not in finding the larger lesson.",活,在世,生,活生生,,,
,1,1,,,,,
,,,,,,,
,,,,,,,
,,,,,,,
,,,,,,,
,,,,,,,
,,,,,,,
,,,,,,,
,,,,,,,
,,,,,,,
,,,,,,,
,,,,,,,
,,,,,,,
,,,,,,,
,,,,,,,
,,,,,,,
9. feel,,,,,,It'shelpful#feel::,
"It's helpful to have a child's point of view on this.  Kids are living in this world where the line between what's real and what's not really is blurry, 
and because they have such vivid imaginations, witches and monsters can feel very real.  As adults, 
we may see these villains or monsters as a way to tell a story or a lesson, but when children are in the moment of being scared, 
they are caught up in the fear and not in finding the larger lesson.",知觉,觉察,触摸,摸索,觉得,感到,觉
,,,,,,,
,挲,认为,意会,感觉,摸,触觉,感觉到
,,,,1,,1,
,作,感,,,,,
,,,,,,,
,,,,,,,
,,,,,,,
,,,,,,,
,,,,,,,
,,,,,,,
,,,,,,,
,,,,,,,
,,,,,,,
,,,,,,,
,,,,,,,
,,,,,,,
10. real,,,,,,It'shelpful2#real::,
"It's helpful to have a child's point of view on this.  Kids are living in this world where the line between what's real and what's not really is blurry, 
and because they have such vivid imaginations, witches and monsters can feel very real.  As adults, 
we may see these villains or monsters as a way to tell a story or a lesson, but when children are in the moment of being scared, 
they are caught up in the fear and not in finding the larger lesson.",非常,真实,确实,实打实,真相,现实,确
,,1,,,,1,
,实在,真币,活生生,真正,实际,真,实
,,,,,,1,
,,,,,,,
,,,,,,,
,,,,,,,
,,,,,,,
,,,,,,,
,,,,,,,
,,,,,,,
,,,,,,,
,,,,,,,
,,,,,,,
,,,,,,,
,,,,,,,
,,,,,,,
11. process,,,,,,Uhls:I#process::,
"Uhls: I used to work in the film industry, and as adults, we're told that we need conflict to drive drama. 
Take Grimm's Fairy Tales; there are always dire stakes. Or movies like ""Bambi"" and ""The Lion King,"" where the mother or father die. 
 These are serious issues and themes, and sometimes little kids aren't ready to process and understand these ideas. 
 CNN: What about the characters seem so easy for kids to empathize with?",繇,加工,处理,提炼,经过,对 ... 处置,进程
,,,,1,,,
,顺,过程,,,,,
,,,,,,,
,,,,,,,
,,,,,,,
,,,,,,,
,,,,,,,
,,,,,,,
,,,,,,,
,,,,,,,
,,,,,,,
,,,,,,,
,,,,,,,
,,,,,,,
,,,,,,,
,,,,,,,
12. strong,,,,,,CNN:What#strong::,
"CNN: What about the characters seem so easy for kids to empathize with?  Uhls: Preschooler imaginations are really strong, 
and so they respond really well to stories with magical realism. In ""Frozen,"" Princess Elsa has these powers to control ice and snow -- and that really captures kids' imaginations.",健全,疆,很,暋,强大,羌,刚
,,,,,1,,
,非常,浓厚,大,有力地,强有力,冲,轰轰烈烈
,,1,,,,,
,坚挺,醹,醼,浓的,强硬,强壮,有力
,,,,,,,
,牢靠,坚强,烈,壮大,勍,监,扎实
,,,,,,,
,棒,强固,健,坚,使劲地,仡,强烈
,,,,,,,
,硬,壮,偲,浓重,霸道,固,酽
,,,,,,,
,烈性,乾,,,,,
,,,,,,,
,,,,,,,
,,,,,,,
,,,,,,,
13. well,,,,,,CNN:What#well::,
"CNN: What about the characters seem so easy for kids to empathize with?  Uhls: Preschooler imaginations are really strong, 
and so they respond really well to stories with magical realism. In ""Frozen,"" Princess Elsa has these powers to control ice and snow -- and that really captures kids' imaginations.",适,安好,顺利,臧,很好,水井,顺手
,,,,,,,
,顺遂,涌,良好,井,满意地,舒服,颛
,,,,,,,
,顺,好,顺当,,,,
,,,1,,,,
,,,,,,,
,,,,,,,
,,,,,,,
,,,,,,,
,,,,,,,
,,,,,,,
,,,,,,,
,,,,,,,
,,,,,,,
,,,,,,,
,,,,,,,
14. small,,,,,,"In""Frozen,""#small::",
"In ""Frozen,"" Princess Elsa has these powers to control ice and snow -- and that really captures kids' imaginations. 
When you're small, you don't feel powerful. Everyone is always dictating what you can and cannot do. 
Having a character they can empathize with that has these powers can make them feel more empowered, as well. 
 Kia-Keating: That magical piece is exciting and is one of the things that really sets this movie apart from others.",辁,蝇头,幺,薄,微小,裨,戋
,,,,,1,,
,蕞尔,细小,小,芮,少,藐,嘒
,,,,,,,
,怍,謏,小号,区,蕞,芾,
,,,,,,,
,,,,,,,
,,,,,,,
,,,,,,,
,,,,,,,
,,,,,,,
,,,,,,,
,,,,,,,
,,,,,,,
,,,,,,,
,,,,,,,
,,,,,,,
15. down,,,,,,Anotheraspect#down::,
"Another aspect that kids see themselves in Elsa and Anna is the impulsiveness.  Parents are constantly trying to teach their little ones how to self-regulate their emotions, 
how to behave, how to sit down. Elsa is constantly trying to tame or control her emotions -- and while this is something that is salient to everyone throughout their lifetimes, 
this is something preschoolers deal with all the time.",忧闷,击落的,氄,毧,往下,下,击落
,,,,,,1,
,绒毛,下来,忧伤,忧愁,向下,向下的,沿着
,,1,,,,,
,,,,,,,
,,,,,,,
,,,,,,,
,,,,,,,
,,,,,,,
,,,,,,,
,,,,,,,
,,,,,,,
,,,,,,,
,,,,,,,
,,,,,,,
,,,,,,,
,,,,,,,
16. free,,,,,,Ithink#free::,
"I think it looks a lot like something they see and hear from parents -- be a good girl or boy, 
don't do this or that -- so part of it is copying what they frequently hear.   But when I asked my daughter what she thought the song was about, 
she said it was about ""Elsa being happy and free, and nobody bothering her.""  That's a message that everyone wants: to be happy and free.",畅,豁免,自由,无偿地,肃清,游离,空闲的
,,,1,,,,
,自在,自选,自由自在,免费,,,
,1,,1,,,,
,,,,,,,
,,,,,,,
,,,,,,,
,,,,,,,
,,,,,,,
,,,,,,,
,,,,,,,
,,,,,,,
,,,,,,,
,,,,,,,
,,,,,,,
,,,,,,,
,,,,,,,
17. under,,,,,,(CNN)Songlyrics#under::,
"(CNN)Song lyrics that glorify violence are hardly uncommon. But a prosecutor in California says one rapper's violent lyrics go beyond creative license to conspiracy. 
  San Diego-based rapper Tiny Doo has already spent eight months in prison, and faces 25 years to life in prison if convicted under a little-known California statute that makes it illegal to benefit from gang activities. 
 The statute in question is California Penal Code 182.5. The code makes it a felony for anyone to participate in a criminal street gang, 
have knowledge that a street gang has engaged in criminal activity, or benefit from that activity.",在 ... 之下,下面,在下边,在 ... 下,以下,根据,之下
,,,,,,1,
,下,底下,使用,在下面,下边,少于,
,,,,,,,
,,,,,,,
,,,,,,,
,,,,,,,
,,,,,,,
,,,,,,,
,,,,,,,
,,,,,,,
,,,,,,,
,,,,,,,
,,,,,,,
,,,,,,,
,,,,,,,
,,,,,,,
18. name,,,,,,It'sthat#name::,
"It's that last part -- benefiting from criminal activity -- that prosecutors are going after the rapper for. Tiny Doo, 
whose real name is Brandon Duncan, faces nine counts of criminal street gang conspiracy because prosecutors allege he and 14 other alleged gang members increased their stature and respect following a rash of shootings in the city in 2013. 
Prosecutors point to Tiny Doo's album, ""No Safety,"" and to lyrics like ""Ain't no safety on this pistol I'm holding"" as examples of a ""direct correlation to what the gang has been doing.""",定名,起名儿,称号,称说,曰,名,名义
,,,,,,1,
,姓,称,名字,名称,号,指派,命名
,,,1,1,,,
,谥,指名,谓,,,,
,,,,,,,
,,,,,,,
,,,,,,,
,,,,,,,
,,,,,,,
,,,,,,,
,,,,,,,
,,,,,,,
,,,,,,,
,,,,,,,
,,,,,,,
,,,,,,,
19. point,,,,,,"TinyDoo,#point::",
"Tiny Doo, whose real name is Brandon Duncan, faces nine counts of criminal street gang conspiracy because prosecutors allege he and 14 other alleged gang members increased their stature and respect following a rash of shootings in the city in 2013. 
Prosecutors point to Tiny Doo's album, ""No Safety,"" and to lyrics like ""Ain't no safety on this pistol I'm holding"" as examples of a ""direct correlation to what the gang has been doing.""  No one suggests the rapper ever actually pulled a trigger.",尖,指引,处,指,点明,提示,分
,,,,,,,
,指画,指出,指示,问题,讲,表明,尖兵
,,1,,,,,
,点子,点,指明,详,意向,详情,
,,,1,,,,
,,,,,,,
,,,,,,,
,,,,,,,
,,,,,,,
,,,,,,,
,,,,,,,
,,,,,,,
,,,,,,,
,,,,,,,
,,,,,,,
,,,,,,,
20. like,,,,,,"TinyDoo,#like::",
"Tiny Doo, whose real name is Brandon Duncan, faces nine counts of criminal street gang conspiracy because prosecutors allege he and 14 other alleged gang members increased their stature and respect following a rash of shootings in the city in 2013. 
Prosecutors point to Tiny Doo's album, ""No Safety,"" and to lyrics like ""Ain't no safety on this pistol I'm holding"" as examples of a ""direct correlation to what the gang has been doing.""  No one suggests the rapper ever actually pulled a trigger.",好比,好像,若,喜爱,如同,待见,喜好
,,1,,,1,,
,爱好,同,似,爱,好以,比如,喜欢
,,,,,,1,
,一样,相似,看上,类,好,喜,不啻
,,,,,,,
,,,,,,,
,,,,,,,
,,,,,,,
,,,,,,,
,,,,,,,
,,,,,,,
,,,,,,,
,,,,,,,
,,,,,,,
,,,,,,,
,,,,,,,
21. direct,,,,,,"TinyDoo,#direct::",
"Tiny Doo, whose real name is Brandon Duncan, faces nine counts of criminal street gang conspiracy because prosecutors allege he and 14 other alleged gang members increased their stature and respect following a rash of shootings in the city in 2013. 
Prosecutors point to Tiny Doo's album, ""No Safety,"" and to lyrics like ""Ain't no safety on this pistol I'm holding"" as examples of a ""direct correlation to what the gang has been doing.""  No one suggests the rapper ever actually pulled a trigger.",点拨,指,正面,向导,驾驭,督导,直接地
,,,,,,,1
,督饰,指导,指挥,指令,主,董,直率
,,,,,,,
,导演,针对,导向,迪,督率,饬,监察
,,,,,,,
,迳直,主持,直接,,,,
,,,1,,,,
,,,,,,,
,,,,,,,
,,,,,,,
,,,,,,,
,,,,,,,
,,,,,,,
,,,,,,,
,,,,,,,
,,,,,,,
22. run,,,,,,CNNLegal#run::,
"CNN Legal Analyst Mark Geragos says the district attorney may be trying to send a message ""that you shouldn't glorify or glamorize gang activity.""  ""The problem is you're going to run straight head-on into the First  Amendment,"" he said. 
""If they don't have anything other than the album, this case I don't think would ever stand up.""",浇铸的,开,路程,理,经营,奔走,辖
,,,,,,,
,办,管,颠,营,举办,管理,奔跑
,,,,,,,
,执行,运行,走向,跑,跑步,泝,走
,,,1,,,,
,熔化的,,,,,,
,,,,,,,
,,,,,,,
,,,,,,,
,,,,,,,
,,,,,,,
,,,,,,,
,,,,,,,
,,,,,,,
,,,,,,,
,,,,,,,
23. still,,,,,,"""Thedarkness#still::",
"""The darkness of the book is what makes the optimism credible,"" Nel said. Geisel was known to be shy but would be ""tickled"" to know that his words still have meaning now, 
said Susan Brandt, president of licensing and marketing at Dr. Seuss Enterprises. 
He was deliberate about what his last words to the world would be. ""You can feel him saying, 'Wait, 
I have one more thing to say,' "" she said. "" 'Listen to me; this is important.' """,安,侐,宓,仍然,尚,寂静,依然
,,,,,,,
,还是,安慰,静止,澶,犹,寂,安生
,1,,,,,,
,但,仍,静,还,使 ... 安静,使 ... 放心,依旧
,,,,1,,,
,阒,更,恹,但是,,,
,,,,,,,
,,,,,,,
,,,,,,,
,,,,,,,
,,,,,,,
,,,,,,,
,,,,,,,
,,,,,,,
,,,,,,,
,,,,,,,
24. last,,,,,,"""Thedarkness#last::",
"""The darkness of the book is what makes the optimism credible,"" Nel said. Geisel was known to be shy but would be ""tickled"" to know that his words still have meaning now, 
said Susan Brandt, president of licensing and marketing at Dr. Seuss Enterprises. 
He was deliberate about what his last words to the world would be. ""You can feel him saying, 'Wait, 
I have one more thing to say,' "" she said. "" 'Listen to me; this is important.' """,剩余,历时,持续,末,上,最后,延续
,,,,1,,1,
,底,在大家之后,上个,,,,
,,,,,,,
,,,,,,,
,,,,,,,
,,,,,,,
,,,,,,,
,,,,,,,
,,,,,,,
,,,,,,,
,,,,,,,
,,,,,,,
,,,,,,,
,,,,,,,
,,,,,,,
,,,,,,,
25. book,,,,,,It'sthe#book::,
"It's the top-selling Dr. Seuss book ""Oh, The Places You'll Go!"" rose to the bestseller list shortly after it was released in 1990 and continues to pop up there most every spring, 
as high school and college grads transition to a new phase of life. Twenty-five years and more than 10 million copies later, 
it's the top-selling Dr. Seuss book.  The company it keeps at the top? Beloved early-reading books like ""Green Eggs and Ham"" and ""The Cat in the Hat,"" perennial holiday read ""How the Grinch Stole Christmas!"" and books with a message -- and a movie -- like ""The Lorax"" and ""Horton Hears a Who!""",定,册子,书,卷,籍,册,簿子
,,,1,,,,
,著,本子,编,著作,书本,簿,
,,,,,1,,
,,,,,,,
,,,,,,,
,,,,,,,
,,,,,,,
,,,,,,,
,,,,,,,
,,,,,,,
,,,,,,,
,,,,,,,
,,,,,,,
,,,,,,,
,,,,,,,
,,,,,,,
26. house,,,,,,Thecompany#house::,
"The company it keeps at the top? Beloved early-reading books like ""Green Eggs and Ham"" and ""The Cat in the Hat,"" perennial holiday read ""How the Grinch Stole Christmas!"" and books with a message -- and a movie -- like ""The Lorax"" and ""Horton Hears a Who!"" Its success isn't exactly a surprise, 
said Mallory Loehr, vice president and publisher of Random House Children's Books. 
It was published the year she began her career at Random House, and she remember the buzz around the book even then. 
 ""People knew it was special (in 1990),"" Loehr said. ""But 10 million is crazy.""",驻防,家务,驻守,居,馆,住宅,驻扎
,,,,1,1,,
,舍,房子,屋子,收容,斋,宅院,驻屯
,,,,,,,
,屋,房,,,,,
,,,,,,,
,,,,,,,
,,,,,,,
,,,,,,,
,,,,,,,
,,,,,,,
,,,,,,,
,,,,,,,
,,,,,,,
,,,,,,,
,,,,,,,
,,,,,,,
27. around,,,,,,Itssuccess#around::,
"Its success isn't exactly a surprise, said Mallory Loehr, vice president and publisher of Random House Children's Books. 
It was published the year she began her career at Random House, and she remember the buzz around the book even then. 
 ""People knew it was special (in 1990),"" Loehr said. ""But 10 million is crazy.""  The main character is You -- and you, and you, 
and you",靠,左右,围绕,周围,靠近,光景,四处
,,,1,,,,
,在 ... 周围,,,,,,
,,,,,,,
,,,,,,,
,,,,,,,
,,,,,,,
,,,,,,,
,,,,,,,
,,,,,,,
,,,,,,,
,,,,,,,
,,,,,,,
,,,,,,,
,,,,,,,
,,,,,,,
,,,,,,,
28. slip,,,,,,Themain#slip::,
"The main character is You -- and you, and you, and you Passages in ""The Cat in the Hat"" and ""The Lorax"" both slip into the second-person to make a point to readers, 
but Geisel made the main character of ""Oh, The Places You'll Go!"" a person called You, who conveniently happens to be, well, you. 
""That makes the book about the reader and puts the reader in the position of the character,"" Nel said. ""It's a motivator. 
See yourself as the character; take action.""",条,失足,破绽,訧,溜走,蹉,失脚
,,,,,,,
,滑行,滑,差错,滑倒,滑过,滑动,溜
,,,,,,,1
,减弱,衬裙,,,,,
,,,,,,,
,,,,,,,
,,,,,,,
,,,,,,,
,,,,,,,
,,,,,,,
,,,,,,,
,,,,,,,
,,,,,,,
,,,,,,,
,,,,,,,
,,,,,,,
29. down,,,,,,Dr.Seuss#down::,
"Dr. Seuss had already been a major player in children's literature for decades, but this was an early entry into a burgeoning category: children's stories that appeal to adults, 
Loehr said. ""This is almost a self-help book. People forget that it has pages that really acknowledge that things will be tough some times,"" she said. 
""Sit down; read this book. It will be OK."" As Geisel himself put it, ""I never write for children. 
I write for people.""",忧闷,击落的,氄,毧,往下,下,击落
,,,,,,,
,绒毛,下来,忧伤,忧愁,向下,向下的,沿着
,,1,,,,,
,,,,,,,
,,,,,,,
,,,,,,,
,,,,,,,
,,,,,,,
,,,,,,,
,,,,,,,
,,,,,,,
,,,,,,,
,,,,,,,
,,,,,,,
,,,,,,,
,,,,,,,
30. top,,,,,,Ofthe#top::,
"Of the clubs on the list only United's ""noisy neighbors"" Manchester City -- as Alex Ferguson once described them -- enjoyed a greater spike in year-on-year revenue, 
with a $114 million rise from 2012-13 to cement their place in sixth on the list. 
""The growth experienced within the top 20 has been remarkable,"" said Dan Jones, partner in the Sports Business Group at Deloitte. 
""Commercial and broadcast revenues are now more important than ever to clubs to enable them to compete financially and put the best talent on the pitch. 
""This has led to further dominance from the 'big five' European leagues  -- England, Germany, Spain, 
Italy and France -- this year, with just Turkey's Galatasaray making it in from outside of those countries.",极,颠,面,尖峰,顶部,盖,顶端
,,,,,,,
,尖,上身,最大的,上面的,头,顶,顶级
,,,,,,,1
,最高的,,,,,,
,1,,,,,,
,,,,,,,
,,,,,,,
,,,,,,,
,,,,,,,
,,,,,,,
,,,,,,,
,,,,,,,
,,,,,,,
,,,,,,,
,,,,,,,
,,,,,,,
31. drop,,,,,,"""Theclub's#drop::",
"""The club's continued success on the field is complemented by its financial strength and their accomplishment emphasizes their position as the most successful European club side of all time. 
However, their commercial supremacy is being challenged by Manchester United among others."" Barcelona's revenue plateaued last year, 
seeing them drop from second spot behind arch-rival Real to fourth below Manchester United and Bayern. 
Paris Saint-Germain completes the top five while Juventus, in 10th, is the only side from Italy's Serie A to make the top 10, 
with Premier League sides Chelsea, Arsenal and Liverpool rounding off the top clubs in seventh, 
eighth and ninth respectively in revenue terms.",掉,撒,投,降落,沥,下降,减退
,1,,,1,,,
,放下,点,点子,落,降,跌,衰退
,,,,,,,
,摔,摔交,改掉,水滴,降低,摔倒,作罢
,1,,,,,,
,滴,落下,,,,,
,,1,,,,,
,,,,,,,
,,,,,,,
,,,,,,,
,,,,,,,
,,,,,,,
,,,,,,,
,,,,,,,
,,,,,,,
,,,,,,,
32. spot,,,,,,Theclub's#spot::,
"The club's continued success on the field is complemented by its financial strength and their accomplishment emphasizes their position as the most successful European club side of all time. 
However, their commercial supremacy is being challenged by Manchester United among others. 
Barcelona's revenue plateaued last year, seeing them drop from second spot behind arch-rival Real to fourth below Manchester United and Bayern. 
Paris Saint-Germain completes the top five while Juventus, in 10th, is the only side from Italy's Serie A to make the top 10, 
with Premier League sides Chelsea, Arsenal and Liverpool rounding off the top clubs in seventh, 
eighth and ninth respectively in revenue terms.",所,处,皰,现场,污点,弄脏,斑
,,,,,,,
,斑点,瑕,沾污,点,点子,识别,
,,,,,,,
,,,,,,,
,,,,,,,
,,,,,,,
,,,,,,,
,,,,,,,
,,,,,,,
,,,,,,,
,,,,,,,
,,,,,,,
,,,,,,,
,,,,,,,
,,,,,,,
,,,,,,,
33. line,,,,,,Andagainst#line::,
"And against tennis' big three of Federer, Djokovic and Nadal, Seppi owned a dismal 1-25 record.  But the world No. 
46 played one of his best matches, crucially not crumbling when the finish line was in sight.",路线,诗句,排,衬,线路,行列,衲
,,,,,,,
,线条,划线于,纹,系,线,,
,,,,,1,,
,,,,,,,
,,,,,,,
,,,,,,,
,,,,,,,
,,,,,,,
,,,,,,,
,,,,,,,
,,,,,,,
,,,,,,,
,,,,,,,
,,,,,,,
,,,,,,,
,,,,,,,
34. lose,,,,,,Heled2#lose::,
"He led 3-1 only to double fault at 3-2. Then leading 5-4, Federer made a costly backhand unforced error. 
Federer rued missed opportunities in the second set tiebreak, too, when Seppi was there for the taking. 
 ""It just broke me to lose that second set,"" Federer told reporters. ""And actually the fourth, I should win it, too. 
Just a brutal couple of sets to lose there."" Seppi completed the upset in stunning fashion, 
scrambling before hitting an instinctive forehand passing shot winner down the line.",少,丢,败,丧,丧失,蚀,掉
,,,1,,,,
,失去,失落,损失,失,失掉,输,丢失
,,,,,,1,
,遗,耗损,折,损,负,,
,,,,,,,
,,,,,,,
,,,,,,,
,,,,,,,
,,,,,,,
,,,,,,,
,,,,,,,
,,,,,,,
,,,,,,,
,,,,,,,
,,,,,,,
,,,,,,,
35. still,,,,,,Federerthus#still::,
"Federer thus exited, despite winning more points in the match overall, 145 to 144. 
 ""I felt for some reason yesterday and this morning it was not going to be very simple today,"" Federer said. 
""Even in practice I still felt the same way.  ""I was just hoping it was one of those feelings you sometimes have and it's totally not true and you just come out and you play a routine match. 
I was aware of the test and was well prepared.",安,侐,宓,仍然,尚,寂静,依然
,,,,1,,,1
,还是,安慰,静止,澶,犹,寂,安生
,1,,,,,,
,但,仍,静,还,使 ... 安静,使 ... 放心,依旧
,,1,,1,,,
,阒,更,恹,但是,,,
,,,,,,,
,,,,,,,
,,,,,,,
,,,,,,,
,,,,,,,
,,,,,,,
,,,,,,,
,,,,,,,
,,,,,,,
,,,,,,,
36. second,,,,,,Federerlost#second::,
"Federer lost a set in the second round to Seppi's fellow Italian, Simone Bolelli. 
He -- and this is rare for Federer -- called for the trainer to address an issue with his hand. 
Federer thought he might have been stung by a bee.  He didn't mention the hand or any other physical issue in his briefing with reporters.",其次,倅,拥护,第二,再,支持,秒
,,,,1,1,,
,乙,第二次,亚,伯仲叔季,,,
,,1,,,,,
,,,,,,,
,,,,,,,
,,,,,,,
,,,,,,,
,,,,,,,
,,,,,,,
,,,,,,,
,,,,,,,
,,,,,,,
,,,,,,,
,,,,,,,
,,,,,,,
,,,,,,,
37. round,,,,,,Federerlost#round::,
"Federer lost a set in the second round to Seppi's fellow Italian, Simone Bolelli. 
He -- and this is rare for Federer -- called for the trainer to address an issue with his hand. 
Federer thought he might have been stung by a bee.  He didn't mention the hand or any other physical issue in his briefing with reporters.",巡,籀,环行,拐弯,圆,球形,围绕
,,,,,,,
,周围,轮,回合,丰满,团,轮唱,附近
,,1,1,,,,
,圜,范围,,,,,
,,,,,,,
,,,,,,,
,,,,,,,
,,,,,,,
,,,,,,,
,,,,,,,
,,,,,,,
,,,,,,,
,,,,,,,
,,,,,,,
,,,,,,,
,,,,,,,
38. issue,,,,,,Federerlost#issue::,
"Federer lost a set in the second round to Seppi's fellow Italian, Simone Bolelli. 
He -- and this is rare for Federer -- called for the trainer to address an issue with his hand. 
Federer thought he might have been stung by a bee.  He didn't mention the hand or any other physical issue in his briefing with reporters. 
 Federer also defended his decision to play exhibition matches in India in December during tennis' notoriously short off-season.",颁,颁布,颁发,论点,发动,播散,发送
,,,,,,,
,发布,争端,散发,议题,分发,放出,发出
,,,,,,,
,发,打,给,发表,课题,问题,题是
,,,,,,1,
,困难,做出,出,发行,松,,
,,,,,,,
,,,,,,,
,,,,,,,
,,,,,,,
,,,,,,,
,,,,,,,
,,,,,,,
,,,,,,,
,,,,,,,
,,,,,,,
39. back,,,,,,Federeralso#back::,
"Federer also defended his decision to play exhibition matches in India in December during tennis' notoriously short off-season. 
 ""I wanted to go to India,"" said Federer. ""I wanted to go back to Switzerland for Christmas. 
I practiced as hard as I possibly could.  ""Can't do more than that. Sure, the year ended late, but one week later than normal. 
At the end of the day, honestly I'm confident that what I did was the right thing.""",后部,以前,后身,背面,襄,腰杆子,腰
,,,,,,,
,后面,脊,后的,支持,后,脊背,后边
,,,,,,,
,后部的,冀,翊,赌钱,后面的,后边的,向后
,,,,,,,
,,,,,,,
,,,,,,,
,,,,,,,
,,,,,,,
,,,,,,,
,,,,,,,
,,,,,,,
,,,,,,,
,,,,,,,
,,,,,,,
,,,,,,,
40. hard,,,,,,Federeralso#hard::,
"Federer also defended his decision to play exhibition matches in India in December during tennis' notoriously short off-season. 
 ""I wanted to go to India,"" said Federer. ""I wanted to go back to Switzerland for Christmas. 
I practiced as hard as I possibly could.  ""Can't do more than that. Sure, the year ended late, but one week later than normal. 
At the end of the day, honestly I'm confident that what I did was the right thing.""",坚硬,坚,坚固,艰难,困难,硬,严竣
,,,,,,,
,监,严格,艰苦,辛苦,严峻,刚,辛
,,,,,,,1
,固,难以,难,,,,
,,,,,,,
,,,,,,,
,,,,,,,
,,,,,,,
,,,,,,,
,,,,,,,
,,,,,,,
,,,,,,,
,,,,,,,
,,,,,,,
,,,,,,,
,,,,,,,
41. end,,,,,,"""Iwanted#end::",
"""I wanted to go to India,"" said Federer. ""I wanted to go back to Switzerland for Christmas. 
I practiced as hard as I possibly could.  ""Can't do more than that. Sure, the year ended late, but one week later than normal. 
At the end of the day, honestly I'm confident that what I did was the right thing."" Federer's exit means Murray's path to the semifinals has become significantly easier. 
The two-time grand slam champion and Federer were, on paper, due to meet in the quarterfinals.",殁,结论,告终,穷尽,收场,截止,末日
,,,,,,,
,止境,终了,末,终端,界限,终止,尽
,,,1,,,,
,尾,尾声,终,穷期,卒,委,寝
,,,,,,,
,末梢,罢,结束,办到,端,完毕,完结
,,,,,,,
,穷,终点,底,末尾,歾,,
,,,,,,,
,,,,,,,
,,,,,,,
,,,,,,,
,,,,,,,
,,,,,,,
,,,,,,,
,,,,,,,
42. back,,,,,,@edsmithwriterSouth#back::,
"@edsmithwriter South Korea's cricket switch: http://t.co/qTlIhSRnJt ""Having moved back and forth between the two sports myself, 
I know the potential these guys have for success in T20 cricket,"" says Fountain. ""I was the first to introduce baseball fieldin",后部,以前,后身,背面,襄,腰杆子,腰
,,,,,,,
,后面,脊,后的,支持,后,脊背,后边
,,,,,1,,
,后部的,冀,翊,赌钱,后面的,后边的,向后
,,,,,,,
,,,,,,,
,,,,,,,
,,,,,,,
,,,,,,,
,,,,,,,
,,,,,,,
,,,,,,,
,,,,,,,
,,,,,,,
,,,,,,,
,,,,,,,
43. big,,,,,,"""Iwas#big::",
"""I was the first to introduce baseball fielding techniques to international cricket, 
because a major league outfielder will out-throw a professional cricketer every time. 
This is a sport that Americans can do well at."" Minor leaguer Boomer Collins has been chasing the dream of the big leagues since he was a boy. 
His looks, his build, the way he talks and even his name are as near to the definition of an American ballplayer as you're going to get. 
But beyond the square jaw and the all-state honors as both outfielder and quarterback, 
there's one thing that makes him different to every other guy out there on the diamond.",爱吹牛,俣,觥,皤,大,洪,廓
,,,,,1,,
,灏,壮大,成功地,闳,顺利地,硕,澔
,,,,,,,
,伟,薖,量大的,长,豁达,,
,,,,,,,
,,,,,,,
,,,,,,,
,,,,,,,
,,,,,,,
,,,,,,,
,,,,,,,
,,,,,,,
,,,,,,,
,,,,,,,
,,,,,,,
,,,,,,,
44. minor,,,,,,Acouple#minor::,
"A couple of decades later and his .374 batting average, with 13 home runs in 60 junior-year games at Dallas Baptist, 
saw him eventually signed by the Blue Jays. His story since then is depressingly similar to thousands like him, 
becalmed in the minor leagues on a poverty-line salary of $1,200 a month. ""I'm always an optimist. I'm 25 years old. 
This year will probably prove a lot. I want to make the big leagues and I'm going to work my butt off until it happens or doesn't happen,"" Collins said in his break between working an eight-hour milk delivery shift and a full afternoon of offseason training.",次要,副修科目,辅修,未成年人,二流的,裨,较小的
,,,,,1,,
,未成年者,,,,,,
,,,,,,,
,,,,,,,
,,,,,,,
,,,,,,,
,,,,,,,
,,,,,,,
,,,,,,,
,,,,,,,
,,,,,,,
,,,,,,,
,,,,,,,
,,,,,,,
,,,,,,,
,,,,,,,
45. hit,,,,,,"""I'malways#hit::",
"""I'm always an optimist. I'm 25 years old. This year will probably prove a lot. I want to make the big leagues and I'm going to work my butt off until it happens or doesn't happen,"" Collins said in his break between working an eight-hour milk delivery shift and a full afternoon of offseason training. 
Collins is one of the first signups to Switch Hit 20, and talks with surprising enthusiasm about a sport he has only seen on YouTube links sent to him by Fountain. 
Cricket's revolution 11 years ago into Twenty20 or T20 -- with games taking three hours instead of five days -- has seen sleepy spectators replaced with raucous crowds, 
batters swinging for the fences instead of blocking balls, cheerleaders on the sidelines, 
and the creation of new competitions.",打击,擂,轰动一时的人,触,掊,拍,殴打
,,,,,,,
,敲,揕,殴,撞击,轰动一时的物,命中,击
,,,,,,,
,击中,撞,,,,,
,1,,,,,,
,,,,,,,
,,,,,,,
,,,,,,,
,,,,,,,
,,,,,,,
,,,,,,,
,,,,,,,
,,,,,,,
,,,,,,,
,,,,,,,
,,,,,,,
46. get,,,,,,"""Lookat#get::",
"""Look at soccer now. That all came from American players making a stand in what was a minority sport over here. 
""If you would've said 'soccer' about five years ago people would've said, ""Get outta here, man"". 
Now everyone's watching the World Cup."" Another player hoping to break the mold is middle infielder Jordan Dean, 
a 24-year-old drafted by the Tigers in 2012 but now with Illinois independents the Schaumburg Boomers -- and studying for an M.B.A. 
as a Plan B.",收到,弄,将,领,取,获得,搜罗
,,,,,,,
,受到,得,得到,博,搞,,
,,,,,,,
,,,,,,,
,,,,,,,
,,,,,,,
,,,,,,,
,,,,,,,
,,,,,,,
,,,,,,,
,,,,,,,
,,,,,,,
,,,,,,,
,,,,,,,
,,,,,,,
,,,,,,,
47. contract,,,,,,"""I'vetalked#contract::",
"""I've talked to my girlfriend about the cricket thing. We'd go through about five or 10 minutes thinking how amazing it would be, 
traveling the world playing sport. Then it would be, 'What the hell am I saying?' It's ping-pong in my brain."" For Fountain, 
the endgame goes beyond getting his players a T20 contract. ""I want to inject enough talent into USA cricket, 
to see it bounce back up the rankings. I want to coach a USA team at a World Cup.""",立约,字据,感染,收缩,聘书,括,契
,,,,,,,
,缩,简约的,合同,契约,承包,合约,契据
,,,,,,1,
,,,,,,,
,,,,,,,
,,,,,,,
,,,,,,,
,,,,,,,
,,,,,,,
,,,,,,,
,,,,,,,
,,,,,,,
,,,,,,,
,,,,,,,
,,,,,,,
,,,,,,,
48. sign,,,,,,Ateam#sign::,
"A team already exists, but he believes replacing its largely ex-pat spine with American baseball talent is the only way it can join the elite. 
""Wearing a jersey with the flag on the front and your name on the back is huge for any American,"" says Dean. 
But Fountain has also let his early sign ups know that there are a few things to iron out before he can start printing jerseys. 
""I'm aiming for tryouts in the spring, so the guys who are already with teams, or trying out for teams can also come and try out for me,"" says Fountain.",标志,标,征兆,签署,朕,正负号,先兆
,,,,,,,
,记名,符,迹纵,符号,签字,记,牌子
,,,,,1,,
,招牌,势,信,痕迹,兆,迹象,志
,,,,,,,
,征候,署名,象征,记号,标记,手势,署
,,,,,,,
,迹,摽,签,,,,
,,,1,,,,
,,,,,,,
,,,,,,,
,,,,,,,
,,,,,,,
,,,,,,,
,,,,, ,,
,,,,,,,
49. try,,,,,,Ifthe#try::,
"If the project stalls, Boomer Collins is prepared to go it alone. ""The whole thing with me is that whatever happens, 
I still want to go overseas and try because I have got that excitement so high,"" he says. 
""I still want to go and train with Julien to try it out myself. If we can work out a living situation with food, 
I would do it in a heartbeat. I don't have to have some sort of income, just as long as me and my wife have food and a place to stay.",尝试,谋求,试图,讅,试做,设法,睯
,1,,,,,,
,想法,试验,试,试用,审,企图,
,,,,,,,
,,,,,,,
,,,,,,,
,,,,,,,
,,,,,,,
,,,,,,,
,,,,,,,
,,,,,,,
,,,,,,,
,,,,,,,
,,,,,,,
,,,,,,,
,,,,,,,
,,,,,,,
50. try,,,,,,"""Thewhole#try::",
"""The whole thing with me is that whatever happens, I still want to go overseas and try because I have got that excitement so high,"" he says. 
""I still want to go and train with Julien to try it out myself. If we can work out a living situation with food, 
I would do it in a heartbeat. I don't have to have some sort of income, just as long as me and my wife have food and a place to stay. 
""I know that I'm not going to be the best in the world in the first five years of playing the sport. 
But I'm also never going to go in and say, 'I'll just be OK.'",尝试,谋求,试图,讅,试做,设法,睯
,1,,,,,,
,想法,试验,试,试用,审,企图,
,,,,,,,
,,,,,,,
,,,,,,,
,,,,,,,
,,,,,,,
,,,,,,,
,,,,,,,
,,,,,,,
,,,,,,,
,,,,,,,
,,,,,,,
,,,,,,,
,,,,,,,
,,,,,,,
51. living,,,,,,"""Thewhole#living::",
"""The whole thing with me is that whatever happens, I still want to go overseas and try because I have got that excitement so high,"" he says. 
""I still want to go and train with Julien to try it out myself. If we can work out a living situation with food, 
I would do it in a heartbeat. I don't have to have some sort of income, just as long as me and my wife have food and a place to stay. 
""I know that I'm not going to be the best in the world in the first five years of playing the sport. 
But I'm also never going to go in and say, 'I'll just be OK.'",活,在世,生,活生生,,,
,,,,,,,
,,,,,,,
,,,,,,,
,,,,,,,
,,,,,,,
,,,,,,,
,,,,,,,
,,,,,,,
,,,,,,,
,,,,,,,
,,,,,,,
,,,,,,,
,,,,,,,
,,,,,,,
,,,,,,,
,,,,,,,
52. stay,,,,,,"""Thewhole#stay::",
"""The whole thing with me is that whatever happens, I still want to go overseas and try because I have got that excitement so high,"" he says. 
""I still want to go and train with Julien to try it out myself. If we can work out a living situation with food, 
I would do it in a heartbeat. I don't have to have some sort of income, just as long as me and my wife have food and a place to stay. 
""I know that I'm not going to be the best in the world in the first five years of playing the sport. 
But I'm also never going to go in and say, 'I'll just be OK.'",羁,待,处,迟留,撑,逗,栖
,,,,,,,
,羇泊,栖止,撑条,盘旋,留下,一直保持,呆
,,,,,,,
,留,盘桓,停,逗留,住宿,栖身,延缓
,,,,,1,,
,耽搁,,,,,,
,,,,,,,
,,,,,,,
,,,,,,,
,,,,,,,
,,,,,,,
,,,,,,,
,,,,,,,
,,,,,,,
,,,,,,,
,,,,,,,
53. set,,,,,,VicePresident#set::,
"Vice President Joe Biden was originally set to have led a delegation to Saudi Arabia on Obama's behalf.  However, 
the schedule for the President's departure from India has been adjusted to allow Obama to stop in Riyadh himself on his way home, 
White House press secretary Josh Earnest said.",套,摆列,定,结伙,系列,不动的,摆
,,,1,,,,
,既定的,落,放,局,组,集,竖立
,,,,,,,
,嵌,规定,一套,放置,竖,集合,盘
,,,,,,,
,机组,静止的,摆放,固定,镶,套房,放置者
,,,,,,,
,落下,,,,,,
,,,,,,,
,,,,,,,
,,,,,,,
,,,,,,,
,,,,,,,
,,,,,,,
,,,,,,,
,,,,,,,
54. new,,,,,,Funeralservices#new::,
"Funeral services were held Friday for King Abdullah bin Abdulaziz al Saud, who died earlier that day. He was 90. 
World leaders are now traveling to the Saudi capital, Riyadh, to offer condolences for Abdullah's death and pay their respects to the new ruler. 
Abdullah was seen by many as a cautious reformer who succeeded in securing broader freedoms in the conservative kingdom, 
but fell short in gaining greater independence for women.",异,新颖,新兴,新任,全新,新,新奇
,,,,1,,1,
,耗,,,,,,
,,,,,,,
,,,,,,,
,,,,,,,
,,,,,,,
,,,,,,,
,,,,,,,
,,,,,,,
,,,,,,,
,,,,,,,
,,,,,,,
,,,,,,,
,,,,,,,
,,,,,,,
,,,,,,,
55. first,,,,,,Obamais#first::,
"Obama is due to arrive in New Delhi on Sunday, on a trip intended to foster progress in sometimes thorny U.S.-India ties. 
On Monday, he will become the first American president to headline India's Republic Day parade, 
standing beside Indian Prime Minister Narendra Modi. Why Obama's trip to my homeland is meaningful",第一,首先,上,第一位,首要的,首,初
,1,,,1,,1,
,起点,最初,一次,第一个,第一次,甲,头
,,,,1,,,
,上个,开始,憖,元,先,最先,乍
,,,,,,,
,原始,首次,一日,开端,,,
,,,,,,,
,,,,,,,
,,,,,,,
,,,,,,,
,,,,,,,
,,,,,,,
,,,,,,,
,,,,,,,
,,,,,,,
,,,,,,,
56. visit,,,,,,Earnestsaid#visit::,
"Earnest said Obama's schedule had been changed in coordination with the Indian government and that he would now be leaving India after giving a speech on Tuesday. 
""The President regrets that he will be unable to visit Agra during this trip,"" Earnest said. 
Agra is where the spectacular Taj Mahal mausoleum is located. Biden will now remain in Washington rather than go to Saudi Arabia.",省,游览,探,省视,拜访,看,旁听
,,1,,,,,
,望,走,访问,谒,上门,看望,逛
,,,,,,,
,拜,访,探望,,,,
,,,,,,,
,,,,,,,
,,,,,,,
,,,,,,,
,,,,,,,
,,,,,,,
,,,,,,,
,,,,,,,
,,,,,,,
,,,,,,,
,,,,,,,
,,,,,,,
57. change,,,,,,Speakingto#change::,
"Speaking to CNN's Richard Quest in Davos, Switzerland, on Friday, Kerry said he expects no changes in his government's relations with Saudi Arabia with the change of kings. 
""I don't anticipate anything based on the conversation we have had, no,"" he said.",易,倒,迁变,变化,转变,变动,转换
,,,,,,,
,改变,改,更换,涂改,迁,改动,换车
,,,1,,,,
,改造,变迁,辅币,变革,变,换,演变
,,,,,,,
,更改,迭,换取,让位,更,串换,移
,,,,,,,
,变更,,,,,,
,,,,,,,
,,,,,,,
,,,,,,,
,,,,,,,
,,,,,,,
,,,,,,,
,,,,,,,
,,,,,,,
58. right,,,,,,"Washington(CNN)Finally,#right::",
"Washington (CNN)Finally, something went right for the United States in the Middle East. 
Relief is palpable in Washington over the well-planned and seamlessly executed transfer of Saudi Arabia's throne to King Salman bin Abdulaziz, 
79, following the death of his 90-year-old half brother King Abdullah.",纠正,向右,直接地,权利,是,然,权
,,,,,,,
,合适的,正义,当,顒,拨正,直的,合理的
,,,,,,,
,有方,右方的,不错,韪,右,右边,对
,,,,,,,1
,直接,在理,,,,,
,,,,,,,
,,,,,,,
,,,,,,,
,,,,,,,
,,,,,,,
,,,,,,,
,,,,,,,
,,,,,,,
,,,,,,,
,,,,,,,
59. better,,,,,,Weknow#better::,
"We know Salman well, he was governor of Riyadh for the better part of 50 years, he is well known to the US government. 
I see no break in the U.S.-Saudi relationship, Smith said. Salman vowed just hours after the death of Abdullah, 
that the kingdom ""would continue adhering to the correct policies which Saudi Arabia has followed since its establishment.""",优越,更好,较好,愈,上,改进,改善
,,1,,,,,
,爽性,赢,优胜,轶,强,宁愿,
,,,,,,,
,,,,,,,
,,,,,,,
,,,,,,,
,,,,,,,
,,,,,,,
,,,,,,,
,,,,,,,
,,,,,,,
,,,,,,,
,,,,,,,
,,,,,,,
,,,,,,,
,,,,,,,
60. break,,,,,,"""Weknow#break::",
"""We know Salman well, he was governor of Riyadh for the better part of 50 years, he is well known to the US government. 
I see no break in the U.S.-Saudi relationship,"" Smith said. Salman vowed just hours after the death of Abdullah, 
that the kingdom ""would continue adhering to the correct policies which Saudi Arabia has followed since its establishment.""",打破,堕,打断,决裂,折,辟,断
,,,,,,,
,摔坏,隳,拆散,破,决口,砸,豁
,,,1,,,,
,隳脞,背,打,摔断,摔,休息,刷新
,,,,,,,
,擘,摔伤,赢,摧,切断,坼,
,,,,,,,
,,,,,,,
,,,,,,,
,,,,,,,
,,,,,,,
,,,,,,,
,,,,,,,
,,,,,,,
,,,,,,,
,,,,,,,
61. change,,,,,,Salmanvowed#change::,
"Salman vowed just hours after the death of Abdullah, that the kingdom ""would continue adhering to the correct policies which Saudi Arabia has followed since its establishment."" State Department spokeswoman Jen Psaki said that the allies had a ""long history of cooperation. 
We don't have any indication that that cooperation will change."" Saudi watchers in Washington were impressed and reassured by the line of succession outlined by Salman in an apparent effort to solve a dynastic riddle and send a signal of continuity to the outside world.",易,倒,迁变,变化,转变,变动,转换
,,,,,,,
,改变,改,更换,涂改,迁,改动,换车
,1,,1,,,,
,改造,变迁,辅币,变革,变,换,演变
,,,,,,,
,更改,迭,换取,让位,更,串换,移
,,,,,,,
,变更,,,,,,
,,,,,,,
,,,,,,,
,,,,,,,
,,,,,,,
,,,,,,,
,,,,,,,
,,,,,,,
,,,,,,,
62. second,,,,,,"""Ithink#second::",
"""I think for the near term, continuity is going to be the centerpiece here,"" said Daniel Benjamin, 
a former coordinator for counter-terrorism at the State Department, now at Dartmouth College, told CNN. 
""There is now a member of the generation of the grandchildren who is second in line, 
he is a very close friend of the United States ... so I think there is a lot of hope the relationship will stay on an even keel."" Prince Mohammed, 
now behind the King's brother Prince Muqrin, 69, in the line of succession, is a frequent visitor to the United States and has presided over Saudi Arabia's anti-terrorism program. 
He narrowly escaped an assassination bid by Al-Qaeda in 2009.",其次,倅,拥护,第二,再,支持,秒
,,,,1,,,
,乙,第二次,亚,伯仲叔季,,,
,,,,,,,
,,,,,,,
,,,,,,,
,,,,,,,
,,,,,,,
,,,,,,,
,,,,,,,
,,,,,,,
,,,,,,,
,,,,,,,
,,,,,,,
,,,,,,,
,,,,,,,
,,,,,,,
63. stay,,,,,,"""Thereis#stay::",
"""There is now a member of the generation of the grandchildren who is second in line, 
he is a very close friend of the United States ... so I think there is a lot of hope the relationship will stay on an even keel."" Prince Mohammed, 
now behind the King's brother Prince Muqrin, 69, in the line of succession, is a frequent visitor to the United States and has presided over Saudi Arabia's anti-terrorism program. 
He narrowly escaped an assassination bid by Al-Qaeda in 2009.",羁,待,处,迟留,撑,逗,栖
,,,,,,,
,羇泊,栖止,撑条,盘旋,留下,一直保持,呆
,,,,,,1,
,留,盘桓,停,逗留,住宿,栖身,延缓
,,,,,,,
,耽搁,,,,,,
,,,,,,,
,,,,,,,
,,,,,,,
,,,,,,,
,,,,,,,
,,,,,,,
,,,,,,,
,,,,,,,
,,,,,,,
,,,,,,,
64. stroke,,,,,,"PrinceMohammed,#stroke::",
"Prince Mohammed, now behind the King's brother Prince Muqrin, 69, in the line of succession, 
is a frequent visitor to the United States and has presided over Saudi Arabia's anti-terrorism program. 
He narrowly escaped an assassination bid by Al-Qaeda in 2009. The succession plan was viewed as particularly important following unconfirmed reports that Salman has been in ill health himself, 
apparently having suffered a stroke. Tom Donilon, pointman for US relations with Saudi Arabia when he was Obama's National Security Advisor, 
praised Abdullah as a ""solid"" ally who had ensured two decades of stability in the kingdom.",中风,积储,摩,捋,摩挲,行程,嘉
,1,,,,,,
,划,笔锋,积存,摸,抚,冲程,笔
,,,,,,,
,,,,,,,
,,,,,,,
,,,,,,,
,,,,,,,
,,,,,,,
,,,,,,,
,,,,,,,
,,,,,,,
,,,,,,,
,,,,,,,
,,,,,,,
,,,,,,,
,,,,,,,
65. relief,,,,,,Thoughthere#relief::,
"Though there is relief at the apparent stability in Riyadh, relations between the United States and Saudi Arabia in recent years have have often been troubled. 
There was a tense period a decade ago, after it emerged that 15 of the 19 hijackers involved in the September 11 attacks originated from Saudi Arabia.",缓解,换班,解脱,慰藉,地势,,
,,,1,,,,
,,,,,,,
,,,,,,,
,,,,,,,
,,,,,,,
,,,,,,,
,,,,,,,
,,,,,,,
,,,,,,,
,,,,,,,
,,,,,,,
,,,,,,,
,,,,,,,
,,,,,,,
,,,,,,,
,,,,,,,
66. move,,,,,,Someanalysts#move::,
"Some analysts believe that the Saudi government could react to what it would see as a bad nuclear deal between world powers and Iran -- which left the Islamic Republic with some capacity to enrich uranium or produce plutonium -- by looking to find its own nuclear capability -- perhaps with assistance from Pakistan. 
Saudi princes took to the op-ed pages of US newspapers in 2013 in a highly unusual move to complain that a nuclear deal was a ""dangerous gamble."" The Saudi government also made clear its deep anger with Obama's last-minute decision not to launch planned air strikes on Syria to punish the Bashar al-Assad regime's use of chemical weapons the same year.",调,挪,举动,触动,打动,迁徙,移动
,,,1,,,,
,感,动,搬迁,搬,感到,搬家,感动
,,,,,,,
,游,运行,举,迁,动弹,摆,步骤
,,,,,,,
,行动,挪动,运动,提议,迁移,跞,行径
,,,,,,,
,扤,触,拨,走,移,搬移,
,,,,,,,
,,,,,,,
,,,,,,,
,,,,,,,
,,,,,,,
,,,,,,,
,,,,,,,
,,,,,,,
67. long,,,,,,TheSaudi#long::,
"The Saudi government also made clear its deep anger with Obama's last-minute decision not to launch planned air strikes on Syria to punish the Bashar al-Assad regime's use of chemical weapons the same year. 
Saudi Arabia has also been frustrated at how long it has taken the United States to begin training opposition fighters in Syria.",长期,冀,悠悠,长远,久,渴望,悠久
,,,,,1,,
,悠长,愒,悠然,梴,多头,莘,长久
,,,,,,,1
,很久,曼,长,长期地,,,
,1,1,1,,,,
,,,,,,,
,,,,,,,
,,,,,,,
,,,,,,,
,,,,,,,
,,,,,,,
,,,,,,,
,,,,,,,
,,,,,,,
,,,,,,,
,,,,,,,
68. begin,,,,,,TheSaudi#begin::,
"The Saudi government also made clear its deep anger with Obama's last-minute decision not to launch planned air strikes on Syria to punish the Bashar al-Assad regime's use of chemical weapons the same year. 
Saudi Arabia has also been frustrated at how long it has taken the United States to begin training opposition fighters in Syria.",谡,起,开工,昉,开始,始,开幕
,,,,,1,,
,开创,启,摅愤,兴,开头,俶,发动
,,,,,,,
,创,,,,,,
,,,,,,,
,,,,,,,
,,,,,,,
,,,,,,,
,,,,,,,
,,,,,,,
,,,,,,,
,,,,,,,
,,,,,,,
,,,,,,,
,,,,,,,
,,,,,,,
69. spring,,,,,,TheSaudi#spring::,
"The Saudi government also registered anger at the Obama administration's embrace of Arab Spring uprisings, 
which led to the ouster of allies like Egyptian President Hosni Mubarak. Obama appeared to make an oblique reference to those differences in a statement honoring Abdullah on Thursday as a ""steadfast and passionate"" believer in US-Saudi relations as a force for stability.",绷簧,春天,踉,弹黄,春天的,弹跳,春
,,,,,,,
,泉眼,泉水,弹,跃,春季,泉,春令
,,,,,,,
,弹簧,弹性,跳跃,蹦,跳,弹力,绷
,,,,,,,
,阳春,,,,,,
,,,,,,,
,,,,,,,
,,,,,,,
,,,,,,,
,,,,,,,
,,,,,,,
,,,,,,,
,,,,,,,
,,,,,,,
,,,,,,,
70. like,,,,,,TheSaudi#like::,
"The Saudi government also registered anger at the Obama administration's embrace of Arab Spring uprisings, 
which led to the ouster of allies like Egyptian President Hosni Mubarak. Obama appeared to make an oblique reference to those differences in a statement honoring Abdullah on Thursday as a ""steadfast and passionate"" believer in US-Saudi relations as a force for stability.",好比,好像,若,喜爱,如同,待见,喜好
,,,,,1,,
,爱好,同,似,爱,好以,比如,喜欢
,,,,,,1,
,一样,相似,看上,类,好,喜,不啻
,,,,,,,
,,,,,,,
,,,,,,,
,,,,,,,
,,,,,,,
,,,,,,,
,,,,,,,
,,,,,,,
,,,,,,,
,,,,,,,
,,,,,,,
,,,,,,,
71. carry,,,,,,Inrecent#carry::,
"In recent years, the Obama administration has attempted to assuage Saudi fears. The US president made a visit to Riyadh last year, 
on a trip that was widely seen as an attempt to mend fences. Saudi Arabian pilots, reportedly including one of Salman's sons, 
Prince Khaled, helped carry out the first air attacks on ISIS in Syria last year. 
Saudi Arabia also approved of Secretary of State John Kerry's exhaustive but ultimately futile efforts to keep Israel and the Palestinians talking. 
And White House spokesman Josh Earnest said that an underpinning of those efforts, 
an Arab Peace Plan framed by Abdullah would stand as his lasting memorial.",送,超位,携带,通过,载携,提溜,盘
,,,,,,,
,盘运,负,带,抬,进位,携,儋
,,,,,,,
,担,拥护,登载,提,何,搬运,拥戴
,,,,,,,
,盛,端,载,承,,,
,,,,,,,
,,,,,,,
,,,,,,,
,,,,,,,
,,,,,,,
,,,,,,,
,,,,,,,
,,,,,,,
,,,,,,,
,,,,,,,
72. air,,,,,,Inrecent#air::,
"In recent years, the Obama administration has attempted to assuage Saudi fears. The US president made a visit to Riyadh last year, 
on a trip that was widely seen as an attempt to mend fences. Saudi Arabian pilots, reportedly including one of Salman's sons, 
Prince Khaled, helped carry out the first air attacks on ISIS in Syria last year. 
Saudi Arabia also approved of Secretary of State John Kerry's exhaustive but ultimately futile efforts to keep Israel and the Palestinians talking. 
And White House spokesman Josh Earnest said that an underpinning of those efforts, 
an Arab Peace Plan framed by Abdullah would stand as his lasting memorial.",调,晾,神气,通风,劲,气,样子
,,,,,,,
,空气,空,曝,气态,,,
,,1,,,,,
,,,,,,,
,,,,,,,
,,,,,,,
,,,,,,,
,,,,,,,
,,,,,,,
,,,,,,,
,,,,,,,
,,,,,,,
,,,,,,,
,,,,,,,
,,,,,,,
,,,,,,,
73. control,,,,,,Basedon#control::,
"Based on preliminary assessments, the shells were fired from Grad rocket systems, a statement from Mariupol City Council said. 
The statement also said the situation was under control, and urged residents not to panic but to rely on information from official sources only. 
Monitors with the Organization for Security and Co-operation in Europe said they conducted a crater analysis which showed the use of Grad and Uragan rockets that likely originated from areas controlled by the pro-Russian rebel group Donetsk People's Republic (DPR).",羁,控制,经纪,掌管,按,律,辖
,,1,,,,,
,操纵,驾驭,管制,把持,管,按捺,控
,,,,,,,
,管理的,节制,治,独揽,压,优越,抑制
,,,,,,,
,秉,控制的,监督,筦,统制,调度,监察
,,,,,,,
,治理,司,扼,懿,,,
,,,,,,,
,,,,,,,
,,,,,,,
,,,,,,,
,,,,,,,
,,,,,,,
,,,,,,,
,,,,,,,
74. rise,,,,,,"They""expressed#rise::",
"They ""expressed grave concern over Russia's blatant disregard for its commitments under the September Minsk agreement and unilateral escalation of the conflict,"" the White House said. 
  The two leaders vowed to ""ensure that the costs continue to rise on Russia for its aggressive actions against Ukraine."" Thousands have been killed since the conflict broke out in the spring of last year and a ceasefire agreed to in September in Minsk, 
Belarus, crumbled long ago.",涌,发达,谡,稣,涨,鹊起,隮
,,,,,,,
,升级,暲,上涨,丰富,耸,摅,升
,,,1,,,,1
,扎根,上升,作,复活,升起,耸立,发展
,,1,,,,,
,竦,竦峙,起立,竦秀,飞扬,起,竖起
,,,,,,,
,腾,,,,,,
,,,,,,,
,,,,,,,
,,,,,,,
,,,,,,,
,,,,,,,
,,,,,,,
,,,,,,,
,,,,,,,
75. book,,,,,,Updated2103#book::,
"Updated 2103 GMT (0503 HKT) January 21, 2015  Mark Griffiths is a Chartered Psychologist and Director of the International Gaming Research Unit at Nottingham Trent University (UK). 
His latest book published in January 2015 (written with Dr. Daria Kuss) is ""Internet Addiction in Psychotherapy"" (Palgrave Press). 
 The views expressed in this commentary are solely the author's.  (CNN)Earlier this month, 
a 32-year old male gamer was found dead at a Taiwanese Internet cafe following a non-stop three-day gaming session. 
This followed the death of another male gamer who died in Taipei at the start of the year following a five-day gaming binge.",定,册子,书,卷,籍,册,簿子
,,,1,,,,
,著,本子,编,著作,书本,簿,
,,,,,1,,
,,,,,,,
,,,,,,,
,,,,,,,
,,,,,,,
,,,,,,,
,,,,,,,
,,,,,,,
,,,,,,,
,,,,,,,
,,,,,,,
,,,,,,,
,,,,,,,
,,,,,,,
76. start,,,,,,MarkGriffiths#start::,
"Mark Griffiths is a Chartered Psychologist and Director of the International Gaming Research Unit at Nottingham Trent University (UK). 
His latest book published in January 2015 (written with Dr. Daria Kuss) is ""Internet Addiction in Psychotherapy"" (Palgrave Press). 
 The views expressed in this commentary are solely the author's.  (CNN)Earlier this month, 
a 32-year old male gamer was found dead at a Taiwanese Internet cafe following a non-stop three-day gaming session. 
This followed the death of another male gamer who died in Taipei at the start of the year following a five-day gaming binge. 
While these cases are extremely rare, it does beg the question of why gaming can lead to such excessive behavior. 
I have spent nearly three decades studying videogame addiction and there are many studies published in both the medical and psychological literature showing that very excessive gaming can lead to a variety of health problems that range from repetitive strain injuries and obesity, 
through to auditory and visual hallucinations and addiction.",开,草创,初期,开幕,起动,起头,发动
,,,1,,,,
,开创,创,开办,开辟,搞,谡,摅愤
,,,,,,,
,开动,启,头,开头,兴,开始,始
,,,,,,,
,惊,开展,发端,启动,初,开工,开端
,,,,,,,
,掀起,起,,,,,
,,,,,,,
,,,,,,,
,,,,,,,
,,,,,,,
,,,,,,,
,,,,,,,
,,,,,,,
,,,,,,,
77. question,,,,,,(CNN)Earlierthis#question::,
"(CNN)Earlier this month, a 32-year old male gamer was found dead at a Taiwanese Internet cafe following a non-stop three-day gaming session. 
This followed the death of another male gamer who died in Taipei at the start of the year following a five-day gaming binge. 
While these cases are extremely rare, it does beg the question of why gaming can lead to such excessive behavior. 
I have spent nearly three decades studying videogame addiction and there are many studies published in both the medical and psychological literature showing that very excessive gaming can lead to a variety of health problems that range from repetitive strain injuries and obesity, 
through to auditory and visual hallucinations and addiction.  I have to stress that there is lots of scientific research showing the many educational and therapeutic benefits of playing but there is definitely a small minority of gamers that develop problems as a result of gaming overuse.",课题,议题,查问,讯问,刨,质疑,靠问
,,,,,,,
,讯,审问,问题,怀疑,质问,疑问,
,,,1,,,,
,,,,,,,
,,,,,,,
,,,,,,,
,,,,,,,
,,,,,,,
,,,,,,,
,,,,,,,
,,,,,,,
,,,,,,,
,,,,,,,
,,,,,,,
,,,,,,,
,,,,,,,
78. small,,,,,,Whilethese#small::,
"While these cases are extremely rare, it does beg the question of why gaming can lead to such excessive behavior. 
I have spent nearly three decades studying videogame addiction and there are many studies published in both the medical and psychological literature showing that very excessive gaming can lead to a variety of health problems that range from repetitive strain injuries and obesity, 
through to auditory and visual hallucinations and addiction.  I have to stress that there is lots of scientific research showing the many educational and therapeutic benefits of playing but there is definitely a small minority of gamers that develop problems as a result of gaming overuse. 
But what is it that makes gaming so compulsive and addictive for the small minority?",辁,蝇头,幺,薄,微小,裨,戋
,,,,,,,
,蕞尔,细小,小,芮,少,藐,嘒
,,,,,1,,
,怍,謏,小号,区,蕞,芾,
,,,,,,,
,,,,,,,
,,,,,,,
,,,,,,,
,,,,,,,
,,,,,,,
,,,,,,,
,,,,,,,
,,,,,,,
,,,,,,,
,,,,,,,
,,,,,,,
79. carry,,,,,,"Forme,#carry::",
"For me, addiction boils down to constant reinforcement, or put more simply, being constantly rewarded while playing the game. 
Gaming rewards can be physiological (such as feeling ""high"" or getting a ""buzz"" while playing or beating your personal high score), 
psychological (such as feeling you have complete control in a specific situation or knowing that your strategic play helped you win), 
social (such as being congratulated by fellow gamers when doing something well in the game) and, in some cases, 
financial (such as winning a gaming tournament).  Most of these rewards are -- at least to some extent -- unpredictable. 
Not knowing when the next reward will come keeps some players in the game. In short, 
they carry on gaming even though they may not have received an immediate reward. They simply hope that another reward is ""just around the corner"" and keep on playing. 
 Added to this is the shift over the last decade from standalone console gaming to massively multiplayer online games where games never end and gamers have to compete and/or collaborate with other gamers in real time (instead of being able to pause the game and come back and play from the point at which the player left it). 
Many excessive gamers report that they hate logging off and leaving such games. They don't like it as they don't know what is going on in the game when they are not online.",送,超位,携带,通过,载携,提溜,盘
,,,,,,1,
,盘运,负,带,抬,进位,携,儋
,,,,,,,
,担,拥护,登载,提,何,搬运,拥戴
,,,,,,,
,盛,端,载,承,,,
,,,,,,,
,,,,,,,
,,,,,,,
,,,,,,,
,,,,,,,
,,,,,,,
,,,,,,,
,,,,,,,
,,,,,,,
,,,,,,,
80. condition,,,,,,Addedto#condition::,
"Added to this is the shift over the last decade from standalone console gaming to massively multiplayer online games where games never end and gamers have to compete and/or collaborate with other gamers in real time (instead of being able to pause the game and come back and play from the point at which the player left it). 
Many excessive gamers report that they hate logging off and leaving such games. They don't like it as they don't know what is going on in the game when they are not online. 
 The last five years has seen large increase in the number of scientific studies on problematic gaming. In May 2013, 
the American Psychiatric Association published the  fifth edition of the ""Diagnostic and Statistical Manual of Mental Disorders""(DSM-5). 
For the first time, the DSM-5 included ""internet gaming disorder"" (IGD) as a psychological condition that warrants future research. 
 Throughout my research career I have argued that although all addictions have particular and idiosyncratic characteristics, 
they share more commonalities than differences such as total preoccupation, mood modification, cravings, tolerance, 
withdrawal symptoms, conflict with work, education and other people, and loss of control. 
These similarities likely reflect a common etiology of addictive behavior.",态,境,训练,教练,状况,养肥,条件
,,,,,1,,
,候,肥育,状态,田地,制约,况,状
,,,1,,,,
,决定,情,环境,精整,阵势,造成,光景
,,,,,,,
,地步,境地,境况,,,,
,,,,,,,
,,,,,,,
,,,,,,,
,,,,,,,
,,,,,,,
,,,,,,,
,,,,,,,
,,,,,,,
,,,,,,,
,,,,,,,
81. level,,,,,,Thelast#level::,
"The last five years has seen large increase in the number of scientific studies on problematic gaming. In May 2013, 
the American Psychiatric Association published the  fifth edition of the ""Diagnostic and Statistical Manual of Mental Disorders""(DSM-5). 
For the first time, the DSM-5 included ""internet gaming disorder"" (IGD) as a psychological condition that warrants future research. 
 Throughout my research career I have argued that although all addictions have particular and idiosyncratic characteristics, 
they share more commonalities than differences such as total preoccupation, mood modification, cravings, tolerance, 
withdrawal symptoms, conflict with work, education and other people, and loss of control. 
These similarities likely reflect a common etiology of addictive behavior.   At the simplest level, 
healthy enthusiasms add to life and addictions take away from it.",标高,夷平,阶段,级,级别,原,铺平
,,,,,,,
,踧,刨,水平线,等高,层,程度,水准
,,,1,,1,,
,对准,层次,坦,水平面,水平,同等,平
,,1,,,,,
,平整,,,,,,
,,,,,,,
,,,,,,,
,,,,,,,
,,,,,,,
,,,,,,,
,,,,,,,
,,,,,,,
,,,,,,,
,,,,,,,
,,,,,,,
82. life,,,,,,Throughoutmy#life::,
"Throughout my research career I have argued that although all addictions have particular and idiosyncratic characteristics, 
they share more commonalities than differences such as total preoccupation, mood modification, cravings, tolerance, 
withdrawal symptoms, conflict with work, education and other people, and loss of control. 
These similarities likely reflect a common etiology of addictive behavior.   At the simplest level, 
healthy enthusiasms add to life and addictions take away from it.  Mark Griffiths",生命,春,生机,身,寿命,活命,世面
,,,,,,,
,性命,人生,寿,生物,世,生活,命
,,1,,,,1,
,日子,生,,,,,
,,,,,,,
,,,,,,,
,,,,,,,
,,,,,,,
,,,,,,,
,,,,,,,
,,,,,,,
,,,,,,,
,,,,,,,
,,,,,,,
,,,,,,,
,,,,,,,
83. turn,,,,,,MarkGriffiths#turn::,
"Mark Griffiths So when does a healthy enthusiasm turn into an addiction? At the simplest level, 
healthy enthusiasms add to life and addictions take away from it. But how much is too much? This is difficult to answer as I know many gamers who play many hours every day without any detrimental effects. 
 The DSM-5 lists nine criteria for IGD. If any gamer endorses five or more of the following criteria they would likely be diagnosed as having IGD: (1) preoccupation with internet games; (2) withdrawal symptoms when internet gaming is taken away; (3) the need to spend increasing amounts of time engaged in internet gaming, 
(4) unsuccessful attempts to control participation in internet gaming; (5) loss of interest in hobbies and entertainment as a result of, 
and with the exception of, internet gaming; (6) continued excessive use of internet games despite knowledge of psychosocial problems; (7) deception of family members, 
therapists, or others regarding the amount of internet gaming; (8) use of the internet gaming to escape or relieve a negative mood;  and (9) loss of a significant relationship, 
job, or educational or career opportunity because of participation in internet games.",斡,翻倒,顺序,摇,车,掉,轮流
,,,,,,,
,转,转动,拐,弯,化,捩,翻
,1,,,,,,
,弯子,纽,翻转,,,,
,,,,,,,
,,,,,,,
,,,,,,,
,,,,,,,
,,,,,,,
,,,,,,,
,,,,,,,
,,,,,,,
,,,,,,,
,,,,,,,
,,,,,,,
,,,,,,,
84. level,,,,,,MarkGriffiths#level::,
"Mark Griffiths So when does a healthy enthusiasm turn into an addiction? At the simplest level, 
healthy enthusiasms add to life and addictions take away from it. But how much is too much? This is difficult to answer as I know many gamers who play many hours every day without any detrimental effects. 
 The DSM-5 lists nine criteria for IGD. If any gamer endorses five or more of the following criteria they would likely be diagnosed as having IGD: (1) preoccupation with internet games; (2) withdrawal symptoms when internet gaming is taken away; (3) the need to spend increasing amounts of time engaged in internet gaming, 
(4) unsuccessful attempts to control participation in internet gaming; (5) loss of interest in hobbies and entertainment as a result of, 
and with the exception of, internet gaming; (6) continued excessive use of internet games despite knowledge of psychosocial problems; (7) deception of family members, 
therapists, or others regarding the amount of internet gaming; (8) use of the internet gaming to escape or relieve a negative mood;  and (9) loss of a significant relationship, 
job, or educational or career opportunity because of participation in internet games.",标高,夷平,阶段,级,级别,原,铺平
,,,,,,,
,踧,刨,水平线,等高,层,程度,水准
,,,1,,1,,
,对准,层次,坦,水平面,水平,同等,平
,,1,,,,,
,平整,,,,,,
,,,,,,,
,,,,,,,
,,,,,,,
,,,,,,,
,,,,,,,
,,,,,,,
,,,,,,,
,,,,,,,
,,,,,,,
,,,,,,,
85. make,,,,,,"Microsoft(MSFT,#make::",
"Microsoft (MSFT, Tech30) just patented a way to make your phone less noticeable and disruptive when you're in certain environments (Microsoft calls it ""inconspicuous mode""). 
You can use it at a movie theater, a dinner date or at home about to go to bed.   The U.S. 
government awarded Microsoft the patent on Thursday. The award was first noticed by Patent Yogi, 
an Indian consulting firm.",制造,造,为,令,让,叫,营建
,,,,,1,,
,营造,构造,牌,臆造,使得,打,造作
,,,,,1,,
,楷,制,做,制作,作,使,搞
,,,,,,1,
,,,,,,,
,,,,,,,
,,,,,,,
,,,,,,,
,,,,,,,
,,,,,,,
,,,,,,,
,,,,,,,
,,,,,,,
,,,,,,,
,,,,,,,
86. set,,,,,,It'sall#set::,
"It's all based on the notion that your phone can annoy the person next to you -- especially if you're in a dark, quiet place. 
Incoming message? Need to check the time? Got an unstoppable itch to check Instagram? You're about to bathe your neighbors in a monstrously bright light and set off a chain of irksome bleeps. 
In ""inconspicuous mode,"" sounds are gone, and the screen is a faint glow. Notifications don't show up on the home screen. 
The time is displayed in large numbers that are easier to glace at.",套,摆列,定,结伙,系列,不动的,摆
,,,,,,,
,既定的,落,放,局,组,集,竖立
,,,,,,,1
,嵌,规定,一套,放置,竖,集合,盘
,,,,,,,
,机组,静止的,摆放,固定,镶,套房,放置者
,,,,,,,
,落下,,,,,,
,,,,,,,
,,,,,,,
,,,,,,,
,,,,,,,
,,,,,,,
,,,,,,,
,,,,,,,
,,,,,,,
87. stage,,,,,,InMicrosoft's#stage::,
"In Microsoft's description, you could tailor the ""inconspicuous"" display any way you like. Maybe it only shows text messages. 
Or it dims more than normal.   But the key feature is that it would be automatic. 
It would go into this mode if your phone's GPS detects you're at the location of a movie theater. 
Or if a restaurant's or stage theater's Wi-Fi or Bluetooth beacons tell it to. Or if your phone's light sensor detects darkness while the microphone also detects silence (like just before a movie starts playing). 
  To figure this out, the phone could even tap your calendar or your recent mobile payments. 
If you bought event tickets at the counter using tap-to-pay technology, your phone would know when to go quiet.",段落,台子,步,层次,舞台,表演,台
,,,,,1,,1
,阶段,场,期,,,,
,,,,,,,
,,,,,,,
,,,,,,,
,,,,,,,
,,,,,,,
,,,,,,,
,,,,,,,
,,,,,,,
,,,,,,,
,,,,,,,
,,,,,,,
,,,,,,,
,,,,,,,
,,,,,,,
88. light,,,,,,InMicrosoft's#light::,
"In Microsoft's description, you could tailor the ""inconspicuous"" display any way you like. Maybe it only shows text messages. 
Or it dims more than normal.   But the key feature is that it would be automatic. 
It would go into this mode if your phone's GPS detects you're at the location of a movie theater. 
Or if a restaurant's or stage theater's Wi-Fi or Bluetooth beacons tell it to. Or if your phone's light sensor detects darkness while the microphone also detects silence (like just before a movie starts playing). 
  To figure this out, the phone could even tap your calendar or your recent mobile payments. 
If you bought event tickets at the counter using tap-to-pay technology, your phone would know when to go quiet.",薄,明亮,明亮的,轻便,阳光,朗,暘
,,,,,,,
,粗心,轻微,生,脚灯,忧,点燃,纾缓
,,,,,,,
,亮,昱,燃点,暲,燃放,点,光纤
,,,,,,,
,发光体,燃,浅,灯光,光,晔,轻浮
,,,,1,1,,
,淡,圣光,晢,淡薄,荧,嫩,轻飘
,,,,,,,
,灯,娇嫩,发光,轻,烺,,
,1,,,,,,
,,,,,,,
,,,,,,,
,,,,,,,
,,,,,,,
,,,,,,,
89. go,,,,,,Butthe#go::,
"But the key feature is that it would be automatic. It would go into this mode if your phone's GPS detects you're at the location of a movie theater. 
Or if a restaurant's or stage theater's Wi-Fi or Bluetooth beacons tell it to. Or if your phone's light sensor detects darkness while the microphone also detects silence (like just before a movie starts playing). 
  To figure this out, the phone could even tap your calendar or your recent mobile payments. 
If you bought event tickets at the counter using tap-to-pay technology, your phone would know when to go quiet. 
  If this gets popular, venues will probably be quick to embrace it. Mobile phone use in theaters is so pervasive nowadays that brief ""please silence your phones"" requests are now full-blown, 
pre-movie short films. And every performance by the New York Philharmonic is preceded by a 30-second, 
pre-recorded plea by Alec Baldwin. It's downright embarrassing.",进去,诣,从事,前往,离去,行,走
,1,,,,,,
,徂,赴,适,游,去,进行,
,,,,,,,
,,,,,,,
,,,,,,,
,,,,,,,
,,,,,,,
,,,,,,,
,,,,,,,
,,,,,,,
,,,,,,,
,,,,,,,
,,,,,,,
,,,,,,,
,,,,,,,
,,,,,,,
90. new,,,,,,Tofigure#new::,
"To figure this out, the phone could even tap your calendar or your recent mobile payments. 
If you bought event tickets at the counter using tap-to-pay technology, your phone would know when to go quiet. 
  If this gets popular, venues will probably be quick to embrace it. Mobile phone use in theaters is so pervasive nowadays that brief ""please silence your phones"" requests are now full-blown, 
pre-movie short films. And every performance by the New York Philharmonic is preceded by a 30-second, 
pre-recorded plea by Alec Baldwin. It's downright embarrassing.   And no, theaters aren't going to start hijacking your phones. 
Microsoft's careful wording in its patent application shows that users retain control.",异,新颖,新兴,新任,全新,新,新奇
,,,,,,,
,耗,,,,,,
,,,,,,,
,,,,,,,
,,,,,,,
,,,,,,,
,,,,,,,
,,,,,,,
,,,,,,,
,,,,,,,
,,,,,,,
,,,,,,,
,,,,,,,
,,,,,,,
,,,,,,,
,,,,,,,
91. game,,,,,,It'snot#game::,
"It's not a peyote-induced hallucination, but a genuinely impressive illusion created by Microsoft's (MSFT, 
Tech30) new augmented-reality goggles, HoloLens.   In this case, it was a 3-D game of Minecraft taking place, on, over, under, 
behind and inside real furniture and walls. As you move your head and body around, the illusion moves completely with you in 3-D, 
remarkably affixed to the real world objects.   Microsoft previewed the brand new piece of hardware on Wednesday. 
HoloLens is Microsoft's foray into the virtual reality market. In its unique spin on VR, 
Microsoft has developed goggles that offer an augmented -- or ""mixed"" -- reality experience. Unlike Facebook's (FB, 
Tech30) Oculus Rift, which completely blocks out the outside world to fully immerse the wearer in another reality, 
HoloLens keeps one foot (and both eyes) firmly planted in the real world.",勇敢的,游戏,有胆量的,玩耍,赌钱,盘,赛
,,1,,,,,
,比赛,,,,,,
,,,,,,,
,,,,,,,
,,,,,,,
,,,,,,,
,,,,,,,
,,,,,,,
,,,,,,,
,,,,,,,
,,,,,,,
,,,,,,,
,,,,,,,
,,,,,,,
,,,,,,,
,,,,,,,
92. real,,,,,,It'snot2#real::,
"It's not a peyote-induced hallucination, but a genuinely impressive illusion created by Microsoft's (MSFT, 
Tech30) new augmented-reality goggles, HoloLens.   In this case, it was a 3-D game of Minecraft taking place, on, over, under, 
behind and inside real furniture and walls. As you move your head and body around, the illusion moves completely with you in 3-D, 
remarkably affixed to the real world objects.   Microsoft previewed the brand new piece of hardware on Wednesday. 
HoloLens is Microsoft's foray into the virtual reality market. In its unique spin on VR, 
Microsoft has developed goggles that offer an augmented -- or ""mixed"" -- reality experience. Unlike Facebook's (FB, 
Tech30) Oculus Rift, which completely blocks out the outside world to fully immerse the wearer in another reality, 
HoloLens keeps one foot (and both eyes) firmly planted in the real world.",非常,真实,确实,实打实,真相,现实,确
,,1,,,,,
,实在,真币,活生生,真正,实际,真,实
,,,,,,,
,,,,,,,
,,,,,,,
,,,,,,,
,,,,,,,
,,,,,,,
,,,,,,,
,,,,,,,
,,,,,,,
,,,,,,,
,,,,,,,
,,,,,,,
,,,,,,,
,,,,,,,
93. move,,,,,,It'snot#move::,
"It's not a peyote-induced hallucination, but a genuinely impressive illusion created by Microsoft's (MSFT, 
Tech30) new augmented-reality goggles, HoloLens.   In this case, it was a 3-D game of Minecraft taking place, on, over, under, 
behind and inside real furniture and walls. As you move your head and body around, the illusion moves completely with you in 3-D, 
remarkably affixed to the real world objects.   Microsoft previewed the brand new piece of hardware on Wednesday. 
HoloLens is Microsoft's foray into the virtual reality market. In its unique spin on VR, 
Microsoft has developed goggles that offer an augmented -- or ""mixed"" -- reality experience. Unlike Facebook's (FB, 
Tech30) Oculus Rift, which completely blocks out the outside world to fully immerse the wearer in another reality, 
HoloLens keeps one foot (and both eyes) firmly planted in the real world.",调,挪,举动,触动,打动,迁徙,移动
,,,,,,,1
,感,动,搬迁,搬,感到,搬家,感动
,,1,,,,,
,游,运行,举,迁,动弹,摆,步骤
,,,,,,,
,行动,挪动,运动,提议,迁移,跞,行径
,,,,,,,
,扤,触,拨,走,移,搬移,
,,,,,,,
,,,,,,,
,,,,,,,
,,,,,,,
,,,,,,,
,,,,,,,
,,,,,,,
,,,,,,,
94. space,,,,,,Microsoftpreviewed#space::,
"Microsoft previewed the brand new piece of hardware on Wednesday. HoloLens is Microsoft's foray into the virtual reality market. 
In its unique spin on VR, Microsoft has developed goggles that offer an augmented -- or ""mixed"" -- reality experience. 
Unlike Facebook's (FB, Tech30) Oculus Rift, which completely blocks out the outside world to fully immerse the wearer in another reality, 
HoloLens keeps one foot (and both eyes) firmly planted in the real world.   The lenses of the goggles are transparent, 
your view of the space around you only selectively blocked by digital images that can mingle with real objects. For example, 
an interior designer can move around a real room and rearrange 3-D pieces of furniture too see how they will look, 
even placing a virtual vase on a real shelf.   To manipulate something in the HoloLens world, you use hand gestures, 
which are picked up by cameras on the front of the device. The single wiggle of an index finger can drop a flag on the surface of Mars or select a color for your 3-D sculpture. 
The cursor is always at the center of your view, moving when you move your head. Microphones pick up voice commands that bring up menus.",间距,间隙,场地,篇幅,宇宙的,空间,空地
,,,,,,1,
,,,,,,,
,,,,,,,
,,,,,,,
,,,,,,,
,,,,,,,
,,,,,,,
,,,,,,,
,,,,,,,
,,,,,,,
,,,,,,,
,,,,,,,
,,,,,,,
,,,,,,,
,,,,,,,
,,,,,,,
95. surface,,,,,,Thelenses#surface::,
"The lenses of the goggles are transparent, your view of the space around you only selectively blocked by digital images that can mingle with real objects. 
For example, an interior designer can move around a real room and rearrange 3-D pieces of furniture too see how they will look, 
even placing a virtual vase on a real shelf.   To manipulate something in the HoloLens world, you use hand gestures, 
which are picked up by cameras on the front of the device. The single wiggle of an index finger can drop a flag on the surface of Mars or select a color for your 3-D sculpture. 
The cursor is always at the center of your view, moving when you move your head. Microphones pick up voice commands that bring up menus. 
  The goggles are wireless and don't need to be tethered to any device, so while they're meant for home or office use, 
they wearer is able to roam freely. The speakers play ""spacial"" sound, so a noise might seem like it's coming from behind or beside you, 
adding to the virtual reality experience.",面,标,表,地面,表面的,表面,面儿
,,,,1,,1,
,肤浅的,,,,,,
,,,,,,,
,,,,,,,
,,,,,,,
,,,,,,,
,,,,,,,
,,,,,,,
,,,,,,,
,,,,,,,
,,,,,,,
,,,,,,,
,,,,,,,
,,,,,,,
,,,,,,,
,,,,,,,
96. move,,,,,,Thelenses#move::,
"The lenses of the goggles are transparent, your view of the space around you only selectively blocked by digital images that can mingle with real objects. 
For example, an interior designer can move around a real room and rearrange 3-D pieces of furniture too see how they will look, 
even placing a virtual vase on a real shelf.   To manipulate something in the HoloLens world, you use hand gestures, 
which are picked up by cameras on the front of the device. The single wiggle of an index finger can drop a flag on the surface of Mars or select a color for your 3-D sculpture. 
The cursor is always at the center of your view, moving when you move your head. Microphones pick up voice commands that bring up menus. 
  The goggles are wireless and don't need to be tethered to any device, so while they're meant for home or office use, 
they wearer is able to roam freely. The speakers play ""spacial"" sound, so a noise might seem like it's coming from behind or beside you, 
adding to the virtual reality experience.",调,挪,举动,触动,打动,迁徙,移动
,,,,,,,1
,感,动,搬迁,搬,感到,搬家,感动
,,,,,,,
,游,运行,举,迁,动弹,摆,步骤
,,,,,,,
,行动,挪动,运动,提议,迁移,跞,行径
,,,,,,,
,扤,触,拨,走,移,搬移,
,,,,,1,,
,,,,,,,
,,,,,,,
,,,,,,,
,,,,,,,
,,,,,,,
,,,,,,,
,,,,,,,
97. use,,,,,,Tomanipulate#use::,
"To manipulate something in the HoloLens world, you use hand gestures, which are picked up by cameras on the front of the device. 
The single wiggle of an index finger can drop a flag on the surface of Mars or select a color for your 3-D sculpture. 
The cursor is always at the center of your view, moving when you move your head. Microphones pick up voice commands that bring up menus. 
  The goggles are wireless and don't need to be tethered to any device, so while they're meant for home or office use, 
they wearer is able to roam freely. The speakers play ""spacial"" sound, so a noise might seem like it's coming from behind or beside you, 
adding to the virtual reality experience.   Related: Microsoft's insane holographic vision of the future",将,利用,应用,使用,使唤,用,功用
,,,,1,,1,
,庸,施,采用,用场,采取,使出,展
,,,,,,,
,补,运用,施用,以,用途,用于,使
,,,,,,,
,动,赢余,意向,,,,
,,,,,,,
,,,,,,,
,,,,,,,
,,,,,,,
,,,,,,,
,,,,,,,
,,,,,,,
,,,,,,,
,,,,,,,
,,,,,,,
98. real,,,,,,Afteran#real::,
"After an on-stage demonstration of the sleek, wraparound black glasses, Microsoft gave reporters four hands-on demos of the device at its Redmond, 
Washington headquarters. (Notably, the goggles I tested were not the finished product Microsoft demonstrated on stage -- they had jumbles of exposed electronic elements connected to a box that hung around my neck). 
  The demonstration scenarios attempted to show real examples of practical uses for the technology.   Video games. 
Gamers tend to be enthusiastic early adopters of experimental immersive technology, 
and the stunning Minecraft demo seemed like the most natural and realistic use case. 
I do not usually play Minecraft but would absolutely start, and maybe forget to stop, 
if I had a HoloLens.",非常,真实,确实,实打实,真相,现实,确
,,1,,,,1,
,实在,真币,活生生,真正,实际,真,实
,,,,,,,
,,,,,,,
,,,,,,,
,,,,,,,
,,,,,,,
,,,,,,,
,,,,,,,
,,,,,,,
,,,,,,,
,,,,,,,
,,,,,,,
,,,,,,,
,,,,,,,
,,,,,,,
99. like,,,,,,Thedemonstration#like::,
"The demonstration scenarios attempted to show real examples of practical uses for the technology.   Video games. 
Gamers tend to be enthusiastic early adopters of experimental immersive technology, 
and the stunning Minecraft demo seemed like the most natural and realistic use case. 
I do not usually play Minecraft but would absolutely start, and maybe forget to stop, if I had a HoloLens.   Customer service. 
A Skype call demo was to walk me through fixing a broken light. The person on the other end of the call could see what I saw (real wires, 
tools, a hole in the wall) and could annotate my view with colorful lines and arrows. 
She even doodled a little diagram on a patch of blank wall. Remote customer support is a commonly imagined use for smart glasses, 
including Google Glass. While a neat thing to have, it's nothing a phone or PC running video chat wouldn't be able to accomplish.",好比,好像,若,喜爱,如同,待见,喜好
,,1,,,,,
,爱好,同,似,爱,好以,比如,喜欢
,,,,,,,
,一样,相似,看上,类,好,喜,不啻
,,,,,,,
,,,,,,,
,,,,,,,
,,,,,,,
,,,,,,,
,,,,,,,
,,,,,,,
,,,,,,,
,,,,,,,
,,,,,,,
,,,,,,,
,,,,,,,
100. natural,,,,,,Thedemonstration#natural::,
"The demonstration scenarios attempted to show real examples of practical uses for the technology.   Video games. 
Gamers tend to be enthusiastic early adopters of experimental immersive technology, 
and the stunning Minecraft demo seemed like the most natural and realistic use case. 
I do not usually play Minecraft but would absolutely start, and maybe forget to stop, if I had a HoloLens.   Customer service. 
A Skype call demo was to walk me through fixing a broken light. The person on the other end of the call could see what I saw (real wires, 
tools, a hole in the wall) and could annotate my view with colorful lines and arrows. 
She even doodled a little diagram on a patch of blank wall. Remote customer support is a commonly imagined use for smart glasses, 
including Google Glass. While a neat thing to have, it's nothing a phone or PC running video chat wouldn't be able to accomplish.",迹先,蒙昧的,固有,白痴,自然,当然,天然
,,,,,,,1
,扑质,天然的东西,,,,,
,,,,,,,
,,,,,,,
,,,,,,,
,,,,,,,
,,,,,,,
,,,,,,,
,,,,,,,
,,,,,,,
,,,,,,,
,,,,,,,
,,,,,,,
,,,,,,,
,,,,,,,
,,,,,,,
101. play,,,,,,Thedemonstration#play::,
"The demonstration scenarios attempted to show real examples of practical uses for the technology.   Video games. 
Gamers tend to be enthusiastic early adopters of experimental immersive technology, 
and the stunning Minecraft demo seemed like the most natural and realistic use case. 
I do not usually play Minecraft but would absolutely start, and maybe forget to stop, if I had a HoloLens.   Customer service. 
A Skype call demo was to walk me through fixing a broken light. The person on the other end of the call could see what I saw (real wires, 
tools, a hole in the wall) and could annotate my view with colorful lines and arrows. 
She even doodled a little diagram on a patch of blank wall. Remote customer support is a commonly imagined use for smart glasses, 
including Google Glass. While a neat thing to have, it's nothing a phone or PC running video chat wouldn't be able to accomplish.",游玩,弄,玩儿,嬉,耍,盘弄,演
,,,,,,,
,逗,游戏,吹奏,演戏,玩,表演,戏剧
,,,,,1,,
,玩耍,赌博,玩弄,演出,饰演,奏,戏
,,,,,,,
,嬉戏,赌钱,剧本,比赛,剧,顽,嫽
,,,,,,,
,,,,,,,
,,,,,,,
,,,,,,,
,,,,,,,
,,,,,,,
,,,,,,,
,,,,,,,
,,,,,,,
,,,,,,,
102. dig,,,,,,Design.HoloStudio#dig::,
"Design. HoloStudio is a creative app that is designed for anyone to easily tinker with, like a beefed up MS Paint. 
A palette of colors and shapes floats in front of the artist who can create simple or complex 3-D models. 
Final designs can be ordered online, and a printed version of your 3-D purple skyscraper will be delivered to your door. 
  Virtual reality. At NASA's Jet Propulsion Laboratory, scientists regularly dig through images of Mars collected by the Curiosity Rover. 
They've collaborated with Microsoft to create a program that places them inside a 3-D rendering of Mars using HoloLens. 
Whether you look up or down, turn left or right, or walk forward or back, the landscape shifts accordingly so you feel like you're taking a stroll on the red planet. 
  The Mars demo was one of the few times I wished I was using full virtual reality goggles. 
They had reasons for wanted to keep reality involved -- JPL scientists are working not playing, 
and they need to use other tools like computers at the same time. But as impressive as it was, 
the mixed-reality version of Mars looked thin and desaturated.",钃,锄,发掘,翻土,掏,穵,刨
,,,,,,,
,挖,锹,掘,开掘,开凿,洿,
,1,,,,,,
,,,,,,,
,,,,,,,
,,,,,,,
,,,,,,,
,,,,,,,
,,,,,,,
,,,,,,,
,,,,,,,
,,,,,,,
,,,,,,,
,,,,,,,
,,,,,,,
,,,,,,,
103. program,,,,,,Design.HoloStudio#program::,
"Design. HoloStudio is a creative app that is designed for anyone to easily tinker with, like a beefed up MS Paint. 
A palette of colors and shapes floats in front of the artist who can create simple or complex 3-D models. 
Final designs can be ordered online, and a printed version of your 3-D purple skyscraper will be delivered to your door. 
  Virtual reality. At NASA's Jet Propulsion Laboratory, scientists regularly dig through images of Mars collected by the Curiosity Rover. 
They've collaborated with Microsoft to create a program that places them inside a 3-D rendering of Mars using HoloLens. 
Whether you look up or down, turn left or right, or walk forward or back, the landscape shifts accordingly so you feel like you're taking a stroll on the red planet. 
  The Mars demo was one of the few times I wished I was using full virtual reality goggles. 
They had reasons for wanted to keep reality involved -- JPL scientists are working not playing, 
and they need to use other tools like computers at the same time. But as impressive as it was, 
the mixed-reality version of Mars looked thin and desaturated.",方案,议程,日程,节目,编程,程序,应用程式
,,,,,,,
,秩序册,计划,规划,,,,
,,,,,,,
,,,,,,,
,,,,,,,
,,,,,,,
,,,,,,,
,,,,,,,
,,,,,,,
,,,,,,,
,,,,,,,
,,,,,,,
,,,,,,,
,,,,,,,
,,,,,,,
,,,,,,,
104. left,,,,,,Design.HoloStudio#left::,
"Design. HoloStudio is a creative app that is designed for anyone to easily tinker with, like a beefed up MS Paint. 
A palette of colors and shapes floats in front of the artist who can create simple or complex 3-D models. 
Final designs can be ordered online, and a printed version of your 3-D purple skyscraper will be delivered to your door. 
  Virtual reality. At NASA's Jet Propulsion Laboratory, scientists regularly dig through images of Mars collected by the Curiosity Rover. 
They've collaborated with Microsoft to create a program that places them inside a 3-D rendering of Mars using HoloLens. 
Whether you look up or down, turn left or right, or walk forward or back, the landscape shifts accordingly so you feel like you're taking a stroll on the red planet. 
  The Mars demo was one of the few times I wished I was using full virtual reality goggles. 
They had reasons for wanted to keep reality involved -- JPL scientists are working not playing, 
and they need to use other tools like computers at the same time. But as impressive as it was, 
the mixed-reality version of Mars looked thin and desaturated.",左边,左面,向左,左侧,左,,
,1,,,,1,,
,,,,,,,
,,,,,,,
,,,,,,,
,,,,,,,
,,,,,,,
,,,,,,,
,,,,,,,
,,,,,,,
,,,,,,,
,,,,,,,
,,,,,,,
,,,,,,,
,,,,,,,
,,,,,,,
,,,,,,,
105. right,,,,,,Design.HoloStudio#right::,
"Design. HoloStudio is a creative app that is designed for anyone to easily tinker with, like a beefed up MS Paint. 
A palette of colors and shapes floats in front of the artist who can create simple or complex 3-D models. 
Final designs can be ordered online, and a printed version of your 3-D purple skyscraper will be delivered to your door. 
  Virtual reality. At NASA's Jet Propulsion Laboratory, scientists regularly dig through images of Mars collected by the Curiosity Rover. 
They've collaborated with Microsoft to create a program that places them inside a 3-D rendering of Mars using HoloLens. 
Whether you look up or down, turn left or right, or walk forward or back, the landscape shifts accordingly so you feel like you're taking a stroll on the red planet. 
  The Mars demo was one of the few times I wished I was using full virtual reality goggles. 
They had reasons for wanted to keep reality involved -- JPL scientists are working not playing, 
and they need to use other tools like computers at the same time. But as impressive as it was, 
the mixed-reality version of Mars looked thin and desaturated.",纠正,向右,直接地,权利,是,然,权
,,1,,,,,
,合适的,正义,当,顒,拨正,直的,合理的
,,,,,,,
,有方,右方的,不错,韪,右,右边,对
,,,,,1,1,
,直接,在理,,,,,
,,,,,,,
,,,,,,,
,,,,,,,
,,,,,,,
,,,,,,,
,,,,,,,
,,,,,,,
,,,,,,,
,,,,,,,
,,,,,,,
106. light,,,,,,TheMars2#light::,
"The Mars demo was one of the few times I wished I was using full virtual reality goggles. 
They had reasons for wanted to keep reality involved -- JPL scientists are working not playing, 
and they need to use other tools like computers at the same time. But as impressive as it was, 
the mixed-reality version of Mars looked thin and desaturated.   Full and partial virtual reality look different because of the underlying technology. 
HoloLens doesn't display images on any screen, but projects light directly onto the retina, 
imitating the way light travels from real objects. The augmented view is contained in a rectangle directly in front of your face. 
Oculus Rift shows its images on a screen in front of the eyes and extends farther out and around for a more encompassing view. 
  The virtual reality space is still mostly filled with buzz and not-ready-for-prime-time products. 
But VR has been anointed the next big thing by a tech industry hungry for something fresh and exciting to woo customers.",薄,明亮,明亮的,轻便,阳光,朗,暘
,,,,,,,
,粗心,轻微,生,脚灯,忧,点燃,纾缓
,,,,,,,
,亮,昱,燃点,暲,燃放,点,光纤
,,,,,,,
,发光体,燃,浅,灯光,光,晔,轻浮
,,,,1,1,,
,淡,圣光,晢,淡薄,荧,嫩,轻飘
,,,,,,,
,灯,娇嫩,发光,轻,烺,,
,,,,,,,
,,,,,,,
,,,,,,,
,,,,,,,
,,,,,,,
,,,,,,,
107. space,,,,,,Fulland#space::,
"Full and partial virtual reality look different because of the underlying technology. 
HoloLens doesn't display images on any screen, but projects light directly onto the retina, 
imitating the way light travels from real objects. The augmented view is contained in a rectangle directly in front of your face. 
Oculus Rift shows its images on a screen in front of the eyes and extends farther out and around for a more encompassing view. 
  The virtual reality space is still mostly filled with buzz and not-ready-for-prime-time products. 
But VR has been anointed the next big thing by a tech industry hungry for something fresh and exciting to woo customers. 
  Overlaying digital 3-D creations onto the real world is cool, but are there practical uses are there for this type of technology?",间距,间隙,场地,篇幅,宇宙的,空间,空地
,,,,,,1,
,,,,,,,
,,,,,,,
,,,,,,,
,,,,,,,
,,,,,,,
,,,,,,,
,,,,,,,
,,,,,,,
,,,,,,,
,,,,,,,
,,,,,,,
,,,,,,,
,,,,,,,
,,,,,,,
,,,,,,,
108. far,,,,,,Thevirtual#far::,
"The virtual reality space is still mostly filled with buzz and not-ready-for-prime-time products. 
But VR has been anointed the next big thing by a tech industry hungry for something fresh and exciting to woo customers. 
  Overlaying digital 3-D creations onto the real world is cool, but are there practical uses are there for this type of technology?   Microsoft hopes so. 
HoloLens was by far the most interesting announcement at a daylong event for Windows 10, 
and one Microsoft believes can help get customers excited about its products again.",遥,远,嘏,逖,,,
,,,,,,,
,,,,,,,
,,,,,,,
,,,,,,,
,,,,,,,
,,,,,,,
,,,,,,,
,,,,,,,
,,,,,,,
,,,,,,,
,,,,,,,
,,,,,,,
,,,,,,,
,,,,,,,
,,,,,,,
,,,,,,,
109. little,,,,,,ButAtlanta's#little::,
"But Atlanta's Hartsfield-Jackson remains No. 1 in annual passenger traffic. Spokesman Reese McCranie said the airport is projected to top 96 million passengers for 2014, 
compared with O'Hare, which handled 66.7 million in 2013. That put O'Hare in fifth place globally for passengers. 
 ""With our friends in Chicago, it's always a little bit of friendly rivalry,"" McCranie said. 
""Our operations folks are probably getting ribbed by their operations folks for edging us out. But you know, 
we're all one aviation system, so when O'Hare does well, other airports -- including ours -- do well."" ATL24: A day in the life of the world's busiest airport",短的,些少,蝇头,短时间,微小,小量的,小
,,1,,,,,
,少,不足的,鲜,少量,细小,,
,,,,,,,
,,,,,,,
,,,,,,,
,,,,,,,
,,,,,,,
,,,,,,,
,,,,,,,
,,,,,,,
,,,,,,,
,,,,,,,
,,,,,,,
,,,,,,,
,,,,,,,
,,,,,,,
110. small,,,,,,Thedriver#small::,
"The driver cheerfully ignores the doctor's pleas and continues to take the corners at a clip, 
smoking all the while and occasionally breaking into wailed bursts of Kurdish folk song.  We're traveling from Sanandaj, 
the capital of Iran's Kurdistan province, to Marivan, a small city just a few kilometers from the border with Iraq. 
It's the final day of Nowruz, the Iranian new year, and my companions, a doctor called Ghaffar and a taxi driver named Jahan -- both from Sanandaj -- are still on holiday.",辁,蝇头,幺,薄,微小,裨,戋
,,,,,,,
,蕞尔,细小,小,芮,少,藐,嘒
,,,1,,,,
,怍,謏,小号,区,蕞,芾,
,,,,,,,
,,,,,,,
,,,,,,,
,,,,,,,
,,,,,,,
,,,,,,,
,,,,,,,
,,,,,,,
,,,,,,,
,,,,,,,
,,,,,,,
,,,,,,,
111. right,,,,,,Ina#right::,
"In a typical display of Iranian hospitality, they've offered to accompany me on the journey. 
To the left of the narrow road is a vertical, sand-colored mountain wall.  To the right, 
a 50-foot drop and a view across the spectacular Howraman Valley, a sparsely populated and beautiful part of the region.",纠正,向右,直接地,权利,是,然,权
,,1,,,,,
,合适的,正义,当,顒,拨正,直的,合理的
,,,,,,,
,有方,右方的,不错,韪,右,右边,对
,,1,,,1,1,
,直接,在理,,,,,
,,,,,,,
,,,,,,,
,,,,,,,
,,,,,,,
,,,,,,,
,,,,,,,
,,,,,,,
,,,,,,,
,,,,,,,
,,,,,,,
112. edge,,,,,,Tothe#edge::,
"To the right, a 50-foot drop and a view across the spectacular Howraman Valley, a sparsely populated and beautiful part of the region. 
On the eastern edge of Iran, Kurdistan province makes up part of a broader Kurdish region, 
which also spans adjacent sections of Iraq, Syria and Turkey.  Over the border in Iraq, 
the territory has been targeted by the Islamic militant group known as ISIS, but Iranian Kurdistan remains unaffected, 
a peaceful world away from the violence.",刃,际,锋,使锐利,棱,边缘,埸
,,,,,,,
,边沿,镶,边,缘,塝,翼,镶边
,,,1,,,,
,,,,,,,
,,,,,,,
,,,,,,,
,,,,,,,
,,,,,,,
,,,,,,,
,,,,,,,
,,,,,,,
,,,,,,,
,,,,,,,
,,,,,,,
,,,,,,,
,,,,,,,
113. still,,,,,,Italso#still::,
"It also seems a world away from Iran.  Although we're still within Iran's borders, the Kurdistan region is quite different, 
and more traditionally Persian compared to the country's heartland. Colorful dress, 
religions at odds",安,侐,宓,仍然,尚,寂静,依然
,,,,1,,,1
,还是,安慰,静止,澶,犹,寂,安生
,,,,,,,
,但,仍,静,还,使 ... 安静,使 ... 放心,依旧
,,1,,,,,
,阒,更,恹,但是,,,
,,,,,,,
,,,,,,,
,,,,,,,
,,,,,,,
,,,,,,,
,,,,,,,
,,,,,,,
,,,,,,,
,,,,,,,
,,,,,,,
114. dress,,,,,,Italso#dress::,
"It also seems a world away from Iran.  Although we're still within Iran's borders, the Kurdistan region is quite different, 
and more traditionally Persian compared to the country's heartland. Colorful dress, 
religions at odds",服装,衣,装,覆盖物,穿戴,服,连衣裙
,,,,,,,1
,看齐,服饰,修整,穿着,,,
,,,,,,,
,,,,,,,
,,,,,,,
,,,,,,,
,,,,,,,
,,,,,,,
,,,,,,,
,,,,,,,
,,,,,,,
,,,,,,,
,,,,,,,
,,,,,,,
,,,,,,,
,,,,,,,
115. way,,,,,,Culturallyand#way::,
"Culturally and linguistically, the residents here have more in common with their fellow Kurds across the border than with Iranians from Tehran, 
Esfahan or Shiraz. Dress is traditional: men sport baggy shalwar trousers, plain shirts and heavy felt waistcoats, 
while the women wear colorful dresses and headscarves rather than the black chador or hijab seen throughout much of the rest of Iran. 
On the way, we stop in a tiny village called Negel.",径,路径,办法,途,路上,非常,状态
,,,,1,1,,
,般,路线,样,方,途径,方法,作法
,,,,,,,
,繇,中途,道,道路,作风,路,迳
,,1,,,,,
,法,,,,,,
,,,,,,,
,,,,,,,
,,,,,,,
,,,,,,,
,,,,,,,
,,,,,,,
,,,,,,,
,,,,,,,
,,,,,,,
,,,,,,,
116. head,,,,,,Afew#head::,
"A few days earlier, a Kurdish man in Sanandaj had told me that police had forcibly removed a satellite dish from his roof to prevent him receiving Kurdish television channels. 
 Another had pointed at a photo of a Shia cleric in my guidebook and shaken his head, saying ""Not good, not good."" After Negel, 
the road winds through snow-capped mountains and then drops down into the village of Howraman-at-Takht.",魁,养,首领,领袖,率领,主任,羑
,,,,,,,
,首脑,头,头部,首,前进,总,为首
,,1,,,,,
,长,督办,,,,,
